# Basis size = 385
0,0,2.0716123255636754e-06
0,3,6.101208665741115e-05
0,5,6.140301490296762e-06
0,11,8.378446826382093e-05
0,14,7.61983391904033e-06
0,20,4.2550358735693736e-05
0,26,3.3917140582043335e-05
0,30,6.3295121580713485e-06
0,36,2.6213657602750653e-05
0,42,2.784704502827248e-05
0,50,6.657656071874743e-06
0,55,5.118613109824337e-06
0,61,1.819102338703136e-05
0,67,2.220311282768887e-05
0,75,6.698942588334354e-06
0,85,7.841358566149083e-07
0,91,4.191313590805945e-06
0,97,1.3603662908152657e-05
0,103,1.8006280959351335e-05
0,111,6.04006578167717e-06
0,121,8.995769301759172e-07
0,133,6.233992906639848e-08
0,140,3.494938236501472e-06
0,146,1.0695175441756605e-05
0,152,1.4913330263134824e-05
0,160,5.313184476153552e-06
0,170,8.855109936529646e-07
0,182,7.896366403788584e-08
0,204,2.964163584055989e-06
0,210,8.711992946826942e-06
0,216,1.2588155020729826e-05
0,224,4.659725412913853e-06
0,234,8.290478708640934e-07
0,246,8.342575905233044e-08
0,285,2.5516111627803925e-06
0,291,7.285650457947341e-06
0,297,1.0798509725868284e-05
0,305,4.102811799973195e-06
0,315,7.6151343394881e-07
0,327,8.233106174278318e-08
1,1,0.0023448740860277724
1,7,0.003389889392592483
1,16,0.002194329258874018
1,32,0.001494963381442077
1,57,0.001095631394193136
1,93,0.0008471633038265515
1,142,0.0006808583219480994
1,206,0.0005631478066188607
1,287,0.0004761765112642242
2,2,0.00010299564469458137
2,10,0.00032370944951151085
2,19,0.0001379064217625158
2,25,0.0002247769989873193
2,35,7.542189465658641e-05
2,41,0.00017833436405525541
2,49,6.664869322744756e-05
2,60,4.818216580406701e-05
2,66,0.0001394256313280927
2,74,6.623339116355946e-05
2,84,1.1041735911475372e-05
2,96,3.39733394035541e-05
2,102,0.0001116976452678422
2,110,5.926604108916714e-05
2,120,1.2594564656932775e-05
2,132,1.1768770672881115e-06
2,145,2.559107493684128e-05
2,151,9.176520820960144e-05
2,159,5.1874274800202035e-05
2,169,1.2351100068196326e-05
2,181,1.4861163443759349e-06
2,195,8.761621047652075e-08
2,209,2.0192739817827604e-05
2,215,7.702305623305278e-05
2,223,4.5337915873454886e-05
2,233,1.1533658330386878e-05
2,245,1.5667692186192183e-06
2,259,1.2009035202701603e-07
2,290,1.6483539462200213e-05
2,296,6.580451294378431e-05
2,304,3.982063836458226e-05
2,314,1.0574470483367176e-05
2,326,1.5438630345818474e-06
2,340,1.3457873519344093e-07
3,3,0.00391188291210418
3,5,0.0016714540727880089
3,11,0.007598530334626659
3,14,0.001299862330946922
3,20,0.003075166637353728
3,26,0.0039031390807594073
3,30,0.0009562454750821289
3,36,0.001615010265176624
3,42,0.003070307322281518
3,50,0.0009292198277232344
3,55,0.000730761111442257
3,61,0.000999489676812545
3,67,0.002388493951360679
3,75,0.0009207350545365719
3,85,0.00012965927467225368
3,91,0.0005796680295314267
3,97,0.0006875544061491514
3,103,0.0019074938914729338
3,111,0.0008223991842808776
3,121,0.0001477019945060816
3,133,1.2015301204961688e-05
3,140,0.0004737613430789549
3,146,0.0005080610211052241
3,152,0.0015638261523617
3,160,0.0007189776198884322
3,170,0.00014472397924919332
3,182,1.516230624542212e-05
3,196,7.982404336991437e-07
3,204,0.0003964335533440056
3,210,0.00039490856705133673
3,216,0.0013106795035798245
3,224,0.0006278706619590811
3,234,0.00013506662691810088
3,246,1.597789875081604e-05
3,260,1.0935899069483586e-06
3,276,3.8383675831255874e-08
3,285,0.0003380266516948355
3,291,0.0003185629222108134
3,297,0.0011185926390244504
3,305,0.0005511391286883511
3,315,0.00012378195054164152
3,327,1.573909487510166e-05
3,341,1.2255189229546726e-06
3,357,5.900036528652232e-08
4,4,0.00010299564469458137
4,12,0.00032370944951151085
4,21,0.0001379064217625158
4,27,0.0002247769989873193
4,37,7.542189465658643e-05
4,43,0.00017833436405525541
4,51,6.664869322744756e-05
4,62,4.8182165804067017e-05
4,68,0.0001394256313280927
4,76,6.623339116355946e-05
4,86,1.104173591147537e-05
4,98,3.3973339403554105e-05
4,104,0.0001116976452678422
4,112,5.926604108916714e-05
4,122,1.2594564656932772e-05
4,134,1.176877067288112e-06
4,147,2.5591074936841288e-05
4,153,9.176520820960147e-05
4,161,5.187427480020203e-05
4,171,1.2351100068196323e-05
4,183,1.4861163443759349e-06
4,197,8.761621047652078e-08
4,211,2.0192739817827608e-05
4,217,7.702305623305281e-05
4,225,4.5337915873454886e-05
4,235,1.1533658330386878e-05
4,247,1.5667692186192183e-06
4,261,1.2009035202701605e-07
4,292,1.6483539462200213e-05
4,298,6.580451294378431e-05
4,306,3.982063836458225e-05
4,316,1.0574470483367176e-05
4,328,1.5438630345818476e-06
4,342,1.3457873519344096e-07
5,5,0.0016690152975375047
5,11,0.004737894221104411
5,14,0.0010840604418681308
5,20,0.0013043885012440362
5,26,0.0030374420695100644
5,30,0.000738482945779686
5,36,0.0004313787547500674
5,42,0.002274343480854441
5,50,0.0008513955294293815
5,55,0.0005408459387697085
5,61,0.00014218320661381096
5,67,0.0017178334962300015
5,75,0.0008304107164050985
5,85,0.00013576327722066933
5,91,0.0004179094500057269
5,97,2.9873305054129364e-05
5,103,0.0013462324186298501
5,111,0.0007345060716444097
5,121,0.00015361323097262152
5,133,1.4118527732340672e-05
5,140,0.00033568391048366067
5,152,0.0010897178705602819
5,160,0.0006380061482415151
5,170,0.00014985011191842956
5,182,1.7755920817950737e-05
5,196,1.0444478691912984e-06
5,204,0.0002775278285758352
5,216,0.0009051658007902891
5,224,0.0005546713140560848
5,234,0.00013942324915227613
5,246,1.866713826207668e-05
5,260,1.4238243360589834e-06
5,276,5.139993469570676e-08
5,285,0.00023458670161303878
5,297,0.0007674770322653734
5,305,0.0004853162092824055
5,315,0.00012749374787311745
5,327,1.8357251992017704e-05
5,341,1.5935995303986474e-06
5,357,7.86734396084512e-08
6,6,0.00015697472379571538
6,15,9.245208905100744e-05
6,31,5.994553929229195e-05
6,56,4.264172227351769e-05
6,92,3.234098670007191e-05
6,141,2.5652620779353206e-05
6,205,2.1020689585542882e-05
6,286,1.765330533435518e-05
7,7,0.00726770732830075
7,16,0.004167586380526567
7,32,0.0026616306515859414
7,57,0.0018754305714276007
7,93,0.001413462849358239
7,142,0.0011162722857720763
7,206,0.0009118584711322765
7,287,0.0007640119247189557
8,8,0.00015697472379571538
8,17,9.245208905100744e-05
8,33,5.994553929229195e-05
8,58,4.264172227351769e-05
8,94,3.234098670007191e-05
8,143,2.5652620779353206e-05
8,207,2.1020689585542882e-05
8,288,1.765330533435518e-05
9,9,2.8948558340838415e-05
9,18,1.143045654557476e-05
9,24,3.3825890614674907e-05
9,34,5.884967286911775e-06
9,40,2.6488772464138405e-05
9,48,1.4153205649376653e-05
9,59,3.583886085953718e-06
9,65,2.0552821258841425e-05
9,73,1.4000285685356817e-05
9,83,3.056625200289236e-06
9,95,2.433557448023033e-06
9,101,1.63870865206279e-05
9,109,1.2492083009041808e-05
9,119,3.4791452258170297e-06
9,131,4.0511771400625326e-07
9,144,1.779635677680231e-06
9,150,1.3419915838203077e-05
9,158,1.0913176666157147e-05
9,168,3.407191743641139e-06
9,180,5.110069790093558e-07
9,194,2.919624008447446e-08
9,208,1.3717847267804193e-06
9,214,1.1239031024792538e-05
9,222,9.52582505506345e-06
9,232,3.178672037022275e-06
9,244,5.383336995449142e-07
9,258,3.999527431715362e-08
9,289,1.0988561929497671e-06
9,295,9.58664703116957e-06
9,303,8.358954593740475e-06
9,313,2.912335156846007e-06
9,325,5.301765606363591e-07
9,339,5.148246283520872e-08
10,10,0.001190530887789768
10,19,0.00044330332009024314
10,25,0.0009193285000270639
10,35,0.0002166510574644315
10,41,0.0007134234871522915
10,49,0.0002968854765272675
10,60,0.00012607908251881827
10,66,0.0005506110947809369
10,74,0.00029278232381554437
10,84,5.298430071623805e-05
10,96,8.23610620314596e-05
10,102,0.00043753418264348416
10,110,0.00026075048972163913
10,120,6.022763167554591e-05
10,132,6.04441697209115e-06
10,145,5.8302887211371215e-05
10,151,0.00035750820774173146
10,159,0.00022752251906257433
10,169,5.892993053706882e-05
10,181,7.618500363874264e-06
10,195,4.800918940198943e-07
10,209,4.3739670965818336e-05
10,215,0.0002989367113869786
10,223,0.00019842796995902712
10,233,5.494401137727419e-05
10,245,8.02195650245509e-06
10,259,6.58620641537329e-07
10,275,1.07496060455827e-08
10,290,3.4266253574207185e-05
10,296,0.00025469388395616674
10,304,0.0001740119731983995
10,314,5.031778062648855e-05
10,326,7.897612124667846e-06
10,340,7.375093032869939e-07
10,356,3.478831794282683e-08
11,11,0.01716304036569546
11,14,0.0033628541755954134
11,20,0.006016827043330812
11,26,0.009771076218057331
11,30,0.0023854952906254855
11,36,0.0027724175585555314
11,42,0.007516178303437558
11,50,0.002528426789681796
11,55,0.0017878075057056724
11,61,0.0015244912159680015
11,67,0.005770782014869344
11,75,0.0024861668315930576
11,85,0.0003796299428193229
11,91,0.0014015249645867416
11,97,0.0009443812407420101
11,103,0.004570531460050949
11,111,0.002210155362352143
11,121,0.00043096707719980165
11,133,3.7625760913214036e-05
11,140,0.0011366706177349476
11,146,0.0006368386161774995
11,152,0.003726299045981787
11,160,0.0019262075610812104
11,170,0.0004213249926523412
11,182,4.739515590683302e-05
11,196,2.6638786367094126e-06
11,204,0.0009461025577745817
11,210,0.00045736948375807527
11,216,0.0031109663172090318
11,224,0.0016785029758180838
11,234,0.00039259837651146596
11,246,4.9882446786551164e-05
11,260,3.645352507004899e-06
11,276,1.4291217083898776e-07
11,285,0.0008036386135305419
11,291,0.00034469569047776113
11,297,0.002647544860683866
11,305,0.0014710906489332502
11,315,0.00035939510368756356
11,327,4.909326380715522e-05
11,341,4.08090029116253e-06
11,357,2.1019419474563693e-07
12,12,0.0011905308877897683
12,21,0.0004433033200902433
12,27,0.0009193285000270641
12,37,0.00021665105746443157
12,43,0.0007134234871522915
12,51,0.00029688547652726756
12,62,0.0001260790825188183
12,68,0.0005506110947809371
12,76,0.0002927823238155444
12,86,5.298430071623805e-05
12,98,8.236106203145965e-05
12,104,0.0004375341826434842
12,112,0.0002607504897216392
12,122,6.022763167554593e-05
12,134,6.044416972091151e-06
12,147,5.830288721137124e-05
12,153,0.00035750820774173157
12,161,0.00022752251906257438
12,171,5.892993053706882e-05
12,183,7.6185003638742665e-06
12,197,4.800918940198944e-07
12,211,4.373967096581835e-05
12,217,0.00029893671138697865
12,225,0.0001984279699590272
12,235,5.494401137727419e-05
12,247,8.021956502455091e-06
12,261,6.586206415373293e-07
12,277,1.07496060455827e-08
12,292,3.4266253574207205e-05
12,298,0.0002546938839561668
12,306,0.0001740119731983995
12,316,5.031778062648855e-05
12,328,7.897612124667846e-06
12,342,7.375093032869942e-07
12,358,3.4788317942826833e-08
13,13,2.894855834083842e-05
13,22,1.1430456545574763e-05
13,28,3.3825890614674907e-05
13,38,5.884967286911775e-06
13,44,2.6488772464138408e-05
13,52,1.4153205649376651e-05
13,63,3.5838860859537196e-06
13,69,2.0552821258841425e-05
13,77,1.4000285685356817e-05
13,87,3.056625200289237e-06
13,99,2.433557448023033e-06
13,105,1.6387086520627903e-05
13,113,1.2492083009041808e-05
13,123,3.47914522581703e-06
13,135,4.051177140062534e-07
13,148,1.7796356776802316e-06
13,154,1.3419915838203077e-05
13,162,1.0913176666157147e-05
13,172,3.4071917436411395e-06
13,184,5.11006979009356e-07
13,198,2.9196240084474456e-08
13,212,1.3717847267804197e-06
13,218,1.123903102479254e-05
13,226,9.52582505506345e-06
13,236,3.178672037022276e-06
13,248,5.383336995449143e-07
13,262,3.999527431715362e-08
13,293,1.0988561929497671e-06
13,299,9.58664703116957e-06
13,307,8.358954593740475e-06
13,317,2.9123351568460077e-06
13,329,5.301765606363591e-07
13,343,5.148246283520872e-08
14,14,0.0007349413697812711
14,20,0.0010460212342126472
14,26,0.0020402697975368386
14,30,0.000510987588533074
14,36,0.0004162253405556536
14,42,0.0015499221487421282
14,50,0.0005477095998539303
14,55,0.0003786656807185833
14,61,0.000191508333836747
14,67,0.0011808711343228248
14,75,0.0005368026433790643
14,85,8.408698460098165e-05
14,91,0.00029477170295355614
14,97,9.56012879776931e-05
14,103,0.0009305941467774516
14,111,0.00047622934821989253
14,121,9.535276446006772e-05
14,133,8.440604574053894e-06
14,140,0.0002379528960001662
14,146,4.948009212458602e-05
14,152,0.0007561186096930825
14,160,0.0004144789328905428
14,170,9.315128485781239e-05
14,182,1.0627781736942667e-05
14,196,6.043156275789375e-07
14,204,0.0001974141219844862
14,210,2.5390980430955974e-05
14,216,0.0006297352918777197
14,224,0.0003608335838648405
14,234,8.675596526919199e-05
14,246,1.1182312928087865e-05
14,260,8.234812895433271e-07
14,285,0.00016729176558748045
14,291,1.2055401125178138e-05
14,297,0.0005349800830747452
14,305,0.00031602685064976266
14,315,7.938958456561424e-05
14,327,1.1003116708511763e-05
14,341,9.219694696383758e-07
14,357,2.5172105186955553e-08
15,15,5.705956042457624e-05
15,31,3.7932777394338195e-05
15,56,2.739521394399358e-05
15,92,2.0983087212679318e-05
15,141,1.6756006554642673e-05
15,205,1.3796232290527574e-05
15,286,1.162680239807806e-05
16,16,0.002509403158278141
16,32,0.0016462144213014633
16,57,0.0011793162306116493
16,93,0.0008985378186832405
16,142,0.0007149432227123452
16,206,0.0005871517328397233
16,287,0.0004938942786067735
17,17,5.705956042457624e-05
17,33,3.7932777394338195e-05
17,58,2.739521394399358e-05
17,94,2.0983087212679318e-05
17,143,1.6756006554642673e-05
17,207,1.3796232290527574e-05
17,288,1.162680239807806e-05
18,18,5.119003212481712e-06
18,24,1.2011763597952866e-05
18,34,2.8925125059054615e-06
18,40,9.653860346080217e-06
18,48,4.5416809527948485e-06
18,59,1.890522248510564e-06
18,65,7.6025696122935e-06
18,73,4.5409518851107945e-06
18,83,8.844392751043806e-07
18,95,1.3554323440866629e-06
18,101,6.1169583007013416e-06
18,109,4.078349866372536e-06
18,119,1.012729016601407e-06
18,131,1.0565136140187159e-07
18,144,1.0338702627174279e-06
18,150,5.039697289808671e-06
18,158,3.578205908349257e-06
18,168,9.954521157028964e-07
18,180,1.3374496757690196e-07
18,208,8.226477380695763e-07
18,214,4.238417022243656e-06
18,222,3.1324537409025682e-06
18,232,9.307920584930329e-07
18,244,1.405996712186705e-07
18,258,1.1118882216775394e-08
18,289,6.770840140789104e-07
18,295,3.6262169762675005e-06
18,303,2.7544974902055152e-06
18,313,8.543529953662883e-07
18,325,1.3934803071441836e-07
18,339,1.1627881229901049e-08
19,19,0.00019151073615910225
19,25,0.0003056418796978475
19,35,0.00010528644441425954
19,41,0.000244260348758699
19,49,8.853050476779048e-05
19,60,6.741186692401555e-05
19,66,0.0001916995428270792
19,74,8.836722008893391e-05
19,84,1.4128938911487769e-05
19,96,4.758161791138255e-05
19,102,0.00015392343504854646
19,110,7.927912573015929e-05
19,120,1.6163897089027e-05
19,132,1.4296685946602245e-06
19,145,3.5860370458057404e-05
19,151,0.0001266388567704734
19,159,6.950853082130404e-05
19,169,1.5881835455491435e-05
19,181,1.8094755888410929e-06
19,195,9.95924678114113e-08
19,209,2.830328148253518e-05
19,215,0.0001063988587113537
19,223,6.0820211025699394e-05
19,233,1.4850124766329662e-05
19,245,1.910511471501981e-06
19,259,1.3673316362033564e-07
19,290,2.310709982279963e-05
19,296,9.096540929672585e-05
19,304,5.3462705061704825e-05
19,314,1.3627828145779666e-05
19,326,1.884574101941445e-06
19,340,1.53416752817685e-07
20,20,0.0025128149139849267
20,26,0.0030340860917304146
20,30,0.0007787893331258088
20,36,0.0013441292923688573
20,42,0.0024127590838394133
20,50,0.0006984306354263423
20,55,0.0005988376948860466
20,61,0.0008422308627925124
20,67,0.0018879745499868002
20,75,0.0006961796898709009
20,85,9.290961471521767e-05
20,91,0.00047675027841251663
20,97,0.0005845763751277939
20,103,0.0015130722204617904
20,111,0.000624039932311978
20,121,0.00010624568264377683
20,133,8.078164926210653e-06
20,140,0.00039055380164925774
20,146,0.00043485565305605877
20,152,0.001243288461072289
20,160,0.0005468158501372681
20,170,0.00010436182172787525
20,182,1.0222098946321043e-05
20,196,4.935952415492218e-07
20,204,0.00032732408944074646
20,210,0.00033973146334890315
20,216,0.0010436515488808809
20,224,0.0004782734719756628
20,234,9.756279310558622e-05
20,246,1.0792181308392227e-05
20,260,6.777480233210331e-07
20,276,2.137092455097552e-08
20,285,0.00027941283759793495
20,291,0.0002751396868547015
20,297,0.0008916895531713251
20,305,0.00042029361048297496
20,315,8.951953784215022e-05
20,327,1.0645162025267017e-05
20,341,7.604494118938893e-07
20,357,3.223257164986901e-08
21,21,0.00019151073615910236
21,27,0.00030564187969784755
21,37,0.00010528644441425955
21,43,0.0002442603487586991
21,51,8.853050476779048e-05
21,62,6.741186692401556e-05
21,68,0.00019169954282707922
21,76,8.836722008893391e-05
21,86,1.4128938911487769e-05
21,98,4.758161791138256e-05
21,104,0.00015392343504854651
21,112,7.92791257301593e-05
21,122,1.6163897089027003e-05
21,134,1.429668594660225e-06
21,147,3.5860370458057425e-05
21,153,0.00012663885677047343
21,161,6.950853082130404e-05
21,171,1.5881835455491435e-05
21,183,1.8094755888410933e-06
21,197,9.959246781141137e-08
21,211,2.830328148253519e-05
21,217,0.00010639885871135371
21,225,6.0820211025699394e-05
21,235,1.4850124766329662e-05
21,247,1.9105114715019813e-06
21,261,1.3673316362033572e-07
21,292,2.310709982279963e-05
21,298,9.096540929672587e-05
21,306,5.3462705061704825e-05
21,316,1.362782814577967e-05
21,328,1.8845741019414457e-06
21,342,1.5341675281768509e-07
22,22,5.1190032124817125e-06
22,28,1.201176359795287e-05
22,38,2.8925125059054623e-06
22,44,9.653860346080217e-06
22,52,4.5416809527948485e-06
22,63,1.890522248510564e-06
22,69,7.602569612293501e-06
22,77,4.5409518851107945e-06
22,87,8.844392751043809e-07
22,99,1.3554323440866633e-06
22,105,6.1169583007013416e-06
22,113,4.078349866372536e-06
22,123,1.012729016601407e-06
22,135,1.0565136140187159e-07
22,148,1.033870262717428e-06
22,154,5.039697289808671e-06
22,162,3.578205908349257e-06
22,172,9.954521157028964e-07
22,184,1.33744967576902e-07
22,212,8.226477380695763e-07
22,218,4.238417022243656e-06
22,226,3.1324537409025682e-06
22,236,9.307920584930331e-07
22,248,1.4059967121867053e-07
22,262,1.111888221677539e-08
22,293,6.770840140789104e-07
22,299,3.6262169762675005e-06
22,307,2.7544974902055152e-06
22,317,8.543529953662888e-07
22,329,1.3934803071441836e-07
22,343,1.1627881229901047e-08
23,23,9.972033116027427e-07
23,39,7.757955003080381e-07
23,47,6.535682656514039e-07
23,64,5.99602423114315e-07
23,72,6.449912979897872e-07
23,82,1.874836440348965e-07
23,100,4.771531029835969e-07
23,108,5.746779866713286e-07
23,118,2.13523785504212e-07
23,130,2.727779415403532e-08
23,149,3.9010887437677e-07
23,157,5.016587850420647e-07
23,167,2.0865604940205595e-07
23,179,3.4426028125544016e-08
23,213,3.2638384036156924e-07
23,221,4.3759743303766306e-07
23,231,1.8783512764072272e-07
23,243,3.628043395185334e-08
23,294,2.771762330452562e-07
23,302,3.838083376786385e-07
23,312,1.7825382458518444e-07
23,324,3.574022775578533e-08
24,24,4.258859381388523e-05
24,34,5.610252564958233e-06
24,40,3.281154770355555e-05
24,48,1.8916062951888165e-05
24,59,3.1275370325211745e-06
24,65,2.5215860475411344e-05
24,73,1.8608043950271454e-05
24,83,4.302901544170915e-06
24,95,1.9635660165321236e-06
24,101,1.9983326444879576e-05
24,109,1.65467147300734e-05
24,119,4.8851459132180034e-06
24,131,5.968317437442727e-07
24,144,1.3411253754275126e-06
24,150,1.629896254460303e-05
24,158,1.442361995170473e-05
24,168,4.776352837515234e-06
24,180,7.522649985949479e-07
24,194,4.760079950712224e-08
24,208,9.746289879427966e-07
24,214,1.3611399542248218e-05
24,222,1.2569180938079816e-05
24,232,4.451017955262976e-06
24,244,7.91787395025063e-07
24,258,6.866760521044084e-08
24,289,7.425504592840039e-07
24,295,1.1585815027643413e-05
24,303,1.1017018426652107e-05
24,313,4.075156787579541e-06
24,325,7.792913893598386e-07
24,339,7.978059409000941e-08
25,25,0.0007626422171120012
25,35,0.0001330734911855189
25,41,0.0005821945280890648
25,49,0.0002609190390448531
25,60,6.88624286259587e-05
25,66,0.0004449858132087248
25,74,0.00025588956325665516
25,84,4.897877801266636e-05
25,96,4.002672951609475e-05
25,102,0.00035141831890969584
25,110,0.00022711500279457686
25,120,5.5536615786583344e-05
25,132,5.851513623072897e-06
25,145,2.528781715281406e-05
25,151,0.0002859600656235293
25,159,0.00019772675842743314
25,169,5.425218120738216e-05
25,181,7.366269064174564e-06
25,195,4.838642594393281e-07
25,209,1.7011406941545487e-05
25,215,0.00023841582254322793
25,223,0.00017217322668858624
25,233,5.052626831639883e-05
25,245,7.749541285434331e-06
25,259,6.629815163244453e-07
25,290,1.2018868296124018e-05
25,296,0.0002027007078440839
25,304,0.00015081798628226647
25,314,4.623541717166211e-05
25,326,7.624602181685223e-06
25,340,7.431026062201277e-07
25,356,3.571428896778344e-08
26,26,0.005968317074688787
26,30,0.0014119399368226133
26,36,0.0012164970079554375
26,42,0.0045158031984863425
26,50,0.0016358358958159375
26,55,0.0010435805891092058
26,61,0.0005682367920467907
26,67,0.0034332264925651854
26,75,0.0015996328024878773
26,85,0.00025847795140381723
26,91,0.0008110738961449504
26,97,0.0002906029599205173
26,103,0.002702155423570398
26,111,0.001417196228475081
26,121,0.0002927142660127565
26,133,2.6858880865911374e-05
26,140,0.0006540485080369989
26,146,0.0001562266782290437
26,152,0.002193748814221766
26,160,0.0012323457309009833
26,170,0.0002857067292789072
26,182,3.3789682998229525e-05
26,196,1.990173315908994e-06
26,204,0.000542229544357522
26,210,8.538354353471967e-05
26,216,0.0018260583106909972
26,224,0.0010721954696613978
26,234,0.000265932369146447
26,246,3.553201549991637e-05
26,260,2.7200928721478267e-06
26,276,1.0852737516788005e-07
26,285,0.0004592545666683754
26,291,4.566766396997214e-05
26,297,0.0015506838067396538
26,305,0.0009386486212631426
26,315,0.00024324818879510455
26,327,3.4948042325088426e-05
26,341,3.043515557340423e-06
26,357,1.629443258727869e-07
27,27,0.0007626422171120013
27,37,0.0001330734911855189
27,43,0.000582194528089065
27,51,0.0002609190390448531
27,62,6.886242862595872e-05
27,68,0.0004449858132087248
27,76,0.00025588956325665516
27,86,4.8978778012666354e-05
27,98,4.0026729516094756e-05
27,104,0.00035141831890969584
27,112,0.00022711500279457686
27,122,5.5536615786583344e-05
27,134,5.851513623072898e-06
27,147,2.528781715281406e-05
27,153,0.0002859600656235293
27,161,0.00019772675842743314
27,171,5.425218120738216e-05
27,183,7.366269064174566e-06
27,197,4.838642594393283e-07
27,211,1.7011406941545498e-05
27,217,0.00023841582254322796
27,225,0.00017217322668858622
27,235,5.052626831639883e-05
27,247,7.749541285434331e-06
27,261,6.629815163244454e-07
27,292,1.2018868296124023e-05
27,298,0.0002027007078440839
27,306,0.00015081798628226642
27,316,4.623541717166211e-05
27,328,7.624602181685224e-06
27,342,7.431026062201278e-07
27,358,3.571428896778345e-08
28,28,4.258859381388523e-05
28,38,5.610252564958233e-06
28,44,3.281154770355555e-05
28,52,1.8916062951888165e-05
28,63,3.1275370325211745e-06
28,69,2.5215860475411344e-05
28,77,1.8608043950271454e-05
28,87,4.302901544170916e-06
28,99,1.9635660165321236e-06
28,105,1.9983326444879576e-05
28,113,1.65467147300734e-05
28,123,4.8851459132180034e-06
28,135,5.968317437442727e-07
28,148,1.341125375427513e-06
28,154,1.629896254460303e-05
28,162,1.442361995170473e-05
28,172,4.776352837515234e-06
28,184,7.522649985949479e-07
28,198,4.760079950712224e-08
28,212,9.746289879427968e-07
28,218,1.3611399542248218e-05
28,226,1.2569180938079816e-05
28,236,4.451017955262977e-06
28,248,7.917873950250629e-07
28,262,6.866760521044084e-08
28,293,7.425504592840039e-07
28,299,1.1585815027643413e-05
28,307,1.1017018426652106e-05
28,317,4.075156787579542e-06
28,329,7.792913893598386e-07
28,343,7.97805940900094e-08
29,29,9.972033116027425e-07
29,45,7.757955003080378e-07
29,53,6.535682656514039e-07
29,70,5.99602423114315e-07
29,78,6.449912979897871e-07
29,88,1.874836440348965e-07
29,106,4.771531029835969e-07
29,114,5.746779866713287e-07
29,124,2.13523785504212e-07
29,136,2.727779415403532e-08
29,155,3.9010887437677e-07
29,163,5.016587850420646e-07
29,173,2.0865604940205595e-07
29,185,3.442602812554401e-08
29,219,3.2638384036156924e-07
29,227,4.3759743303766306e-07
29,237,1.878351276407227e-07
29,249,3.628043395185334e-08
29,300,2.771762330452562e-07
29,308,3.838083376786383e-07
29,318,1.7825382458518444e-07
29,330,3.574022775578533e-08
30,30,0.00035860741468456093
30,36,0.0003289304690469937
30,42,0.0010797930120001473
30,50,0.0003712079222761972
30,55,0.0002671459629646136
30,61,0.0001635714946367302
30,67,0.0008259402600507496
30,75,0.0003646870948659202
30,85,5.589519702734713e-05
30,91,0.0002086407299223615
30,97,9.058277404171627e-05
30,103,0.0006525244795621588
30,111,0.0003240118187160324
30,121,6.345679141424101e-05
30,133,5.5053511164428694e-06
30,140,0.00016878994040591766
30,146,5.406549003439034e-05
30,152,0.0005310792805740273
30,160,0.00028227147378984303
30,170,6.203816941772734e-05
30,182,6.936263833263434e-06
30,196,3.879964722531377e-07
30,204,0.0001402467168170006
30,210,3.4068386009015353e-05
30,216,0.00044283508865233936
30,224,0.00024590179874222517
30,234,5.7808727819032554e-05
30,246,7.301416695074534e-06
30,260,5.279974792757958e-07
30,285,0.00011897719257674658
30,291,2.234857495465575e-05
30,297,0.00037652708073501685
30,305,0.00021547000306439853
30,315,5.291968507941505e-05
30,327,7.186693564681802e-06
30,341,5.906966374102817e-07
31,31,2.5539122094141492e-05
31,56,1.858296742306644e-05
31,92,1.4301626097477758e-05
31,141,1.1457377878096022e-05
31,205,9.455176711680796e-06
31,286,7.981604338943064e-06
32,32,0.0010951569083749054
32,57,0.0007911465804351421
32,93,0.000606047432693433
32,142,0.0004839872515897873
32,206,0.0003985106990237877
32,287,0.00033585297217630916
33,33,2.5539122094141492e-05
33,58,1.858296742306644e-05
33,94,1.4301626097477758e-05
33,143,1.1457377878096022e-05
33,207,9.455176711680796e-06
33,288,7.981604338943064e-06
34,34,1.7320659042181257e-06
34,40,4.62239048742884e-06
34,48,1.8979925963040043e-06
34,59,1.1771411996826543e-06
34,65,3.6897046838539436e-06
34,73,1.921601068731539e-06
34,83,3.227851316509928e-07
34,95,8.668012394838244e-07
34,101,2.9934845368752417e-06
34,109,1.738749879422868e-06
34,119,3.725738614773989e-07
34,131,3.304513840668174e-08
34,144,6.736262008338114e-07
34,150,2.4796540677613552e-06
34,158,1.5330861608113675e-06
34,168,3.681776180176229e-07
34,180,4.2191681266459624e-08
34,208,5.442029174889364e-07
34,214,2.0931444606649372e-06
34,222,1.346540923772531e-06
34,232,3.456123063142663e-07
34,244,4.475232918481045e-08
34,289,4.52993408363808e-07
34,295,1.7955611463954497e-06
34,303,1.18683896885066e-06
34,313,3.180691470923287e-07
34,325,4.428907280326489e-08
35,35,6.23878968045316e-05
35,41,0.00010975313235205068
35,49,3.362171425675768e-05
35,60,4.2058732566771495e-05
35,66,8.762941868389388e-05
35,74,3.411572989342715e-05
35,84,4.4843899403361824e-06
35,96,3.079850581025587e-05
35,102,7.109768899390047e-05
35,110,3.090798983233296e-05
35,120,5.189859571514652e-06
35,132,3.492697435837653e-07
35,145,2.3844339411564556e-05
35,151,5.889317953158489e-05
35,159,2.7270258641116653e-05
35,169,5.137171069985599e-06
35,181,4.46595570077605e-07
35,195,1.6271688988222436e-08
35,209,1.9202181620297144e-05
35,215,4.971196119053465e-05
35,223,2.396437080537413e-05
35,233,4.827678693626695e-06
35,245,4.748436522002415e-07
35,259,2.2608723597578557e-08
35,290,1.59196833860542e-05
35,296,4.264346821645033e-05
35,304,2.1130292199857673e-05
35,314,4.446197027466382e-06
35,326,4.7072790049658004e-07
35,340,2.5582450125947034e-08
36,36,0.0007919584076079254
36,42,0.0010073874072970806
36,50,0.00023581674698172284
36,55,0.0002604216950896873
36,61,0.0005312038061516858
36,67,0.0008057715432477591
36,75,0.0002403170732045636
36,85,2.465917150754709e-05
36,91,0.00021084712071655533
36,97,0.0003874387184590746
36,103,0.0006543801563490276
36,111,0.00021825534243489456
36,121,2.8676569510301983e-05
36,133,1.44054554051238e-06
36,140,0.00017457726499341163
36,146,0.00029904347743960774
36,152,0.0005423553200390746
36,160,0.0001928614898180055
36,170,2.847141759684341e-05
36,182,1.8554866781302466e-06
36,196,2.9615231261978703e-08
36,204,0.00014737125504497126
36,210,0.00024026005471300152
36,216,0.0004579698098463859
36,224,0.00016965499188077943
36,234,2.681039347109823e-05
36,246,1.9822466609034535e-06
36,260,4.8241460352769604e-08
36,285,0.0001264439257393299
36,291,0.00019882888253553655
36,297,0.000392948216497946
36,305,0.0001496968278692851
36,315,2.472706269611406e-05
36,327,1.971618960092806e-06
36,341,5.321768771884465e-08
37,37,6.238789680453161e-05
37,43,0.00010975313235205068
37,51,3.362171425675767e-05
37,62,4.2058732566771516e-05
37,68,8.76294186838939e-05
37,76,3.411572989342716e-05
37,86,4.4843899403361824e-06
37,98,3.079850581025587e-05
37,104,7.109768899390048e-05
37,112,3.090798983233297e-05
37,122,5.189859571514652e-06
37,134,3.492697435837654e-07
37,147,2.384433941156456e-05
37,153,5.8893179531584904e-05
37,161,2.7270258641116653e-05
37,171,5.137171069985599e-06
37,183,4.465955700776051e-07
37,197,1.627168898822244e-08
37,211,1.920218162029715e-05
37,217,4.971196119053466e-05
37,225,2.396437080537413e-05
37,235,4.827678693626696e-06
37,247,4.748436522002416e-07
37,261,2.2608723597578563e-08
37,292,1.591968338605421e-05
37,298,4.264346821645034e-05
37,306,2.1130292199857673e-05
37,316,4.446197027466382e-06
37,328,4.707279004965802e-07
37,342,2.558245012594704e-08
38,38,1.7320659042181261e-06
38,44,4.62239048742884e-06
38,52,1.8979925963040043e-06
38,63,1.1771411996826545e-06
38,69,3.689704683853944e-06
38,77,1.921601068731539e-06
38,87,3.2278513165099285e-07
38,99,8.668012394838246e-07
38,105,2.993484536875242e-06
38,113,1.738749879422868e-06
38,123,3.72573861477399e-07
38,135,3.304513840668174e-08
38,148,6.736262008338115e-07
38,154,2.4796540677613552e-06
38,162,1.5330861608113675e-06
38,172,3.681776180176231e-07
38,184,4.2191681266459624e-08
38,212,5.442029174889364e-07
38,218,2.0931444606649372e-06
38,226,1.346540923772531e-06
38,236,3.456123063142664e-07
38,248,4.4752329184810464e-08
38,293,4.52993408363808e-07
38,299,1.7955611463954497e-06
38,307,1.18683896885066e-06
38,317,3.180691470923288e-07
38,329,4.4289072803264905e-08
39,39,6.058258598583851e-07
39,47,5.013905311796032e-07
39,64,4.695448252308177e-07
39,72,4.955303176582628e-07
39,82,1.4189398578160075e-07
39,100,3.73839269345601e-07
39,108,4.419045516191287e-07
39,118,1.5744988533404624e-07
39,130,1.8764138120621627e-08
39,149,3.054561050708381e-07
39,157,3.859290812110427e-07
39,167,1.5829307394360198e-07
39,179,2.6134996994729855e-08
39,213,2.554874945811924e-07
39,221,3.371701813885297e-07
39,231,1.4751199484457778e-07
39,243,1.899114490685893e-08
39,294,2.1786774182097429e-07
39,302,2.9332639546053234e-07
39,312,1.34659694287388e-07
39,324,1.8712661042626547e-08
40,40,2.5384298307350826e-05
40,48,1.4370479262592035e-05
40,59,2.638864711504197e-06
40,65,1.955649617384592e-05
40,73,1.4158094033037493e-05
40,83,3.2268409214912663e-06
40,95,1.6950997736290403e-06
40,101,1.5522417748880398e-05
40,109,1.260044756412378e-05
40,119,3.6651423753763007e-06
40,131,4.408924388437187e-07
40,144,1.180854539861307e-06
40,150,1.2673495970645349e-05
40,158,1.0990388741175567e-05
40,168,3.58651387926131e-06
40,180,5.578190902722771e-07
40,194,3.516772196287499e-08
40,208,8.740787880839148e-07
40,214,1.059109225174725e-05
40,222,9.58235137179174e-06
40,232,3.3433186363196216e-06
40,244,5.864275119507739e-07
40,258,4.816671980078767e-08
40,289,6.773050186645701e-07
40,295,9.020071251184713e-06
40,303,8.401813812010122e-06
40,313,3.0614441392293576e-06
40,325,5.78006855091357e-07
40,339,5.395112581717713e-08
41,41,0.0004464235930097229
41,49,0.00019639371118556294
41,60,5.878132154578715e-05
41,66,0.0003421062718944143
41,74,0.00019291723710731395
41,84,3.6389878816440084e-05
41,96,3.54512228688582e-05
41,102,0.0002706239310629007
41,110,0.00017139285537960425
41,120,4.1293529422075447e-05
41,132,4.2936980922317714e-06
41,145,2.328209612816338e-05
41,151,0.00022045605298756017
41,159,0.00014931178362823108
41,169,4.03585370436773e-05
41,181,5.40761495936058e-06
41,195,3.5014500763417186e-07
41,209,1.6298948537392896e-05
41,215,0.00018394567574207325
41,223,0.0001300735031972439
41,233,3.7599662820513946e-05
41,245,5.690448015446775e-06
41,259,4.807702865482806e-07
41,290,1.1989832761242261e-05
41,296,0.00015647881903263066
41,304,0.00011397711808380007
41,314,3.44152919847453e-05
41,326,5.599857207051556e-06
41,340,5.381744240159907e-07
42,42,0.0034329161777742726
42,50,0.001220350145518273
42,55,0.0008011153256804527
42,61,0.000495786458493762
42,67,0.0026172224273860695
42,75,0.0011953498302103725
42,85,0.00019033638767580852
42,91,0.0006241015618458969
42,97,0.00027158782386536043
42,103,0.0020635638157583177
42,111,0.0010601175760760106
42,121,0.00021571799355503272
42,133,1.953376197010308e-05
42,140,0.0005040652392066482
42,146,0.0001601181946518094
42,152,0.0016773033521238936
42,160,0.0009224701144634668
42,170,0.00021066285601243996
42,182,2.458534122392288e-05
42,196,1.4312862073599314e-06
42,204,0.0004183460950325261
42,210,9.944831973478086e-05
42,216,0.0013973414814565782
42,224,0.0008029684008308735
42,234,0.0001961524473691437
42,246,2.5860780824305417e-05
42,260,1.9548482125734844e-06
42,276,7.569737035603333e-08
42,285,0.0003546116169674663
42,291,6.411490031524928e-05
42,297,0.001187341024166599
42,305,0.0007031934516238961
42,315,0.00017946645134175198
42,327,2.5442177877081945e-05
42,341,2.1876927077433004e-06
42,357,1.1565921866346295e-07
43,43,0.000446423593009723
43,51,0.00019639371118556294
43,62,5.878132154578715e-05
43,68,0.0003421062718944143
43,76,0.00019291723710731395
43,86,3.6389878816440084e-05
43,98,3.54512228688582e-05
43,104,0.0002706239310629007
43,112,0.00017139285537960425
43,122,4.1293529422075447e-05
43,134,4.293698092231772e-06
43,147,2.3282096128163387e-05
43,153,0.00022045605298756023
43,161,0.0001493117836282311
43,171,4.03585370436773e-05
43,183,5.407614959360581e-06
43,197,3.5014500763417197e-07
43,211,1.6298948537392903e-05
43,217,0.00018394567574207325
43,225,0.0001300735031972439
43,235,3.7599662820513946e-05
43,247,5.690448015446776e-06
43,261,4.807702865482806e-07
43,292,1.1989832761242266e-05
43,298,0.0001564788190326307
43,306,0.00011397711808380007
43,316,3.441529198474529e-05
43,328,5.599857207051557e-06
43,342,5.381744240159909e-07
44,44,2.5384298307350826e-05
44,52,1.4370479262592035e-05
44,63,2.638864711504197e-06
44,69,1.955649617384592e-05
44,77,1.415809403303749e-05
44,87,3.2268409214912663e-06
44,99,1.695099773629041e-06
44,105,1.55224177488804e-05
44,113,1.2600447564123776e-05
44,123,3.6651423753763007e-06
44,135,4.4089243884371875e-07
44,148,1.180854539861307e-06
44,154,1.2673495970645349e-05
44,162,1.0990388741175567e-05
44,172,3.586513879261311e-06
44,184,5.578190902722772e-07
44,198,3.516772196287498e-08
44,212,8.740787880839148e-07
44,218,1.059109225174725e-05
44,226,9.58235137179174e-06
44,236,3.3433186363196216e-06
44,248,5.864275119507739e-07
44,262,4.816671980078767e-08
44,293,6.773050186645702e-07
44,299,9.020071251184713e-06
44,307,8.401813812010122e-06
44,317,3.0614441392293576e-06
44,329,5.78006855091357e-07
44,343,5.395112581717713e-08
45,45,6.058258598583849e-07
45,53,5.013905311796031e-07
45,70,4.6954482523081763e-07
45,78,4.955303176582626e-07
45,88,1.4189398578160075e-07
45,106,3.7383926934560094e-07
45,114,4.419045516191287e-07
45,124,1.5744988533404624e-07
45,136,1.8764138120621627e-08
45,155,3.0545610507083804e-07
45,163,3.859290812110427e-07
45,173,1.5829307394360198e-07
45,185,2.6134996994729855e-08
45,219,2.554874945811923e-07
45,227,3.371701813885297e-07
45,237,1.4751199484457778e-07
45,249,1.899114490685893e-08
45,300,2.1786774182097429e-07
45,308,2.9332639546053234e-07
45,318,1.3465969428738797e-07
45,330,1.8712661042626547e-08
47,47,4.5016546511970955e-07
47,64,3.843245769997593e-07
47,72,4.421836746211151e-07
47,82,1.3362042512158285e-07
47,100,2.980185544056667e-07
47,108,3.921476551513798e-07
47,118,1.510660151986756e-07
47,130,1.0811666449658978e-08
47,149,2.46252673125159e-07
47,157,3.412518646978459e-07
47,167,1.4793601313864852e-07
47,179,1.3690653616172632e-08
47,213,2.0552887047875657e-07
47,221,2.9443010654657123e-07
47,231,1.3720705842882686e-07
47,243,1.4461506911533135e-08
47,294,1.754203845346928e-07
47,302,2.6029878047077286e-07
47,312,1.2640614259069525e-07
47,324,1.426986629051678e-08
48,48,8.813066371684263e-06
48,59,9.357172838650129e-07
48,65,1.0951057180234044e-05
48,73,8.628990294389382e-06
48,83,2.0905386581132047e-06
48,95,5.137768361238031e-07
48,101,8.632835775300763e-06
48,109,7.650894564354394e-06
48,119,2.3687044716166706e-06
48,131,2.9746308893630805e-07
48,144,3.049218510146049e-07
48,150,7.015988069381205e-06
48,158,6.65642659001862e-06
48,168,2.312809650732997e-06
48,180,3.7846181860763914e-07
48,208,1.9039861264341425e-07
48,214,5.844454832731409e-06
48,222,5.793483556500184e-06
48,232,2.1532571715894227e-06
48,244,3.980554981808721e-07
48,258,1.3303878990901603e-08
48,289,1.2291449599052902e-07
48,295,4.965793488516634e-06
48,303,5.073264490242417e-06
48,313,1.9699264459289174e-06
48,325,3.9156890859726333e-07
48,339,2.6988865120346955e-08
49,49,9.353742717321975e-05
49,60,1.4519970317702002e-05
49,66,0.0001488470156168081
49,74,9.130647766040774e-05
49,84,1.829615418645395e-05
49,96,6.577114985318037e-06
49,102,0.00011691757215330564
49,110,8.080501170980004e-05
49,120,2.0703120828179874e-05
49,132,2.26893122744343e-06
49,145,2.871428333077863e-06
49,151,9.479188764182865e-05
49,159,7.021481906975783e-05
49,169,2.0196992974688813e-05
49,181,2.8541467151557068e-06
49,195,1.89283511592953e-07
49,209,1.007513037343197e-06
49,215,7.882894370227752e-05
49,223,6.105872986480063e-05
49,233,1.8792376932312378e-05
49,245,3.0008902996105837e-06
49,259,2.623339632247803e-07
49,290,2.450627384796697e-08
49,296,6.689488350009788e-05
49,304,5.3434392594130616e-05
49,314,1.718494806410267e-05
49,326,2.9505366169567345e-06
49,340,2.9409842670661593e-07
50,50,0.0004701906136680331
50,55,0.00027106515072373565
50,61,8.222257813278551e-05
50,67,0.0009199312547145018
50,75,0.0004576584900089361
50,85,7.753471105488399e-05
50,91,0.0002090673403120293
50,97,2.2067475859604414e-05
50,103,0.0007200910916217442
50,111,0.0004043005596313173
50,121,8.762535969431e-05
50,133,8.387453824948095e-06
50,140,0.00016772865015857134
50,152,0.0005824464008188952
50,160,0.00035090000939632694
50,170,8.541373624018362e-05
50,182,1.0537830299314187e-05
50,196,6.475540644198864e-07
50,204,0.0001385532031606543
50,216,0.00048355840512929863
50,224,0.00030489733714430276
50,234,7.942934660390679e-05
50,246,1.1073258572481708e-05
50,260,8.8507152517486e-07
50,276,2.0906689857955566e-08
50,285,0.00011704393759352675
50,297,0.0004098537396611525
50,305,0.0002666682330772094
50,315,7.260628473765205e-05
50,327,1.0885661872993335e-05
50,341,9.898872237606557e-07
50,357,5.121644911711533e-08
51,51,9.353742717321975e-05
51,62,1.4519970317702002e-05
51,68,0.0001488470156168081
51,76,9.130647766040772e-05
51,86,1.8296154186453944e-05
51,98,6.5771149853180386e-06
51,104,0.00011691757215330564
51,112,8.080501170980004e-05
51,122,2.0703120828179874e-05
51,134,2.26893122744343e-06
51,147,2.871428333077863e-06
51,153,9.479188764182865e-05
51,161,7.021481906975782e-05
51,171,2.019699297468881e-05
51,183,2.8541467151557068e-06
51,197,1.89283511592953e-07
51,211,1.007513037343197e-06
51,217,7.88289437022775e-05
51,225,6.105872986480062e-05
51,235,1.8792376932312378e-05
51,247,3.0008902996105837e-06
51,261,2.623339632247803e-07
51,292,2.4506273847966492e-08
51,298,6.689488350009786e-05
51,306,5.3434392594130616e-05
51,316,1.718494806410267e-05
51,328,2.950536616956734e-06
51,342,2.9409842670661593e-07
52,52,8.813066371684262e-06
52,63,9.357172838650127e-07
52,69,1.0951057180234044e-05
52,77,8.62899029438938e-06
52,87,2.0905386581132047e-06
52,99,5.137768361238031e-07
52,105,8.632835775300762e-06
52,113,7.650894564354394e-06
52,123,2.3687044716166706e-06
52,135,2.974630889363081e-07
52,148,3.0492185101460486e-07
52,154,7.015988069381205e-06
52,162,6.65642659001862e-06
52,172,2.312809650732997e-06
52,184,3.7846181860763925e-07
52,212,1.9039861264341425e-07
52,218,5.844454832731409e-06
52,226,5.793483556500182e-06
52,236,2.153257171589423e-06
52,248,3.980554981808721e-07
52,262,1.3303878990901603e-08
52,293,1.2291449599052902e-07
52,299,4.965793488516634e-06
52,307,5.073264490242417e-06
52,317,1.9699264459289174e-06
52,329,3.9156890859726333e-07
52,343,2.6988865120346955e-08
53,53,4.5016546511970945e-07
53,70,3.843245769997593e-07
53,78,4.421836746211151e-07
53,88,1.3362042512158285e-07
53,106,2.980185544056667e-07
53,114,3.921476551513798e-07
53,124,1.510660151986756e-07
53,136,1.081166644965898e-08
53,155,2.4625267312515905e-07
53,163,3.412518646978458e-07
53,173,1.4793601313864852e-07
53,185,1.3690653616172637e-08
53,219,2.0552887047875662e-07
53,227,2.944301065465713e-07
53,237,1.3720705842882686e-07
53,249,1.4461506911533135e-08
53,300,1.754203845346928e-07
53,308,2.6029878047077286e-07
53,318,1.2640614259069527e-07
53,330,1.4269866290516783e-08
55,55,0.00019959592839055386
55,61,0.00013404049406047717
55,67,0.0006141414893433977
55,75,0.0002666759195771081
55,85,4.0347527875481335e-05
55,91,0.00015616723475495378
55,97,7.729473489136241e-05
55,103,0.0004858780786180575
55,111,0.00023713544458856092
55,121,4.58372085351014e-05
55,133,3.927930056509872e-06
55,140,0.00012649108244383575
55,146,4.835763502275668e-05
55,152,0.00039582119927779016
55,160,0.0002067026453357748
55,170,4.4832580392237675e-05
55,182,4.95125183881637e-06
55,196,2.733633901479446e-07
55,204,0.00010518802644697801
55,210,3.2169365651377405e-05
55,216,0.00033026964925097753
55,224,0.00018013970143256527
55,234,4.178901220312393e-05
55,246,5.213321117614935e-06
55,260,3.742950600974552e-07
55,285,8.928932632876553e-05
55,291,2.2452300244668877e-05
55,297,0.00028095271252352727
55,305,0.0001578906083908194
55,315,3.826334766780281e-05
55,327,5.13240489478198e-06
55,341,4.191540991229806e-07
56,56,1.358047378708697e-05
56,92,1.0480596566820931e-05
56,141,8.411800622547164e-06
56,205,6.950730842542298e-06
56,286,5.873026652794259e-06
57,57,0.0005743543799213353
57,93,0.0004413634277810667
57,142,0.0003532205886114724
57,206,0.0002912743764590668
57,287,0.00024574567428608336
58,58,1.358047378708697e-05
58,94,1.0480596566820931e-05
58,143,8.411800622547164e-06
58,207,6.950730842542298e-06
58,288,5.873026652794259e-06
59,59,8.190881897012356e-07
59,65,2.1330643346961196e-06
59,73,9.619020572460908e-07
59,83,1.3041817467851012e-07
59,95,6.131508955753597e-07
59,101,1.743577729119151e-06
59,109,8.781368713805694e-07
59,119,1.5265750098392067e-07
59,131,1.2378227518595384e-08
59,144,4.821365279121565e-07
59,150,1.451247189321942e-06
59,158,7.785747542366316e-07
59,168,1.5219708210582287e-07
59,180,1.5959584655581907e-08
59,208,3.925997646241267e-07
59,214,1.2290864953143672e-06
59,222,6.865815296762204e-07
59,232,1.4372192406321466e-07
59,244,1.3081732458975448e-08
59,289,3.2818448403016234e-07
59,295,1.0571122290544416e-06
59,303,6.070977860034289e-07
59,313,1.330189238259469e-07
59,325,1.6982005232555918e-08
60,60,2.9276335346519548e-05
60,66,4.777814883450463e-05
60,74,1.5102628572404149e-05
60,84,1.3502543167087566e-06
60,96,2.1899507697338514e-05
60,102,3.917488126762366e-05
60,110,1.3879348647402912e-05
60,120,1.6094985151354302e-06
60,132,2.218410375723559e-08
60,145,1.7208077335549675e-05
60,151,3.266994633006999e-05
60,159,1.235665774274996e-05
60,169,1.6227766791367543e-06
60,181,3.3036578024720046e-08
60,209,1.4007020757676638e-05
60,215,2.7703682562455547e-05
60,223,1.0924826280947793e-05
60,233,1.5438197435843721e-06
60,245,3.818133915139547e-08
60,290,1.170550399574869e-05
60,296,2.3842474838420743e-05
60,304,9.674151435916101e-06
60,314,1.434345277123256e-06
60,326,4.0198864325047263e-08
61,61,0.00037154662272453654
61,67,0.0004071692942814187
61,75,8.770749522006754e-05
61,85,3.594372831994203e-06
61,91,0.00011059346308563154
61,97,0.0002786336247128042
61,103,0.0003357828047920768
61,111,8.172489759539479e-05
61,121,4.630843378085284e-06
61,140,9.264020781784623e-05
61,146,0.00021927033168939007
61,152,0.00028102662603513755
61,160,7.337772931947359e-05
61,170,4.87918541208666e-06
61,204,7.88087523728814e-05
61,210,0.00017865143402959972
61,216,0.00023887201520633508
61,224,6.523911952807592e-05
61,234,4.7725255084476555e-06
61,285,6.798343108017354e-05
61,291,0.00014939211168966417
61,297,0.00020591825826530056
61,305,5.799590362499607e-05
61,315,4.517429974155469e-06
62,62,2.9276335346519558e-05
62,68,4.7778148834504646e-05
62,76,1.5102628572404149e-05
62,86,1.3502543167087566e-06
62,98,2.189950769733852e-05
62,104,3.917488126762367e-05
62,112,1.3879348647402912e-05
62,122,1.6094985151354302e-06
62,134,2.2184103757235635e-08
62,147,1.7208077335549682e-05
62,153,3.266994633007e-05
62,161,1.235665774274996e-05
62,171,1.6227766791367543e-06
62,183,3.303657802472005e-08
62,211,1.4007020757676643e-05
62,217,2.7703682562455553e-05
62,225,1.0924826280947793e-05
62,235,1.5438197435843721e-06
62,247,3.81813391513955e-08
62,292,1.1705503995748695e-05
62,298,2.384247483842075e-05
62,306,9.674151435916101e-06
62,316,1.4343452771232556e-06
62,328,4.019886432504725e-08
63,63,8.190881897012357e-07
63,69,2.1330643346961196e-06
63,77,9.619020572460908e-07
63,87,1.3041817467851018e-07
63,99,6.131508955753597e-07
63,105,1.7435777291191516e-06
63,113,8.781368713805697e-07
63,123,1.5265750098392067e-07
63,135,1.2378227518595389e-08
63,148,4.821365279121565e-07
63,154,1.451247189321942e-06
63,162,7.785747542366316e-07
63,172,1.5219708210582287e-07
63,184,1.5959584655581913e-08
63,212,3.925997646241267e-07
63,218,1.2290864953143672e-06
63,226,6.865815296762204e-07
63,236,1.437219240632147e-07
63,248,1.3081732458975456e-08
63,293,3.2818448403016234e-07
63,299,1.0571122290544418e-06
63,307,6.07097786003429e-07
63,317,1.3301892382594693e-07
63,329,1.6982005232555928e-08
64,64,3.6405443687445244e-07
64,72,3.8015609336943204e-07
64,82,1.0862631025228663e-07
64,100,2.8975965938471787e-07
64,108,3.395926597749577e-07
64,118,1.2256643491454645e-07
64,130,1.1564884966417666e-08
64,149,2.3713496463348068e-07
64,157,2.9430307522545716e-07
64,167,1.2005636965593902e-07
64,179,1.827363369280358e-08
64,213,1.9860160155907057e-07
64,221,2.5713622293323326e-07
64,231,1.1227159438300746e-07
64,243,1.9285358514169115e-08
64,294,1.6959592839980742e-07
64,302,2.2564894711483883e-07
64,312,1.0357588705572895e-07
64,324,1.9017557237675903e-08
65,65,1.5087728289685178e-05
65,73,1.079900555398384e-05
65,83,2.440195110987125e-06
65,95,1.3850140010399693e-06
65,101,1.1985936669954204e-05
65,109,9.617103927206382e-06
65,119,2.7738484146473734e-06
65,131,3.3189517193310855e-07
65,144,9.752503631148194e-07
65,150,9.791888159029744e-06
65,158,8.391518360604804e-06
65,168,2.7141353163304248e-06
65,180,4.1855394138624644e-07
65,194,1.9625485883346055e-08
65,208,7.286786014051978e-07
65,214,8.186696498823098e-06
65,222,7.3182767099656735e-06
65,232,2.530588968746328e-06
65,244,4.4073998742556584e-07
65,258,3.6118977547133114e-08
65,289,5.685765938083309e-07
65,295,6.974421874980569e-06
65,303,6.417671830926599e-06
65,313,2.317560255586681e-06
65,325,4.3392268044745584e-07
65,339,4.046180873795686e-08
66,66,0.0002625672580453151
66,74,0.00014635196916413167
66,84,2.7363927334580946e-05
66,96,2.934388626848931e-05
66,102,0.00020790573329081079
66,110,0.0001300993623461999
66,120,3.106550618383241e-05
66,132,3.203071675442806e-06
66,145,1.9622206141614784e-05
66,151,0.00016947425431472984
66,159,0.00011338192128435129
66,169,3.0371173576911343e-05
66,181,4.03644276532176e-06
66,195,2.587141050205398e-07
66,209,1.3980308422860127e-05
66,215,0.00014147135108587793
66,223,9.879967338059635e-05
66,233,2.8300846898964335e-05
66,245,4.2484211517953945e-06
66,259,3.550491449200956e-07
66,290,1.0457654470764753e-05
66,296,0.00012038649052116089
66,304,8.658973237120937e-05
66,314,2.590762800307746e-05
66,326,4.18130976579714e-06
66,340,3.974470912527711e-07
67,67,0.001998624326307819
67,75,0.0009019938755890934
67,85,0.00014235009051138627
67,91,0.0004791019759181152
67,97,0.0002302458748045647
67,103,0.001577468801413219
67,111,0.0008004457958095543
67,121,0.00016141018108440283
67,133,1.449786822989952e-05
67,140,0.00038731038477938774
67,146,0.00014100852634486
67,152,0.0012830926858588179
67,160,0.0006967983510074383
67,170,0.00015767716549183085
67,182,1.8251875626010432e-05
67,196,1.0540142279750343e-06
67,204,0.00032165099307819974
67,210,9.16395489004506e-05
67,216,0.001069453506392403
67,224,0.0006067022450519908
67,234,0.00014684810452836392
67,246,1.9202249966501477e-05
67,260,1.4407925666520356e-06
67,276,5.1658776677604865e-08
67,285,0.00027277223595418513
67,291,6.234991005919526e-05
67,297,0.0009090539821327763
67,305,0.0005314225824579344
67,315,0.00013437713682942166
67,327,1.8893167420452763e-05
67,341,1.6131014385013332e-06
67,357,8.1195974727989e-08
68,68,0.00026256725804531516
68,76,0.00014635196916413167
68,86,2.7363927334580946e-05
68,98,2.9343886268489316e-05
68,104,0.0002079057332908108
68,112,0.0001300993623461999
68,122,3.106550618383241e-05
68,134,3.203071675442806e-06
68,147,1.9622206141614784e-05
68,153,0.00016947425431472984
68,161,0.00011338192128435129
68,171,3.0371173576911343e-05
68,183,4.03644276532176e-06
68,197,2.587141050205399e-07
68,211,1.398030842286013e-05
68,217,0.00014147135108587795
68,225,9.879967338059637e-05
68,235,2.8300846898964335e-05
68,247,4.248421151795396e-06
68,261,3.550491449200957e-07
68,292,1.0457654470764753e-05
68,298,0.00012038649052116089
68,306,8.658973237120937e-05
68,316,2.590762800307746e-05
68,328,4.18130976579714e-06
68,342,3.974470912527712e-07
69,69,1.5087728289685178e-05
69,77,1.079900555398384e-05
69,87,2.440195110987125e-06
69,99,1.3850140010399693e-06
69,105,1.1985936669954204e-05
69,113,9.61710392720638e-06
69,123,2.7738484146473734e-06
69,135,3.3189517193310855e-07
69,148,9.752503631148192e-07
69,154,9.791888159029744e-06
69,162,8.391518360604802e-06
69,172,2.714135316330425e-06
69,184,4.1855394138624644e-07
69,198,1.9625485883346055e-08
69,212,7.286786014051978e-07
69,218,8.186696498823098e-06
69,226,7.3182767099656735e-06
69,236,2.530588968746328e-06
69,248,4.407399874255659e-07
69,262,3.6118977547133114e-08
69,293,5.685765938083311e-07
69,299,6.974421874980569e-06
69,307,6.417671830926599e-06
69,317,2.3175602555866813e-06
69,329,4.3392268044745584e-07
69,343,4.046180873795686e-08
70,70,3.6405443687445234e-07
70,78,3.8015609336943204e-07
70,88,1.0862631025228663e-07
70,106,2.8975965938471776e-07
70,114,3.395926597749576e-07
70,124,1.2256643491454645e-07
70,136,1.1564884966417666e-08
70,155,2.3713496463348066e-07
70,163,2.9430307522545716e-07
70,173,1.20056369655939e-07
70,185,1.8273633692803578e-08
70,219,1.9860160155907057e-07
70,227,2.5713622293323326e-07
70,237,1.1227159438300742e-07
70,249,1.9285358514169115e-08
70,300,1.695959283998074e-07
70,308,2.2564894711483883e-07
70,318,1.0357588705572889e-07
70,330,1.9017557237675903e-08
72,72,4.345688520766436e-07
72,82,1.307488373217372e-07
72,100,3.012963950425366e-07
72,108,3.8620146844393085e-07
72,118,1.478796717750191e-07
72,130,1.0783553984908478e-08
72,149,2.43886193036105e-07
72,157,3.355810137990853e-07
72,167,1.4483725907715687e-07
72,179,1.3657810180041352e-08
72,213,2.036047592832771e-07
72,221,2.896608707168585e-07
72,231,1.3436199875902057e-07
72,243,1.4428783852294355e-08
72,294,1.7379489535081986e-07
72,302,2.5320341564702715e-07
72,312,1.2376409587469892e-07
72,324,1.4238954543659736e-08
73,73,8.4533238091016e-06
73,83,2.0381744675875034e-06
73,95,5.379570624848779e-07
73,101,8.517869987437371e-06
73,109,7.49763466750678e-06
73,119,2.309955005539594e-06
73,131,2.887061472804143e-07
73,144,3.263612224752753e-07
73,150,6.9252289879734336e-06
73,158,6.524516294911918e-06
73,168,2.2558184354669148e-06
73,180,3.6758859925798186e-07
73,208,2.092654235566158e-07
73,214,5.7704144074617584e-06
73,222,5.67953489957298e-06
73,232,2.1004362422260356e-06
73,244,3.8665605019782144e-07
73,258,1.3070961114324579e-08
73,289,1.4042034880029544e-07
73,295,4.903852184911505e-06
73,303,4.9740286707311e-06
73,313,1.9217595156471935e-06
73,325,3.806875217968161e-07
73,339,2.625916479883959e-08
74,74,8.917876428755473e-05
74,84,1.778415714831617e-05
74,96,7.126452291411373e-06
74,102,0.00011502791438870074
74,110,7.894934128491665e-05
74,120,2.0129012678395876e-05
74,132,2.1966279547431535e-06
74,145,3.363374930783381e-06
74,151,9.329820618213034e-05
74,159,6.861799526756762e-05
74,169,1.964026899650947e-05
74,181,2.763423811804501e-06
74,195,1.8256869743520268e-07
74,209,1.4426477523968478e-06
74,215,7.760925819359854e-05
74,223,5.9679575419872126e-05
74,233,1.8276519209567534e-05
74,245,2.9054059457936314e-06
74,259,2.5305068752258525e-07
74,290,4.0938622054102915e-07
74,296,6.587374400032844e-05
74,304,5.223339275366851e-05
74,314,1.6714625762874257e-05
74,326,2.857385276846672e-06
74,340,2.8369388785355255e-07
75,75,0.00044571993085352677
75,85,7.515245687916735e-05
75,91,0.00020586455099378163
75,97,2.7284646209420418e-05
75,103,0.0007065068369595531
75,111,0.00039389554304735075
75,121,8.49559820305073e-05
75,133,8.095349766826992e-06
75,140,0.00016525772437075954
75,146,9.114012447356676e-07
75,152,0.0005717085527925973
75,160,0.00034195035651091263
75,170,8.28263251732423e-05
75,182,1.0175270519194575e-05
75,196,6.227943329790767e-07
75,204,0.00013656936761012226
75,216,0.0004747899399463763
75,224,0.0002971697804242238
75,234,7.703257364430825e-05
75,246,1.0693344811404754e-05
75,260,8.513032017716997e-07
75,276,1.99235960288215e-08
75,285,0.00011540334328026769
75,297,0.00040251231826649123
75,305,0.0002599399647474593
75,315,7.042150404259924e-05
75,327,1.0514325215540856e-05
75,341,9.521784123013065e-07
75,357,3.794288865844625e-08
76,76,8.917876428755472e-05
76,86,1.7784157148316164e-05
76,98,7.1264522914113735e-06
76,104,0.00011502791438870074
76,112,7.894934128491663e-05
76,122,2.0129012678395873e-05
76,134,2.196627954743153e-06
76,147,3.3633749307833833e-06
76,153,9.329820618213034e-05
76,161,6.86179952675676e-05
76,171,1.9640268996509463e-05
76,183,2.7634238118045e-06
76,197,1.8256869743520268e-07
76,211,1.4426477523968478e-06
76,217,7.760925819359854e-05
76,225,5.967957541987211e-05
76,235,1.8276519209567527e-05
76,247,2.905405945793631e-06
76,261,2.530506875225852e-07
76,292,4.0938622054102947e-07
76,298,6.587374400032844e-05
76,306,5.2233392753668495e-05
76,316,1.6714625762874247e-05
76,328,2.857385276846672e-06
76,342,2.8369388785355255e-07
77,77,8.453323809101598e-06
77,87,2.038174467587504e-06
77,99,5.379570624848779e-07
77,105,8.517869987437371e-06
77,113,7.497634667506778e-06
77,123,2.309955005539594e-06
77,135,2.8870614728041433e-07
77,148,3.2636122247527543e-07
77,154,6.925228987973433e-06
77,162,6.524516294911916e-06
77,172,2.2558184354669148e-06
77,184,3.6758859925798175e-07
77,212,2.092654235566158e-07
77,218,5.7704144074617584e-06
77,226,5.679534899572977e-06
77,236,2.1004362422260356e-06
77,248,3.8665605019782133e-07
77,262,1.3070961114324579e-08
77,293,1.4042034880029547e-07
77,299,4.903852184911503e-06
77,307,4.974028670731097e-06
77,317,1.921759515647193e-06
77,329,3.80687521796816e-07
77,343,2.625916479883959e-08
78,78,4.345688520766436e-07
78,88,1.307488373217372e-07
78,106,3.012963950425366e-07
78,114,3.8620146844393074e-07
78,124,1.478796717750191e-07
78,136,1.0783553984908478e-08
78,155,2.4388619303610505e-07
78,163,3.355810137990853e-07
78,173,1.4483725907715687e-07
78,185,1.3657810180041352e-08
78,219,2.036047592832771e-07
78,227,2.896608707168585e-07
78,237,1.3436199875902055e-07
78,249,1.4428783852294364e-08
78,300,1.7379489535081986e-07
78,308,2.5320341564702715e-07
78,318,1.2376409587469892e-07
78,330,1.4238954543659736e-08
82,82,3.530154826232954e-08
82,100,8.558155047951959e-08
82,108,1.1588490916944327e-07
82,118,4.00496064076912e-08
82,149,6.912938869876497e-08
82,157,1.0079736557913678e-07
82,167,3.9137703227848115e-08
82,213,5.746388859359209e-08
82,221,8.77066831958532e-08
82,231,3.645929493073472e-08
82,294,4.882217169994942e-08
82,302,7.244192964660711e-08
82,312,3.336940373475017e-08
83,83,5.120660010098089e-07
83,95,5.413767872833902e-08
83,101,1.9140761673854594e-06
83,109,1.8028218711500544e-06
83,119,5.795187843355782e-07
83,131,6.6904424688312e-08
83,144,1.838108194052573e-08
83,150,1.5503548215216026e-06
83,158,1.5643963538079966e-06
83,168,5.651558954732172e-07
83,180,8.675298748179015e-08
83,214,1.2876934795511268e-06
83,222,1.3595371807467091e-06
83,232,5.257280564122036e-07
83,244,9.119579466968337e-08
83,295,1.091803144820294e-06
83,303,1.1890742860442747e-06
83,313,4.803904080338153e-07
83,325,8.959906148732651e-08
84,84,3.711052547240184e-06
84,96,1.580824362167061e-07
84,102,2.13854257253512e-05
84,110,1.5697383504625957e-05
84,120,4.192042474974147e-06
84,132,4.726717339527814e-07
84,151,1.7278910034245392e-05
84,159,1.3616410658426121e-05
84,169,4.084581286434668e-06
84,181,5.927876975421484e-07
84,195,2.2804539895631406e-08
84,215,1.4334313888181367e-05
84,223,1.1826706153409325e-05
84,233,3.796803434916914e-06
84,245,6.227758278780418e-07
84,259,4.6273890933599515e-08
84,296,1.2142658950152182e-05
84,304,1.034091150572137e-05
84,314,3.4699382033503436e-06
84,326,6.121324668084082e-07
84,340,5.1743648878924793e-08
85,85,1.3288978360480069e-05
85,91,3.0888959537925386e-05
85,103,0.00011085788697999836
85,111,6.62178703985762e-05
85,121,1.4991252623244922e-05
85,133,1.4890726903019993e-06
85,140,2.4657101537443456e-05
85,152,8.935549208168624e-05
85,160,5.7372858120887925e-05
85,170,1.459541646396142e-05
85,182,1.8702110665517511e-06
85,196,1.1225750234110332e-07
85,204,2.0295913768351327e-05
85,216,7.400201954429416e-05
85,224,4.979176650015645e-05
85,234,1.3561542693277142e-05
85,246,1.9633918673824108e-06
85,260,1.5871074156588073e-07
85,285,1.7100528564378544e-05
85,297,6.26094335373383e-05
85,305,4.351107417410331e-05
85,315,1.2389178796029463e-05
85,327,1.929193315098974e-06
85,341,1.760855913141219e-07
86,86,3.711052547240183e-06
86,98,1.580824362167062e-07
86,104,2.13854257253512e-05
86,112,1.5697383504625957e-05
86,122,4.192042474974147e-06
86,134,4.726717339527814e-07
86,153,1.727891003424539e-05
86,161,1.3616410658426121e-05
86,171,4.0845812864346676e-06
86,183,5.927876975421483e-07
86,197,2.2804539895631406e-08
86,217,1.4334313888181366e-05
86,225,1.1826706153409323e-05
86,235,3.796803434916913e-06
86,247,6.227758278780418e-07
86,261,4.6273890933599515e-08
86,298,1.2142658950152182e-05
86,306,1.0340911505721368e-05
86,316,3.4699382033503424e-06
86,328,6.121324668084081e-07
86,342,5.174364887892478e-08
87,87,5.12066001009809e-07
87,99,5.413767872833904e-08
87,105,1.9140761673854594e-06
87,113,1.8028218711500544e-06
87,123,5.795187843355783e-07
87,135,6.6904424688312e-08
87,148,1.8381081940525724e-08
87,154,1.5503548215216026e-06
87,162,1.5643963538079972e-06
87,172,5.651558954732174e-07
87,184,8.675298748179017e-08
87,218,1.287693479551127e-06
87,226,1.3595371807467096e-06
87,236,5.257280564122037e-07
87,248,9.119579466968338e-08
87,299,1.091803144820294e-06
87,307,1.189074286044275e-06
87,317,4.803904080338154e-07
87,329,8.959906148732653e-08
88,88,3.5301548262329534e-08
88,106,8.558155047951959e-08
88,114,1.1588490916944327e-07
88,124,4.00496064076912e-08
88,155,6.912938869876497e-08
88,163,1.0079736557913678e-07
88,173,3.913770322784811e-08
88,219,5.746388859359209e-08
88,227,8.770668319585323e-08
88,237,3.645929493073471e-08
88,300,4.882217169994942e-08
88,308,7.24419296466071e-08
88,318,3.3369403734750166e-08
91,91,0.00012232466888436035
91,97,6.512492781265362e-05
91,103,0.0003793718424299158
91,111,0.0001831597987432407
91,121,3.51078145102755e-05
91,133,2.9844848307355746e-06
91,140,9.915226687815102e-05
91,146,4.168491893058397e-05
91,152,0.00030923752323826144
91,160,0.00015971100923417835
91,170,3.4348265957166985e-05
91,182,3.7627238528899836e-06
91,196,2.0596913235194247e-07
91,204,8.249567268906935e-05
91,210,2.8415852751810356e-05
91,216,0.0002581301847280366
91,224,0.00013922108507270547
91,234,3.2022291496807404e-05
91,246,3.9625853666348415e-06
91,260,2.820641930008956e-07
91,285,7.005315264809715e-05
91,291,2.0348832491134726e-05
91,297,0.0002196493101860029
91,305,0.0001220475140678393
91,315,2.9324798994524984e-05
91,327,3.901575875277982e-06
91,341,3.159069196585177e-07
92,92,8.102222557967357e-06
92,141,6.5104409615557224e-06
92,205,5.384238375921531e-06
92,286,4.552104097663466e-06
93,93,0.00033984385839932216
93,142,0.00027234014677904225
93,206,0.00022479016866968978
93,287,0.0001897839409050224
94,94,8.102222557967357e-06
94,143,6.5104409615557224e-06
94,207,5.384238375921531e-06
94,288,4.552104097663466e-06
95,95,4.636105002730178e-07
95,101,1.1396814876352793e-06
95,109,4.963227136111151e-07
95,119,6.295325325048462e-08
95,144,3.669321756646726e-07
95,150,9.529995341869585e-07
95,158,4.4336231920798467e-07
95,168,6.385066934997101e-08
95,208,3.0023895536405234e-07
95,214,8.093860671609988e-07
95,222,3.931383289347842e-07
95,232,6.289224675975791e-08
95,289,2.5150154694128134e-07
95,295,6.979661912512342e-07
95,303,3.485588418620613e-07
95,313,5.855014391887698e-08
96,96,1.6605154458737434e-05
96,102,2.4312080497916316e-05
96,110,6.697216215664529e-06
96,120,2.406581153982025e-07
96,145,1.3168238026443248e-05
96,151,2.040889192734775e-05
96,159,6.045238769285199e-06
96,169,2.744792172079774e-07
96,209,1.0788441879268775e-05
96,215,1.738307546207443e-05
96,223,5.393519884453008e-06
96,233,2.809726196272923e-07
96,290,9.058755430139837e-06
96,296,1.5006858756148242e-05
96,304,4.806425170093409e-06
96,314,2.737906223556499e-07
97,97,0.0002126322871578664
97,103,0.00019326116226211484
97,111,2.7314123594787775e-05
97,140,5.5238868138225135e-05
97,146,0.00016930046223689912
97,152,0.00016352319998767613
97,160,2.5558931597265315e-05
97,204,4.737502782442559e-05
97,210,0.00013907858361905594
97,216,0.00014000789077647503
97,224,2.3329675526137784e-05
97,285,4.1097398144690166e-05
97,291,0.0001170014747310675
97,297,0.00012130875602149297
97,305,2.111412754835811e-05
98,98,1.6605154458737444e-05
98,104,2.431208049791632e-05
98,112,6.697216215664529e-06
98,122,2.4065811539820234e-07
98,147,1.3168238026443257e-05
98,153,2.0408891927347757e-05
98,161,6.0452387692851965e-06
98,171,2.744792172079775e-07
98,211,1.078844187926878e-05
98,217,1.7383075462074434e-05
98,225,5.393519884453008e-06
98,235,2.8097261962729246e-07
98,292,9.058755430139842e-06
98,298,1.5006858756148244e-05
98,306,4.806425170093409e-06
98,316,2.737906223556499e-07
99,99,4.636105002730177e-07
99,105,1.1396814876352793e-06
99,113,4.963227136111151e-07
99,123,6.295325325048461e-08
99,148,3.669321756646726e-07
99,154,9.529995341869587e-07
99,162,4.4336231920798467e-07
99,172,6.385066934997104e-08
99,212,3.002389553640524e-07
99,218,8.09386067160999e-07
99,226,3.931383289347842e-07
99,236,6.289224675975791e-08
99,293,2.515015469412814e-07
99,299,6.979661912512342e-07
99,307,3.485588418620613e-07
99,317,5.8550143918876986e-08
100,100,2.3099599456776525e-07
100,108,2.67068307507104e-07
100,118,6.399810376801583e-08
100,149,1.8945611664524026e-07
100,157,2.334024545688406e-07
100,167,9.548897607380008e-08
100,179,1.1795606229766508e-08
100,213,1.5870837499513846e-07
100,221,2.037775999543414e-07
100,231,8.910729351672924e-08
100,243,1.2472558807914674e-08
100,294,1.356744794151977e-07
100,302,1.793882031036405e-07
100,312,6.564153097990383e-08
100,324,1.2316229271710651e-08
101,101,9.527313927107305e-06
101,109,7.588301490768981e-06
101,119,2.1763225544931672e-06
101,131,2.579733776927692e-07
101,144,8.075324164129734e-07
101,150,7.786378001851552e-06
101,158,6.62262342414943e-06
101,168,2.1298592609852007e-06
101,180,3.266624486957273e-07
101,194,1.1170137793648892e-08
101,208,6.063742350516156e-07
101,214,6.511696490991326e-06
101,222,5.776591306783454e-06
101,232,1.9861475446990483e-06
101,244,3.44016296058657e-07
101,258,2.818142292207392e-08
101,289,4.754561550375383e-07
101,295,5.548550041941656e-06
101,303,5.066291438824328e-06
101,313,1.8191145651720145e-06
101,325,3.377789267521713e-07
101,339,3.1572489065551245e-08
102,102,0.00016472431374863684
102,110,0.0001022924899030647
102,120,2.4285421219776258e-05
102,132,2.4904919119314e-06
102,145,1.642218042927908e-05
102,151,0.00013432983393133543
102,159,8.917008516964429e-05
102,169,2.3747187640456966e-05
102,181,3.1384158957129392e-06
102,195,1.9896333081920832e-07
102,209,1.1811993935021841e-05
102,215,0.00011216610558171952
102,223,7.77147463455516e-05
102,233,2.2131326988822323e-05
102,245,3.3036095687308603e-06
102,259,2.7411988942064566e-07
102,290,8.914158124149682e-06
102,296,9.54686431383763e-05
102,304,6.811886286916147e-05
102,314,2.026174567421717e-05
102,326,3.2516884891210556e-06
102,340,3.068874677062788e-07
103,103,0.0012458819197939922
103,111,0.0006272161134022396
103,121,0.00012574028950702263
103,133,1.1234436716964886e-05
103,140,0.00030686457696526914
103,146,0.00012075351459293901
103,152,0.001013832462860492
103,160,0.0005461421805147483
103,170,0.00012285712387008848
103,182,1.414587189597133e-05
103,196,8.158660349146696e-07
103,204,0.0002549451357983407
103,210,8.025464485649255e-05
103,216,0.0008452880222020063
103,224,0.0004756117183377028
103,234,0.00011443544564272125
103,246,1.4884215024556759e-05
103,260,1.10874111526826e-06
103,276,3.203232272179368e-08
103,285,0.00021626585746669367
103,291,5.597281247597896e-05
103,297,0.0007186713727305585
103,305,0.0004166518482702531
103,315,0.0001047275836340708
103,327,1.464588307017152e-05
103,341,1.2447065676805706e-06
103,357,5.817270380623228e-08
104,104,0.00016472431374863687
104,112,0.0001022924899030647
104,122,2.4285421219776258e-05
104,134,2.4904919119314005e-06
104,147,1.6422180429279085e-05
104,153,0.00013432983393133545
104,161,8.917008516964429e-05
104,171,2.3747187640456966e-05
104,183,3.13841589571294e-06
104,197,1.9896333081920832e-07
104,211,1.1811993935021846e-05
104,217,0.00011216610558171952
104,225,7.77147463455516e-05
104,235,2.213132698882232e-05
104,247,3.3036095687308607e-06
104,261,2.741198894206457e-07
104,292,8.914158124149685e-06
104,298,9.546864313837632e-05
104,306,6.811886286916147e-05
104,316,2.0261745674217168e-05
104,328,3.251688489121056e-06
104,342,3.0688746770627893e-07
105,105,9.527313927107305e-06
105,113,7.588301490768981e-06
105,123,2.1763225544931672e-06
105,135,2.579733776927692e-07
105,148,8.075324164129734e-07
105,154,7.786378001851552e-06
105,162,6.62262342414943e-06
105,172,2.1298592609852007e-06
105,184,3.266624486957273e-07
105,198,1.1170137793648892e-08
105,212,6.063742350516156e-07
105,218,6.511696490991326e-06
105,226,5.776591306783454e-06
105,236,1.9861475446990483e-06
105,248,3.4401629605865713e-07
105,262,2.8181422922073917e-08
105,293,4.754561550375383e-07
105,299,5.548550041941656e-06
105,307,5.066291438824327e-06
105,317,1.8191145651720145e-06
105,329,3.377789267521713e-07
105,343,3.1572489065551245e-08
106,106,2.309959945677652e-07
106,114,2.67068307507104e-07
106,124,6.399810376801583e-08
106,155,1.8945611664524026e-07
106,163,2.334024545688406e-07
106,173,9.548897607380008e-08
106,185,1.1795606229766508e-08
106,219,1.5870837499513846e-07
106,227,2.037775999543414e-07
106,237,8.910729351672924e-08
106,249,1.2472558807914674e-08
106,300,1.356744794151977e-07
106,308,1.7938820310364048e-07
106,318,6.564153097990382e-08
106,330,1.2316229271710653e-08
108,108,3.41056840261336e-07
108,118,1.3075709540099004e-07
108,149,2.177728429920811e-07
108,157,2.9558546050229007e-07
108,167,1.2863382739051373e-07
108,179,1.2252059518198571e-08
108,213,1.8237953336921306e-07
108,221,2.5488258571794287e-07
108,231,1.1986890572153726e-07
108,243,1.2944702550685941e-08
108,294,1.5565776548520265e-07
108,302,2.2732932726973762e-07
108,312,1.0973489605006608e-07
108,324,1.2775113690369844e-08
109,109,6.651354314035111e-06
109,119,2.043044609891758e-06
109,131,2.547150985208386e-07
109,144,3.048016106128454e-07
109,150,6.170926414871502e-06
109,158,5.788855180518075e-06
109,168,1.995366553372836e-06
109,180,3.2430231001964743e-07
109,208,1.981890286733269e-07
109,214,5.1427518195091235e-06
109,222,5.0396869056273935e-06
109,232,1.8580548057057073e-06
109,244,3.4114445917455843e-07
109,258,1.1621217546860718e-08
109,289,1.354835339360275e-07
109,295,4.370976142840876e-06
109,303,4.413901082847645e-06
109,313,1.700082237810907e-06
109,325,3.3562224049456476e-07
109,339,1.3028661058844072e-08
110,110,6.990822975021309e-05
110,120,1.7769960010346963e-05
110,132,1.9336603862948122e-06
110,145,3.2867185123296716e-06
110,151,8.298930919373117e-05
110,159,6.0767708912460563e-05
110,169,1.734032386046456e-05
110,181,2.432984173433536e-06
110,195,1.588543403191139e-07
110,209,1.5309255380229022e-06
110,215,6.904615476307615e-05
110,223,5.285778427549733e-05
110,233,1.6137446937516908e-05
110,245,2.5575801338323243e-06
110,259,2.2098988044953585e-07
110,290,5.757470468065603e-07
110,296,5.8613072496390526e-05
110,304,4.626599641861558e-05
110,314,1.4759126772488903e-05
110,326,2.515312100626869e-06
110,340,2.477302193239119e-07
111,111,0.00034817399840308955
111,121,7.486902810633362e-05
111,133,7.117425523080815e-06
111,140,0.0001470851713169174
111,146,3.3445579210285398e-06
111,152,0.0005076823799277944
111,160,0.00030230257146662674
111,170,7.300017935044625e-05
111,182,8.944372536136946e-06
111,196,5.46099793945319e-07
111,204,0.00012158270271580476
111,216,0.0004216975551840626
111,224,0.00026274076407280684
111,234,6.789856355086862e-05
111,246,9.400358040276919e-06
111,260,7.465085848658646e-07
111,276,1.7375766711331064e-08
111,285,0.00010275855651696776
111,297,0.0003575515912371315
111,305,0.00022984122276639512
111,315,6.207449784028328e-05
111,327,9.242175078039828e-06
111,341,8.349980855394523e-07
111,357,3.3149646262557524e-08
112,112,6.990822975021306e-05
112,122,1.7769960010346963e-05
112,134,1.9336603862948122e-06
112,147,3.2867185123296703e-06
112,153,8.298930919373117e-05
112,161,6.0767708912460563e-05
112,171,1.7340323860464552e-05
112,183,2.432984173433536e-06
112,197,1.5885434031911394e-07
112,211,1.5309255380229022e-06
112,217,6.904615476307615e-05
112,225,5.285778427549732e-05
112,235,1.6137446937516905e-05
112,247,2.5575801338323243e-06
112,261,2.2098988044953585e-07
112,292,5.757470468065598e-07
112,298,5.8613072496390526e-05
112,306,4.626599641861557e-05
112,316,1.4759126772488903e-05
112,328,2.515312100626869e-06
112,342,2.477302193239119e-07
113,113,6.651354314035108e-06
113,123,2.043044609891758e-06
113,135,2.547150985208386e-07
113,148,3.048016106128454e-07
113,154,6.170926414871502e-06
113,162,5.788855180518075e-06
113,172,1.995366553372836e-06
113,184,3.243023100196474e-07
113,212,1.981890286733269e-07
113,218,5.142751819509123e-06
113,226,5.039686905627393e-06
113,236,1.8580548057057073e-06
113,248,3.4114445917455843e-07
113,262,1.1621217546860717e-08
113,293,1.354835339360275e-07
113,299,4.370976142840876e-06
113,307,4.413901082847645e-06
113,317,1.700082237810907e-06
113,329,3.356222404945647e-07
113,343,1.3028661058844072e-08
114,114,3.41056840261336e-07
114,124,1.3075709540099007e-07
114,155,2.177728429920811e-07
114,163,2.9558546050229007e-07
114,173,1.2863382739051373e-07
114,185,1.2252059518198574e-08
114,219,1.8237953336921306e-07
114,227,2.5488258571794287e-07
114,237,1.1986890572153726e-07
114,249,1.2944702550685941e-08
114,300,1.5565776548520265e-07
114,308,2.2732932726973762e-07
114,318,1.0973489605006608e-07
114,330,1.2775113690369844e-08
118,118,4.544274631678493e-08
118,149,7.874637962506937e-08
118,157,1.1445093493140142e-07
118,167,4.441216154566673e-08
118,213,6.558264052209703e-08
118,221,9.960353594896482e-08
118,231,4.1375428435671697e-08
118,294,5.563310303227419e-08
118,302,8.720568859673054e-08
118,312,3.7870627681568805e-08
119,119,6.554345328487035e-07
119,131,7.676458047967383e-08
119,144,2.3764630289333636e-08
119,150,1.7631623649035984e-06
119,158,1.7743304829755869e-06
119,168,6.392996210327803e-07
119,180,9.926184459411858e-08
119,214,1.4654440754196134e-06
119,222,1.541793209615525e-06
119,232,5.947306592948536e-07
119,244,1.0868583465657798e-07
119,295,1.242438574812044e-06
119,303,1.3486014511959644e-06
119,313,5.437857825289697e-07
119,325,1.0687254290368438e-07
120,120,4.735295977127853e-06
120,132,5.320028525601915e-07
120,151,1.962594618833809e-05
120,159,1.5415868518382844e-05
120,169,4.614270743064166e-06
120,181,6.684307149337023e-07
120,195,2.564219372415372e-08
120,215,1.6283669396610902e-05
120,223,1.3390634985600697e-05
120,233,4.289990286401846e-06
120,245,7.022770724020323e-07
120,259,5.2070969164703456e-08
120,296,1.3795383994922027e-05
120,304,1.1708985337122076e-05
120,314,3.920288015088285e-06
120,326,6.902972802035812e-07
120,340,5.8228238445986074e-08
121,121,1.6913666697324276e-05
121,133,1.6774587774791876e-06
121,140,2.8032796306907558e-05
121,152,0.00010137306735263087
121,160,6.48755816003834e-05
121,170,1.6468399758904753e-05
121,182,2.1069402371649646e-06
121,196,1.3061849302908685e-07
121,204,2.3079458613210864e-05
121,216,8.396682946472449e-05
121,224,5.630739861033444e-05
121,234,1.5302704684229667e-05
121,246,2.212737855089006e-06
121,260,1.7707837886446678e-07
121,285,1.9449015448200292e-05
121,297,7.104792267543441e-05
121,305,4.920753871976594e-05
121,315,1.3980380921528192e-05
121,327,2.1743236178218084e-06
121,341,1.9999239751685884e-07
122,122,4.7352959771278515e-06
122,134,5.320028525601915e-07
122,153,1.9625946188338088e-05
122,161,1.5415868518382844e-05
122,171,4.614270743064165e-06
122,183,6.684307149337022e-07
122,197,2.564219372415372e-08
122,217,1.6283669396610906e-05
122,225,1.3390634985600697e-05
122,235,4.289990286401844e-06
122,247,7.022770724020321e-07
122,261,5.2070969164703456e-08
122,298,1.3795383994922027e-05
122,306,1.1708985337122076e-05
122,316,3.920288015088285e-06
122,328,6.902972802035812e-07
122,342,5.8228238445986074e-08
123,123,6.554345328487037e-07
123,135,7.676458047967384e-08
123,148,2.3764630289333646e-08
123,154,1.7631623649035986e-06
123,162,1.7743304829755869e-06
123,172,6.392996210327806e-07
123,184,9.926184459411859e-08
123,218,1.4654440754196134e-06
123,226,1.5417932096155251e-06
123,236,5.947306592948538e-07
123,248,1.0868583465657802e-07
123,299,1.242438574812044e-06
123,307,1.3486014511959644e-06
123,317,5.437857825289697e-07
123,329,1.0687254290368442e-07
124,124,4.544274631678493e-08
124,155,7.874637962506937e-08
124,163,1.1445093493140142e-07
124,173,4.441216154566673e-08
124,219,6.558264052209702e-08
124,227,9.960353594896482e-08
124,237,4.1375428435671697e-08
124,300,5.563310303227419e-08
124,308,8.720568859673054e-08
124,318,3.7870627681568805e-08
131,150,2.0311203405399673e-07
131,158,2.2088295038477171e-07
131,168,7.363410779942152e-08
131,214,1.7199899211058267e-07
131,222,1.9026965365891075e-07
131,232,6.845778801618822e-08
131,295,1.442771589114619e-07
131,303,1.6575859420308259e-07
131,313,5.890805528268654e-08
132,132,5.020730785278242e-08
132,151,2.00552878166439e-06
132,159,1.6745659795491543e-06
132,169,5.177858275651124e-07
132,181,6.300994730458875e-08
132,215,1.6598101680541333e-06
132,223,1.4528072109648696e-06
132,233,4.818384339720404e-07
132,245,6.61484241574704e-08
132,296,1.403583855560422e-06
132,304,1.2691032254323409e-06
132,314,4.3914831026108993e-07
132,326,6.498354405227837e-08
133,133,1.6740536099447657e-07
133,140,2.3700510470984497e-06
133,152,9.024659693994924e-06
133,160,6.156678007082711e-06
133,170,1.6313385112767915e-06
133,182,2.0988312872867393e-07
133,204,1.9438723634831746e-06
133,216,7.455964550365145e-06
133,224,5.340029369907493e-06
133,234,1.514609473082466e-06
133,246,2.2007952454457807e-07
133,285,1.6334023971839652e-06
133,297,6.297234502205059e-06
133,305,4.662618779428079e-06
133,315,1.3817678368201975e-06
133,327,2.178700954504114e-07
134,134,5.020730785278242e-08
134,153,2.005528781664391e-06
134,161,1.6745659795491534e-06
134,171,5.177858275651124e-07
134,183,6.300994730458875e-08
134,217,1.6598101680541333e-06
134,225,1.4528072109648696e-06
134,235,4.818384339720403e-07
134,247,6.61484241574704e-08
134,298,1.403583855560422e-06
134,306,1.2691032254323409e-06
134,316,4.3914831026108993e-07
134,328,6.498354405227837e-08
135,154,2.0311203405399673e-07
135,162,2.2088295038477171e-07
135,172,7.363410779942152e-08
135,218,1.7199899211058267e-07
135,226,1.9026965365891078e-07
135,236,6.845778801618822e-08
135,299,1.442771589114619e-07
135,307,1.657585942030826e-07
135,317,5.890805528268656e-08
140,140,8.040852816461531e-05
140,146,3.582504064208789e-05
140,152,0.0002502297389441458
140,160,0.0001282855587510818
140,170,2.7431690189868123e-05
140,182,2.988601165437397e-06
140,196,1.6182297783767562e-07
140,204,6.692373722696965e-05
140,210,2.4754598270610868e-05
140,216,0.00020893086500086452
140,224,0.00011184577678462523
140,234,2.557794741065211e-05
140,246,3.147728570097965e-06
140,260,2.2163720701727055e-07
140,285,5.684329625063475e-05
140,291,1.7972060985607166e-05
140,297,0.00017781918463541938
140,305,9.806019598254079e-05
140,315,2.3425575176251988e-05
140,327,3.099535777113026e-06
140,341,2.494642744340684e-07
141,141,5.235670218829998e-06
141,205,4.332140816895863e-06
141,286,3.6640528294067246e-06
142,142,0.00021844115650358905
142,206,0.0001804157409984523
142,287,0.00015238976700589633
143,143,5.235670218829998e-06
143,207,4.332140816895863e-06
143,288,3.6640528294067246e-06
144,144,2.917619922921769e-07
144,150,6.774284180273689e-07
144,158,2.7406379697406757e-07
144,168,2.509277577185243e-08
144,208,2.391080470602627e-07
144,214,5.773630606511005e-07
144,222,2.4403427635496953e-07
144,232,2.4579169265598684e-08
144,289,2.0049254598930292e-07
144,295,4.982907203816599e-07
144,303,2.173252877826302e-07
144,313,2.3303241544706647e-08
145,145,1.0506492401025103e-05
145,151,1.3871702163118e-05
145,159,3.0354477927486966e-06
145,209,8.64457401864603e-06
145,215,1.1864138691869333e-05
145,223,2.7480757643506146e-06
145,290,7.280830405959859e-06
145,296,1.0272203105787921e-05
145,304,2.4735427405434425e-06
146,146,0.0001358361738929691
146,152,0.0001034087766755878
146,160,4.368381765455671e-06
146,204,3.0983321099631955e-05
146,210,0.00011218191882004735
146,216,8.92356943624512e-05
146,224,4.683107630660124e-06
146,285,2.703167402495468e-05
146,291,9.473632046275042e-05
146,297,7.773838898615545e-05
146,305,4.6575101773597915e-06
147,147,1.0506492401025106e-05
147,153,1.3871702163118002e-05
147,161,3.0354477927486957e-06
147,211,8.644574018646035e-06
147,217,1.1864138691869338e-05
147,225,2.7480757643506155e-06
147,292,7.280830405959863e-06
147,298,1.0272203105787923e-05
147,306,2.473542740543443e-06
148,148,2.917619922921769e-07
148,154,6.77428418027369e-07
148,162,2.7406379697406757e-07
148,172,2.5092775771852456e-08
148,212,2.391080470602628e-07
148,218,5.773630606511006e-07
148,226,2.440342763549695e-07
148,236,2.4579169265598694e-08
148,293,2.0049254598930297e-07
148,299,4.982907203816599e-07
148,307,2.173252877826302e-07
148,317,2.3303241544706653e-08
149,149,1.5524675182814801e-07
149,157,1.9034831244865257e-07
149,167,7.715399065164391e-08
149,213,1.3033194329400771e-07
149,221,1.667028137196253e-07
149,231,7.199877338805206e-08
149,243,1.0274248335584014e-08
149,294,1.1163883427092716e-07
149,302,1.467235805754539e-07
149,312,6.598137600700029e-08
149,324,1.0145713808998473e-08
150,150,6.365194819664355e-06
150,158,5.386509450885471e-06
150,168,1.7257328838412437e-06
150,180,2.6396485508909296e-07
150,208,5.105019791978402e-07
150,214,5.3240772615400716e-06
150,222,4.698850026070763e-06
150,232,1.6093660591662554e-06
150,244,2.780125779672618e-07
150,258,1.258886744581955e-08
150,289,4.006053298575432e-07
150,295,4.5371161457985e-06
150,303,4.121695016231216e-06
150,313,1.4741091753011756e-06
150,325,2.737517565265973e-07
150,339,1.9277604743008896e-08
151,151,0.00010957363017110394
151,159,7.235516132266267e-05
151,169,1.919347566267256e-05
151,181,2.5270899531634267e-06
151,195,1.5917565256048713e-07
151,209,1.0035517912919726e-05
151,215,9.151198144157585e-05
151,223,6.306718606709005e-05
151,233,1.788907026421358e-05
151,245,2.660312470971612e-06
151,259,2.186215384516049e-07
151,290,7.613975748885011e-06
151,296,7.789996616598372e-05
151,304,5.52844679282567e-05
151,314,1.6378912258915644e-05
151,326,2.618647456330084e-06
151,340,2.4640075262976456e-07
152,152,0.0008252474243897264
152,160,0.0004421373009968671
152,170,9.906226815669022e-05
152,182,1.1364766233750973e-05
152,196,6.536645761465008e-07
152,204,0.0002079482315248881
152,210,6.962696307326232e-05
152,216,0.0006881971354890387
152,224,0.00038508525332879085
152,234,9.228001193940254e-05
152,246,1.195891958868634e-05
152,260,8.912068086289644e-07
152,276,1.9921413560694968e-08
152,285,0.00017643329115645242
152,291,4.92379297505999e-05
152,297,0.0005851995489849451
152,305,0.00033737718586915143
152,315,8.445739333858911e-05
152,327,1.1768112487414467e-05
152,341,9.96576732115402e-07
152,357,4.855836437302221e-08
153,153,0.00010957363017110394
153,161,7.235516132266267e-05
153,171,1.919347566267256e-05
153,183,2.527089953163427e-06
153,197,1.5917565256048718e-07
153,211,1.0035517912919731e-05
153,217,9.151198144157588e-05
153,225,6.306718606709004e-05
153,235,1.788907026421358e-05
153,247,2.660312470971612e-06
153,261,2.1862153845160496e-07
153,292,7.613975748885012e-06
153,298,7.789996616598373e-05
153,306,5.52844679282567e-05
153,316,1.6378912258915644e-05
153,328,2.618647456330084e-06
153,342,2.464007526297646e-07
154,154,6.365194819664355e-06
154,162,5.386509450885471e-06
154,172,1.7257328838412437e-06
154,184,2.6396485508909296e-07
154,212,5.105019791978402e-07
154,218,5.3240772615400716e-06
154,226,4.698850026070763e-06
154,236,1.6093660591662559e-06
154,248,2.780125779672618e-07
154,262,1.258886744581955e-08
154,293,4.006053298575432e-07
154,299,4.5371161457985e-06
154,307,4.121695016231215e-06
154,317,1.474109175301176e-06
154,329,2.737517565265973e-07
154,343,1.9277604743008896e-08
155,155,1.5524675182814807e-07
155,163,1.9034831244865257e-07
155,173,7.71539906516439e-08
155,219,1.303319432940077e-07
155,227,1.667028137196253e-07
155,237,7.199877338805206e-08
155,249,1.0274248335584013e-08
155,300,1.1163883427092715e-07
155,308,1.4672358057545388e-07
155,318,6.598137600700028e-08
155,330,1.014571380899847e-08
157,157,2.598607646594269e-07
157,167,1.1190505073257935e-07
157,179,1.0742484544753194e-08
157,213,1.5942260600829628e-07
157,221,2.2609182914488731e-07
157,231,1.0428472007945878e-07
157,243,1.1350354278297075e-08
157,294,1.354965548625895e-07
157,302,1.9269317873683214e-07
157,312,9.54622832093693e-08
157,324,1.1202049645755076e-08
158,158,5.038714573064579e-06
158,168,1.733281279967719e-06
158,180,2.783625078352553e-07
158,208,1.801661164192955e-07
158,214,4.489478938088091e-06
158,222,4.386837087069477e-06
158,232,1.6130611575363771e-06
158,244,2.9300347836983037e-07
158,258,1.0131488885315504e-08
158,289,1.2401514629001158e-07
158,295,3.816328979028856e-06
158,303,3.840931786513674e-06
158,313,1.4755498597985859e-06
158,325,2.8827205493944124e-07
158,339,1.1359412621629468e-08
159,159,5.282794431751433e-05
159,169,1.5044195190303721e-05
159,181,2.1068533422271e-06
159,195,1.3468645579175362e-07
159,209,1.4770357103796255e-06
159,215,6.020567821304284e-05
159,223,4.595445711194365e-05
159,233,1.4001269129396876e-05
159,245,2.2152926606053806e-06
159,259,1.8965603039112317e-07
159,290,6.235295530104319e-07
159,296,5.1112755276208825e-05
159,304,4.022542629721865e-05
159,314,1.2805843464881229e-05
159,326,2.178743336147688e-06
159,340,2.138192831993156e-07
160,160,0.0002624999580387006
160,170,6.326074110874852e-05
160,182,7.737492792508076e-06
160,196,4.716375054543088e-07
160,204,0.00010606048655871842
160,216,0.0003672993009658376
160,224,0.00022816246428412844
160,234,5.884268762444292e-05
160,246,8.132284506015614e-06
160,260,6.447427580919586e-07
160,285,8.965007171888026e-05
160,297,0.0003114562847806205
160,305,0.00019960217656835494
160,315,5.3797316937216455e-05
160,327,7.995674711017822e-06
160,341,7.211874180773662e-07
160,357,2.8562392955331692e-08
161,161,5.282794431751433e-05
161,171,1.5044195190303718e-05
161,183,2.1068533422270997e-06
161,197,1.3468645579175362e-07
161,211,1.4770357103796255e-06
161,217,6.020567821304284e-05
161,225,4.595445711194365e-05
161,235,1.4001269129396872e-05
161,247,2.2152926606053798e-06
161,261,1.8965603039112317e-07
161,292,6.235295530104312e-07
161,298,5.111275527620882e-05
161,306,4.022542629721864e-05
161,316,1.2805843464881227e-05
161,328,2.178743336147688e-06
161,342,2.138192831993156e-07
162,162,5.038714573064577e-06
162,172,1.733281279967719e-06
162,184,2.783625078352554e-07
162,212,1.801661164192955e-07
162,218,4.489478938088091e-06
162,226,4.386837087069476e-06
162,236,1.6130611575363771e-06
162,248,2.9300347836983037e-07
162,262,1.0131488885315504e-08
162,293,1.2401514629001155e-07
162,299,3.816328979028856e-06
162,307,3.840931786513673e-06
162,317,1.475549859798586e-06
162,329,2.8827205493944124e-07
162,343,1.1359412621629466e-08
163,163,2.598607646594269e-07
163,173,1.1190505073257936e-07
163,185,1.0742484544753194e-08
163,219,1.5942260600829628e-07
163,227,2.2609182914488726e-07
163,237,1.0428472007945878e-07
163,249,1.1350354278297075e-08
163,300,1.354965548625895e-07
163,308,1.9269317873683214e-07
163,318,9.54622832093693e-08
163,330,1.1202049645755078e-08
167,167,4.340756925251437e-08
167,213,6.426172365577473e-08
167,221,9.7392348230519e-08
167,231,4.0441203624886453e-08
167,294,5.452228431097805e-08
167,302,8.527255927346166e-08
167,312,3.701663843941402e-08
168,168,6.235372752979759e-07
168,180,9.679620280220715e-08
168,214,1.434458590321006e-06
168,222,1.5055395134894056e-06
168,232,5.800872727145279e-07
168,244,1.0174349180819802e-07
168,295,1.2162545865066273e-06
168,303,1.3173372863048622e-06
168,313,5.30393726481455e-07
168,325,9.974212982889789e-08
169,169,4.496569720123828e-06
169,181,6.505957009076616e-07
169,195,1.2694717679923038e-08
169,215,1.5926310380273813e-05
169,223,1.3068419671706211e-05
169,233,4.180709184606332e-06
169,245,6.835591135870998e-07
169,259,3.3908846301934e-08
169,296,1.3493537614610615e-05
169,304,1.1427632287225984e-05
169,314,3.821072541878934e-06
169,326,6.719128215243221e-07
169,340,5.66004417748075e-08
170,170,1.6035703041888362e-05
170,182,2.0491538656847745e-06
170,196,1.2688559647077504e-07
170,204,2.2587702959301512e-05
170,216,8.206079407482477e-05
170,224,5.4908574563114565e-05
170,234,1.4901179658179884e-05
170,246,2.152056934919679e-06
170,260,1.720214502711294e-07
170,285,1.9036548940530478e-05
170,297,6.944009480091748e-05
170,305,4.7986822643595996e-05
170,315,1.3613909077452306e-05
170,327,2.1147413311028408e-06
170,341,1.942876120564587e-07
171,171,4.496569720123826e-06
171,183,6.505957009076616e-07
171,197,1.2694717679923038e-08
171,217,1.5926310380273813e-05
171,225,1.3068419671706211e-05
171,235,4.1807091846063315e-06
171,247,6.835591135870998e-07
171,261,3.390884630193399e-08
171,298,1.3493537614610612e-05
171,306,1.1427632287225984e-05
171,316,3.821072541878933e-06
171,328,6.719128215243221e-07
171,342,5.66004417748075e-08
172,172,6.23537275297976e-07
172,184,9.679620280220719e-08
172,218,1.4344585903210061e-06
172,226,1.505539513489406e-06
172,236,5.800872727145279e-07
172,248,1.0174349180819804e-07
172,299,1.2162545865066277e-06
172,307,1.3173372863048622e-06
172,317,5.30393726481455e-07
172,329,9.97421298288979e-08
173,173,4.3407569252514364e-08
173,219,6.426172365577472e-08
173,227,9.739234823051899e-08
173,237,4.0441203624886453e-08
173,300,5.452228431097805e-08
173,308,8.527255927346166e-08
173,318,3.7016638439414015e-08
180,214,2.141919057783581e-07
180,222,2.4146676310281743e-07
180,232,8.876396768784742e-08
180,295,1.8349276066549755e-07
180,303,2.111064362826996e-07
180,313,8.112387903277654e-08
181,181,8.926000185882483e-08
181,215,2.0916289244886774e-06
181,223,1.8275501482399923e-06
181,233,6.043916416008683e-07
181,245,9.371605656386513e-08
181,296,1.7664937461529552e-06
181,304,1.59636088593142e-06
181,314,5.520654709607831e-07
181,326,9.207262898450452e-08
182,182,2.650889179136738e-07
182,204,2.4512512932151806e-06
182,216,9.390093318408432e-06
182,224,6.709624338803406e-06
182,234,1.9014087667534163e-06
182,246,2.814552549214613e-07
182,285,2.059948016467638e-06
182,297,7.9311526787108e-06
182,305,5.8586577281935e-06
182,315,1.736627035218577e-06
182,327,2.7588393461140933e-07
183,183,8.926000185882483e-08
183,217,2.091628924488678e-06
183,225,1.8275501482399916e-06
183,235,6.043916416008685e-07
183,247,9.371605656386516e-08
183,298,1.7664937461529556e-06
183,306,1.5963608859314198e-06
183,316,5.520654709607831e-07
183,328,9.207262898450455e-08
184,218,2.1419190577835807e-07
184,226,2.4146676310281743e-07
184,236,8.876396768784745e-08
184,299,1.8349276066549755e-07
184,307,2.1110643628269966e-07
184,317,8.112387903277655e-08
195,215,1.2890546660722217e-07
195,223,1.1673077283879473e-07
195,233,1.1766801608396113e-08
195,296,1.0847603185079236e-07
195,304,1.0036393566895237e-07
195,314,1.0731372627535938e-08
196,204,1.3216578867839996e-07
196,216,5.383852372228179e-07
196,224,4.0575725066802723e-07
196,234,1.145336838118348e-07
196,285,1.1071983811448308e-07
196,297,4.5373672938073176e-07
196,305,3.540049452702544e-07
196,315,9.942217894896305e-08
197,217,1.289054666072222e-07
197,225,1.1673077283879473e-07
197,235,1.1766801608396112e-08
197,298,1.0847603185079236e-07
197,306,1.0036393566895237e-07
197,316,1.0731372627535938e-08
204,204,5.571296147672542e-05
204,210,2.1590781679506068e-05
204,216,0.00017366018305814068
204,224,9.247907730527075e-05
204,234,2.1063310437809415e-05
204,246,2.5819924261771615e-06
204,260,1.810329973958459e-07
204,285,4.732922307027496e-05
204,291,1.5806569570824137e-05
204,297,0.00014782070796393593
204,305,8.108770836208713e-05
204,315,1.929216250933659e-05
204,327,2.542619657005544e-06
204,341,2.0278477833327675e-07
205,205,3.5858963668377317e-06
205,286,3.033838765003295e-06
206,206,0.0001490755114922777
206,287,0.00012595843080019816
207,207,3.5858963668377317e-06
207,288,3.033838765003295e-06
208,208,1.9614720425918257e-07
208,214,4.369041530108556e-07
208,222,1.6137791933087455e-07
208,289,1.6517694606480452e-07
208,295,3.768969161723537e-07
208,303,1.4469038221461924e-07
209,209,7.133378495849875e-06
209,215,8.616101482758712e-06
209,223,1.3733270660113564e-06
209,290,6.02102631980848e-06
209,296,7.479884056028453e-06
209,304,1.2580978738022364e-06
210,210,9.298405583739076e-05
210,216,6.058565883758801e-05
210,285,1.8944013673530153e-05
210,291,7.872802103566169e-05
210,297,5.307998443275572e-05
211,211,7.133378495849876e-06
211,217,8.616101482758712e-06
211,225,1.3733270660113566e-06
211,292,6.021026319808482e-06
211,298,7.4798840560284535e-06
211,306,1.2580978738022364e-06
212,212,1.9614720425918265e-07
212,218,4.369041530108556e-07
212,226,1.6137791933087455e-07
212,293,1.6517694606480457e-07
212,299,3.768969161723537e-07
212,307,1.4469038221461924e-07
213,213,1.0963575066156784e-07
213,221,1.3959520755413762e-07
213,231,5.98875000821994e-08
213,294,9.354557353295207e-08
213,302,1.2232254384005677e-07
213,312,5.488773398923755e-08
214,214,4.453742603986659e-06
214,222,3.916924940701468e-06
214,232,1.337811973743671e-06
214,244,2.2891222841369903e-07
214,258,1.0555643391785528e-08
214,289,3.433148839065078e-07
214,295,3.79591410334524e-06
214,303,3.43574447804086e-06
214,313,1.2247941225927123e-06
214,325,2.254162262982841e-07
214,339,1.1851866210329335e-08
215,215,7.643773548198304e-05
215,223,5.2481510496000454e-05
215,233,1.4844882148902417e-05
215,245,2.202014806562891e-06
215,259,1.8018620976662693e-07
215,290,6.559808083090377e-06
215,296,6.507440010024549e-05
215,304,4.6007484553484754e-05
215,314,1.3592324122800986e-05
215,326,2.1676120612395102e-06
215,340,2.0214178856730644e-07
216,216,0.0005739904857810577
216,224,0.0003199315830944228
216,234,7.644801281149185e-05
216,246,9.881579315646406e-06
216,260,7.367623471918264e-07
216,285,0.00014736159833024284
216,291,4.321692152720019e-05
216,297,0.0004881369717334276
216,305,0.000280312687257109
216,315,6.997084562074535e-05
216,327,9.72431788655197e-06
216,341,8.218379821080728e-07
216,357,3.08937647680096e-08
217,217,7.643773548198307e-05
217,225,5.248151049600044e-05
217,235,1.4844882148902417e-05
217,247,2.202014806562891e-06
217,261,1.8018620976662693e-07
217,292,6.5598080830903785e-06
217,298,6.507440010024549e-05
217,306,4.6007484553484754e-05
217,316,1.3592324122800986e-05
217,328,2.167612061239511e-06
217,342,2.021417885673065e-07
218,218,4.45374260398666e-06
218,226,3.916924940701468e-06
218,236,1.3378119737436715e-06
218,248,2.2891222841369908e-07
218,262,1.0555643391785528e-08
218,293,3.433148839065078e-07
218,299,3.79591410334524e-06
218,307,3.43574447804086e-06
218,317,1.2247941225927128e-06
218,329,2.254162262982841e-07
218,343,1.1851866210329335e-08
219,219,1.0963575066156787e-07
219,227,1.3959520755413762e-07
219,237,5.98875000821994e-08
219,300,9.354557353295207e-08
219,308,1.2232254384005677e-07
219,318,5.488773398923755e-08
221,221,1.915999401248683e-07
221,231,9.075452269594562e-08
221,294,1.1815139601855476e-07
221,302,1.7256013466573805e-07
221,312,8.308649416089912e-08
222,222,3.819457641307963e-06
222,232,1.402057611062263e-06
222,244,2.540316576917956e-07
222,289,1.1173017945793483e-07
222,295,3.329557840707018e-06
222,303,3.3458260557200267e-06
222,313,1.2829238389815645e-06
222,325,2.499370124169385e-07
223,223,3.997705882875211e-05
223,233,1.2162866744287368e-05
223,245,1.922050190119367e-06
223,259,1.6281052265493808e-07
223,290,6.168749140840085e-07
223,296,4.455752016164426e-05
223,304,3.4994391575369715e-05
223,314,1.1124668935748132e-05
223,326,1.8903762936421573e-06
223,340,1.8389876291452586e-07
224,224,0.00019832568026934068
224,234,5.1075585258956805e-05
224,246,7.052164458799204e-06
224,260,5.583134692731889e-07
224,285,7.817706892243301e-05
224,297,0.0002713071942168991
224,305,0.00017350650670648417
224,315,4.669734703497193e-05
224,327,6.933835432013372e-06
224,341,6.245215293244139e-07
224,357,1.8940699378875297e-08
225,225,3.997705882875211e-05
225,235,1.2162866744287368e-05
225,247,1.922050190119367e-06
225,261,1.6281052265493813e-07
225,292,6.168749140840076e-07
225,298,4.455752016164426e-05
225,306,3.499439157536971e-05
225,316,1.1124668935748132e-05
225,328,1.8903762936421573e-06
225,342,1.8389876291452586e-07
226,226,3.819457641307963e-06
226,236,1.4020576110622632e-06
226,248,2.540316576917957e-07
226,293,1.1173017945793483e-07
226,299,3.329557840707018e-06
226,307,3.345826055720026e-06
226,317,1.2829238389815645e-06
226,329,2.499370124169385e-07
227,227,1.915999401248683e-07
227,237,9.075452269594562e-08
227,300,1.1815139601855475e-07
227,308,1.7256013466573805e-07
227,318,8.308649416089912e-08
231,231,3.7678625839733805e-08
231,294,5.089100179922803e-08
231,302,7.65739453606617e-08
231,312,3.448870014986082e-08
232,232,5.396596878248794e-07
232,244,9.429542079925353e-08
232,295,1.1339481411800228e-06
232,303,1.2267672095611223e-06
232,313,4.938754360375697e-07
232,325,9.27273742189477e-08
233,233,3.8865166171450235e-06
233,245,6.350269680457525e-07
233,259,4.697662843525908e-08
233,296,1.2577880259017153e-05
233,304,1.0636029583723784e-05
233,314,3.552632003606972e-06
233,326,6.242166566841007e-07
233,340,5.253377350904159e-08
234,234,1.384727226118554e-05
234,246,1.998168536877093e-06
234,260,1.608199053491736e-07
234,285,1.7753055522111344e-05
234,297,6.469371632249668e-05
234,305,4.463812703433761e-05
234,315,1.265311551134006e-05
234,327,1.9631232550124354e-06
234,341,1.7217882658818667e-07
235,235,3.886516617145023e-06
235,247,6.350269680457524e-07
235,261,4.697662843525908e-08
235,298,1.2577880259017153e-05
235,306,1.0636029583723784e-05
235,316,3.552632003606971e-06
235,328,6.242166566841007e-07
235,342,5.253377350904159e-08
236,236,5.396596878248796e-07
236,248,9.429542079925355e-08
236,299,1.1339481411800232e-06
236,307,1.2267672095611223e-06
236,317,4.938754360375697e-07
236,329,9.272737421894771e-08
237,237,3.767862583973379e-08
237,300,5.089100179922801e-08
237,308,7.657394536066169e-08
237,318,3.448870014986082e-08
244,295,1.9221959813459558e-07
244,303,2.2213675526300014e-07
244,313,8.528901745035732e-08
245,245,9.839646596635946e-08
245,296,1.8622771619808224e-06
245,304,1.678604800620514e-06
245,314,5.800569704880708e-07
245,326,9.667229950826753e-08
246,246,2.953999448475805e-07
246,285,2.169957381176714e-06
246,297,8.346368907011214e-06
246,305,6.157880563555682e-06
246,315,1.8239007615270969e-06
246,327,2.9014448700260177e-07
246,341,1.6142955537166335e-08
247,247,9.839646596635946e-08
247,298,1.862277161980823e-06
247,306,1.6786048006205138e-06
247,316,5.800569704880709e-07
247,328,9.667229950826757e-08
248,299,1.9221959813459558e-07
248,307,2.2213675526300014e-07
248,317,8.528901745035736e-08
259,296,1.5191469483012013e-07
259,304,1.4129061806281364e-07
259,314,4.288163015317973e-08
260,285,1.5166694710543736e-07
260,297,6.209495008782679e-07
260,305,4.871101238811918e-07
260,315,1.4675631130748467e-07
261,298,1.5191469483012018e-07
261,306,1.4129061806281364e-07
261,316,4.288163015317973e-08
285,285,4.0211858169602165e-05
285,291,1.3945865530454331e-05
285,297,0.0001254474875438984
285,305,6.855138698351938e-05
285,315,1.626093798929723e-05
285,327,2.136965653191629e-06
285,341,1.6989778876375217e-07
286,286,2.5671900036792205e-06
287,287,0.00010645094517350908
288,288,2.5671900036792205e-06
289,289,1.3845778224036033e-07
289,295,2.9711575619331993e-07
289,303,1.0064620817416482e-07
290,290,5.089469892391918e-06
290,296,5.708425642163844e-06
290,304,5.870972818054029e-07
291,291,6.678171136344533e-05
291,297,3.80842355931832e-05
292,292,5.0894698923919185e-06
292,298,5.708425642163845e-06
292,306,5.870972818054027e-07
293,293,1.3845778224036038e-07
293,299,2.9711575619331993e-07
293,307,1.0064620817416482e-07
294,294,7.971871537423535e-08
294,302,1.0417804452763244e-07
294,312,4.664367470528233e-08
295,295,3.2353420784519697e-06
295,303,2.9206478287466776e-06
295,313,1.0391093784257872e-06
295,325,1.8928919043130015e-07
295,339,1.0118994243919058e-08
296,296,5.5404125865103435e-05
296,304,3.906286974544175e-05
296,314,1.151703722072728e-05
296,326,1.8332346066600073e-06
296,340,1.703501146972121e-07
297,297,0.0004151566819178194
297,305,0.00023772034080574145
297,315,5.921453261553055e-05
297,327,8.213788396169252e-06
297,341,6.951167208903607e-07
297,357,2.028958918966659e-08
298,298,5.5404125865103435e-05
298,306,3.9062869745441764e-05
298,316,1.151703722072728e-05
298,328,1.8332346066600075e-06
298,342,1.7035011469721217e-07
299,299,3.2353420784519697e-06
299,307,2.9206478287466776e-06
299,317,1.0391093784257874e-06
299,329,1.8928919043130015e-07
299,343,1.0118994243919055e-08
300,300,7.971871537423535e-08
300,308,1.0417804452763244e-07
300,318,4.664367470528233e-08
302,302,1.5101051996604328e-07
302,312,7.020140054857173e-08
303,303,2.9306555549289902e-06
303,313,1.1222269435227363e-06
303,325,2.18558839540197e-07
304,304,3.063341072102064e-05
304,314,9.728326827164349e-06
304,326,1.6513049619436416e-06
304,340,1.5902507094983156e-07
305,305,0.00015179650900919045
305,315,4.0812440541085824e-05
305,327,6.054645877064519e-06
305,341,5.448813996815793e-07
306,306,3.063341072102063e-05
306,316,9.728326827164347e-06
306,328,1.6513049619436416e-06
306,342,1.5902507094983156e-07
307,307,2.93065555492899e-06
307,317,1.1222269435227365e-06
307,329,2.18558839540197e-07
308,308,1.5101051996604325e-07
308,318,7.020140054857172e-08
312,312,3.156929981270866e-08
313,313,4.509872963048109e-07
313,325,8.387473423764084e-08
314,314,3.2467901600301818e-06
314,326,5.701884101212865e-07
314,340,4.7954960920845604e-08
315,315,1.1558726238474623e-05
315,327,1.7923209965700596e-06
315,341,1.6283106341727744e-07
316,316,3.2467901600301818e-06
316,328,5.701884101212864e-07
316,342,4.7954960920845604e-08
317,317,4.50987296304811e-07
317,329,8.387473423764087e-08
318,318,3.156929981270866e-08
326,326,9.497928777928584e-08
327,327,2.7912643486006335e-07
328,328,9.497928777928586e-08
