# Basis size = 385
0,0,0.015326179941057491
0,3,0.019389005839789537
0,7,0.008589149535574825
0,11,0.005041582954289629
0,16,0.005161956798294017
0,20,0.0036211693412147926
0,26,0.0005784168001478567
0,32,0.0035598489226901873
0,36,0.0026787076579077363
0,42,0.000519763952410656
0,50,3.8176751830144814e-05
0,57,0.002653699312195992
0,61,0.0020694614021816633
0,67,0.0004357223223692539
0,75,3.980718217154385e-05
0,85,1.656212568019921e-06
0,93,0.0020801003822354214
0,97,0.0016562960979373213
0,103,0.00036434711710670514
0,111,3.6676849636362634e-05
0,121,1.932936968072767e-06
0,133,5.125471908878058e-08
0,142,0.0016889283095568425
0,146,0.0013627740085704414
0,152,0.00030786907987141266
0,160,3.272116541794764e-05
0,170,1.9240864243837222e-06
0,182,6.541247234256879e-08
0,206,0.0014076230925082738
0,210,0.001146035513855514
0,216,0.0002634820454711775
0,224,2.8976389530060878e-05
0,234,1.8152737477701266e-06
0,246,6.955324952054532e-08
0,287,0.0011971069631389472
0,291,0.000980866326348985
0,297,0.00022827534110871574
0,305,2.5691112880595257e-05
0,315,1.6765879499185602e-06
0,327,6.89563211665085e-08
1,1,0.022895458819922533
1,5,0.009349603260990522
1,14,0.005388773427038347
1,30,0.0036349584645276687
1,55,0.002675193231754979
1,91,0.0020802212109288375
1,140,0.0016800724882834342
1,204,0.0013950730819105661
1,285,0.0011832668359469133
2,2,0.008705693490123735
2,6,0.0031660038124941394
2,10,0.005501904702401044
2,15,0.001751412330637798
2,19,0.0038277755774458475
2,25,0.0011530646013826343
2,31,0.0011586517667343474
2,35,0.0027892246512508994
2,41,0.0010254276244179394
2,49,0.00012189266438451629
2,56,0.0008436191684693524
2,60,0.002137113489153773
2,66,0.0008547600302575559
2,74,0.00012652791994769694
2,84,7.8421183208244e-06
2,92,0.0006517179959244699
2,96,0.00170189391621352
2,102,0.0007122942453914754
2,110,0.00011626172627500962
2,120,9.131434106388595e-06
2,132,3.4131260237925524e-07
2,141,0.00052410817134289
2,145,0.001395729254344852
2,151,0.0006005389472801334
2,159,0.00010353963830141803
2,169,9.076092141510524e-06
2,181,4.358156278317312e-07
2,205,0.0004339207037311421
2,209,0.0011711203007160336
2,215,0.0005131696924559569
2,223,9.157901928633597e-05
2,233,8.554066942775565e-06
2,245,4.629928499146003e-07
2,259,1.4412423187761933e-08
2,286,0.0003672632904779646
2,290,0.0010007266738512116
2,296,0.00044411231048870325
2,304,8.11256296928709e-05
2,314,7.894766494335755e-06
2,326,4.5872283380532994e-07
2,340,1.6250687547078176e-08
3,3,0.06997239263790693
3,7,0.021632711408626604
3,11,0.031084992040532625
3,16,0.01099836914263163
3,20,0.021255270453219025
3,26,0.005268862845781686
3,32,0.006940224922034199
3,36,0.015359676876482951
3,42,0.004663881964587446
3,50,0.0004801023006825147
3,57,0.004911397748627777
3,61,0.01171436917150049
3,67,0.003877732203014933
3,75,0.0004974910914360356
3,85,2.7623655953698205e-05
3,93,0.003725528869379649
3,97,0.009302495342252687
3,103,0.00322641714072528
3,111,0.00045664367255945237
3,121,3.213991491066959e-05
3,133,1.101630511510373e-06
3,142,0.0029593266790178584
3,146,0.00761496232313034
3,152,0.002717466412475682
3,160,0.0004063957992765184
3,170,3.192877663067714e-05
3,182,1.4060854036205747e-06
3,196,3.2666934906651304e-08
3,206,0.0024288978993820326
3,210,0.006381410620114898
3,216,0.0023205073160311764
3,224,0.0003592806643729489
3,234,3.008177237290225e-05
3,246,1.4933460680258203e-06
3,260,4.507774325915004e-08
3,287,0.0020427978232814897
3,291,0.005447972619079198
3,297,0.002007238800618425
3,305,0.0003181627750267578
3,315,2.7756252212385606e-05
3,327,1.4792907917475912e-06
3,341,5.0743722454517573e-08
4,4,0.008705693490123735
4,8,0.0031660038124941394
4,12,0.005501904702401044
4,17,0.001751412330637798
4,21,0.003827775577445848
4,27,0.0011530646013826345
4,33,0.0011586517667343474
4,37,0.0027892246512508994
4,43,0.0010254276244179396
4,51,0.00012189266438451629
4,58,0.0008436191684693524
4,62,0.0021371134891537734
4,68,0.0008547600302575559
4,76,0.00012652791994769694
4,86,7.842118320824396e-06
4,94,0.0006517179959244699
4,98,0.00170189391621352
4,104,0.0007122942453914754
4,112,0.00011626172627500956
4,122,9.131434106388592e-06
4,134,3.4131260237925524e-07
4,143,0.00052410817134289
4,147,0.001395729254344852
4,153,0.0006005389472801335
4,161,0.00010353963830141803
4,171,9.076092141510524e-06
4,183,4.358156278317313e-07
4,207,0.0004339207037311421
4,211,0.0011711203007160336
4,217,0.000513169692455957
4,225,9.157901928633594e-05
4,235,8.554066942775565e-06
4,247,4.629928499146003e-07
4,261,1.4412423187761935e-08
4,288,0.0003672632904779646
4,292,0.0010007266738512116
4,298,0.00044411231048870325
4,306,8.112562969287088e-05
4,316,7.894766494335755e-06
4,328,4.5872283380532994e-07
4,342,1.6250687547078176e-08
5,5,0.004320434995127268
5,14,0.002610962910600891
5,30,0.0018021754491184343
5,55,0.001343450730379319
5,91,0.0010529002280994782
5,140,0.0008547559605510333
5,204,0.0007122868044403745
5,285,0.0006056898418363273
6,6,0.0014124831187059064
6,10,0.0014456032201227828
6,15,0.0008444380758278661
6,19,0.0010612044309853868
6,25,0.0001949865377814526
6,31,0.0005800866963326149
6,35,0.0007922409986888366
6,41,0.000178900340723399
6,49,9.318585254526289e-06
6,56,0.0004313378117978347
6,60,0.0006149642707728676
6,66,0.0001516183496399422
6,74,1.0002687965263947e-05
6,92,0.0003375422676892102
6,96,0.0004935586465162907
6,102,0.00012760166834524742
6,110,9.373795425976948e-06
6,141,0.0002737545964828842
6,145,0.0004068133348274842
6,151,0.00010826823754623546
6,159,8.453665523184888e-06
6,205,0.00022797467707530648
6,209,0.00034252441368104854
6,215,9.291927211642248e-05
6,223,7.541164156297474e-06
6,286,0.00019376576950820104
6,290,0.0002934091724796069
6,296,8.066422158264049e-05
6,304,6.720951032726783e-06
7,7,0.009384293064429198
7,11,0.0064280378659077346
7,16,0.005501674846969089
7,20,0.004768897578315776
7,26,0.0005952452250024383
7,32,0.0037378269020612244
7,36,0.0035740592760705307
7,42,0.0005557799261553209
7,50,9.86412196000538e-06
7,57,0.0027611086426336286
7,61,0.0027794698682300284
7,67,0.00047518714171311804
7,75,1.1681545172756548e-05
7,93,0.00215168660451604
7,97,0.002233070318615852
7,103,0.00040195383837217293
7,111,1.1531038350994117e-05
7,142,0.001740189942334812
7,146,0.0018417806180049295
7,152,0.0003421494811497705
7,160,1.0729450072956761e-05
7,206,0.0014463419885164018
7,210,0.0015513839946326277
7,216,0.0002942797915781395
7,224,9.768823390145557e-06
7,287,0.0012275636414065764
7,291,0.0013293236146357413
7,297,0.0002558585863308887
7,305,8.830302007356796e-06
8,8,0.0014124831187059064
8,12,0.0014456032201227828
8,17,0.0008444380758278661
8,21,0.0010612044309853868
8,27,0.0001949865377814526
8,33,0.0005800866963326149
8,37,0.0007922409986888369
8,43,0.000178900340723399
8,51,9.318585254526287e-06
8,58,0.0004313378117978347
8,62,0.0006149642707728677
8,68,0.0001516183496399422
8,76,1.0002687965263945e-05
8,94,0.0003375422676892102
8,98,0.0004935586465162907
8,104,0.00012760166834524742
8,112,9.373795425976945e-06
8,143,0.0002737545964828842
8,147,0.0004068133348274842
8,153,0.00010826823754623544
8,161,8.453665523184887e-06
8,207,0.00022797467707530648
8,211,0.00034252441368104854
8,217,9.291927211642248e-05
8,225,7.541164156297472e-06
8,288,0.00019376576950820104
8,292,0.0002934091724796069
8,298,8.066422158264046e-05
8,306,6.720951032726782e-06
9,9,0.0005134752348748168
9,18,0.0003524903128949192
9,24,0.00018501401272656126
9,34,0.00025521823071528724
9,40,0.00016385141795500582
9,48,2.8151984509211343e-05
9,59,0.00019486140787409675
9,65,0.00013627021190469656
9,73,2.9171205649279563e-05
9,83,2.4041847138203346e-06
9,95,0.00015484595563408773
9,101,0.00011340119071701212
9,109,2.677584838054926e-05
9,119,2.7969847347154116e-06
9,131,1.3217261309519663e-07
9,144,0.0001268121806899027
9,150,9.552340423917942e-05
9,158,2.3829397407023832e-05
9,168,2.778439902295294e-06
9,180,1.686836864875116e-07
9,208,0.00010630242279482053
9,214,8.157592315746134e-05
9,222,2.1066697430850815e-05
9,232,2.6176038096749767e-06
9,244,1.7913962600464674e-07
9,289,9.077311731367442e-05
9,295,7.056708076074545e-05
9,303,1.865569768085757e-05
9,313,2.4151741298581636e-06
9,325,1.774447600471347e-07
10,10,0.004778928933348597
10,15,0.0006634632683988881
10,19,0.0032139853573404666
10,25,0.001251140958471374
10,31,0.000392302911334883
10,35,0.0023039484731228097
10,41,0.0011021109687882127
10,49,0.00015838100715215715
10,56,0.00026607408631465674
10,60,0.001749330610030396
10,66,0.0009138958084881357
10,74,0.00016379064283869807
10,84,1.1907545404824119e-05
10,92,0.0001961109662946631
10,96,0.0013853790085082706
10,102,0.0007591655436175916
10,110,0.0001501611213622604
10,120,1.3840759035075247e-05
10,132,5.957300370770977e-07
10,141,0.00015267362681041158
10,145,0.0011320409779702867
10,151,0.0006387372862258479
10,159,0.00013353300183105955
10,169,1.3741072892771974e-05
10,181,7.599873140493306e-07
10,195,2.084137518001681e-08
10,205,0.0001234987242150593
10,209,0.0009474950843619794
10,215,0.0005450374326715135
10,223,0.00011798841600481462
10,233,1.2940523346696893e-05
10,245,8.068500670203249e-07
10,259,2.920283174932345e-08
10,286,0.00010275084831557798
10,290,0.0008081866210629807
10,296,0.00047121265568012043
10,304,0.00010444494371846509
10,314,1.1936397290518765e-05
10,326,7.99042365636832e-07
10,340,3.290837463403605e-08
11,11,0.018201150809862073
11,16,0.0023943389126103616
11,20,0.01202569173784748
11,26,0.0037936415196832074
11,32,0.0011910435121993206
11,36,0.008545809837124769
11,42,0.00332662356184871
11,50,0.000411825129527592
11,57,0.0007032036238166751
11,61,0.006457011953380389
11,67,0.0027516238168220483
11,75,0.00042518850392878754
11,85,2.769692121199112e-05
11,93,0.0004643686259933252
11,97,0.00509831349659056
11,103,0.00228227970931243
11,111,0.0003894173432202466
11,121,3.21702060159304e-05
11,133,1.2738481906213653e-06
11,142,0.000331423549822681
11,146,0.004157819810246696
11,152,0.001918333760412604
11,160,0.0003460696623046495
11,170,3.192342276356389e-05
11,182,1.6244265875723908e-06
11,196,4.263279295380488e-08
11,206,0.0002502095700965385
11,210,0.0034752838164222393
11,216,0.0016358072265340467
11,224,0.0003056468857259771
11,234,3.005382812293663e-05
11,246,1.7241655697602151e-06
11,260,5.8520634345492756e-08
11,287,0.00019698854766748584
11,291,0.0029614238292523572
11,297,0.0014135476267576417
11,305,0.0002704760872435367
11,315,2.7715346829482026e-05
11,327,1.7071783874965123e-06
11,341,6.68851853117968e-08
12,12,0.0047789289333486
12,17,0.0006634632683988881
12,21,0.0032139853573404683
12,27,0.0012511409584713743
12,33,0.000392302911334883
12,37,0.0023039484731228106
12,43,0.0011021109687882132
12,51,0.00015838100715215715
12,58,0.00026607408631465674
12,62,0.0017493306100303965
12,68,0.000913895808488136
12,76,0.00016379064283869807
12,86,1.1907545404824119e-05
12,94,0.0001961109662946631
12,98,0.0013853790085082709
12,104,0.0007591655436175916
12,112,0.0001501611213622604
12,122,1.3840759035075247e-05
12,134,5.957300370770979e-07
12,143,0.0001526736268104116
12,147,0.001132040977970287
12,153,0.000638737286225848
12,161,0.00013353300183105955
12,171,1.374107289277197e-05
12,183,7.599873140493306e-07
12,197,2.0841375180016814e-08
12,207,0.00012349872421505933
12,211,0.0009474950843619796
12,217,0.0005450374326715136
12,225,0.00011798841600481459
12,235,1.2940523346696893e-05
12,247,8.068500670203249e-07
12,261,2.920283174932345e-08
12,288,0.00010275084831557798
12,292,0.0008081866210629809
12,298,0.00047121265568012065
12,306,0.0001044449437184651
12,316,1.1936397290518765e-05
12,328,7.990423656368321e-07
12,342,3.2908374634036056e-08
13,13,0.0005134752348748169
13,22,0.0003524903128949192
13,28,0.00018501401272656126
13,38,0.0002552182307152874
13,44,0.00016385141795500582
13,52,2.8151984509211353e-05
13,63,0.0001948614078740968
13,69,0.00013627021190469656
13,77,2.9171205649279563e-05
13,87,2.4041847138203354e-06
13,99,0.00015484595563408773
13,105,0.0001134011907170121
13,113,2.6775848380549267e-05
13,123,2.7969847347154125e-06
13,135,1.3217261309519666e-07
13,148,0.0001268121806899027
13,154,9.552340423917939e-05
13,162,2.3829397407023835e-05
13,172,2.7784399022952944e-06
13,184,1.6868368648751162e-07
13,212,0.00010630242279482058
13,218,8.157592315746134e-05
13,226,2.1066697430850815e-05
13,236,2.6176038096749776e-06
13,248,1.7913962600464676e-07
13,293,9.077311731367442e-05
13,299,7.056708076074544e-05
13,307,1.8655697680857572e-05
13,317,2.4151741298581636e-06
13,329,1.7744476004713475e-07
14,14,0.0016042724954740636
14,30,0.0011159501834493032
14,55,0.0008354376366905712
14,91,0.0006564432650665618
14,140,0.0005338016762016025
14,204,0.00044534115458876234
14,285,0.0003790064135228894
15,15,0.0005177340281242774
15,19,0.0005042163126251936
15,25,5.5552160900727664e-05
15,31,0.0003597760151037578
15,35,0.00038203238712199665
15,41,5.3497706678082316e-05
15,56,0.0002691921354470231
15,60,0.00029885084499597486
15,66,4.645335026956038e-05
15,92,0.0002114473742915176
15,96,0.00024095115230054126
15,102,3.9647124400170796e-05
15,141,0.0001719065713738203
15,145,0.00019918564237419097
15,151,3.393940768514518e-05
15,205,0.00014339768450764484
15,209,0.00016804270488489115
15,215,2.9302328995711836e-05
15,286,0.00012202554385441853
15,290,0.0001441508483445211
15,296,2.5545229085066618e-05
16,16,0.0033722095724226715
16,20,0.0019187177031809606
16,26,3.102070977478349e-05
16,32,0.0023381610569145153
16,36,0.0014832746509041645
16,42,4.855422611226079e-05
16,57,0.0017463835280086134
16,61,0.0011718950427986577
16,67,4.99456034497031e-05
16,93,0.0013700480449430753
16,97,0.0009502325567986461
16,103,4.637452510900679e-05
16,142,0.001112857946490004
16,146,0.000788330780972358
16,152,4.1697678283816596e-05
16,206,0.0009277038481580709
16,210,0.0006666682526035692
16,216,3.71531652584756e-05
16,287,0.0007890600284823652
16,291,0.0005728486033019522
16,297,3.309519112888243e-05
17,17,0.0005177340281242774
17,21,0.0005042163126251936
17,27,5.5552160900727664e-05
17,33,0.0003597760151037578
17,37,0.0003820323871219967
17,43,5.3497706678082316e-05
17,58,0.0002691921354470231
17,62,0.0002988508449959749
17,68,4.645335026956038e-05
17,94,0.0002114473742915176
17,98,0.0002409511523005413
17,104,3.9647124400170796e-05
17,143,0.0001719065713738203
17,147,0.00019918564237419097
17,153,3.393940768514518e-05
17,207,0.00014339768450764484
17,211,0.00016804270488489118
17,217,2.9302328995711836e-05
17,288,0.00012202554385441853
17,292,0.0001441508483445211
17,298,2.5545229085066618e-05
18,18,0.00024326125805867508
18,24,0.00012313916280959822
18,34,0.00017657213563421862
18,40,0.00010926094071058779
18,48,1.8178450631389366e-05
18,59,0.0001349992257365279
18,65,9.096285277721935e-05
18,73,1.885366172298451e-05
18,83,1.5054975425451782e-06
18,95,0.00010736585899554063
18,101,7.574457186987453e-05
18,109,1.731500421702436e-05
18,119,1.7524994535247913e-06
18,131,7.987188255597735e-08
18,144,8.797563189362134e-05
18,150,6.382922477816687e-05
18,158,1.5415112158221672e-05
18,168,1.7414564439005674e-06
18,180,1.0235370833667883e-07
18,208,7.377447986193483e-05
18,214,5.452460574482861e-05
18,222,1.3631255403403193e-05
18,232,1.6410209104457086e-06
18,244,1.0872223487360327e-07
18,289,6.30138493273206e-05
18,295,4.717578118679987e-05
18,303,1.2073305334413487e-05
18,313,1.515337330171833e-06
18,325,1.0779857431133003e-07
19,19,0.0021754038759428653
19,25,0.0008160735135321602
19,31,0.00030501330550099633
19,35,0.0015642203697806732
19,41,0.0007204422387265257
19,49,0.0001002564888657763
19,56,0.00021005592423730578
19,60,0.0011896823062078562
19,66,0.0005981216721422572
19,74,0.00010378703959876233
19,84,7.311756029096555e-06
19,92,0.0001564606969244973
19,96,0.000943136317623884
19,102,0.0004972137937032726
19,110,9.520941551329947e-05
19,120,8.50378011734902e-06
19,132,3.544403456945013e-07
19,141,0.00012271838237460004
19,145,0.0007711870771224029
19,151,0.00041853616998363015
19,159,8.470036588675702e-05
19,169,8.44564114264545e-06
19,181,4.523073663727199e-07
19,195,1.0667514718601164e-08
19,205,9.980964517177852e-05
19,209,0.0006457663030654071
19,215,0.0003572540134723592
19,223,7.48609918035017e-05
19,233,7.955492373994335e-06
19,245,4.803124775181561e-07
19,259,1.635822885095349e-08
19,286,8.33803488696117e-05
19,290,0.0005510032030126846
19,296,0.00030893563009071895
19,304,6.628101492050225e-05
19,314,7.339507159532808e-06
19,326,4.757217044235279e-07
19,340,1.8450651984785243e-08
20,20,0.008005454061880196
20,26,0.002431510928071232
20,32,0.001024199534086951
20,36,0.005709594307433972
20,42,0.002137459049128305
20,50,0.00025627353466974793
20,57,0.0006430557846119052
20,61,0.004322738216201319
20,67,0.0017703967271171842
20,75,0.00026488988428221
20,85,1.6727003014261757e-05
20,93,0.00044730416492060634
20,97,0.003417342899715738
20,103,0.0014696230116438829
20,111,0.00024277106183309853
20,121,1.9440778344638562e-05
20,133,7.458540791199291e-07
20,142,0.0003333320956182811
20,146,0.0027891866295072917
20,152,0.0012359262493604967
20,160,0.00021584328715652497
20,170,1.9299419723745766e-05
20,182,9.514832590641597e-07
20,196,2.5271662623439186e-08
20,206,0.0002607742025680366
20,210,0.0023326168084574755
20,216,0.0010542882156929915
20,224,0.00019068987407283458
20,234,1.8174011332459076e-05
20,246,1.0101667256593567e-06
20,260,3.3986701803005875e-08
20,287,0.00021141798335143623
20,291,0.0019885059766548206
20,297,0.0009112791279194412
20,305,0.0001687840550206697
20,315,1.676327279418533e-05
20,327,1.0004402070508828e-06
20,341,3.833307090418929e-08
21,21,0.0021754038759428658
21,27,0.0008160735135321605
21,33,0.00030501330550099633
21,37,0.0015642203697806736
21,43,0.0007204422387265258
21,51,0.0001002564888657763
21,58,0.00021005592423730578
21,62,0.0011896823062078564
21,68,0.0005981216721422573
21,76,0.0001037870395987623
21,86,7.311756029096555e-06
21,94,0.00015646069692449734
21,98,0.0009431363176238845
21,104,0.0004972137937032727
21,112,9.520941551329944e-05
21,122,8.50378011734902e-06
21,134,3.544403456945013e-07
21,143,0.00012271838237460004
21,147,0.0007711870771224032
21,153,0.00041853616998363037
21,161,8.470036588675701e-05
21,171,8.44564114264545e-06
21,183,4.523073663727199e-07
21,197,1.0667514718601165e-08
21,207,9.980964517177852e-05
21,211,0.0006457663030654071
21,217,0.0003572540134723592
21,225,7.486099180350168e-05
21,235,7.955492373994335e-06
21,247,4.803124775181562e-07
21,261,1.6358228850953492e-08
21,288,8.338034886961174e-05
21,292,0.0005510032030126847
21,298,0.000308935630090719
21,306,6.628101492050225e-05
21,316,7.33950715953281e-06
21,328,4.757217044235279e-07
21,342,1.8450651984785243e-08
22,22,0.00024326125805867508
22,28,0.00012313916280959827
22,38,0.00017657213563421865
22,44,0.00010926094071058782
22,52,1.8178450631389372e-05
22,63,0.00013499922573652795
22,69,9.096285277721935e-05
22,77,1.885366172298451e-05
22,87,1.5054975425451786e-06
22,99,0.00010736585899554063
22,105,7.574457186987453e-05
22,113,1.7315004217024366e-05
22,123,1.7524994535247917e-06
22,135,7.987188255597739e-08
22,148,8.797563189362138e-05
22,154,6.382922477816687e-05
22,162,1.5415112158221672e-05
22,172,1.7414564439005676e-06
22,184,1.0235370833667886e-07
22,212,7.377447986193484e-05
22,218,5.452460574482861e-05
22,226,1.3631255403403193e-05
22,236,1.6410209104457088e-06
22,248,1.087222348736033e-07
22,293,6.301384932732062e-05
22,299,4.717578118679987e-05
22,307,1.2073305334413487e-05
22,317,1.515337330171833e-06
22,329,1.0779857431133006e-07
23,23,8.103176873697866e-06
23,39,7.160379414525682e-06
23,47,1.950126591048913e-06
23,64,5.947818131035069e-06
23,72,2.018847499968036e-06
23,82,2.2485091168660673e-07
23,100,4.945993761528659e-06
23,108,1.852028361355942e-06
23,118,2.6146804416541534e-07
23,130,1.413130789333875e-08
23,149,4.164247457304874e-06
23,157,1.6476247257816032e-06
23,167,2.596573298805848e-07
23,179,1.8030799096836274e-08
23,213,3.5550478945579276e-06
23,221,1.4562382891696607e-06
23,231,2.4457666756926397e-07
23,243,1.9145498019628788e-08
23,294,3.0745490542702906e-06
23,302,1.2893290128354958e-06
23,312,2.2562960559660555e-07
23,324,1.8962293084747902e-08
24,24,8.062049413809428e-05
24,34,8.782400042540702e-05
24,40,7.08118435747329e-05
24,48,1.4273951989142489e-05
24,59,6.649305434262129e-05
24,65,5.8625268843927747e-05
24,73,1.4744478613686086e-05
24,83,1.3874413239167244e-06
24,95,5.256726182658406e-05
24,101,4.865239532773263e-05
24,109,1.3508109563209171e-05
24,119,1.61178496843238e-06
24,131,8.494787372504505e-08
24,144,4.290541714540901e-05
24,150,4.090872253007364e-05
24,158,1.2006829711297736e-05
24,168,1.5995962051144469e-06
24,180,1.0894526527273567e-07
24,208,3.58826058679709e-05
24,214,3.489245320447893e-05
24,222,1.0605803680843868e-05
24,232,1.5060398777999851e-06
24,244,1.1563855827305005e-07
24,289,3.0589483815291915e-05
24,295,3.0156922874166336e-05
24,303,9.386435136840769e-06
24,313,1.3889305258312185e-06
24,325,1.1450215863666185e-07
25,25,0.00038612975073530224
25,31,1.920020147013109e-05
25,35,0.0005762362887989298
25,41,0.0003373984623008875
25,49,5.612461040965014e-05
25,56,6.683993759229841e-06
25,60,0.00043382876197954704
25,66,0.0002785354080499476
25,74,5.786438222678416e-05
25,84,4.7694267419397195e-06
25,92,1.6625479868684874e-06
25,96,0.0003417845763322573
25,102,0.000230751390884222
25,110,5.295110885697299e-05
25,120,5.535977463472199e-06
25,132,2.6773422364707965e-07
25,145,0.0002783298024061049
25,151,0.00019380410119952595
25,159,4.703079334689914e-05
25,169,5.491090601423928e-06
25,181,3.4059227052265886e-07
25,209,0.00023240597353893947
25,215,0.00016517305870881324
25,223,4.152151333974792e-05
25,233,5.167941734554991e-06
25,245,3.612659002549097e-07
25,259,1.394599577042961e-08
25,290,0.00019789872966691186
25,296,0.00014267615570052043
25,304,3.673359472180057e-05
25,314,4.764794400968841e-06
25,326,3.5764059410567536e-07
25,340,1.6126737339651194e-08
26,26,0.0009291240789359642
26,36,0.0017019104116697903
26,42,0.000808416939720096
26,50,0.0001161349759728381
26,61,0.00127495970732149
26,67,0.0006658120516583184
26,75,0.0001195556765678275
26,85,8.87966087849242e-06
26,97,0.0010013765061585894
26,103,0.0005507999750340852
26,111,0.00010930483135373459
26,121,1.0300225141604991e-05
26,133,4.5988983698277793e-07
26,146,0.000813815498566045
26,152,0.00046217519540661813
26,160,9.702633489099611e-05
26,170,1.0212458728636946e-05
26,182,5.860600236462469e-07
26,196,1.7298500900536595e-08
26,210,0.000678585896748602
26,216,0.00039364384955660627
26,224,8.562565565903596e-05
26,234,9.608713487605169e-06
26,246,6.217547548371208e-07
26,260,2.416114011458446e-08
26,291,0.0005772473943514887
26,297,0.000339871853227311
26,305,7.572994718759774e-05
26,315,8.857332801548457e-06
26,327,6.154241800032114e-07
26,341,2.723642276016961e-08
27,27,0.0003861297507353024
27,33,1.9200201470131088e-05
27,37,0.0005762362887989299
27,43,0.0003373984623008875
27,51,5.612461040965012e-05
27,58,6.683993759229844e-06
27,62,0.00043382876197954715
27,68,0.0002785354080499477
27,76,5.786438222678416e-05
27,86,4.7694267419397195e-06
27,94,1.6625479868684887e-06
27,98,0.0003417845763322573
27,104,0.000230751390884222
27,112,5.295110885697298e-05
27,122,5.535977463472199e-06
27,134,2.677342236470797e-07
27,147,0.0002783298024061049
27,153,0.00019380410119952595
27,161,4.7030793346899136e-05
27,171,5.491090601423926e-06
27,183,3.4059227052265886e-07
27,211,0.00023240597353893952
27,217,0.00016517305870881324
27,225,4.15215133397479e-05
27,235,5.167941734554991e-06
27,247,3.612659002549098e-07
27,261,1.3945995770429612e-08
27,292,0.00019789872966691197
27,298,0.00014267615570052043
27,306,3.673359472180056e-05
27,316,4.764794400968839e-06
27,328,3.5764059410567536e-07
27,342,1.6126737339651194e-08
28,28,8.062049413809426e-05
28,38,8.782400042540702e-05
28,44,7.081184357473289e-05
28,52,1.4273951989142489e-05
28,63,6.649305434262129e-05
28,69,5.8625268843927747e-05
28,77,1.4744478613686086e-05
28,87,1.3874413239167244e-06
28,99,5.256726182658406e-05
28,105,4.865239532773263e-05
28,113,1.3508109563209171e-05
28,123,1.61178496843238e-06
28,135,8.494787372504507e-08
28,148,4.290541714540901e-05
28,154,4.0908722530073635e-05
28,162,1.2006829711297736e-05
28,172,1.5995962051144469e-06
28,184,1.0894526527273567e-07
28,212,3.58826058679709e-05
28,218,3.489245320447891e-05
28,226,1.0605803680843868e-05
28,236,1.5060398777999853e-06
28,248,1.1563855827305008e-07
28,293,3.058948381529192e-05
28,299,3.0156922874166333e-05
28,307,9.386435136840769e-06
28,317,1.3889305258312185e-06
28,329,1.1450215863666185e-07
29,29,8.103176873697866e-06
29,45,7.160379414525682e-06
29,53,1.950126591048913e-06
29,70,5.947818131035069e-06
29,78,2.0188474999680364e-06
29,88,2.2485091168660673e-07
29,106,4.945993761528659e-06
29,114,1.852028361355942e-06
29,124,2.614680441654154e-07
29,136,1.4131307893338754e-08
29,155,4.164247457304874e-06
29,163,1.6476247257816032e-06
29,173,2.596573298805848e-07
29,185,1.803079909683628e-08
29,219,3.5550478945579276e-06
29,227,1.4562382891696607e-06
29,237,2.4457666756926397e-07
29,249,1.9145498019628788e-08
29,300,3.0745490542702906e-06
29,308,1.2893290128354962e-06
29,318,2.2562960559660555e-07
29,330,1.8962293084747902e-08
30,30,0.0007790524673804949
30,55,0.0005843612225724652
30,91,0.00045970038569575204
30,133,1.882759822882498e-08
30,140,0.00037410123000535504
30,182,2.3349510811045856e-08
30,204,0.0003122694463200476
30,246,2.4666618051707833e-08
30,285,0.0002658557212339207
30,327,2.4245711272882918e-08
31,31,0.0002513001729115036
31,35,0.00023327558007393633
31,41,2.0107996440767282e-05
31,56,0.00018854751810490014
31,60,0.0001833647263004163
31,66,1.81400702011708e-05
31,92,0.00014834670004758044
31,96,0.0001482568508842215
31,102,1.5810680107031784e-05
31,141,0.00012073458242448944
31,145,0.00012277902994232723
31,151,1.3710363501115925e-05
31,205,0.00010078558133244284
31,209,0.0001037085748194746
31,215,1.193870735388797e-05
31,286,8.580911619193353e-05
31,290,8.904043273756957e-05
31,296,1.0470236563469512e-05
32,32,0.0016357298918167702
32,36,0.0008123456620103491
32,57,0.0012275602863158401
32,61,0.0006499214070663966
32,93,0.0009657699351078631
32,97,0.0005307752055145087
32,142,0.0007859141332077767
32,146,0.00044232323199407066
32,206,0.0006559789631882907
32,210,0.0003751882243958106
32,287,0.0005584442294676977
32,291,0.0003230731654853303
33,33,0.0002513001729115036
33,37,0.00023327558007393633
33,43,2.0107996440767282e-05
33,58,0.00018854751810490014
33,62,0.00018336472630041634
33,68,1.8140070201170803e-05
33,94,0.00014834670004758044
33,98,0.00014825685088422152
33,104,1.5810680107031787e-05
33,143,0.00012073458242448944
33,147,0.00012277902994232723
33,153,1.3710363501115925e-05
33,207,0.00010078558133244284
33,211,0.0001037085748194746
33,217,1.1938707353887974e-05
33,288,8.580911619193353e-05
33,292,8.904043273756957e-05
33,298,1.0470236563469512e-05
34,34,0.00012831621698558408
34,40,7.799728102858833e-05
34,48,1.2771312284066177e-05
34,59,9.8168100345455e-05
34,65,6.49673179020895e-05
34,73,1.3251628971828937e-05
34,83,1.0412196563705007e-06
34,95,7.810426479785435e-05
34,101,5.411441444119477e-05
34,109,1.2173430277357804e-05
34,119,1.2122670670530964e-06
34,131,5.390028369878077e-08
34,144,6.401492708467598e-05
34,150,4.561061088100519e-05
34,158,1.0839620084372993e-05
34,168,1.2048296872783461e-06
34,180,6.909368668502324e-08
34,208,5.369091507193663e-05
34,214,3.8967004263237205e-05
34,222,9.586530571825166e-06
34,232,1.1354733353556076e-06
34,244,7.372836927454728e-08
34,289,4.5865375572990644e-05
34,295,3.3718263765572804e-05
34,303,8.491411318054404e-06
34,313,1.0479183329390861e-06
34,325,7.272612717758673e-08
35,35,0.0011263889634363898
35,41,0.0005092556819442271
35,49,6.97305166204238e-05
35,56,0.00016163788239973725
35,60,0.0008573733209561574
35,66,0.0004230385750724565
35,74,7.222311229668672e-05
35,84,5.006361250240978e-06
35,92,0.0001208962511980309
35,96,0.000680025744439455
35,102,0.0003517927677704123
35,110,6.627462613789889e-05
35,120,5.824149489287568e-06
35,132,2.386547365951279e-07
35,141,9.509946256754197e-05
35,145,0.000556222944789493
35,151,0.00029619407433292155
35,159,5.8971186443775154e-05
35,169,5.785422789121234e-06
35,181,3.0462633569462593e-07
35,205,7.750909472769549e-05
35,209,0.0004658645596357786
35,215,0.0002528650772393676
35,223,5.2127888009029486e-05
35,233,5.450446504243313e-06
35,245,3.235286346559859e-07
35,286,6.48516721029989e-05
35,290,0.0003975636226274069
35,296,0.00021868987943942763
35,304,4.615794584910455e-05
35,314,5.02888967600879e-06
35,326,3.204817128417485e-07
35,340,1.0800054931708042e-08
36,36,0.0040792632104022595
36,42,0.0014979262424874558
36,50,0.00017669262597158698
36,57,0.0005205979534323857
36,61,0.003091397705471987
36,67,0.0012415201394363287
36,75,0.00018273849822735715
36,85,1.1353819727840914e-05
36,93,0.00036798901357885976
36,97,0.0024453461962019776
36,103,0.0010310146227895953
36,111,0.00016753611216827567
36,121,1.3199997760118054e-05
36,133,4.979335684038255e-07
36,142,0.0002776896085964628
36,146,0.0019966256238256323
36,152,0.0008672927047155097
36,160,0.00014898834015047974
36,170,1.310675983739964e-05
36,182,6.353407030160497e-07
36,196,1.5930838682560427e-08
36,206,0.0002193921736943858
36,210,0.0016702355066651035
36,216,0.0007399645600709267
36,224,0.00013164626336688057
36,234,1.2344343219295902e-05
36,246,6.746195066397293e-07
36,260,2.288293768384644e-08
36,287,0.0001792572847377012
36,291,0.001424111298966948
36,297,0.0006396746518991082
36,305,0.0001165360723251723
36,315,1.1387253651202902e-05
36,327,6.681635886970096e-07
36,341,2.5755985153853325e-08
37,37,0.0011263889634363902
37,43,0.0005092556819442271
37,51,6.973051662042378e-05
37,58,0.00016163788239973733
37,62,0.0008573733209561578
37,68,0.0004230385750724565
37,76,7.222311229668675e-05
37,86,5.006361250240978e-06
37,94,0.00012089625119803091
37,98,0.0006800257444394551
37,104,0.0003517927677704125
37,112,6.627462613789889e-05
37,122,5.824149489287566e-06
37,134,2.3865473659512795e-07
37,143,9.509946256754197e-05
37,147,0.0005562229447894932
37,153,0.0002961940743329216
37,161,5.8971186443775154e-05
37,171,5.785422789121233e-06
37,183,3.0462633569462603e-07
37,207,7.750909472769549e-05
37,211,0.00046586455963577877
37,217,0.00025286507723936764
37,225,5.2127888009029486e-05
37,235,5.450446504243313e-06
37,247,3.23528634655986e-07
37,288,6.485167210299891e-05
37,292,0.00039756362262740696
37,298,0.00021868987943942763
37,306,4.615794584910455e-05
37,316,5.02888967600879e-06
37,328,3.204817128417486e-07
37,342,1.0800054931708045e-08
38,38,0.0001283162169855841
38,44,7.799728102858833e-05
38,52,1.2771312284066177e-05
38,63,9.816810034545502e-05
38,69,6.49673179020895e-05
38,77,1.3251628971828937e-05
38,87,1.041219656370501e-06
38,99,7.810426479785438e-05
38,105,5.411441444119477e-05
38,113,1.2173430277357804e-05
38,123,1.212267067053097e-06
38,135,5.3900283698780774e-08
38,148,6.401492708467602e-05
38,154,4.561061088100519e-05
38,162,1.0839620084372993e-05
38,172,1.2048296872783461e-06
38,184,6.909368668502325e-08
38,212,5.369091507193663e-05
38,218,3.8967004263237205e-05
38,226,9.586530571825167e-06
38,236,1.135473335355608e-06
38,248,7.372836927454729e-08
38,293,4.5865375572990665e-05
38,299,3.3718263765572804e-05
38,307,8.491411318054404e-06
38,317,1.0479183329390863e-06
38,329,7.272612717758674e-08
39,39,6.330703979975426e-06
39,47,1.7092247875366755e-06
39,64,5.260202588814164e-06
39,72,1.769896877925513e-06
39,82,1.955210115477911e-07
39,100,4.374976289264599e-06
39,108,1.6238927580025468e-06
39,118,2.2739245143616482e-07
39,130,1.2189848229829281e-08
39,149,3.683917067275422e-06
39,157,1.4448088760722012e-06
39,167,2.2585863114406812e-07
39,179,1.5555697674177048e-08
39,213,3.145226494745733e-06
39,221,1.2770539630967549e-06
39,231,2.127537696659743e-07
39,243,1.6518907461945638e-08
39,294,2.7202843667048367e-06
39,302,1.1302629069386685e-06
39,312,1.9628047035372304e-07
39,324,1.636191752004813e-08
40,40,6.223471652719907e-05
40,48,1.2439763364336109e-05
40,59,5.9083112133734654e-05
40,65,5.154157365764e-05
40,73,1.2853364481150612e-05
40,83,1.1999084434934032e-06
40,95,4.672370918431996e-05
40,101,4.278242688907784e-05
40,109,1.1777530060384017e-05
40,119,1.3941431918275347e-06
40,131,7.309565697171854e-08
40,144,3.8143653468344544e-05
40,150,3.597780134928356e-05
40,158,1.0469716912651373e-05
40,168,1.3837322974359508e-06
40,180,9.36983124318376e-08
40,208,3.190472179164766e-05
40,214,3.068949273889533e-05
40,222,9.248735998288789e-06
40,232,1.3028774852703081e-06
40,244,9.946036986595204e-08
40,289,2.7201121703022903e-05
40,295,2.6526107439958118e-05
40,303,8.185827807799458e-06
40,313,1.2016222538007604e-06
40,325,9.848684604793114e-08
41,41,0.0002950183071780683
41,49,4.867078380046055e-05
41,56,8.281867996790589e-06
41,60,0.00038363125679379337
41,66,0.00024364005799097966
41,74,5.0194568586212625e-05
41,84,4.105359471449448e-06
41,92,3.3449235994580556e-06
41,96,0.00030234850670503906
41,102,0.00020188829487240135
41,110,4.594088015886374e-05
41,120,4.765934121245704e-06
41,132,2.2870175470603252e-07
41,141,1.0652669102183107e-06
41,145,0.00024627475166441034
41,151,0.00016958752505279976
41,159,4.080917549957584e-05
41,169,4.727757744843971e-06
41,181,2.908928797156609e-07
41,209,0.00020567421820816753
41,215,0.00014454873450766632
41,223,3.603162723832719e-05
41,233,4.449844519268264e-06
41,245,3.0869352720798394e-07
41,259,1.144553195554584e-08
41,290,0.00017515705125665268
41,296,0.00012486999099126623
41,304,3.187860035495025e-05
41,314,4.102922445006456e-06
41,326,3.056096040081967e-07
41,340,1.2872558135367553e-08
42,42,0.0007039157363337933
42,50,0.00010031671942116804
42,61,0.0011229227981806428
42,67,0.0005799824213585193
42,75,0.0001033048646316253
42,85,7.615867752671833e-06
42,97,0.0008823389306718515
42,103,0.00047991578442109457
42,111,9.446584044966808e-05
42,121,8.83573847654904e-06
42,133,3.9162933861856995e-07
42,146,0.0007172745985637119
42,152,0.0004027616468465267
42,160,8.386490362339643e-05
42,170,8.761409128893575e-06
42,182,4.991215297294315e-07
42,196,1.4500934875405676e-08
42,210,0.0005982026814811566
42,216,0.0003430783752667925
42,224,7.401716145928787e-05
42,234,8.244066526910944e-06
42,246,5.295569542548628e-07
42,260,2.0153556917160754e-08
42,291,0.0005089393183101057
42,297,0.00029623731625432555
42,305,6.546712855052293e-05
42,315,7.599806516327738e-06
42,327,5.241904686629656e-07
42,341,2.2672133638549938e-08
43,43,0.0002950183071780683
43,51,4.867078380046052e-05
43,58,8.281867996790589e-06
43,62,0.00038363125679379353
43,68,0.00024364005799097966
43,76,5.019456858621261e-05
43,86,4.105359471449448e-06
43,94,3.344923599458057e-06
43,98,0.0003023485067050392
43,104,0.00020188829487240135
43,112,4.5940880158863724e-05
43,122,4.765934121245702e-06
43,134,2.2870175470603252e-07
43,143,1.06526691021831e-06
43,147,0.0002462747516644103
43,153,0.00016958752505279978
43,161,4.080917549957583e-05
43,171,4.727757744843971e-06
43,183,2.908928797156609e-07
43,211,0.00020567421820816753
43,217,0.00014454873450766632
43,225,3.603162723832718e-05
43,235,4.449844519268264e-06
43,247,3.0869352720798394e-07
43,261,1.1445531955545842e-08
43,292,0.00017515705125665268
43,298,0.00012486999099126626
43,306,3.1878600354950244e-05
43,316,4.102922445006455e-06
43,328,3.056096040081967e-07
43,342,1.2872558135367553e-08
44,44,6.223471652719904e-05
44,52,1.2439763364336109e-05
44,63,5.9083112133734654e-05
44,69,5.154157365763997e-05
44,77,1.2853364481150612e-05
44,87,1.1999084434934032e-06
44,99,4.672370918431996e-05
44,105,4.2782426889077837e-05
44,113,1.1777530060384017e-05
44,123,1.3941431918275342e-06
44,135,7.309565697171854e-08
44,148,3.8143653468344544e-05
44,154,3.597780134928354e-05
44,162,1.0469716912651371e-05
44,172,1.3837322974359508e-06
44,184,9.36983124318376e-08
44,212,3.1904721791647655e-05
44,218,3.068949273889532e-05
44,226,9.248735998288789e-06
44,236,1.3028774852703081e-06
44,248,9.946036986595204e-08
44,293,2.7201121703022906e-05
44,299,2.652610743995811e-05
44,307,8.185827807799458e-06
44,317,1.2016222538007604e-06
44,329,9.848684604793117e-08
45,45,6.330703979975426e-06
45,53,1.709224787536675e-06
45,70,5.2602025888141635e-06
45,78,1.7698968779255135e-06
45,88,1.9552101154779104e-07
45,106,4.374976289264599e-06
45,114,1.6238927580025468e-06
45,124,2.2739245143616476e-07
45,136,1.2189848229829284e-08
45,155,3.683917067275422e-06
45,163,1.4448088760722014e-06
45,173,2.2585863114406812e-07
45,185,1.5555697674177048e-08
45,219,3.145226494745733e-06
45,227,1.2770539630967549e-06
45,237,2.127537696659742e-07
45,249,1.651890746194564e-08
45,300,2.7202843667048367e-06
45,308,1.1302629069386685e-06
45,318,1.9628047035372304e-07
45,330,1.6361917520048135e-08
46,46,5.2053516555536374e-08
46,71,5.387089565602117e-08
46,107,4.9421145689143875e-08
46,117,1.0041179438849148e-08
46,156,4.3961362881667326e-08
46,220,3.883583595003801e-08
46,301,3.394893477710943e-08
47,47,5.433777187759328e-07
47,64,1.4134126630617514e-06
47,72,5.608312595358879e-07
47,82,7.003712834364243e-08
47,100,1.1721248682773435e-06
47,108,5.135497878127571e-07
47,118,8.133089168069109e-08
47,149,9.846843226883493e-07
47,157,4.5632735063717305e-07
47,167,8.069561406054708e-08
47,213,8.396757321762993e-07
47,221,4.029913187283552e-07
47,231,7.596237513555478e-08
47,294,7.255508929599758e-07
47,302,3.5659717312244774e-07
47,312,7.004697606981727e-08
48,48,2.8696284162546645e-06
48,59,9.587800986762372e-06
48,65,1.0254588212360139e-05
48,73,2.95560868976049e-06
48,83,3.117801393995789e-07
48,95,7.540128682141227e-06
48,101,8.487971948680734e-06
48,109,2.702998656554073e-06
48,119,3.620706883456383e-07
48,131,2.0085802779079218e-08
48,144,6.1330361101219654e-06
48,150,7.1247688934028324e-06
48,158,2.3998304708705517e-06
48,168,3.590250162630457e-07
48,180,2.6083666963140802e-08
48,208,5.116976132945474e-06
48,214,6.069459115424653e-06
48,222,2.11813128562786e-06
48,232,3.3748530562080495e-07
48,244,2.773240141520422e-08
48,289,4.354687917389846e-06
48,295,5.2412903228412794e-06
48,303,1.8735193629805792e-06
48,313,3.1110972965476987e-07
48,325,2.7447470581555717e-08
49,49,9.19805744849792e-06
49,60,5.204914412692521e-05
49,66,4.001131090008348e-05
49,74,9.456571899998865e-06
49,84,8.713890751666723e-07
49,96,4.078877383949887e-05
49,102,3.3062514236841975e-05
49,110,8.638874227146828e-06
49,120,1.0101602040136014e-06
49,132,5.386135547666885e-08
49,145,3.309973067201434e-05
49,151,2.772212280729151e-05
49,159,7.664469187877037e-06
49,169,1.0011456008426107e-06
49,181,6.861122986455293e-08
49,209,2.7571252945198367e-05
49,215,2.359951306189985e-05
49,223,6.761474965323544e-06
49,233,9.416954960578808e-07
49,245,7.277041111727563e-08
49,290,2.3436418880017685e-05
49,296,2.0368387136704285e-05
49,304,5.978526482315735e-06
49,314,8.677040108010368e-07
49,326,7.201554368006675e-08
50,50,1.6470426208667802e-05
50,61,0.0001312304046332887
50,67,8.228925274979195e-05
50,75,1.6910726298262332e-05
50,85,1.4150953664733058e-06
50,97,0.00010251991449042914
50,103,6.790787285654854e-05
50,111,1.5435960710184376e-05
50,121,1.639546907696417e-06
50,133,8.156786959306601e-08
50,146,8.302265178679699e-05
50,152,5.689006114888446e-05
50,160,1.36876509028307e-05
50,170,1.624327369817506e-06
50,182,1.0388183598032069e-07
50,210,6.905671385848725e-05
50,216,4.840090420421229e-05
50,224,1.2070184584777916e-05
50,234,1.5274942484777055e-06
50,246,1.101622328499062e-07
50,291,5.863959431330146e-05
50,297,4.175631421629807e-05
50,305,1.0669736898271214e-05
50,315,1.4075160853796206e-06
50,327,1.0900753629159953e-07
51,51,9.198057448497916e-06
51,62,5.204914412692521e-05
51,68,4.001131090008346e-05
51,76,9.456571899998864e-06
51,86,8.713890751666719e-07
51,98,4.078877383949887e-05
51,104,3.3062514236841975e-05
51,112,8.638874227146825e-06
51,122,1.0101602040136012e-06
51,134,5.3861355476668836e-08
51,147,3.309973067201434e-05
51,153,2.772212280729151e-05
51,161,7.664469187877033e-06
51,171,1.0011456008426107e-06
51,183,6.861122986455291e-08
51,211,2.7571252945198367e-05
51,217,2.359951306189985e-05
51,225,6.7614749653235404e-06
51,235,9.416954960578806e-07
51,247,7.277041111727561e-08
51,292,2.343641888001768e-05
51,298,2.0368387136704285e-05
51,306,5.978526482315732e-06
51,316,8.677040108010367e-07
51,328,7.20155436800667e-08
52,52,2.869628416254665e-06
52,63,9.587800986762372e-06
52,69,1.0254588212360137e-05
52,77,2.9556086897604905e-06
52,87,3.1178013939957893e-07
52,99,7.540128682141227e-06
52,105,8.487971948680733e-06
52,113,2.7029986565540735e-06
52,123,3.620706883456383e-07
52,135,2.008580277907922e-08
52,148,6.133036110121966e-06
52,154,7.1247688934028324e-06
52,162,2.3998304708705517e-06
52,172,3.5902501626304574e-07
52,184,2.6083666963140806e-08
52,212,5.116976132945474e-06
52,218,6.069459115424653e-06
52,226,2.1181312856278606e-06
52,236,3.3748530562080495e-07
52,248,2.7732401415204224e-08
52,293,4.354687917389846e-06
52,299,5.2412903228412794e-06
52,307,1.8735193629805794e-06
52,317,3.111097296547699e-07
52,329,2.7447470581555727e-08
53,53,5.433777187759329e-07
53,70,1.4134126630617514e-06
53,78,5.60831259535888e-07
53,88,7.003712834364241e-08
53,106,1.1721248682773435e-06
53,114,5.135497878127571e-07
53,124,8.133089168069107e-08
53,155,9.846843226883493e-07
53,163,4.5632735063717305e-07
53,173,8.069561406054707e-08
53,219,8.396757321762993e-07
53,227,4.029913187283552e-07
53,237,7.596237513555478e-08
53,300,7.255508929599758e-07
53,308,3.5659717312244774e-07
53,318,7.004697606981726e-08
54,54,5.205351655553638e-08
54,79,5.387089565602117e-08
54,115,4.942114568914389e-08
54,125,1.0041179438849148e-08
54,164,4.3961362881667326e-08
54,228,3.883583595003801e-08
54,309,3.394893477710943e-08
55,55,0.0004387874100029631
55,91,0.0003454010632253683
55,133,1.9875290842870145e-08
55,140,0.0002812011309009756
55,182,2.508053113919283e-08
55,204,0.00023479033126385353
55,246,2.6427593466873363e-08
55,285,0.00019993303451430077
55,327,2.6030487748553633e-08
56,56,0.00014167312850038347
56,60,0.00012745055081112144
56,66,7.9658407416697e-06
56,92,0.00011156449273006414
56,96,0.00010323508185516896
56,102,7.173353889927076e-06
56,141,9.085030709916539e-05
56,145,8.559264501384514e-05
56,151,6.341411019369038e-06
56,205,7.586846976239206e-05
56,209,7.235431286595464e-05
56,215,5.590821231613204e-06
56,286,6.461246792023057e-05
56,290,6.215501145442418e-05
56,296,4.944998695934828e-06
57,57,0.0009235600342172524
57,61,0.00042056271446642583
57,93,0.0007276873395242214
57,97,0.0003453336419612818
57,142,0.0005927397245756137
57,146,0.0002887572969397805
57,206,0.0004950668565129118
57,210,0.00024548139410812377
57,287,0.00042165471590940005
57,291,0.00021171662457479255
58,58,0.00014167312850038347
58,62,0.00012745055081112144
58,68,7.9658407416697e-06
58,94,0.00011156449273006414
58,98,0.00010323508185516896
58,104,7.173353889927079e-06
58,143,9.085030709916539e-05
58,147,8.559264501384517e-05
58,153,6.341411019369036e-06
58,207,7.586846976239206e-05
58,211,7.235431286595464e-05
58,217,5.590821231613204e-06
58,288,6.461246792023057e-05
58,292,6.21550114544242e-05
58,298,4.944998695934827e-06
59,59,7.512981292635471e-05
59,65,4.9226494766329624e-05
59,73,9.95089057765272e-06
59,83,7.747455152632712e-07
59,95,5.978736177397217e-05
59,101,4.100996400939209e-05
59,109,9.142335899066523e-06
59,119,9.021500801012687e-07
59,131,3.974525188411868e-08
59,144,4.900904583539429e-05
59,150,3.456920259647572e-05
59,158,8.141421554489272e-06
59,168,8.967007044442791e-07
59,180,5.075837851879879e-08
59,208,4.1109032610845884e-05
59,214,2.9536073323284225e-05
59,222,7.200660155730071e-06
59,232,8.451370476800124e-07
59,244,5.392941684332327e-08
59,289,3.5119724020780755e-05
59,295,2.5559689465268864e-05
59,303,6.378535826629956e-06
59,313,7.802360794643602e-07
59,325,5.343673142459722e-08
60,60,0.0006528951011006156
60,66,0.0003187864979960588
60,74,5.392534006092391e-05
60,84,3.7033417772275016e-06
60,92,9.552564455581998e-05
60,96,0.0005179828664558129
60,102,0.00026515054642245976
60,110,4.9492598971180265e-05
60,120,4.309002129987845e-06
60,132,1.7481242726319752e-07
60,141,7.525213527053871e-05
60,145,0.0004237551516464322
60,151,0.0002232737498833778
60,159,4.404353976768415e-05
60,169,4.280919851169734e-06
60,181,2.2316555006678422e-07
60,205,6.13973333376409e-05
60,209,0.0003549589066021194
60,215,0.0001906287262574636
60,223,3.893553735620448e-05
60,233,4.03335397220696e-06
60,245,2.3703069534745205e-07
60,286,5.141101297399781e-05
60,290,0.0003029441370313786
60,296,0.0001648752601498387
60,304,3.447829475995477e-05
60,314,3.721597794910366e-06
60,326,2.3481082489650827e-07
61,61,0.002344013465533692
61,67,0.0009310580098971998
61,75,0.00013576529568772456
61,85,8.356434196135181e-06
61,93,0.00029948629542700926
61,97,0.0018547569990098448
61,103,0.0007733687624234365
61,111,0.00012449650941119458
61,121,9.717039536525292e-06
61,133,3.629167922838037e-07
61,142,0.0002272796586627853
61,146,0.0015147317830039601
61,152,0.0006506564512725778
61,160,0.00011072667472142723
61,170,9.649572534201093e-06
61,182,4.631231195503007e-07
61,196,1.1166793147415391e-08
61,206,0.00018035129002002122
61,210,0.001267303028707403
61,216,0.0005551892648594092
61,224,9.784684349106586e-05
61,234,9.089014337701613e-06
61,246,4.917951023232187e-07
61,260,1.582001898828909e-08
61,287,0.0001478617016239331
61,291,0.0010806682123753824
61,297,0.00047997746126551794
61,305,8.662157247759954e-05
61,315,8.384446612095166e-06
61,327,4.871172121384021e-07
61,341,1.7830714926708004e-08
62,62,0.0006528951011006157
62,68,0.0003187864979960588
62,76,5.392534006092391e-05
62,86,3.7033417772275016e-06
62,94,9.552564455581998e-05
62,98,0.0005179828664558129
62,104,0.00026515054642245976
62,112,4.9492598971180265e-05
62,122,4.309002129987845e-06
62,134,1.7481242726319757e-07
62,143,7.525213527053871e-05
62,147,0.0004237551516464322
62,153,0.0002232737498833778
62,161,4.4043539767684133e-05
62,171,4.280919851169734e-06
62,183,2.2316555006678424e-07
62,207,6.13973333376409e-05
62,211,0.0003549589066021194
62,217,0.0001906287262574636
62,225,3.893553735620448e-05
62,235,4.03335397220696e-06
62,247,2.3703069534745213e-07
62,288,5.141101297399781e-05
62,292,0.0003029441370313787
62,298,0.00016487526014983872
62,306,3.4478294759954764e-05
62,316,3.721597794910366e-06
62,328,2.3481082489650832e-07
63,63,7.512981292635474e-05
63,69,4.9226494766329624e-05
63,77,9.95089057765272e-06
63,87,7.747455152632712e-07
63,99,5.978736177397219e-05
63,105,4.100996400939209e-05
63,113,9.142335899066523e-06
63,123,9.021500801012689e-07
63,135,3.974525188411869e-08
63,148,4.900904583539429e-05
63,154,3.4569202596475716e-05
63,162,8.141421554489272e-06
63,172,8.967007044442794e-07
63,184,5.075837851879881e-08
63,212,4.11090326108459e-05
63,218,2.9536073323284225e-05
63,226,7.200660155730071e-06
63,236,8.451370476800124e-07
63,248,5.3929416843323273e-08
63,293,3.511972402078076e-05
63,299,2.5559689465268864e-05
63,307,6.378535826629957e-06
63,317,7.802360794643604e-07
63,329,5.3436731424597236e-08
64,64,4.371420034312131e-06
64,72,1.4637840300763386e-06
64,82,1.6099191917933468e-07
64,100,3.636126633956088e-06
64,108,1.3431426641771735e-06
64,118,1.872487886240945e-07
64,149,3.061957560835108e-06
64,157,1.1950730038480098e-06
64,167,1.8597734568392106e-07
64,179,1.2753566433733903e-08
64,213,2.6143382804463847e-06
64,221,1.0559140677198018e-06
64,231,1.751922858683324e-07
64,243,1.3543954888408168e-08
64,294,2.261193432152494e-06
64,302,9.349700116161968e-07
64,312,1.616311307501084e-07
64,324,1.3415724174540582e-08
65,65,4.2693570760140295e-05
65,73,1.0597138953884957e-05
65,83,9.84942610049099e-07
65,95,3.893660889241424e-05
65,101,3.5442028863071564e-05
65,109,9.711039524178214e-06
65,119,1.1444764467882289e-06
65,131,5.90082065215168e-08
65,144,3.178916511205311e-05
65,150,2.9807067115835392e-05
65,158,8.63333188964478e-06
65,168,1.1359922468205833e-06
65,180,7.618936077154384e-08
65,208,2.6591623852924906e-05
65,214,2.5427048058713468e-05
65,222,7.626821538998104e-06
65,232,1.0696537120969572e-06
65,244,8.12881568329914e-08
65,289,2.2672554139385693e-05
65,295,2.19783577144374e-05
65,303,6.750401537372275e-06
65,313,9.865503932846238e-07
65,325,8.049457832279438e-08
66,66,0.00020125076397476758
66,74,4.127081106315993e-05
66,84,3.3610129665375507e-06
66,92,3.6368115475685485e-06
66,96,0.0002512932050824542
66,102,0.00016678383792044586
66,110,3.777713511629666e-05
66,120,3.902159591670298e-06
66,132,1.8606604622532503e-07
66,141,1.5848858591323865e-06
66,145,0.00020471510353471984
66,151,0.00014011090967814944
66,159,3.3559521728997205e-05
66,169,3.871137924676826e-06
66,181,2.377105781663269e-07
66,205,5.415215575384399e-07
66,209,0.0001709815449718013
66,215,0.0001194308506632291
66,223,2.9632010949104867e-05
66,233,3.6437217088630117e-06
66,245,2.522902369991125e-07
66,290,0.00014562144530761204
66,296,0.0001031757323705813
66,304,2.621730966338399e-05
66,314,3.359740915741914e-06
66,326,2.4975127881738097e-07
66,340,1.0383238116785358e-08
67,67,0.00047797661444380884
67,75,8.47555192860971e-05
67,85,6.2225963093076225e-06
67,97,0.0007317503518887575
67,103,0.0003955635120950275
67,111,7.751198072306325e-05
67,121,7.219973231043355e-06
67,133,3.1866047118239715e-07
67,146,0.000594948195322495
67,152,0.0003319999094571571
67,160,6.88184276021864e-05
67,170,7.1596700564059906e-06
67,182,4.0621145018174267e-07
67,196,1.1682318423654263e-08
67,210,0.0004962355243168574
67,216,0.00028281978378780947
67,224,6.074042368490166e-05
67,234,6.73718679291627e-06
67,246,4.309975906244643e-07
67,260,1.629729779105677e-08
67,291,0.0004222196624783914
67,297,0.00024421664401955135
67,305,5.372589458378537e-05
67,315,6.210871657090884e-06
67,327,4.2664136061720556e-07
67,341,1.836341488485435e-08
68,68,0.00020125076397476752
68,76,4.127081106315992e-05
68,86,3.3610129665375507e-06
68,94,3.6368115475685494e-06
68,98,0.0002512932050824542
68,104,0.0001667838379204459
68,112,3.7777135116296645e-05
68,122,3.902159591670298e-06
68,134,1.8606604622532506e-07
68,143,1.5848858591323873e-06
68,147,0.00020471510353471984
68,153,0.00014011090967814947
68,161,3.355952172899719e-05
68,171,3.871137924676825e-06
68,183,2.377105781663269e-07
68,207,5.415215575384412e-07
68,211,0.00017098154497180134
68,217,0.00011943085066322911
68,225,2.9632010949104867e-05
68,235,3.643721708863011e-06
68,247,2.522902369991125e-07
68,292,0.00014562144530761204
68,298,0.0001031757323705813
68,306,2.621730966338399e-05
68,316,3.3597409157419133e-06
68,328,2.4975127881738097e-07
68,342,1.0383238116785363e-08
69,69,4.269357076014028e-05
69,77,1.0597138953884957e-05
69,87,9.84942610049099e-07
69,99,3.893660889241424e-05
69,105,3.5442028863071564e-05
69,113,9.711039524178214e-06
69,123,1.144476446788229e-06
69,135,5.90082065215168e-08
69,148,3.178916511205311e-05
69,154,2.9807067115835385e-05
69,162,8.63333188964478e-06
69,172,1.1359922468205835e-06
69,184,7.618936077154384e-08
69,212,2.6591623852924906e-05
69,218,2.5427048058713468e-05
69,226,7.626821538998104e-06
69,236,1.0696537120969572e-06
69,248,8.128815683299141e-08
69,293,2.2672554139385693e-05
69,299,2.1978357714437395e-05
69,307,6.750401537372277e-06
69,317,9.865503932846238e-07
69,329,8.049457832279438e-08
70,70,4.37142003431213e-06
70,78,1.4637840300763386e-06
70,88,1.6099191917933465e-07
70,106,3.636126633956087e-06
70,114,1.3431426641771737e-06
70,124,1.872487886240945e-07
70,155,3.061957560835108e-06
70,163,1.1950730038480098e-06
70,173,1.859773456839211e-07
70,185,1.2753566433733903e-08
70,219,2.6143382804463847e-06
70,227,1.0559140677198016e-06
70,237,1.751922858683324e-07
70,249,1.3543954888408168e-08
70,300,2.261193432152494e-06
70,308,9.349700116161968e-07
70,318,1.616311307501084e-07
70,330,1.3415724174540587e-08
71,71,5.5757636917994944e-08
71,107,5.114401945933737e-08
71,117,1.0366556639046797e-08
71,156,4.5505839906631094e-08
71,166,1.0296156923232053e-08
71,220,4.022104625866833e-08
71,301,3.490440720471784e-08
72,72,5.789094091552042e-07
72,82,7.20733602590459e-08
72,100,1.2139998187250699e-06
72,108,5.301392650891524e-07
72,118,8.370085571403578e-08
72,149,1.019921278990235e-06
72,157,4.7108880520358487e-07
72,167,8.305053405923752e-08
72,213,8.69870963127702e-07
72,221,4.160398428553416e-07
72,231,7.818140519348703e-08
72,294,7.517256402976793e-07
72,302,3.6815135062562023e-07
72,312,7.209468139891597e-08
73,73,3.0445287648801227e-06
73,83,3.202016248372478e-07
73,95,7.826793755713126e-06
73,101,8.772315403771487e-06
73,109,2.7845201301764464e-06
73,119,3.7188828501938536e-07
73,131,2.0529948006273383e-08
73,144,6.366936162946761e-06
73,150,7.363887096453663e-06
73,158,2.472324703743202e-06
73,168,3.687749581937734e-07
73,180,2.668710497656637e-08
73,208,5.312499925016142e-06
73,214,6.273419622135116e-06
73,222,2.1821863498398763e-06
73,232,3.4700936370115815e-07
73,244,2.8375542622798886e-08
73,289,4.521313147015757e-06
73,295,5.418117395128176e-06
73,303,1.930221640208269e-06
73,313,3.195616881660892e-07
73,325,2.8084648391670106e-08
74,74,9.723599200879083e-06
74,84,8.934463671771731e-07
74,96,4.226667868180224e-05
74,102,3.410671134967421e-05
74,110,8.883501841483115e-06
74,120,1.0358248359276454e-06
74,132,5.5063069926955377e-08
74,145,3.430310543459203e-05
74,151,2.8599528535418805e-05
74,159,7.881902746424809e-06
74,169,1.0266234355642042e-06
74,181,7.014483197287983e-08
74,209,2.8575979749626674e-05
74,215,2.434770345955175e-05
74,223,6.9535327308079995e-06
74,233,9.656645992619461e-07
74,245,7.439899135555632e-08
74,290,2.429190489550893e-05
74,296,2.1014819445874938e-05
74,304,6.148497602448242e-06
74,314,8.89991934616457e-07
74,326,7.362865516739916e-08
75,75,1.7365159419670682e-05
75,85,1.4492004395590945e-06
75,97,0.00010608422850036096
75,103,6.995070699120904e-05
75,111,1.5852069384567533e-05
75,121,1.6791781979169872e-06
75,133,8.331340546907095e-08
75,146,8.592076061452655e-05
75,152,5.8605602530360267e-05
75,160,1.4057385178871885e-05
75,170,1.6636681461182546e-06
75,182,1.0610915146653671e-07
75,210,7.147400360661819e-05
75,216,4.986306838698263e-05
75,224,1.2396693121275487e-05
75,234,1.5645382552677642e-06
75,246,1.1252733134503699e-07
75,291,6.069634322589058e-05
75,297,4.301925379548656e-05
75,305,1.0958651408997312e-05
75,315,1.4416824365337994e-06
75,327,1.1135005802309701e-07
76,76,9.72359920087908e-06
76,86,8.93446367177173e-07
76,98,4.226667868180224e-05
76,104,3.41067113496742e-05
76,112,8.883501841483115e-06
76,122,1.035824835927645e-06
76,134,5.5063069926955363e-08
76,147,3.430310543459203e-05
76,153,2.85995285354188e-05
76,161,7.881902746424809e-06
76,171,1.026623435564204e-06
76,183,7.01448319728798e-08
76,211,2.8575979749626667e-05
76,217,2.434770345955175e-05
76,225,6.953532730807996e-06
76,235,9.65664599261946e-07
76,247,7.439899135555629e-08
76,292,2.429190489550893e-05
76,298,2.1014819445874938e-05
76,306,6.14849760244824e-06
76,316,8.899919346164569e-07
76,328,7.362865516739916e-08
77,77,3.0445287648801227e-06
77,87,3.2020162483724785e-07
77,99,7.826793755713126e-06
77,105,8.772315403771487e-06
77,113,2.7845201301764464e-06
77,123,3.7188828501938546e-07
77,135,2.0529948006273383e-08
77,148,6.366936162946762e-06
77,154,7.363887096453661e-06
77,162,2.4723247037432023e-06
77,172,3.687749581937736e-07
77,184,2.668710497656638e-08
77,212,5.312499925016142e-06
77,218,6.273419622135115e-06
77,226,2.1821863498398763e-06
77,236,3.4700936370115815e-07
77,248,2.8375542622798886e-08
77,293,4.521313147015757e-06
77,299,5.418117395128176e-06
77,307,1.9302216402082696e-06
77,317,3.195616881660892e-07
77,329,2.8084648391670116e-08
78,78,5.789094091552043e-07
78,88,7.20733602590459e-08
78,106,1.21399981872507e-06
78,114,5.301392650891524e-07
78,124,8.370085571403577e-08
78,155,1.019921278990235e-06
78,163,4.710888052035849e-07
78,173,8.305053405923752e-08
78,219,8.69870963127702e-07
78,227,4.160398428553416e-07
78,237,7.818140519348701e-08
78,300,7.517256402976793e-07
78,308,3.681513506256203e-07
78,318,7.209468139891597e-08
79,79,5.575763691799493e-08
79,115,5.114401945933737e-08
79,125,1.0366556639046797e-08
79,164,4.55058399066311e-08
79,174,1.0296156923232053e-08
79,228,4.022104625866833e-08
79,309,3.490440720471784e-08
82,100,1.3251911882920966e-07
82,108,6.58792156865671e-08
82,118,1.080115109523065e-08
82,149,1.1118171346571927e-07
82,157,5.84705624053319e-08
82,167,1.0702275059545138e-08
82,213,9.468703422526118e-08
82,221,5.159524846949687e-08
82,231,1.0065243185437642e-08
82,294,8.177492993122278e-08
82,302,4.562928363493019e-08
83,83,3.698448078584791e-08
83,95,6.057333264976035e-07
83,101,8.131418541425098e-07
83,109,2.9232522207099015e-07
83,119,4.284317621775919e-08
83,144,4.90916042214238e-07
83,150,6.813951496543662e-07
83,158,2.5924802349968043e-07
83,168,4.2440677966327257e-08
83,208,4.0855523615046707e-07
83,214,5.798240858535304e-07
83,222,2.2853583075472295e-07
83,232,3.990755287594711e-08
83,289,3.4706030117294625e-07
83,295,5.002621406361229e-07
83,303,2.0197579340021677e-07
83,313,3.677098191388949e-08
84,84,9.086205618861537e-08
84,96,2.885937857149821e-06
84,102,2.770307563457948e-06
84,110,8.146712816394409e-07
84,120,1.0519097696195745e-07
84,145,2.33313106940972e-06
84,151,2.3190188972211218e-06
84,159,7.220010610349877e-07
84,169,1.0416120994402631e-07
84,209,1.9383977225923623e-06
84,215,1.9718825137336674e-06
84,223,6.364647629195372e-07
84,233,9.79172531724669e-08
84,290,1.6446071665169311e-06
84,296,1.7005111966732612e-06
84,304,5.624652332428458e-07
84,314,9.020354191430754e-08
85,85,1.3495193866086473e-07
85,91,3.0290212887362955e-08
85,97,6.491238225176498e-06
85,103,5.122708250570545e-06
85,111,1.3207573491640598e-06
85,121,1.5617327116708067e-07
85,140,5.6497464381869507e-08
85,146,5.236906800138719e-06
85,152,4.285180747938585e-06
85,160,1.170151012514006e-06
85,170,1.546053521812978e-07
85,182,1.1287954566738122e-08
85,204,6.513292248772021e-08
85,210,4.344500539427749e-06
85,216,3.641767478560286e-06
85,224,1.0311181260205516e-06
85,234,1.4531229471207252e-07
85,246,1.1954503011904461e-08
85,285,6.638112865066062e-08
85,291,3.6821091496217547e-06
85,297,3.139345971023269e-06
85,305,9.105522901027574e-07
85,315,1.3384825902935952e-07
85,327,1.1817950519758927e-08
86,86,9.086205618861535e-08
86,98,2.885937857149821e-06
86,104,2.770307563457948e-06
86,112,8.146712816394405e-07
86,122,1.0519097696195742e-07
86,147,2.33313106940972e-06
86,153,2.3190188972211218e-06
86,161,7.220010610349874e-07
86,171,1.0416120994402629e-07
86,211,1.9383977225923623e-06
86,217,1.9718825137336674e-06
86,225,6.364647629195372e-07
86,235,9.791725317246689e-08
86,292,1.6446071665169311e-06
86,298,1.7005111966732612e-06
86,306,5.624652332428458e-07
86,316,9.020354191430753e-08
87,87,3.6984480785847916e-08
87,99,6.057333264976035e-07
87,105,8.131418541425098e-07
87,113,2.923252220709902e-07
87,123,4.2843176217759206e-08
87,148,4.90916042214238e-07
87,154,6.813951496543664e-07
87,162,2.5924802349968043e-07
87,172,4.244067796632727e-08
87,212,4.085552361504673e-07
87,218,5.798240858535304e-07
87,226,2.28535830754723e-07
87,236,3.990755287594712e-08
87,293,3.4706030117294636e-07
87,299,5.002621406361229e-07
87,307,2.0197579340021677e-07
87,317,3.6770981913889505e-08
88,106,1.325191188292096e-07
88,114,6.587921568656708e-08
88,124,1.080115109523065e-08
88,155,1.1118171346571927e-07
88,163,5.8470562405331894e-08
88,173,1.0702275059545138e-08
88,219,9.468703422526118e-08
88,227,5.159524846949687e-08
88,237,1.006524318543764e-08
88,300,8.177492993122278e-08
88,308,4.562928363493019e-08
91,91,0.0002719940065196194
91,121,2.6837761249112133e-08
91,133,2.124232883568991e-08
91,140,0.0002214932218266675
91,170,2.123303817111219e-08
91,182,2.3134680421193895e-08
91,204,0.00018496834578755924
91,234,1.6484350303587282e-08
91,246,2.440319933561258e-08
91,285,0.000157526837627549
91,315,1.2895989529757497e-08
91,327,2.4055052424873228e-08
92,92,8.79007176308012e-05
92,96,7.746975465487453e-05
92,102,3.4580890107071494e-06
92,141,7.160429786119479e-05
92,145,6.427985383748433e-05
92,151,3.1497849011753943e-06
92,205,5.981005346848539e-05
92,209,5.43660755988427e-05
92,215,2.8289127428715325e-06
92,286,5.094489838514457e-05
92,290,4.6719589068627737e-05
92,296,2.533326002870489e-06
93,93,0.0005738643611642429
93,97,0.0002469203053475593
93,142,0.000467709115698882
93,146,0.0002069913835799726
93,206,0.0003907907101483299
93,210,0.0001762643407303835
93,287,0.0003329334539694953
93,291,0.00015219794945058209
94,94,8.79007176308012e-05
94,98,7.746975465487455e-05
94,104,3.4580890107071494e-06
94,143,7.160429786119479e-05
94,147,6.427985383748434e-05
94,153,3.1497849011753943e-06
94,207,5.981005346848539e-05
94,211,5.436607559884271e-05
94,217,2.8289127428715317e-06
94,288,5.094489838514457e-05
94,292,4.671958906862776e-05
94,298,2.53332600287049e-06
95,95,4.758418327452239e-05
95,101,3.244000319128574e-05
95,109,7.19174503436741e-06
95,119,7.056491830422862e-07
95,131,3.027545200299032e-08
95,144,3.900910811826624e-05
95,150,2.734699313039212e-05
95,158,6.40477177041694e-06
95,168,7.014282140247981e-07
95,180,3.9478844183222784e-08
95,208,3.272292835619234e-05
95,214,2.3366446509090115e-05
95,222,5.664902446367688e-06
95,232,6.611235925771179e-07
95,244,4.194707650061191e-08
95,289,2.7956575522421317e-05
95,295,2.022077811849867e-05
95,303,5.018269826979123e-06
95,313,6.099945674683449e-07
95,325,4.156517792299763e-08
96,96,0.00041101551087929653
96,102,0.00020903831377591482
96,110,3.879648164868443e-05
96,120,3.3581805928440266e-06
96,132,1.3469629444960574e-07
96,141,6.107972457003248e-05
96,145,0.00033628229232817477
96,151,0.0001760374794554134
96,159,3.452740141061527e-05
96,169,3.336438149881675e-06
96,181,1.728188410541433e-07
96,205,4.986444146505179e-05
96,209,0.0002817077897166699
96,215,0.00015030700823401497
96,223,3.0524513667060284e-05
96,233,3.143637409068913e-06
96,245,1.8354553850520106e-07
96,286,4.1772685567738754e-05
96,290,0.00024043966018554922
96,296,0.00013000592040080262
96,304,2.703113492806983e-05
96,314,2.900747591231723e-06
96,326,1.8183142759951168e-07
97,97,0.0014679122911505477
97,103,0.0006079021136373299
97,111,9.729099802476165e-05
97,121,7.549033176820842e-06
97,133,2.801125217163096e-07
97,142,0.00018797166302300417
97,146,0.0011989611811893998
97,152,0.0005114913601511015
97,160,8.653717989114978e-05
97,170,7.4971879907243765e-06
97,182,3.575614600328147e-07
97,206,0.00014951397770895773
97,210,0.0010032025419615376
97,216,0.00043647034802648046
97,224,7.647527839097507e-05
97,234,7.0620323766769725e-06
97,246,3.797194666171614e-07
97,260,1.1783746577027677e-08
97,287,0.00012280554615730704
97,291,0.0008555164125494422
97,297,0.0003773583362213223
97,305,6.77044657850733e-05
97,315,6.515123561252054e-06
97,327,3.7612158868717724e-07
97,341,1.3264507483384086e-08
98,98,0.0004110155108792967
98,104,0.00020903831377591482
98,112,3.879648164868442e-05
98,122,3.3581805928440275e-06
98,134,1.3469629444960576e-07
98,143,6.107972457003248e-05
98,147,0.00033628229232817477
98,153,0.00017603747945541345
98,161,3.452740141061526e-05
98,171,3.336438149881675e-06
98,183,1.7281884105414334e-07
98,207,4.986444146505181e-05
98,211,0.0002817077897166699
98,217,0.000150307008234015
98,225,3.0524513667060284e-05
98,235,3.143637409068912e-06
98,247,1.8354553850520111e-07
98,288,4.177268556773876e-05
98,292,0.0002404396601855493
98,298,0.00013000592040080265
98,306,2.703113492806982e-05
98,316,2.9007475912317228e-06
98,328,1.818314275995117e-07
99,99,4.75841832745224e-05
99,105,3.244000319128574e-05
99,113,7.191745034367411e-06
99,123,7.056491830422863e-07
99,135,3.027545200299033e-08
99,148,3.900910811826625e-05
99,154,2.734699313039212e-05
99,162,6.404771770416942e-06
99,172,7.014282140247982e-07
99,184,3.9478844183222784e-08
99,212,3.2722928356192345e-05
99,218,2.3366446509090108e-05
99,226,5.664902446367689e-06
99,236,6.611235925771179e-07
99,248,4.194707650061192e-08
99,293,2.795657552242132e-05
99,299,2.022077811849867e-05
99,307,5.018269826979125e-06
99,317,6.099945674683451e-07
99,329,4.156517792299763e-08
100,100,3.0246808298087854e-06
100,108,1.113526825390674e-06
100,118,1.5485324323787848e-07
100,149,2.5471704197233508e-06
100,157,9.9102889806908e-07
100,167,1.538066469209041e-07
100,179,1.0521907750821337e-08
100,213,2.174863752060889e-06
100,221,8.760234248976005e-07
100,231,1.4489035725887028e-07
100,243,1.1174335012165354e-08
100,294,1.8808159386854532e-06
100,302,7.757611462977829e-07
100,312,1.3306243406098215e-07
100,324,1.106878242234404e-08
101,101,2.94241515697642e-05
101,109,8.039248156946574e-06
101,119,9.448952448531532e-07
101,131,4.8580532682520885e-08
101,144,2.648760955154303e-05
101,150,2.474706320345442e-05
101,158,7.14721643422755e-06
101,168,9.379206085402742e-07
101,180,6.196265971189386e-08
101,208,2.2157892155746223e-05
101,214,2.1111226118169966e-05
101,222,6.3143931231944735e-06
101,232,8.831682595539705e-07
101,244,6.57760368757263e-08
101,289,1.8892983329954214e-05
101,295,1.8248287854509918e-05
101,303,5.58889630877707e-06
101,313,8.145661311190283e-07
101,325,6.513430773364943e-08
102,102,0.00013823027871308422
102,110,3.122138675091411e-05
102,120,3.2165179335730595e-06
102,132,1.5260490871234356e-07
102,141,1.6717896195188057e-06
102,145,0.00017030581289621867
102,151,0.00011612946571081431
102,159,2.7736824222572118e-05
102,169,3.1910575205146364e-06
102,181,1.941489577156704e-07
102,205,7.460856404824568e-07
102,209,0.000142250110226213
102,215,9.899236675398884e-05
102,223,2.449141913524402e-05
102,233,3.003665064193732e-06
102,245,2.060380895237136e-07
102,286,2.4155500076933374e-07
102,290,0.00012115624865305383
102,296,8.552109333701811e-05
102,304,2.1669638877559677e-05
102,314,2.7696154490358385e-06
102,326,2.0398578548549575e-07
103,103,0.00032738728367171367
103,111,6.397664178904977e-05
103,121,5.944140337577391e-06
103,133,2.616936592761189e-07
103,146,0.0004942991503093997
103,152,0.0002747938528136279
103,160,5.6803813741098144e-05
103,170,5.894713604130558e-06
103,182,3.3355088821680746e-07
103,210,0.00041231223274517065
103,216,0.00023409652506598441
103,224,5.0137571263026004e-05
103,234,5.547016106943833e-06
103,246,3.5396488338294805e-07
103,260,1.3225550372631817e-08
103,291,0.00035083001910303214
103,297,0.0002021491883601306
103,305,4.4348428720643563e-05
103,315,5.1137655076992015e-06
103,327,3.5039300439254857e-07
103,341,1.4877870426191706e-08
104,104,0.00013823027871308422
104,112,3.12213867509141e-05
104,122,3.2165179335730595e-06
104,134,1.5260490871234356e-07
104,143,1.6717896195188072e-06
104,147,0.00017030581289621867
104,153,0.00011612946571081431
104,161,2.7736824222572107e-05
104,171,3.191057520514636e-06
104,183,1.941489577156704e-07
104,207,7.460856404824558e-07
104,211,0.00014225011022621302
104,217,9.899236675398886e-05
104,225,2.449141913524402e-05
104,235,3.003665064193732e-06
104,247,2.0603808952371366e-07
104,288,2.4155500076933374e-07
104,292,0.00012115624865305385
104,298,8.552109333701811e-05
104,306,2.1669638877559673e-05
104,316,2.7696154490358385e-06
104,328,2.0398578548549578e-07
105,105,2.9424151569764194e-05
105,113,8.039248156946573e-06
105,123,9.448952448531532e-07
105,135,4.85805326825209e-08
105,148,2.648760955154303e-05
105,154,2.474706320345441e-05
105,162,7.14721643422755e-06
105,172,9.379206085402742e-07
105,184,6.196265971189387e-08
105,212,2.2157892155746223e-05
105,218,2.1111226118169963e-05
105,226,6.314393123194473e-06
105,236,8.831682595539705e-07
105,248,6.577603687572631e-08
105,293,1.889298332995421e-05
105,299,1.8248287854509914e-05
105,307,5.58889630877707e-06
105,317,8.145661311190283e-07
105,329,6.513430773364943e-08
106,106,3.0246808298087854e-06
106,114,1.1135268253906743e-06
106,124,1.5485324323787848e-07
106,155,2.5471704197233508e-06
106,163,9.9102889806908e-07
106,173,1.538066469209041e-07
106,185,1.0521907750821338e-08
106,219,2.174863752060889e-06
106,227,8.760234248976005e-07
106,237,1.4489035725887028e-07
106,249,1.1174335012165356e-08
106,300,1.8808159386854528e-06
106,308,7.757611462977829e-07
106,318,1.3306243406098215e-07
106,330,1.106878242234404e-08
107,107,4.692433167591994e-08
107,156,4.1746823160511536e-08
107,220,3.644069583233662e-08
107,301,3.203679214014892e-08
108,108,4.854973343561983e-07
108,118,7.65103937161105e-08
108,149,9.361458810701347e-07
108,157,4.314307205228589e-07
108,167,7.591785622674484e-08
108,213,7.983311780965275e-07
108,221,3.8102286037972514e-07
108,231,7.14681434393641e-08
108,294,6.897049462797207e-07
108,302,3.371693666185402e-07
108,312,6.59048896385009e-08
109,109,2.546828078315591e-06
109,119,3.3917675607852137e-07
109,131,1.81029286174267e-08
109,144,5.850695872681631e-06
109,150,6.749427729658318e-06
109,158,2.2613465598036893e-06
109,168,3.363418362007634e-07
109,180,2.4308216662333563e-08
109,208,4.881961881372811e-06
109,214,5.749527416712593e-06
109,222,1.9960063988958273e-06
109,232,3.164687880837783e-07
109,244,2.5786624001362218e-08
109,289,4.155021622304619e-06
109,295,4.96524789522685e-06
109,303,1.7655635121673552e-06
109,313,2.916917171491646e-07
109,325,2.5522586995054268e-08
110,110,8.116368555725157e-06
110,120,9.447095295554901e-07
110,132,5.012950125315317e-08
110,145,3.148898457217897e-05
110,151,2.618131661801231e-05
110,159,7.2014826383946525e-06
110,169,9.36342580061879e-07
110,181,6.38613537420125e-08
110,209,2.6232992337694024e-05
110,215,2.228945726185929e-05
110,223,6.353389359007701e-06
110,233,8.805887585569536e-07
110,245,6.773554430244412e-08
110,290,2.2300970304234753e-05
110,296,1.9238564811317228e-05
110,304,5.617930282193857e-06
110,314,8.115922074195965e-07
110,326,6.703499054097383e-08
111,111,1.4471533580938613e-05
111,121,1.5304165789718945e-06
111,133,7.580725060538366e-08
111,146,7.880527142368676e-05
111,152,5.360295023756125e-05
111,160,1.2833089974591541e-05
111,170,1.516322116977045e-06
111,182,9.655178260387391e-08
111,210,6.555861982368566e-05
111,216,4.5607864602658096e-05
111,224,1.1317714268817403e-05
111,234,1.4259986602806006e-06
111,246,1.0239363268727262e-07
111,291,5.567525570385951e-05
111,297,3.9348770477708066e-05
111,305,1.0004996203083895e-05
111,315,1.314039381698695e-06
111,327,1.013235665103921e-07
112,112,8.116368555725152e-06
112,122,9.447095295554898e-07
112,134,5.012950125315317e-08
112,147,3.148898457217897e-05
112,153,2.618131661801231e-05
112,161,7.20148263839465e-06
112,171,9.363425800618785e-07
112,183,6.38613537420125e-08
112,211,2.6232992337694017e-05
112,217,2.228945726185928e-05
112,225,6.353389359007699e-06
112,235,8.805887585569536e-07
112,247,6.773554430244409e-08
112,292,2.230097030423475e-05
112,298,1.9238564811317228e-05
112,306,5.617930282193855e-06
112,316,8.115922074195964e-07
112,328,6.70349905409738e-08
113,113,2.546828078315591e-06
113,123,3.3917675607852147e-07
113,135,1.8102928617426704e-08
113,148,5.850695872681631e-06
113,154,6.749427729658318e-06
113,162,2.2613465598036893e-06
113,172,3.363418362007634e-07
113,184,2.4308216662333566e-08
113,212,4.881961881372811e-06
113,218,5.749527416712592e-06
113,226,1.9960063988958277e-06
113,236,3.164687880837783e-07
113,248,2.5786624001362218e-08
113,293,4.155021622304619e-06
113,299,4.96524789522685e-06
113,307,1.7655635121673552e-06
113,317,2.916917171491647e-07
113,329,2.5522586995054278e-08
114,114,4.854973343561984e-07
114,124,7.651039371611049e-08
114,155,9.361458810701347e-07
114,163,4.3143072052285894e-07
114,173,7.591785622674483e-08
114,219,7.983311780965275e-07
114,227,3.8102286037972514e-07
114,237,7.146814343936408e-08
114,300,6.897049462797207e-07
114,308,3.371693666185402e-07
114,318,6.590488963850089e-08
115,115,4.692433167591994e-08
115,164,4.1746823160511536e-08
115,228,3.644069583233663e-08
115,309,3.2036792140148924e-08
118,118,1.2517346113305293e-08
118,149,1.2932560871653996e-07
118,157,6.790789530869194e-08
118,167,1.240326987516911e-08
118,213,1.101414464414001e-07
118,221,5.992392428926189e-08
118,231,1.166526549694838e-08
118,294,9.509126522268473e-08
118,302,5.299557228628738e-08
118,312,1.074996052405663e-08
119,119,4.963165204569427e-08
119,144,5.717378504833969e-07
119,150,7.918271037896236e-07
119,158,3.007765569662767e-07
119,168,4.9166631694249126e-08
119,208,4.75837572022017e-07
119,214,6.73809604326286e-07
119,222,2.652206087189927e-07
119,232,4.623280922301871e-08
119,289,4.0422764729386093e-07
119,295,5.813918890920871e-07
119,303,2.3442683661829233e-07
119,313,4.2599593471857905e-08
120,120,1.2187512155181667e-07
120,145,2.715170445251419e-06
120,151,2.6926344667959557e-06
120,159,8.370890463120543e-07
120,169,1.2069026086236887e-07
120,209,2.2559109854467517e-06
120,215,2.28965694454407e-06
120,223,7.3793142316304e-07
120,233,1.1346074453368679e-07
120,290,1.914063466894831e-06
120,296,1.974556855355474e-06
120,304,6.521431282966218e-07
120,314,1.0443751171769201e-07
121,121,1.8073806002635095e-07
121,133,1.0239029821942663e-08
121,140,5.87948440349106e-08
121,146,6.090773283556611e-06
121,152,4.972032532320614e-06
121,160,1.3557380629799585e-06
121,170,1.7892778542560133e-07
121,182,1.2878765063414555e-08
121,204,6.99427916970771e-08
121,210,5.0531362776249555e-06
121,216,4.2259857259676806e-06
121,224,1.1947687994895285e-06
121,234,1.681754402203178e-07
121,246,1.3515750767114262e-08
121,285,7.210280189938886e-08
121,291,4.282869796436732e-06
121,297,3.6430318802293042e-06
121,305,1.055710399312693e-06
121,315,1.5490945102266678e-07
121,327,1.3366402767686035e-08
122,122,1.2187512155181667e-07
122,147,2.715170445251419e-06
122,153,2.6926344667959557e-06
122,161,8.370890463120542e-07
122,171,1.2069026086236884e-07
122,211,2.2559109854467512e-06
122,217,2.2896569445440695e-06
122,225,7.379314231630398e-07
122,235,1.1346074453368676e-07
122,292,1.914063466894831e-06
122,298,1.9745568553554735e-06
122,306,6.521431282966214e-07
122,316,1.0443751171769197e-07
123,123,4.9631652045694277e-08
123,148,5.717378504833971e-07
123,154,7.918271037896236e-07
123,162,3.007765569662767e-07
123,172,4.9166631694249145e-08
123,212,4.7583757202201707e-07
123,218,6.738096043262861e-07
123,226,2.652206087189927e-07
123,236,4.623280922301872e-08
123,293,4.0422764729386093e-07
123,299,5.813918890920871e-07
123,307,2.344268366182924e-07
123,317,4.259959347185792e-08
124,124,1.251734611330529e-08
124,155,1.2932560871653994e-07
124,163,6.790789530869192e-08
124,173,1.240326987516911e-08
124,219,1.101414464414001e-07
124,227,5.992392428926189e-08
124,237,1.166526549694838e-08
124,300,9.509126522268473e-08
124,308,5.299557228628738e-08
124,318,1.074996052405663e-08
131,144,2.406768936400962e-08
131,150,4.063571407899637e-08
131,158,1.6017348983794902e-08
131,208,1.945153518718233e-08
131,214,3.4535307499161664e-08
131,222,1.410388835421871e-08
131,289,1.6502289025263883e-08
131,295,2.9707573840112632e-08
131,303,1.2454072467706588e-08
132,145,1.084418815589651e-07
132,151,1.2725242867554353e-07
132,159,4.4375856839329534e-08
132,209,8.983146632734727e-08
132,215,1.0807494187401323e-07
132,223,3.9028858650487534e-08
132,290,7.605465706872763e-08
132,296,9.312104664892523e-08
132,304,3.386696297149505e-08
133,140,1.8743205836609052e-08
133,146,2.2520241374629434e-07
133,152,2.1941610085542477e-07
133,160,6.708259317273576e-08
133,170,1.0111871876526113e-08
133,204,1.6471524971220657e-08
133,210,1.862784167184127e-07
133,216,1.862020359528905e-07
133,224,5.905903947437917e-08
133,285,1.4523407882583025e-08
133,291,1.5754086026502355e-07
133,297,1.604440696169531e-07
133,305,5.210995282290206e-08
134,147,1.084418815589651e-07
134,153,1.2725242867554355e-07
134,161,4.437585683932952e-08
134,211,8.983146632734727e-08
134,217,1.0807494187401323e-07
134,225,3.902885865048752e-08
134,292,7.605465706872765e-08
134,298,9.312104664892524e-08
134,306,3.3866962971495045e-08
135,148,2.4067689364009627e-08
135,154,4.0635714078996386e-08
135,162,1.601734898379491e-08
135,212,1.9451535187182342e-08
135,218,3.453530749916167e-08
135,226,1.4103888354218714e-08
135,293,1.6502289025263887e-08
135,299,2.9707573840112632e-08
135,307,1.2454072467706591e-08
140,140,0.00018039785992423512
140,170,5.393430116517272e-08
140,182,2.2014660908501698e-08
140,204,0.00015066632552022068
140,234,4.792427596697287e-08
140,246,2.3181466851433952e-08
140,285,0.00012832389847779107
140,315,4.231201367640969e-08
140,327,2.286739487197978e-08
141,141,5.834187380677758e-05
141,145,5.0707385553478223e-05
141,151,1.6019020558972688e-06
141,205,4.8739382289928834e-05
141,209,4.290228897335958e-05
141,215,1.481690211541728e-06
141,286,4.151954233164968e-05
141,290,3.6877535322370395e-05
141,296,1.3521993972558452e-06
142,142,0.0003813302701090212
142,146,0.00015787278874966325
142,206,0.0003186969242845539
142,210,0.00013460607110637253
142,287,0.00027156145010772987
142,291,0.00011632931971498852
143,143,5.834187380677758e-05
143,147,5.0707385553478223e-05
143,153,1.6019020558972688e-06
143,207,4.8739382289928834e-05
143,211,4.2902288973359595e-05
143,217,1.481690211541728e-06
143,288,4.151954233164968e-05
143,292,3.6877535322370395e-05
143,298,1.3521993972558448e-06
144,144,3.1981087922234445e-05
144,150,2.2330078174497405e-05
144,158,5.210677340413706e-06
144,168,5.683437556720032e-07
144,180,3.122957468314179e-08
144,208,2.6828455177287166e-05
144,214,1.9080337400051444e-05
144,222,4.60887224030941e-06
144,232,5.357003044339518e-07
144,244,3.3873110168208386e-08
144,289,2.2921393198083555e-05
144,295,1.6512123123299913e-05
144,303,4.082862151901916e-06
144,313,4.944415678957249e-07
144,325,3.3565582967426223e-08
145,145,0.00027515658182243933
145,151,0.00014342705987048954
145,159,2.8025364019931664e-05
145,169,2.6977120556682796e-06
145,181,1.3844056434559955e-07
145,205,4.141249620763784e-05
145,209,0.0002305130279239027
145,215,0.00012246741092331888
145,223,2.4777068029120084e-05
145,233,2.541899062408549e-06
145,245,1.4758495294229424e-07
145,286,3.470210663265142e-05
145,290,0.00019675128307392503
145,296,0.00010592913403866432
145,304,2.1941954207114706e-05
145,314,2.3455547706218023e-06
145,326,1.4620152671999826e-07
146,146,0.0009793702580906808
146,152,0.0004159302409031224
146,160,7.009842755736642e-05
146,170,6.049248503311841e-06
146,182,2.872267402086266e-07
146,206,0.00012575513895262826
146,210,0.0008195127886573409
146,216,0.00035493986929914853
146,224,6.195014542676494e-05
146,234,5.698332070125271e-06
146,246,3.050353846542732e-07
146,287,0.00010340661359092983
146,291,0.0006988977191189973
146,297,0.00030687870809616825
146,305,5.4846651873179205e-05
146,315,5.257163135903109e-06
146,327,3.0215266342877413e-07
146,341,1.0593978162292737e-08
147,147,0.00027515658182243933
147,153,0.00014342705987048957
147,161,2.8025364019931664e-05
147,171,2.6977120556682796e-06
147,183,1.3844056434559955e-07
147,207,4.141249620763784e-05
147,211,0.00023051302792390275
147,217,0.0001224674109233189
147,225,2.4777068029120084e-05
147,235,2.541899062408549e-06
147,247,1.4758495294229424e-07
147,288,3.470210663265142e-05
147,292,0.00019675128307392506
147,298,0.00010592913403866432
147,306,2.1941954207114702e-05
147,316,2.3455547706218023e-06
147,328,1.4620152671999828e-07
148,148,3.1981087922234445e-05
148,154,2.23300781744974e-05
148,162,5.2106773404137065e-06
148,172,5.683437556720033e-07
148,184,3.12295746831418e-08
148,212,2.6828455177287173e-05
148,218,1.9080337400051444e-05
148,226,4.608872240309411e-06
148,236,5.35700304433952e-07
148,248,3.38731101682084e-08
148,293,2.292139319808356e-05
148,299,1.6512123123299913e-05
148,307,4.082862151901917e-06
148,317,4.94441567895725e-07
148,329,3.356558296742623e-08
149,149,2.1451016612449424e-06
149,157,8.330675350754176e-07
149,167,1.2845447265026953e-07
149,213,1.8312999478434164e-06
149,221,7.362434526436305e-07
149,231,1.2100977817872801e-07
149,294,1.5839793710740798e-06
149,302,6.519313775142422e-07
149,312,1.1164574904514423e-07
150,150,2.0814011494341423e-05
150,158,5.999740011612553e-06
150,168,7.859987507947283e-07
150,180,5.183047397411415e-08
150,208,1.8680609074055508e-05
150,214,1.7756366286272784e-05
150,222,5.300482142914672e-06
150,232,7.401256500275601e-07
150,244,5.5021110276890473e-08
150,289,1.5928330281005037e-05
150,295,1.5348603222577567e-05
150,303,4.6915336152986456e-06
150,313,6.826416874253703e-07
150,325,5.4484894113347216e-08
151,151,9.756536918284336e-05
151,159,2.325983273908342e-05
151,169,2.671381289804999e-06
151,181,1.6224123795009064e-07
151,205,7.906170047491778e-07
151,209,0.00011980355241635756
151,215,8.316955689540195e-05
151,223,2.053848900249036e-05
151,233,2.514545446514222e-06
151,245,1.729627757822951e-07
151,286,3.418083285884345e-07
151,290,0.0001020408354701084
151,296,7.185265852261857e-05
151,304,1.817237712195329e-05
151,314,2.3186344325317725e-06
151,326,1.7124278064390477e-07
152,152,0.00023065746402689134
152,160,4.7594330973380286e-05
152,170,4.930807961821031e-06
152,182,2.7855074546407434e-07
152,210,0.0003469563522746345
152,216,0.00019650154963721578
152,224,4.2009643571782574e-05
152,234,4.6404644859505875e-06
152,246,2.9555830612415203e-07
152,260,1.093251093100651e-08
152,291,0.00029522851886830664
152,297,0.00016968777251693114
152,305,3.715950201925361e-05
152,315,4.2780751605459765e-06
152,327,2.9257879502278594e-07
152,341,1.2394860994494468e-08
153,153,9.756536918284336e-05
153,161,2.3259832739083417e-05
153,171,2.6713812898049987e-06
153,183,1.6224123795009064e-07
153,207,7.906170047491778e-07
153,211,0.00011980355241635758
153,217,8.316955689540195e-05
153,225,2.053848900249036e-05
153,235,2.5145454465142216e-06
153,247,1.7296277578229514e-07
153,288,3.418083285884352e-07
153,292,0.0001020408354701084
153,298,7.185265852261857e-05
153,306,1.817237712195329e-05
153,316,2.3186344325317725e-06
153,328,1.7124278064390477e-07
154,154,2.081401149434142e-05
154,162,5.999740011612553e-06
154,172,7.859987507947283e-07
154,184,5.183047397411415e-08
154,212,1.8680609074055508e-05
154,218,1.7756366286272784e-05
154,226,5.300482142914672e-06
154,236,7.401256500275601e-07
154,248,5.502111027689049e-08
154,293,1.5928330281005037e-05
154,299,1.5348603222577564e-05
154,307,4.6915336152986456e-06
154,317,6.826416874253703e-07
154,329,5.4484894113347236e-08
155,155,2.1451016612449424e-06
155,163,8.330675350754176e-07
155,173,1.2845447265026953e-07
155,219,1.8312999478434164e-06
155,227,7.362434526436305e-07
155,237,1.2100977817872801e-07
155,300,1.5839793710740798e-06
155,308,6.519313775142422e-07
155,318,1.116457490451442e-07
156,156,3.668193653181873e-08
156,220,3.219597736714581e-08
156,301,2.851061720892366e-08
157,157,3.8339169079854617e-07
157,167,6.738308669722607e-08
157,213,7.102236719993093e-07
157,221,3.3860062137014763e-07
157,231,6.343432996380393e-08
157,294,6.137258979974029e-07
157,302,2.996321908669003e-07
157,312,5.8496919058546224e-08
158,158,2.007902643998526e-06
158,168,2.9826907433802593e-07
158,180,2.1074428119099074e-08
158,208,4.348033278240785e-06
158,214,5.111773738167046e-06
158,222,1.7723233939450124e-06
158,232,2.806915863226744e-07
158,244,2.2419598889470525e-08
158,289,3.7006711339628437e-06
158,295,4.414539829294959e-06
158,303,1.5677194361698246e-06
158,313,2.5877016180182863e-07
158,325,2.2187823990288155e-08
159,159,6.389850815928731e-06
159,169,8.29687043174751e-07
159,181,5.6532509114089435e-08
159,209,2.3348252387749007e-05
159,215,1.9802466976616445e-05
159,223,5.637428542587771e-06
159,233,7.804631655872633e-07
159,245,5.99627321366473e-08
159,290,1.9849078665450465e-05
159,296,1.7092319323439173e-05
159,304,4.984657722119056e-06
159,314,7.193177456147138e-07
159,326,5.934302297475028e-08
160,160,1.138081925056137e-05
160,170,1.3432762701445733e-06
160,182,8.544082034173347e-08
160,210,5.831747692950121e-05
160,216,4.049619924229373e-05
160,224,1.0037078460001336e-05
160,234,1.2632814285096002e-06
160,246,9.061136860151648e-08
160,291,4.952706896863277e-05
160,297,3.493912243419205e-05
160,305,8.872990956028546e-06
160,315,1.1642826056770494e-06
160,327,8.966517070127832e-08
161,161,6.389850815928729e-06
161,171,8.296870431747509e-07
161,183,5.6532509114089435e-08
161,211,2.3348252387749e-05
161,217,1.9802466976616438e-05
161,225,5.63742854258777e-06
161,235,7.804631655872627e-07
161,247,5.99627321366473e-08
161,292,1.9849078665450465e-05
161,298,1.7092319323439173e-05
161,306,4.984657722119056e-06
161,316,7.193177456147134e-07
161,328,5.9343022974750254e-08
162,162,2.0079026439985263e-06
162,172,2.9826907433802593e-07
162,184,2.1074428119099084e-08
162,212,4.3480332782407856e-06
162,218,5.111773738167046e-06
162,226,1.7723233939450129e-06
162,236,2.806915863226744e-07
162,248,2.2419598889470538e-08
162,293,3.700671133962845e-06
162,299,4.414539829294959e-06
162,307,1.5677194361698248e-06
162,317,2.5877016180182874e-07
162,329,2.2187823990288162e-08
163,163,3.833916907985463e-07
163,173,6.738308669722606e-08
163,219,7.102236719993093e-07
163,227,3.3860062137014763e-07
163,237,6.343432996380393e-08
163,300,6.137258979974029e-07
163,308,2.9963219086690036e-07
163,318,5.84969190585462e-08
164,164,3.668193653181873e-08
164,228,3.219597736714581e-08
164,309,2.8510617208923668e-08
167,167,1.2290508646104997e-08
167,213,1.0940102143757545e-07
167,221,5.9461488010055905e-08
167,231,1.1559391511466649e-08
167,294,9.445293491854859e-08
167,302,5.2587026871334866e-08
167,312,1.0652511224379938e-08
168,168,4.8706716479853213e-08
168,208,4.730256323189873e-07
168,214,6.688595564289708e-07
168,222,2.6308442253042643e-07
168,232,4.5800820671366205e-08
168,289,4.0184675769721575e-07
168,295,5.77126728782482e-07
168,303,2.3247736718605953e-07
168,313,4.220187154894712e-08
169,169,1.1951867556483708e-07
169,209,2.241475525434091e-06
169,215,2.271619883225311e-06
169,223,7.314147823127358e-07
169,233,1.1236047232341509e-07
169,290,1.9018583198261873e-06
169,296,1.9590214231516906e-06
169,304,6.463894967996999e-07
169,314,1.0342089592625718e-07
170,170,1.7713832789715488e-07
170,182,1.2724267932656293e-08
170,204,6.571854683825418e-08
170,210,5.0188623728992235e-06
170,216,4.19101419145456e-06
170,224,1.1838013710534628e-06
170,234,1.6649524980424697e-07
170,246,1.3360399091883345e-08
170,285,6.848575914862572e-08
170,291,4.253928735231352e-06
170,297,3.612927620907543e-06
170,305,1.0460302371504823e-06
170,315,1.533629399856504e-07
170,327,1.321286570139033e-08
171,171,1.1951867556483702e-07
171,211,2.241475525434091e-06
171,217,2.271619883225311e-06
171,225,7.314147823127355e-07
171,235,1.1236047232341509e-07
171,292,1.9018583198261875e-06
171,298,1.9590214231516906e-06
171,306,6.463894967996995e-07
171,316,1.0342089592625717e-07
172,172,4.8706716479853227e-08
172,212,4.730256323189874e-07
172,218,6.688595564289708e-07
172,226,2.630844225304265e-07
172,236,4.5800820671366225e-08
172,293,4.0184675769721585e-07
172,299,5.771267287824821e-07
172,307,2.3247736718605958e-07
172,317,4.2201871548947136e-08
173,173,1.2290508646104994e-08
173,219,1.0940102143757545e-07
173,227,5.946148801005589e-08
173,237,1.1559391511466649e-08
173,300,9.445293491854859e-08
173,308,5.2587026871334866e-08
173,318,1.0652511224379938e-08
180,208,2.594375034462069e-08
180,214,4.4050126503362e-08
180,222,1.796316042936177e-08
180,289,2.167102991595812e-08
180,295,3.797415463902115e-08
180,303,1.5862096554097886e-08
181,209,1.1468572617625739e-07
181,215,1.3842272538652814e-07
181,223,4.979596321488234e-08
181,290,9.70994909823517e-08
181,296,1.1927335132890775e-07
181,304,4.3981622312209576e-08
182,204,2.08699297109873e-08
182,210,2.3758229679852565e-07
182,216,2.364901426388243e-07
182,224,7.524112137312134e-08
182,234,1.2061213634934504e-08
182,285,1.8405628229599573e-08
182,291,2.0107393361706817e-07
182,297,2.0203643260219654e-07
182,305,6.644408625393053e-08
182,315,1.1096583399085455e-08
183,211,1.1468572617625739e-07
183,217,1.3842272538652816e-07
183,225,4.979596321488233e-08
183,292,9.70994909823517e-08
183,298,1.1927335132890775e-07
183,306,4.398162231220956e-08
184,212,2.5943750344620695e-08
184,218,4.405012650336201e-08
184,226,1.796316042936177e-08
184,293,2.1671029915958124e-08
184,299,3.797415463902116e-08
184,307,1.5862096554097886e-08
204,204,0.00012584436720032343
204,234,5.948508215104057e-08
204,246,2.205308210248124e-08
204,285,0.000107188589775771
204,315,5.3281508895846155e-08
204,327,2.176612681936949e-08
205,205,4.072149478973707e-05
205,209,3.5047149376117505e-05
205,215,7.703599280463878e-07
205,286,3.4691865454524e-05
205,290,3.0130982807722342e-05
205,296,7.253980416933104e-07
206,206,0.0002663962546642341
206,210,0.00010732417627370844
206,287,0.00022702348913180345
206,291,9.281338184332575e-05
207,207,4.072149478973707e-05
207,211,3.5047149376117505e-05
207,217,7.703599280463878e-07
207,288,3.4691865454524e-05
207,292,3.0130982807722342e-05
207,298,7.253980416933109e-07
208,208,2.2506671554004078e-05
208,214,1.5962314970240977e-05
208,222,3.845932608265461e-06
208,232,4.458651414270371e-07
208,244,2.7569247329599445e-08
208,289,1.9229271493690046e-05
208,295,1.3813909800649058e-05
208,303,3.4070426532890777e-06
208,313,4.1153078850194345e-07
208,325,2.7320720396076507e-08
209,209,0.00019311912694096396
209,215,0.00010229861106370917
209,223,2.064251391866665e-05
209,233,2.112058740188188e-06
209,245,1.218231496766025e-07
209,286,2.9373785939143947e-05
209,290,0.0001648380991241249
209,296,8.848553555105106e-05
209,304,1.8280784310289225e-05
209,314,1.948945345565398e-06
209,326,1.2069083401683797e-07
210,210,0.0006857755383301421
210,216,0.0002960884501211626
210,224,5.153994938543951e-05
210,234,4.727832576483086e-06
210,246,2.523189827960843e-07
210,287,8.831611059239342e-05
210,291,0.00058486062745202
210,297,0.0002560013559943832
210,305,4.563092597475663e-05
210,315,4.361875623793363e-06
210,327,2.499387745160947e-07
211,211,0.000193119126940964
211,217,0.00010229861106370917
211,225,2.064251391866665e-05
211,235,2.112058740188188e-06
211,247,1.2182314967660254e-07
211,288,2.9373785939143947e-05
211,292,0.00016483809912412492
211,298,8.848553555105109e-05
211,306,1.8280784310289225e-05
211,316,1.948945345565398e-06
211,328,1.2069083401683802e-07
212,212,2.2506671554004084e-05
212,218,1.5962314970240977e-05
212,226,3.845932608265462e-06
212,236,4.458651414270371e-07
212,248,2.756924732959945e-08
212,293,1.9229271493690046e-05
212,299,1.3813909800649058e-05
212,307,3.407042653289078e-06
212,317,4.1153078850194345e-07
212,329,2.7320720396076524e-08
213,213,1.5636764437768073e-06
213,221,6.278199205089848e-07
213,231,1.0306154710255284e-07
213,294,1.3525100251137864e-06
213,302,5.559281404296273e-07
213,312,9.508702918286344e-08
214,214,1.514808657068e-05
214,222,4.5160566965006484e-06
214,232,6.29829242493492e-07
214,244,4.676229522016704e-08
214,289,1.3610659631571814e-05
214,295,1.3094132260503133e-05
214,303,3.997258971205708e-06
214,313,5.809158643536758e-07
214,325,4.63069089961623e-08
215,215,7.089893661394348e-05
215,223,1.7485960060363077e-05
215,233,2.138276735681183e-06
215,245,1.4690426937203847e-07
215,286,3.7310361721386985e-07
215,290,8.713281452854129e-05
215,296,6.125236685345079e-05
215,304,1.5471645874856827e-05
215,314,1.9716603751584566e-06
215,326,1.4544442693129753e-07
216,216,0.0001674062521107628
216,224,3.574489923967998e-05
216,234,3.943917472704887e-06
216,246,2.5019401351000096e-07
216,291,0.00025194967890761796
216,297,0.00014456440548363532
216,305,3.161833931030582e-05
216,315,3.6359535096987863e-06
216,327,2.4613697667565303e-07
216,341,1.0116193074527194e-08
217,217,7.089893661394348e-05
217,225,1.7485960060363077e-05
217,235,2.138276735681183e-06
217,247,1.4690426937203852e-07
217,288,3.731036172138696e-07
217,292,8.713281452854131e-05
217,298,6.125236685345079e-05
217,306,1.5471645874856823e-05
217,316,1.9716603751584566e-06
217,328,1.4544442693129756e-07
218,218,1.5148086570679998e-05
218,226,4.5160566965006484e-06
218,236,6.298292424934921e-07
218,248,4.676229522016704e-08
218,293,1.3610659631571814e-05
218,299,1.3094132260503128e-05
218,307,3.997258971205707e-06
218,317,5.809158643536758e-07
218,329,4.63069089961623e-08
219,219,1.5636764437768073e-06
219,227,6.27819920508985e-07
219,237,1.0306154710255282e-07
219,300,1.3525100251137864e-06
219,308,5.559281404296273e-07
219,318,9.508702918286341e-08
220,220,2.8462602085770093e-08
220,301,2.5204727393578033e-08
221,221,2.990448289627155e-07
221,231,5.597738239301365e-08
221,294,5.425222194189943e-07
221,302,2.6463607326039144e-07
221,312,5.1620668501177235e-08
222,222,1.5643973908732089e-06
222,232,2.4747808961254674e-07
222,244,1.9689066228694293e-08
222,289,3.2734078988512024e-06
222,295,3.900108158898116e-06
222,303,1.3838058325085984e-06
222,313,2.2812955817096767e-07
222,325,1.948569698989967e-08
223,223,4.973414854878685e-06
223,233,6.880267487164671e-07
223,245,5.281782139639652e-08
223,290,1.7549124669459314e-05
223,296,1.5092979132794436e-05
223,304,4.3977654820825675e-06
223,314,6.341269072532965e-07
223,326,5.227222940875822e-08
224,224,8.852082318952286e-06
224,234,1.1134564223524728e-06
224,246,7.979502628426429e-08
224,291,4.377190665920098e-05
224,297,3.0840108884564196e-05
224,305,7.825485051903132e-06
224,315,1.0259947043860982e-06
224,327,7.89622037248626e-08
225,225,4.9734148548786844e-06
225,235,6.880267487164669e-07
225,247,5.2817821396396506e-08
225,292,1.7549124669459314e-05
225,298,1.509297913279443e-05
225,306,4.397765482082566e-06
225,316,6.341269072532962e-07
225,328,5.227222940875822e-08
226,226,1.5643973908732089e-06
226,236,2.4747808961254674e-07
226,248,1.9689066228694296e-08
226,293,3.2734078988512024e-06
226,299,3.900108158898116e-06
226,307,1.3838058325085984e-06
226,317,2.281295581709677e-07
226,329,1.9485696989899677e-08
227,227,2.9904482896271557e-07
227,237,5.597738239301364e-08
227,300,5.425222194189943e-07
227,308,2.6463607326039144e-07
227,318,5.162066850117723e-08
228,228,2.84626020857701e-08
228,309,2.5204727393578033e-08
231,231,1.0871880718332403e-08
231,294,8.89802533632397e-08
231,302,4.950599964514536e-08
231,312,1.0019014196998143e-08
232,232,4.306860566552428e-08
232,289,3.7877834715238254e-07
232,295,5.434531940002803e-07
232,303,2.1876469534765215e-07
232,313,3.9684555041370924e-08
233,233,1.0553667096962659e-07
233,290,1.792077787491325e-06
233,296,1.8440401910685983e-06
233,304,6.080487188328891e-07
233,314,9.72250166663965e-08
234,234,1.564927625601081e-07
234,246,1.2651758518197658e-08
234,285,6.244220047091449e-08
234,291,4.0073252487715156e-06
234,297,3.3999419712926687e-06
234,305,9.837476159358806e-07
234,315,1.441501362335712e-07
234,327,1.250960991892756e-08
235,235,1.0553667096962655e-07
235,292,1.792077787491325e-06
235,298,1.8440401910685983e-06
235,306,6.08048718832889e-07
235,316,9.722501666639648e-08
236,236,4.3068605665524285e-08
236,293,3.787783471523826e-07
236,299,5.434531940002803e-07
236,307,2.1876469534765215e-07
236,317,3.968455504137093e-08
237,237,1.0871880718332403e-08
237,300,8.89802533632397e-08
237,308,4.9505999645145354e-08
237,318,1.0019014196998142e-08
244,289,2.301901352098116e-08
244,295,4.031252454080245e-08
244,303,1.682188640090767e-08
245,290,1.0314416706173127e-07
245,296,1.2658242118848805e-07
245,304,4.665088432808607e-08
246,285,1.9452025447543995e-08
246,291,2.1354786516819815e-07
246,297,2.161529659095089e-07
246,305,7.046593974826983e-08
246,315,1.1752257622068194e-08
247,292,1.0314416706173127e-07
247,298,1.2658242118848813e-07
247,306,4.665088432808607e-08
248,293,2.3019013520981163e-08
248,299,4.031252454080245e-08
248,307,1.6821886400907675e-08
285,285,9.130195556388491e-05
285,315,5.628776755112884e-08
285,327,1.9201016052313393e-08
286,286,2.9556566691190904e-05
286,290,2.5256839729950085e-05
286,296,3.7308985220576744e-07
287,287,0.00019348655403390836
287,291,7.641441751816605e-05
288,288,2.9556566691190904e-05
288,292,2.525683972995009e-05
288,298,3.7308985220576686e-07
289,289,1.6429318048341632e-05
289,295,1.1778899023001004e-05
289,303,2.899881145460532e-06
289,313,3.496134455362521e-07
289,325,2.2813445219580725e-08
290,290,0.00014070097830911347
290,296,7.536846803999134e-05
290,304,1.554148844431067e-05
290,314,1.6536946399743984e-06
290,326,1.0218665013239973e-07
291,291,0.0004988060965103428
291,297,0.00021784167233137043
291,305,3.875398518157558e-05
291,315,3.6971851684170273e-06
291,327,2.1153465228853127e-07
292,292,0.0001407009783091135
292,298,7.536846803999137e-05
292,306,1.5541488444310666e-05
292,316,1.6536946399743984e-06
292,328,1.0218665013239973e-07
293,293,1.6429318048341632e-05
293,299,1.1778899023001004e-05
293,307,2.8998811454605327e-06
293,317,3.4961344553625213e-07
293,329,2.2813445219580732e-08
294,294,1.1698678716389216e-06
294,302,4.804003190664322e-07
294,312,8.213214337455266e-08
295,295,1.1318755210841618e-05
295,303,3.452089299702787e-06
295,313,5.012243182471928e-07
295,325,3.9920160133863e-08
296,296,5.291872786287082e-05
296,304,1.3354258242712026e-05
296,314,1.700390238158463e-06
296,326,1.2532515556981105e-07
297,297,0.00012484030869709583
297,305,2.7279965369135197e-05
297,315,3.1344731332270896e-06
297,327,2.139746257620664e-07
298,298,5.291872786287082e-05
298,306,1.3354258242712026e-05
298,316,1.7003902381584631e-06
298,328,1.2532515556981108e-07
299,299,1.1318755210841614e-05
299,307,3.452089299702787e-06
299,317,5.012243182471928e-07
299,329,3.9920160133863017e-08
300,300,1.1698678716389214e-06
300,308,4.804003190664322e-07
300,318,8.213214337455266e-08
301,301,2.2319842210170497e-08
302,302,2.3418226771149821e-07
302,312,4.565313357924402e-08
303,303,1.2240669471173671e-06
303,313,2.0162489572017975e-07
303,325,1.664616186814395e-08
304,304,3.888763534877213e-06
304,314,5.604166426363424e-07
304,326,4.6169169126934874e-08
305,305,6.917980131958198e-06
305,315,9.060567077440843e-07
305,327,6.97307553603308e-08
306,306,3.888763534877211e-06
306,316,5.604166426363422e-07
306,328,4.6169169126934874e-08
307,307,1.2240669471173671e-06
307,317,2.0162489572017975e-07
307,329,1.6646161868143954e-08
308,308,2.3418226771149824e-07
308,318,4.565313357924402e-08
309,309,2.2319842210170497e-08
313,313,3.656653684924765e-08
314,314,8.956827853381966e-08
315,315,1.327814625595559e-07
315,327,1.1618317811713626e-08
316,316,8.956827853381963e-08
317,317,3.6566536849247664e-08
