# Basis size = 385
0,0,0.4133973500800768
0,1,0.08259562274387769
0,3,0.07094788955784623
0,5,0.04053692420587604
0,7,0.03830409167884763
0,11,0.003800722316563367
0,14,0.025396671560508472
0,16,0.024734982865995535
0,20,0.002849203365271898
0,26,0.00010459785523173291
0,30,0.017872025838767697
0,32,0.017643656616713736
0,36,0.002149967990733252
0,42,9.542191487235946e-05
0,50,1.7811664676313267e-06
0,55,0.013473289675297406
0,57,0.013397754050252534
0,61,0.0016790444550969486
0,67,8.06526035974377e-05
0,75,1.8698239986023316e-06
0,85,2.077447444296069e-08
0,91,0.010633739838446635
0,93,0.010619966321013277
0,97,0.0013526294348345201
0,103,6.777593545157855e-05
0,111,1.729819292694566e-06
0,121,2.4338802896511897e-08
0,140,0.008672854000731575
0,142,0.008685841806402587
0,146,0.0011176520726491105
0,152,5.74543819916983e-05
0,160,1.5473409887553349e-06
0,170,2.4282314651283272e-08
0,204,0.007250706777206509
0,206,0.007275430853012945
0,210,0.000942636514676708
0,216,4.927948223485228e-05
0,224,1.3727425428017872e-06
0,234,2.293673193188357e-08
0,285,0.006180037005398355
0,287,0.006209556654657143
0,291,0.0008084627156468242
0,297,4.2762136000164914e-05
0,305,1.2186840329620668e-06
0,315,2.120793993615667e-08
1,1,0.04104162245760347
1,5,0.021901680328745156
1,14,0.014086823961150007
1,30,0.010029601598679666
1,55,0.007608284477675885
1,91,0.0060271423196738
1,140,0.004927502976702128
1,204,0.004126241798837735
1,285,0.0035210428920620534
2,2,0.05375221495872712
2,6,0.02787796896969584
2,10,0.006963210860838146
2,15,0.01774925811884923
2,19,0.005162488441271576
2,25,0.0003565389401235317
2,31,0.01257778798844544
2,35,0.0038755990907129905
2,41,0.00032381873570484445
2,49,9.948361734851478e-06
2,56,0.009516909409769955
2,60,0.003018265377095228
2,66,0.00027303794689201814
2,74,1.0420828315249525e-05
2,84,1.7602782728880592e-07
2,92,0.0075274996386358985
2,96,0.002427410212472641
2,102,0.00022911169650892974
2,110,9.627908169851217e-06
2,120,2.059139391330953e-07
2,141,0.006147967018800975
2,145,0.0020035328632427188
2,151,0.0001940367774994802
2,159,8.604924402088795e-06
2,169,2.052749675363084e-07
2,205,0.005144715467602735
2,209,0.0016885298072918595
2,215,0.00016632027685962875
2,223,7.62950333761735e-06
2,233,1.9386287295314424e-07
2,286,0.004387982878991419
2,290,0.0014474104495530852
2,296,0.00014425701043389765
2,304,6.770436956237049e-06
2,314,1.7918176929728917e-07
3,3,0.08372067837075578
3,7,0.042203800632612004
3,11,0.010657084141370348
3,16,0.02659797892716401
3,20,0.007870252238261823
3,26,0.0005391877903332476
3,32,0.018758915097047458
3,36,0.00589765973198314
3,42,0.0004892124982482542
3,50,1.4909501748832641e-05
3,57,0.014157050143153603
3,61,0.004588484728341818
3,67,0.00041226909439618184
3,75,1.5611845651458767e-05
3,85,2.6196494521242066e-07
3,93,0.01118012323569268
3,97,0.0036880447118786473
3,103,0.0003458291551772583
3,111,1.442086628893857e-05
3,121,3.064029582339384e-07
3,142,0.009121887542939728
3,146,0.0030428558558571843
3,152,0.0002928230648951067
3,160,1.2886837624345266e-05
3,170,3.0542246926443453e-07
3,206,0.00762800130354824
3,210,0.002563765854322398
3,216,0.0002509588854922621
3,224,1.142495119163691e-05
3,234,2.884201624381818e-07
3,287,0.00650274566433975
3,291,0.002197246868808002
3,297,0.0002176449679120915
3,305,1.0137837019280041e-05
3,315,2.665561813395885e-07
4,4,0.05375221495872712
4,8,0.02787796896969584
4,12,0.006963210860838148
4,17,0.01774925811884923
4,21,0.005162488441271576
4,27,0.00035653894012353175
4,33,0.01257778798844544
4,37,0.0038755990907129905
4,43,0.00032381873570484445
4,51,9.948361734851475e-06
4,58,0.009516909409769955
4,62,0.003018265377095229
4,68,0.00027303794689201825
4,76,1.0420828315249522e-05
4,86,1.7602782728880592e-07
4,94,0.0075274996386358985
4,98,0.002427410212472641
4,104,0.00022911169650892974
4,112,9.62790816985122e-06
4,122,2.0591393913309518e-07
4,143,0.006147967018800975
4,147,0.0020035328632427188
4,153,0.00019403677749948024
4,161,8.604924402088795e-06
4,171,2.052749675363082e-07
4,207,0.005144715467602735
4,211,0.0016885298072918601
4,217,0.00016632027685962875
4,225,7.629503337617347e-06
4,235,1.9386287295314416e-07
4,288,0.004387982878991419
4,292,0.0014474104495530852
4,298,0.00014425701043389768
4,306,6.770436956237049e-06
4,316,1.79181769297289e-07
5,5,0.011817064556060259
5,14,0.00762874520618587
5,30,0.005440733217491247
5,55,0.004131011086425934
5,91,0.0032743029215463707
5,140,0.002677862529960071
5,204,0.002242959634446235
5,285,0.0019143143300067397
6,6,0.014675657794539295
6,10,0.0032412127975634257
6,15,0.009391412741255802
6,19,0.0024170369775204704
6,25,0.00014541054949573974
6,31,0.00667069527519128
6,35,0.0018193745075206148
6,41,0.0001324942228870961
6,49,3.4393676217557887e-06
6,56,0.00505373436507237
6,60,0.0014189516718243706
6,66,0.00011191246325830247
6,74,3.6106616714255726e-06
6,84,4.895308361816085e-08
6,92,0.004000348696874045
6,96,0.0011421692438872636
6,102,9.40069791469495e-05
6,110,3.3403524716563983e-06
6,120,5.752737060791542e-08
6,141,0.00326883435369279
6,145,0.0009432528912029772
6,151,7.966971187449352e-05
6,159,2.9879970670001885e-06
6,169,5.7414116998105506e-08
6,205,0.002736336594016315
6,209,0.0007952575294218932
6,215,6.832150165308264e-05
6,223,2.6508483321356304e-06
6,233,5.4264466756404695e-08
6,286,0.0023344145958383937
6,290,0.0006818838561287729
6,296,5.927809443139755e-05
6,304,2.3533576389845306e-06
6,314,5.018304059219537e-08
7,7,0.021734016620997044
7,11,0.004832354742928253
7,16,0.013798545454460083
7,20,0.003593785461269969
7,26,0.00021420021900875986
7,32,0.009764807270686291
7,36,0.0027017130070219712
7,42,0.00019506056385092756
7,50,5.011712109815461e-06
7,57,0.007382880328422431
7,61,0.0021056385618169
7,67,0.00016470749222639676
7,75,5.260613216432784e-06
7,85,7.07589048733734e-08
7,93,0.005836863832498469
7,97,0.0016942007102876654
7,103,0.00013832856814586036
7,111,4.866387196836603e-06
7,121,8.291590016372298e-08
7,142,0.004765723920740129
7,146,0.0013987637633293014
7,152,0.00011721711460525772
7,160,4.352831825688515e-06
7,170,8.275281041533515e-08
7,206,0.003987201180325178
7,210,0.001179079063076914
7,216,0.00010051203597412594
7,224,3.861542432151364e-06
7,234,7.821320032452044e-08
7,287,0.0034002175822128765
7,291,0.0010108518430214637
7,297,8.720237912258745e-05
7,305,3.4280925894853964e-06
7,315,7.233055193921744e-08
8,8,0.014675657794539295
8,12,0.0032412127975634266
8,17,0.009391412741255802
8,21,0.00241703697752047
8,27,0.0001454105494957398
8,33,0.00667069527519128
8,37,0.0018193745075206148
8,43,0.00013249422288709608
8,51,3.439367621755787e-06
8,58,0.00505373436507237
8,62,0.001418951671824371
8,68,0.00011191246325830247
8,76,3.6106616714255697e-06
8,86,4.895308361816075e-08
8,94,0.004000348696874045
8,98,0.0011421692438872636
8,104,9.40069791469495e-05
8,112,3.340352471656397e-06
8,122,5.7527370607915356e-08
8,143,0.00326883435369279
8,147,0.0009432528912029773
8,153,7.966971187449352e-05
8,161,2.9879970670001864e-06
8,171,5.7414116998105467e-08
8,207,0.002736336594016315
8,211,0.0007952575294218932
8,217,6.832150165308264e-05
8,225,2.6508483321356295e-06
8,235,5.426446675640465e-08
8,288,0.0023344145958383937
8,292,0.000681883856128773
8,298,5.927809443139756e-05
8,306,2.3533576389845297e-06
8,316,5.0183040592195296e-08
9,9,0.0016557000984261676
9,18,0.0012218706223611827
9,24,0.00014722294902963905
9,34,0.00091532019700341
9,40,0.0001334735207727439
9,48,5.9753243765833555e-06
9,59,0.0007120073340088829
9,65,0.0001124330548011258
9,73,6.2537554145682325e-06
9,83,1.417451598536939e-07
9,95,0.0005722214390370133
9,101,9.428955384239865e-05
9,109,5.774946915609187e-06
9,119,1.6582083247072004e-07
9,144,0.0004720832821107779
9,150,7.982427353461163e-05
9,158,5.159620212338233e-06
9,168,1.6525455556266237e-07
9,208,0.0003977356563445816
9,214,6.840418942124951e-05
9,222,4.57369452032459e-06
9,232,1.5603387722693496e-07
9,289,0.0003408630587744878
9,295,5.931892642576016e-05
9,303,4.058038799430669e-06
9,313,1.4419566913793314e-07
10,10,0.002824915213166139
10,15,0.001981954477947492
10,19,0.0020701222074626874
10,25,0.00025679198632458584
10,31,0.001377811245812336
10,35,0.0015456877799264982
10,41,0.0002324533105876397
10,49,1.0677136666579994e-05
10,56,0.0010315698479750448
10,60,0.0012002130445444032
10,66,0.00019564705540707917
10,74,1.116914640187624e-05
10,84,2.578046360991963e-07
10,92,0.0008107178047255519
10,96,0.0009635404657481087
10,102,0.00016399278567937628
10,110,1.031089732842615e-05
10,120,3.013665919008977e-07
10,141,0.0006593794277016824
10,145,0.0007943654600818662
10,151,0.00013878895250888623
10,159,9.21048356939357e-06
10,169,3.003014477930389e-07
10,205,0.0005501954253629425
10,209,0.0006689406934918345
10,215,0.0001189065094809877
10,223,8.163457540145805e-06
10,233,2.835216196113828e-07
10,286,0.0004683017108109065
10,290,0.0005730911574208349
10,296,0.00010309686444385596
10,304,7.242392704858293e-06
10,314,2.6279845973624095e-07
11,11,0.003499391996022272
11,16,0.002925336850833834
11,20,0.0025556982781832775
11,26,0.00031020493793667485
11,32,0.002023811111580892
11,36,0.0019052366066987239
11,42,0.00028059866924004377
11,50,1.2835742943943116e-05
11,57,0.0015111739704694984
11,61,0.0014781258832530632
11,67,0.00023607525413924606
11,75,1.3424169373192536e-05
11,85,3.0984703121640275e-07
11,93,0.0011857017257663892
11,97,0.0011860338483882097
11,103,0.00019783216693789374
11,111,1.2390942232925399e-05
11,121,3.6215395399489546e-07
11,142,0.0009633342170231394
11,146,0.0009774637526914062
11,152,0.00016740170337674372
11,160,1.1067549165622806e-05
11,170,3.608539873151899e-07
11,206,0.0008032280019398726
11,210,0.00082293814691022
11,216,0.00014340477755394901
11,224,9.808822960299169e-06
11,234,3.406783336900107e-07
11,287,0.000683310587378426
11,291,0.0007049059883209565
11,297,0.00012432880375781583
11,305,8.701762100448175e-06
11,315,3.1566403805609374e-07
12,12,0.00282491521316614
12,17,0.0019819544779474917
12,21,0.002070122207462688
12,27,0.00025679198632458584
12,33,0.001377811245812336
12,37,0.0015456877799264982
12,43,0.00023245331058763965
12,51,1.0677136666579998e-05
12,58,0.0010315698479750448
12,62,0.0012002130445444034
12,68,0.00019564705540707917
12,76,1.1169146401876239e-05
12,86,2.5780463609919627e-07
12,94,0.0008107178047255519
12,98,0.000963540465748109
12,104,0.00016399278567937628
12,112,1.031089732842615e-05
12,122,3.0136659190089755e-07
12,143,0.0006593794277016826
12,147,0.0007943654600818663
12,153,0.00013878895250888623
12,161,9.21048356939357e-06
12,171,3.003014477930389e-07
12,207,0.0005501954253629425
12,211,0.0006689406934918348
12,217,0.0001189065094809877
12,225,8.163457540145805e-06
12,235,2.835216196113827e-07
12,288,0.0004683017108109065
12,292,0.000573091157420835
12,298,0.00010309686444385599
12,306,7.242392704858294e-06
12,316,2.6279845973624085e-07
13,13,0.0016557000984261682
13,22,0.0012218706223611827
13,28,0.00014722294902963902
13,38,0.0009153201970034103
13,44,0.0001334735207727439
13,52,5.9753243765833555e-06
13,63,0.000712007334008883
13,69,0.00011243305480112582
13,77,6.2537554145682325e-06
13,87,1.4174515985369399e-07
13,99,0.0005722214390370135
13,105,9.428955384239868e-05
13,113,5.774946915609188e-06
13,123,1.6582083247072007e-07
13,148,0.0004720832821107781
13,154,7.982427353461163e-05
13,162,5.1596202123382336e-06
13,172,1.6525455556266237e-07
13,212,0.0003977356563445817
13,218,6.840418942124951e-05
13,226,4.57369452032459e-06
13,236,1.56033877226935e-07
13,293,0.0003408630587744879
13,299,5.931892642576016e-05
13,307,4.05803879943067e-06
13,317,1.4419566913793317e-07
14,14,0.004931057829343999
14,30,0.0035187856274896197
14,55,0.0026725500634903394
14,91,0.002118697401969665
14,140,0.0017329680345771117
14,204,0.0014516418039753952
14,285,0.001239016114929223
15,15,0.006020304679902162
15,19,0.001481177388019479
15,25,8.421930271481215e-05
15,31,0.004279609780269514
15,35,0.0011160274982862678
15,41,7.684224561735556e-05
15,49,1.841683185061551e-06
15,56,0.0032436369698734305
15,60,0.0008708675984709823
15,66,6.495290182758923e-05
15,74,1.935538918607468e-06
15,84,2.301802844421536e-08
15,92,0.002568206706235526
15,96,0.0007012199757797775
15,102,5.4584666150034776e-05
15,110,1.7918215892061007e-06
15,120,2.7004868599664466e-08
15,141,0.0020989292304560204
15,145,0.0005792181877875265
15,151,4.6272983782349496e-05
15,159,1.603499941495104e-06
15,169,2.6972523042453264e-08
15,205,0.0017572122635056392
15,209,0.0004884089508268143
15,215,3.968954219948957e-05
15,223,1.422986968565087e-06
15,233,2.5506316728843e-08
15,286,0.0014992301511573486
15,290,0.0004188228653895617
15,296,3.444080170894977e-05
15,304,1.263557129932939e-06
15,314,2.3596789954963012e-08
16,16,0.008782524362391622
16,20,0.002181307217923574
16,26,0.00012266563791376965
16,32,0.0062223032411516535
16,36,0.0016418310031706357
16,42,0.00011188006005219819
16,50,2.6465188915261345e-06
16,57,0.004707437736861212
16,61,0.0012804310535707952
16,67,9.455044718271475e-05
16,75,2.7799102992993584e-06
16,85,3.263612703622018e-08
16,93,0.003723072530875618
16,97,0.0010306411703261418
16,103,7.944789870552481e-05
16,111,2.573516106293531e-06
16,121,3.8292835373482967e-08
16,142,0.0030405809697768554
16,146,0.0008511325892735244
16,152,6.734481828375851e-05
16,160,2.303040439113097e-06
16,170,3.8249956559713344e-08
16,206,0.0025442997841372827
16,210,0.0007175815008972255
16,216,5.7760221467139464e-05
16,224,2.0437814587042356e-06
16,234,3.617327907955547e-08
16,287,0.002169994438869183
16,291,0.0006152756624019485
16,297,5.0115757404230565e-05
16,305,1.8148018303945831e-06
16,315,3.3466428745407126e-08
17,17,0.006020304679902162
17,21,0.0014811773880194791
17,27,8.421930271481218e-05
17,33,0.004279609780269514
17,37,0.0011160274982862678
17,43,7.684224561735556e-05
17,51,1.84168318506155e-06
17,58,0.0032436369698734305
17,62,0.0008708675984709823
17,68,6.495290182758923e-05
17,76,1.9355389186074673e-06
17,86,2.3018028444215375e-08
17,94,0.002568206706235526
17,98,0.0007012199757797775
17,104,5.458466615003479e-05
17,112,1.7918215892061e-06
17,122,2.700486859966445e-08
17,143,0.0020989292304560204
17,147,0.0005792181877875266
17,153,4.6272983782349496e-05
17,161,1.6034999414951027e-06
17,171,2.697252304245328e-08
17,207,0.0017572122635056392
17,211,0.0004884089508268144
17,217,3.968954219948957e-05
17,225,1.4229869685650863e-06
17,235,2.550631672884297e-08
17,288,0.0014992301511573486
17,292,0.0004188228653895617
17,298,3.4440801708949785e-05
17,306,1.263557129932939e-06
17,316,2.3596789954962982e-08
18,18,0.0009026520685488066
18,24,0.00010648267053100251
18,34,0.0006765137889491597
18,40,9.658467846082343e-05
18,48,4.2315313044372775e-06
18,59,0.0005263821605445213
18,65,8.138043513956363e-05
18,73,4.429925567165696e-06
18,83,9.814711896437491e-08
18,95,0.0004231057641095594
18,101,6.825876018824233e-05
18,109,4.091410675826388e-06
18,119,1.1479329444845165e-07
18,144,0.00034909822089990486
18,150,5.779308884023757e-05
18,158,3.6558534917958183e-06
18,168,1.1441481300037326e-07
18,208,0.00029413982741293153
18,214,4.9528393027682676e-05
18,222,3.24093587723205e-06
18,232,1.0802059069152175e-07
18,289,0.0002520930697246272
18,295,4.295231073051294e-05
18,303,2.8756900930179433e-06
18,313,9.983085932841967e-08
19,19,0.0015189760423827748
19,25,0.00018477740996636715
19,31,0.0010307376493912202
19,35,0.0011348481727599406
19,41,0.0001673562299695059
19,49,7.5293018765603755e-06
19,56,0.0007721504269588681
19,60,0.0008814873603350676
19,66,0.00014089768361393859
19,74,7.87858680282762e-06
19,84,1.7790149688140835e-07
19,92,0.000607046181348301
19,96,0.000707804248091498
19,102,0.0001181240232735258
19,110,7.274478410599967e-06
19,120,2.0799846059452875e-07
19,141,0.0004938378878831863
19,145,0.0005836050155265031
19,151,9.998125968068706e-05
19,159,6.498874174908924e-06
19,169,2.0728720945728001e-07
19,205,0.00041212854375603374
19,209,0.0004915008804288618
19,215,8.566508943981111e-05
19,223,5.7605549405013384e-06
19,233,1.957206321685637e-07
19,286,0.0003508239895881641
19,290,0.0004211022825401553
19,296,7.427963501728157e-05
19,304,5.110892571716738e-06
19,314,1.808709011784525e-07
20,20,0.0018691932749101356
20,26,0.00022265855237756587
20,32,0.0015109826391818452
20,36,0.0013943894598516934
20,42,0.00020152540236495608
20,50,9.033749351226276e-06
20,57,0.001129033705045077
20,61,0.001082192282767086
20,67,0.00016960254924706721
20,75,9.450763818985514e-06
20,85,2.1343835804300498e-07
20,93,0.0008862419826509104
20,97,0.0008685308915448016
20,103,0.0001421551338497683
20,111,8.724999417061208e-06
20,121,2.495271228423391e-07
20,142,0.0007202350912533734
20,146,0.0007158971312902347
20,152,0.00012030355855305884
20,160,7.794076450940668e-06
20,170,2.486614480420796e-07
20,206,0.0006006466060965779
20,210,0.0006027809356010293
20,216,0.00010306697895058191
20,224,6.90821163783948e-06
20,234,2.3477922326726944e-07
20,287,0.0005110434199860505
20,291,0.0005163614472863445
20,297,8.936219222510247e-05
20,305,6.128865369605474e-06
20,315,2.169607202751993e-07
21,21,0.0015189760423827755
21,27,0.00018477740996636715
21,33,0.0010307376493912204
21,37,0.0011348481727599406
21,43,0.00016735622996950596
21,51,7.529301876560376e-06
21,58,0.0007721504269588681
21,62,0.0008814873603350678
21,68,0.00014089768361393859
21,76,7.87858680282762e-06
21,86,1.7790149688140835e-07
21,94,0.000607046181348301
21,98,0.0007078042480914983
21,104,0.0001181240232735258
21,112,7.274478410599967e-06
21,122,2.0799846059452868e-07
21,143,0.0004938378878831864
21,147,0.0005836050155265032
21,153,9.998125968068706e-05
21,161,6.498874174908925e-06
21,171,2.0728720945727993e-07
21,207,0.00041212854375603374
21,211,0.000491500880428862
21,217,8.566508943981112e-05
21,225,5.760554940501337e-06
21,235,1.9572063216856368e-07
21,288,0.0003508239895881641
21,292,0.0004211022825401555
21,298,7.427963501728158e-05
21,306,5.110892571716737e-06
21,316,1.8087090117845244e-07
22,22,0.0009026520685488066
22,28,0.00010648267053100251
22,38,0.00067651378894916
22,44,9.658467846082343e-05
22,52,4.2315313044372775e-06
22,63,0.0005263821605445213
22,69,8.138043513956363e-05
22,77,4.429925567165696e-06
22,87,9.814711896437494e-08
22,99,0.00042310576410955943
22,105,6.825876018824233e-05
22,113,4.091410675826388e-06
22,123,1.1479329444845169e-07
22,148,0.000349098220899905
22,154,5.779308884023757e-05
22,162,3.6558534917958183e-06
22,172,1.1441481300037326e-07
22,212,0.0002941398274129316
22,218,4.9528393027682676e-05
22,226,3.24093587723205e-06
22,236,1.080205906915218e-07
22,293,0.0002520930697246273
22,299,4.295231073051294e-05
22,307,2.8756900930179438e-06
22,317,9.983085932841964e-08
23,23,1.8655684061546686e-05
23,39,1.6897159223665232e-05
23,47,1.2045989154957248e-06
23,64,1.4226109947096685e-05
23,72,1.260154663881475e-06
23,82,3.8944143035920434e-08
23,100,1.192666262626332e-05
23,108,1.163543872454555e-06
23,118,4.552167230401787e-08
23,149,1.0094869597607583e-05
23,157,1.039378198192515e-06
23,167,4.535892270526787e-08
23,213,8.649430994624102e-06
23,221,9.212319757245157e-07
23,231,4.2823314951121544e-08
23,294,7.499884000575595e-06
23,302,8.17296044173151e-07
23,312,3.957118560373393e-08
24,24,3.332325487415752e-05
24,34,7.901762444761924e-05
24,40,3.0106426730522964e-05
24,48,2.22181638543342e-06
24,59,6.114966506351658e-05
24,65,2.5312653539770852e-05
24,73,2.3226602104319077e-06
24,83,7.464641276562051e-08
24,95,4.899102046314633e-05
24,101,2.1203671145083617e-05
24,109,2.143327401937135e-06
24,119,8.705633795677762e-08
24,144,4.0335535529682034e-05
24,150,1.793745356699953e-05
24,158,1.914071907170558e-06
24,168,8.673184408893862e-08
24,208,3.393573732318149e-05
24,214,1.5363448156524103e-05
24,222,1.6961951200585925e-06
24,232,8.203929265197799e-08
24,289,2.9054167525738978e-05
24,295,1.3318072264180847e-05
24,303,1.504660797184682e-06
24,313,7.580301134803932e-08
25,25,4.6824466417547465e-05
25,31,5.699339656066291e-05
25,35,0.00013678596401997179
25,41,4.2240327606285153e-05
25,49,3.075724330382264e-06
25,56,4.2029930693219886e-05
25,60,0.0001057161553270453
25,66,3.548523230809759e-05
25,74,3.2138566743001398e-06
25,84,1.0407496503814573e-07
25,92,3.2725314571720136e-05
25,96,8.46284092526471e-05
25,102,2.9710160099102837e-05
25,110,2.9648972417525454e-06
25,120,1.2160320128124244e-07
25,141,2.645378706969176e-05
25,145,6.964044302748124e-05
25,151,2.5125469359481525e-05
25,159,2.6473105276750508e-06
25,169,1.2113564817072473e-07
25,205,2.19801124900758e-05
25,209,5.8570076889989835e-05
25,215,2.1515172684236485e-05
25,223,2.3456895706233344e-06
25,233,1.1434282624700351e-07
25,286,1.865154788026842e-05
25,290,5.013208655314834e-05
25,296,1.8647843471426255e-05
25,304,2.080582077228626e-06
25,314,1.0564429611035078e-07
26,26,5.2745293396243726e-05
26,32,8.253515873090085e-05
26,36,0.00016463878893779779
26,42,4.755314452411922e-05
26,50,3.424926305287239e-06
26,57,6.06665440614633e-05
26,61,0.00012716002832599248
26,67,3.993545482427578e-05
26,75,3.5780735442919742e-06
26,85,1.1571115681816622e-07
26,93,4.714009149304697e-05
26,97,0.00010175558673049794
26,103,3.3429605366029435e-05
26,111,3.300590479263154e-06
26,121,1.3514594238007124e-07
26,142,3.8055012906353965e-05
26,146,8.371337551277545e-05
26,152,2.826735358324447e-05
26,160,2.9468442911755227e-06
26,170,1.3462136622127378e-07
26,206,3.1589915447484065e-05
26,210,7.039380509445375e-05
26,216,2.4203483143675815e-05
26,224,2.610910472930344e-06
26,234,1.2705053655597e-07
26,287,2.6788036640391257e-05
26,291,6.024499521357482e-05
26,297,2.0976569052155688e-05
26,305,2.315769494387072e-06
26,315,1.1744114935204834e-07
27,27,4.6824466417547465e-05
27,33,5.699339656066291e-05
27,37,0.00013678596401997184
27,43,4.224032760628516e-05
27,51,3.075724330382264e-06
27,58,4.20299306932199e-05
27,62,0.00010571615532704532
27,68,3.5485232308097594e-05
27,76,3.2138566743001398e-06
27,86,1.0407496503814571e-07
27,94,3.272531457172014e-05
27,98,8.462840925264713e-05
27,104,2.9710160099102837e-05
27,112,2.9648972417525454e-06
27,122,1.216032012812424e-07
27,143,2.645378706969176e-05
27,147,6.964044302748125e-05
27,153,2.5125469359481532e-05
27,161,2.6473105276750503e-06
27,171,1.211356481707247e-07
27,207,2.19801124900758e-05
27,211,5.857007688998985e-05
27,217,2.1515172684236478e-05
27,225,2.3456895706233344e-06
27,235,1.1434282624700347e-07
27,288,1.8651547880268427e-05
27,292,5.013208655314834e-05
27,298,1.864784347142626e-05
27,306,2.080582077228626e-06
27,316,1.0564429611035078e-07
28,28,3.332325487415752e-05
28,38,7.901762444761924e-05
28,44,3.0106426730522964e-05
28,52,2.2218163854334192e-06
28,63,6.114966506351657e-05
28,69,2.531265353977085e-05
28,77,2.322660210431907e-06
28,87,7.464641276562051e-08
28,99,4.899102046314633e-05
28,105,2.1203671145083614e-05
28,113,2.1433274019371344e-06
28,123,8.70563379567776e-08
28,148,4.0335535529682034e-05
28,154,1.7937453566999525e-05
28,162,1.914071907170558e-06
28,172,8.673184408893862e-08
28,212,3.3935737323181486e-05
28,218,1.5363448156524103e-05
28,226,1.6961951200585923e-06
28,236,8.2039292651978e-08
28,293,2.9054167525738985e-05
28,299,1.3318072264180847e-05
28,307,1.5046607971846817e-06
28,317,7.580301134803932e-08
29,29,1.8655684061546682e-05
29,45,1.6897159223665226e-05
29,53,1.2045989154957246e-06
29,70,1.422610994709668e-05
29,78,1.260154663881475e-06
29,88,3.894414303592043e-08
29,106,1.1926662626263318e-05
29,114,1.1635438724545546e-06
29,124,4.5521672304017876e-08
29,155,1.009486959760758e-05
29,163,1.0393781981925148e-06
29,173,4.535892270526788e-08
29,219,8.6494309946241e-06
29,227,9.212319757245157e-07
29,237,4.282331495112155e-08
29,300,7.499884000575593e-06
29,308,8.17296044173151e-07
29,318,3.957118560373393e-08
30,30,0.002511649910870871
30,55,0.0019078906594807018
30,91,0.0015126325054661334
30,140,0.0012373111416508742
30,204,0.001036487779038462
30,285,0.000884694560420713
31,31,0.003043323254244802
31,35,0.0007769969908371558
31,41,5.203641263276522e-05
31,49,1.1951686241731913e-06
31,56,0.002307074642735782
31,60,0.0006064654122583305
31,66,4.400121372831021e-05
31,74,1.2568425583302884e-06
31,84,1.3784286206165973e-08
31,92,0.0018268831738845355
31,96,0.0004883986888251341
31,102,3.69855554963985e-05
31,110,1.1639449191398362e-06
31,120,1.6183673314638177e-08
31,141,0.0014931773258020397
31,145,0.0004034643138057523
31,151,3.135814922810334e-05
31,159,1.0418717784911612e-06
31,169,1.6173172498740315e-08
31,205,0.0012501471150635347
31,209,0.00034023250561074516
31,215,2.6899311912280622e-05
31,223,9.247315373619913e-07
31,233,1.5301556603749608e-08
31,286,0.001066648946416129
31,290,0.00029177190818693264
31,296,2.3343637090120795e-05
31,304,8.212204474391545e-07
31,314,1.4159801138732089e-08
32,32,0.004410753911504453
32,36,0.0011379454071122866
32,42,7.533796269818183e-05
32,50,1.7026412899526223e-06
32,57,0.0033378783926210345
32,61,0.0008877364395772443
32,67,6.369577441137379e-05
32,75,1.7906981890837558e-06
32,85,1.9260304108590338e-08
32,93,0.0026403539907920606
32,97,0.0007146882514245507
32,103,5.3535393757546915e-05
32,111,1.658447627199431e-06
32,121,2.2639038634124483e-08
32,142,0.0021565781405157615
32,146,0.0005902811331627998
32,152,4.538735956552435e-05
32,160,1.4845549997240705e-06
32,170,2.2627271413019755e-08
32,206,0.0018047229093445215
32,210,0.000497701411086413
32,216,3.89322060627568e-05
32,224,1.3176815257521978e-06
32,234,2.140718087642431e-08
32,287,0.001539304631947168
32,291,0.00042676919620804945
32,297,3.378503015642369e-05
32,305,1.170207961823275e-06
32,315,1.9796764019729183e-08
33,33,0.003043323254244802
33,37,0.000776996990837156
33,43,5.203641263276523e-05
33,51,1.1951686241731913e-06
33,58,0.002307074642735782
33,62,0.0006064654122583306
33,68,4.4001213728310225e-05
33,76,1.256842558330288e-06
33,86,1.3784286206165941e-08
33,94,0.0018268831738845355
33,98,0.0004883986888251342
33,104,3.698555549639851e-05
33,112,1.1639449191398358e-06
33,122,1.6183673314638163e-08
33,143,0.0014931773258020397
33,147,0.0004034643138057523
33,153,3.1358149228103345e-05
33,161,1.0418717784911608e-06
33,171,1.61731724987403e-08
33,207,0.0012501471150635347
33,211,0.0003402325056107453
33,217,2.6899311912280622e-05
33,225,9.24731537361991e-07
33,235,1.530155660374955e-08
33,288,0.001066648946416129
33,292,0.0002917719081869327
33,298,2.33436370901208e-05
33,306,8.212204474391539e-07
33,316,1.4159801138732056e-08
34,34,0.0005071414641449622
34,40,7.168910557193124e-05
34,48,3.1088587395429544e-06
34,59,0.00039464426915350443
34,65,6.041153363944092e-05
34,73,3.255020616713808e-06
34,83,7.13058510936375e-08
34,95,0.0003172378595466965
34,101,5.067459705458956e-05
34,109,3.0065070332509512e-06
34,119,8.339113833651018e-08
34,144,0.0002617604892044694
34,150,4.290690382766044e-05
34,158,2.6865797730735576e-06
34,168,8.312066079038357e-08
34,208,0.00022055873647893346
34,214,3.677221293085371e-05
34,222,2.3817474331567087e-06
34,232,7.849194438028274e-08
34,289,0.00018903461406696495
34,295,3.189058097523675e-05
34,303,2.113382142472485e-06
34,313,7.254385367826825e-08
35,35,0.0008480965362303852
35,41,0.00012392269225210205
35,49,5.5206083052460056e-06
35,56,0.0005822170906281921
35,60,0.0006588539355462099
35,66,0.00010434656149577
35,74,5.777505399823681e-06
35,84,1.2911443232049612e-07
35,92,0.0004577967219514963
35,96,0.0005290853239187581
35,102,8.748708955604107e-05
35,110,5.334948886427336e-06
35,120,1.5097103549439408e-07
35,141,0.0003724600078995652
35,145,0.0004362718648926069
35,151,7.405390235290751e-05
35,159,4.766381762185046e-06
35,169,1.504634023500804e-07
35,205,0.00031085583101548366
35,209,0.0003674346098060105
35,215,6.345259633163943e-05
35,223,4.22503887004653e-06
35,233,1.420741435951585e-07
35,286,0.00026462860916972794
35,290,0.0003148153612340596
35,296,5.5020794072933044e-05
35,304,3.7486536419840686e-06
35,314,1.312983518980304e-07
36,36,0.001040515130658992
36,42,0.00014905304423822112
36,50,6.617527368576183e-06
36,57,0.0008505640109486307
36,61,0.0008076845066803052
36,67,0.00012546064122057705
36,75,6.924014904603274e-06
36,85,1.5476669326491807e-07
36,93,0.0006677847147754721
36,97,0.0006482859475845573
36,103,0.00010516625358059621
36,111,6.392837720112588e-06
36,121,1.8094135208502523e-07
36,142,0.0005427668359522283
36,146,0.0005343927137978037
36,152,8.900562474762102e-05
36,160,5.711068139720474e-06
36,170,1.8032401457251406e-07
36,206,0.0004526847024258242
36,210,0.00044997563560127466
36,216,7.625630287489609e-05
36,224,5.062152586038663e-06
36,234,1.7025000966510963e-07
36,287,0.00038517818117119005
36,291,0.0003854759693134517
36,297,6.611839892154375e-05
36,305,4.491198312374093e-06
36,315,1.5733353241568676e-07
37,37,0.0008480965362303853
37,43,0.00012392269225210207
37,51,5.5206083052460056e-06
37,58,0.0005822170906281922
37,62,0.0006588539355462099
37,68,0.00010434656149577
37,76,5.777505399823681e-06
37,86,1.2911443232049612e-07
37,94,0.0004577967219514964
37,98,0.0005290853239187583
37,104,8.74870895560411e-05
37,112,5.334948886427335e-06
37,122,1.5097103549439408e-07
37,143,0.00037246000789956536
37,147,0.00043627186489260714
37,153,7.40539023529075e-05
37,161,4.766381762185046e-06
37,171,1.5046340235008038e-07
37,207,0.00031085583101548366
37,211,0.0003674346098060106
37,217,6.345259633163943e-05
37,225,4.225038870046531e-06
37,235,1.420741435951585e-07
37,288,0.000264628609169728
37,292,0.00031481536123405973
37,298,5.502079407293306e-05
37,306,3.7486536419840686e-06
37,316,1.3129835189803044e-07
38,38,0.0005071414641449623
38,44,7.168910557193127e-05
38,52,3.108858739542955e-06
38,63,0.0003946442691535046
38,69,6.041153363944092e-05
38,77,3.255020616713809e-06
38,87,7.130585109363749e-08
38,99,0.0003172378595466967
38,105,5.067459705458956e-05
38,113,3.0065070332509516e-06
38,123,8.339113833651018e-08
38,148,0.0002617604892044694
38,154,4.290690382766044e-05
38,162,2.6865797730735576e-06
38,172,8.312066079038356e-08
38,212,0.00022055873647893346
38,218,3.677221293085371e-05
38,226,2.381747433156709e-06
38,236,7.849194438028275e-08
38,293,0.000189034614066965
38,299,3.189058097523675e-05
38,307,2.1133821424724845e-06
38,317,7.254385367826828e-08
39,39,1.5306739597807723e-05
39,47,1.0842674002864734e-06
39,64,1.288817712320486e-05
39,72,1.134186575674902e-06
39,82,3.4818191030175694e-08
39,100,1.0805552138508792e-05
39,108,1.0471104695775804e-06
39,118,4.070086088417538e-08
39,149,9.146265510172129e-06
39,157,9.354029501011301e-07
39,167,4.0556639796988267e-08
39,213,7.83682914984243e-06
39,221,8.290957518475012e-07
39,231,3.8290321308269476e-08
39,294,6.7953895791621185e-06
39,302,7.355676686192376e-07
39,312,3.5382994158738426e-08
40,40,2.7205031297965963e-05
40,48,1.996082417661178e-06
40,59,5.5485001864003135e-05
40,65,2.2875551790818096e-05
40,73,2.086872530650516e-06
40,83,6.67490931558308e-08
40,95,4.445596801204186e-05
40,101,1.916336713488817e-05
40,109,1.9258517890741878e-06
40,119,7.789411543893907e-08
40,144,3.660348423981532e-05
40,150,1.6212064111582806e-05
40,158,1.720731277263931e-06
40,168,7.76058123454597e-08
40,208,3.0796851335649933e-05
40,214,1.3885991038225698e-05
40,222,1.524899487009878e-06
40,232,7.336403154691589e-08
40,289,2.6367428928488048e-05
40,295,1.2037532877216633e-05
40,303,1.3520837182583194e-06
40,313,6.778779339934071e-08
41,41,3.8112571993263806e-05
41,49,2.7600966576997226e-06
41,56,3.83891886397891e-05
41,60,9.578696953128733e-05
41,66,3.202105305838e-05
41,74,2.884335228062606e-06
41,84,9.28480388667854e-08
41,92,2.9897561933126094e-05
41,96,7.668633266862282e-05
41,102,2.6811556203112086e-05
41,110,2.6610588707539935e-06
41,120,1.0848859919582823e-07
41,141,2.4171822288047928e-05
41,145,6.310731886370004e-05
41,151,2.267512346577386e-05
41,159,2.3761329130181386e-06
41,169,1.0807537283694502e-07
41,205,2.008623884539509e-05
41,209,5.3077501728174056e-05
41,215,1.9417488277223776e-05
41,223,2.1054427066046544e-06
41,233,1.0201744625887031e-07
41,286,1.7045807799538825e-05
41,290,4.5432805842673414e-05
41,296,1.683006257509308e-05
41,304,1.8675149004684952e-06
41,314,9.426076836299472e-08
42,42,4.2880981034652985e-05
42,50,3.072125022143285e-06
42,57,5.5401419684970974e-05
42,61,0.0001151394583059229
42,67,3.601582413790406e-05
42,75,3.2098559668281108e-06
42,85,1.031987548406529e-07
42,93,4.306100919617813e-05
42,97,9.214482151059827e-05
42,103,3.015058691367766e-05
42,111,2.9610728672150535e-06
42,121,1.2052199851057615e-07
42,142,3.47685355425926e-05
42,146,7.580973539423732e-05
42,152,2.549581213e-05
42,160,2.6448811057902163e-06
42,170,1.2005966092835135e-07
42,206,2.8865495040975808e-05
42,210,6.375028269087419e-05
42,216,2.183105713295384e-05
42,224,2.3434733323208696e-06
42,234,1.1338031715913618e-07
42,287,2.4480024642755924e-05
42,291,5.4561840624829947e-05
42,297,1.8920858023391003e-05
42,305,2.0777480623733722e-06
42,315,1.0475613811234424e-07
43,43,3.811257199326382e-05
43,51,2.7600966576997226e-06
43,58,3.83891886397891e-05
43,62,9.578696953128733e-05
43,68,3.202105305838e-05
43,76,2.8843352280626054e-06
43,86,9.284803886678543e-08
43,94,2.9897561933126104e-05
43,98,7.668633266862284e-05
43,104,2.6811556203112086e-05
43,112,2.6610588707539935e-06
43,122,1.084885991958282e-07
43,143,2.417182228804793e-05
43,147,6.310731886370006e-05
43,153,2.267512346577386e-05
43,161,2.3761329130181382e-06
43,171,1.0807537283694498e-07
43,207,2.0086238845395092e-05
43,211,5.307750172817406e-05
43,217,1.9417488277223776e-05
43,225,2.105442706604654e-06
43,235,1.0201744625887031e-07
43,288,1.7045807799538832e-05
43,292,4.543280584267343e-05
43,298,1.6830062575093077e-05
43,306,1.8675149004684945e-06
43,316,9.426076836299472e-08
44,44,2.7205031297965963e-05
44,52,1.9960824176611773e-06
44,63,5.548500186400312e-05
44,69,2.287555179081809e-05
44,77,2.086872530650516e-06
44,87,6.674909315583081e-08
44,99,4.445596801204186e-05
44,105,1.9163367134888164e-05
44,113,1.9258517890741878e-06
44,123,7.789411543893905e-08
44,148,3.660348423981532e-05
44,154,1.62120641115828e-05
44,162,1.720731277263931e-06
44,172,7.760581234545971e-08
44,212,3.0796851335649933e-05
44,218,1.3885991038225695e-05
44,226,1.524899487009878e-06
44,236,7.33640315469159e-08
44,293,2.6367428928488048e-05
44,299,1.2037532877216628e-05
44,307,1.3520837182583194e-06
44,317,6.778779339934071e-08
45,45,1.5306739597807716e-05
45,53,1.0842674002864734e-06
45,70,1.288817712320486e-05
45,78,1.134186575674902e-06
45,88,3.48181910301757e-08
45,106,1.0805552138508788e-05
45,114,1.04711046957758e-06
45,124,4.070086088417538e-08
45,155,9.146265510172127e-06
45,163,9.354029501011299e-07
45,173,4.055663979698826e-08
45,219,7.836829149842427e-06
45,227,8.290957518475011e-07
45,237,3.8290321308269476e-08
45,300,6.795389579162117e-06
45,308,7.355676686192376e-07
45,318,3.5382994158738426e-08
46,46,9.92571766559784e-08
46,71,1.0380039193536596e-07
46,107,9.580718947454873e-08
46,156,8.549945676369507e-08
46,220,7.577141735903069e-08
46,301,6.72170181077013e-08
47,47,1.8195844094459786e-07
47,64,9.095418422874276e-07
47,72,1.9007982474999046e-07
47,100,7.609191900982095e-07
47,108,1.753272662628e-07
47,118,1.1121496978051841e-08
47,149,6.431685707271933e-07
47,157,1.565306721308296e-07
47,167,1.107740868217264e-08
47,213,5.505553635862779e-07
47,221,1.3868505142971694e-07
47,231,1.0455366557161763e-08
47,294,4.77106555024426e-07
47,302,1.2300473871958198e-07
48,48,2.7083736059399145e-07
48,59,2.392649720524986e-06
48,65,1.673103338256076e-06
48,73,2.8272785119998096e-07
48,83,1.4084921001124156e-08
48,95,1.9105242310635695e-06
48,101,1.399580355004897e-06
48,109,2.606745577341839e-07
48,119,1.6450344733374422e-08
48,144,1.5695677173991584e-06
48,150,1.1819932184403085e-06
48,158,2.326620108815425e-07
48,168,1.638280518307383e-08
48,208,1.3185587940579627e-06
48,214,1.011515750975912e-06
48,222,2.0609808147663317e-07
48,232,1.5461336018311744e-08
48,289,1.1276765627135983e-06
48,295,8.763721328703719e-07
48,303,1.8277115658064098e-07
48,313,1.4283416013317247e-08
49,49,3.4196436731631396e-07
49,56,8.599923229584305e-07
49,60,4.2441144510005994e-06
49,66,2.3120869567159258e-06
49,74,3.568863221772975e-07
49,84,1.7567593362537974e-08
49,92,6.593005977966309e-07
49,96,3.3866505404398564e-06
49,102,1.9324549171683156e-06
49,110,3.2896305703271403e-07
49,120,2.0515235919158125e-08
49,141,5.274580230313013e-07
49,145,2.78104348230567e-06
49,151,1.6323988850957955e-06
49,159,2.93559647100237e-07
49,169,2.0429283883614167e-08
49,205,4.350866262409025e-07
49,209,2.3355928369898994e-06
49,215,1.3967408967718815e-06
49,223,2.6001171668194955e-07
49,233,1.9279099614495522e-08
49,286,3.67263174760618e-07
49,290,1.9970564741542318e-06
49,296,1.2099673749948178e-06
49,304,2.3056236928981858e-07
49,314,1.7809585448460987e-08
50,50,3.6952646104131247e-07
50,57,1.2191389357764188e-06
50,61,5.0848216403837954e-06
50,67,2.572815452853707e-06
50,75,3.856171270154834e-07
50,85,1.888471959829394e-08
50,93,9.316930241150295e-07
50,97,4.056229641696442e-06
50,103,2.1509500479864867e-06
50,111,3.554127503310953e-07
50,121,2.192471024496447e-08
50,142,7.437912699967603e-07
50,146,3.3302049491881853e-06
50,152,1.81602949753944e-06
50,160,3.1714966739573915e-07
50,170,2.1832169599352242e-08
50,206,6.126205094797063e-07
50,210,2.796402325308913e-06
50,216,1.5537804144531753e-06
50,224,2.8089378853660384e-07
50,234,2.0722632308617035e-08
50,287,5.165557530615211e-07
50,291,2.3908388607661214e-06
50,297,1.345899293632841e-06
50,305,2.490731740378853e-07
50,315,1.9142818191068795e-08
51,51,3.419643673163139e-07
51,58,8.599923229584296e-07
51,62,4.2441144510005994e-06
51,68,2.3120869567159258e-06
51,76,3.5688632217729746e-07
51,86,1.7567593362537968e-08
51,94,6.593005977966304e-07
51,98,3.386650540439855e-06
51,104,1.9324549171683156e-06
51,112,3.2896305703271403e-07
51,122,2.0515235919158118e-08
51,143,5.274580230313012e-07
51,147,2.7810434823056706e-06
51,153,1.6323988850957953e-06
51,161,2.9355964710023696e-07
51,171,2.042928388361416e-08
51,207,4.350866262409025e-07
51,211,2.3355928369898994e-06
51,217,1.396740896771881e-06
51,225,2.600117166819495e-07
51,235,1.9279099614495512e-08
51,288,3.67263174760618e-07
51,292,1.9970564741542318e-06
51,298,1.2099673749948178e-06
51,306,2.3056236928981848e-07
51,316,1.7809585448460984e-08
52,52,2.7083736059399145e-07
52,63,2.3926497205249873e-06
52,69,1.6731033382560758e-06
52,77,2.827278511999809e-07
52,87,1.4084921001124158e-08
52,99,1.9105242310635703e-06
52,105,1.3995803550048966e-06
52,113,2.606745577341839e-07
52,123,1.645034473337443e-08
52,148,1.5695677173991584e-06
52,154,1.1819932184403087e-06
52,162,2.326620108815425e-07
52,172,1.6382805183073836e-08
52,212,1.3185587940579633e-06
52,218,1.011515750975912e-06
52,226,2.0609808147663317e-07
52,236,1.5461336018311744e-08
52,293,1.1276765627135987e-06
52,299,8.763721328703719e-07
52,307,1.8277115658064098e-07
52,317,1.4283416013317247e-08
53,53,1.819584409445978e-07
53,70,9.095418422874274e-07
53,78,1.9007982474999046e-07
53,106,7.609191900982095e-07
53,114,1.7532726626279997e-07
53,124,1.1121496978051841e-08
53,155,6.431685707271932e-07
53,163,1.5653067213082957e-07
53,173,1.107740868217264e-08
53,219,5.505553635862779e-07
53,227,1.3868505142971691e-07
53,237,1.0455366557161763e-08
53,300,4.771065550244258e-07
53,308,1.2300473871958198e-07
54,54,9.92571766559784e-08
54,79,1.0380039193536596e-07
54,115,9.580718947454873e-08
54,164,8.549945676369511e-08
54,228,7.57714173590307e-08
54,309,6.721701810770132e-08
55,55,0.001449375735927567
55,91,0.0011491609079666214
55,140,0.0009400246354695098
55,204,0.0007874687492901009
55,285,0.0006721540337781636
56,56,0.0017491251779985955
56,60,0.0004544983819766179
56,66,3.246805731773923e-05
56,74,9.047004980618453e-07
56,92,0.0013851547711030358
56,96,0.00036605166814248366
56,102,2.729457215445034e-05
56,110,8.380141935140723e-07
56,120,1.1070393013595127e-08
56,141,0.0011321850271658988
56,145,0.0003024063216749547
56,151,2.3143520870720238e-05
56,159,7.502216625033284e-07
56,169,1.1067210185128247e-08
56,205,0.0009479358640346054
56,209,0.0002550219826007698
56,215,1.9853824684542536e-05
56,223,6.659379502624437e-07
56,233,1.047211755051271e-08
56,286,0.0008088130219784452
56,290,0.00021870434326889496
56,296,1.7230132488237747e-05
56,304,5.914349225102406e-07
57,57,0.0025263580609932107
57,61,0.0006636580722107738
57,67,4.685151133314919e-05
57,75,1.2827372504212564e-06
57,85,1.3053673687319082e-08
57,93,0.001998606974508582
57,97,0.0005343446407720605
57,103,3.938379356815282e-05
57,111,1.188305177933826e-06
57,121,1.5341138868746107e-08
57,142,0.0016325145868850862
57,146,0.0004413597063628027
57,152,3.339278331559563e-05
57,160,1.0638837880436588e-06
57,170,1.5339846660368665e-08
57,206,0.0013662175646892898
57,210,0.0003721538162841851
57,216,2.8645394558395685e-05
57,224,9.444029817343519e-07
57,234,1.4517017683461026e-08
57,287,0.0011653240736014116
57,291,0.0003191250045421611
57,297,2.4859374357090564e-05
57,305,8.387737020672055e-07
57,315,1.3437485551510025e-08
58,58,0.0017491251779985955
58,62,0.000454498381976618
58,68,3.2468057317739234e-05
58,76,9.04700498061845e-07
58,94,0.0013851547711030358
58,98,0.00036605166814248366
58,104,2.7294572154450347e-05
58,112,8.380141935140717e-07
58,122,1.107039301359511e-08
58,143,0.0011321850271658988
58,147,0.0003024063216749547
58,153,2.314352087072024e-05
58,161,7.502216625033284e-07
58,171,1.1067210185128247e-08
58,207,0.0009479358640346054
58,211,0.00025502198260076987
58,217,1.9853824684542543e-05
58,225,6.659379502624437e-07
58,235,1.047211755051271e-08
58,288,0.0008088130219784452
58,292,0.000218704343268895
58,298,1.7230132488237747e-05
58,306,5.914349225102406e-07
59,59,0.0003071218932551446
59,65,4.6759626018360106e-05
59,73,2.5053161849643722e-06
59,83,5.4574162270300987e-08
59,95,0.00024689200853671676
59,101,3.922464203842585e-05
59,109,2.3141549908246694e-06
59,119,6.382694640674719e-08
59,144,0.00020372164595129196
59,150,3.321293108622729e-05
59,158,2.067958405964288e-06
59,168,6.362027154083648e-08
59,208,0.00017165834695632385
59,214,2.8464763158058236e-05
59,222,1.8333521425791985e-06
59,232,6.007832097892887e-08
59,289,0.0001471253168561269
59,295,2.4686288411383037e-05
59,303,1.6268050769362518e-06
59,313,5.5525372948452274e-08
60,60,0.0005118804792018771
60,66,8.066157285853609e-05
60,74,4.441965408604685e-06
60,84,9.868992834409219e-08
60,92,0.0003574018017292001
60,96,0.00041108022791605157
60,102,6.76308656088143e-05
60,110,4.101899342432992e-06
60,120,1.1540170636166373e-07
60,141,0.00029079543045952837
60,145,0.00033897836704147787
60,151,5.724820804178917e-05
60,159,3.664861445492614e-06
60,169,1.1501720443797985e-07
60,205,0.00024270724361551474
60,209,0.0002854988587885832
60,215,4.90545700689348e-05
60,223,3.2486939153100577e-06
60,233,1.0860581714326462e-07
60,286,0.00020662027011693365
60,290,0.0002446172359193672
60,296,4.2536646088170405e-05
60,304,2.8824369298694155e-06
60,314,1.0036999399844688e-07
61,61,0.0006270104113793401
61,67,9.692279221993621e-05
61,75,5.320744398554162e-06
61,85,1.1828897642079371e-07
61,93,0.0005210977224734346
61,97,0.0005032960366399043
61,103,8.12486241804764e-05
61,111,4.912781581814381e-06
61,121,1.38265802149316e-07
61,142,0.00042357038346676936
61,146,0.0004148899736978053
61,152,6.876551762677237e-05
61,160,4.388995869861348e-06
61,170,1.3779893600417797e-07
61,206,0.0003532876521422126
61,210,0.0003493590882720716
61,216,5.8916699157471274e-05
61,224,3.890386038935939e-06
61,234,1.3011350524128022e-07
61,287,0.00030061380306470526
61,291,0.00029928707507228
61,297,5.10848015945429e-05
61,305,3.4516388151911194e-06
61,315,1.202439262157331e-07
62,62,0.0005118804792018773
62,68,8.066157285853609e-05
62,76,4.441965408604684e-06
62,86,9.868992834409219e-08
62,94,0.00035740180172920015
62,98,0.0004110802279160517
62,104,6.763086560881431e-05
62,112,4.101899342432992e-06
62,122,1.154017063616637e-07
62,143,0.00029079543045952837
62,147,0.00033897836704147803
62,153,5.724820804178917e-05
62,161,3.6648614454926132e-06
62,171,1.1501720443797984e-07
62,207,0.00024270724361551482
62,211,0.00028549885878858324
62,217,4.905457006893481e-05
62,225,3.248693915310058e-06
62,235,1.0860581714326462e-07
62,288,0.00020662027011693365
62,292,0.0002446172359193673
62,298,4.2536646088170405e-05
62,306,2.882436929869416e-06
62,316,1.0036999399844688e-07
63,63,0.0003071218932551446
63,69,4.6759626018360106e-05
63,77,2.505316184964373e-06
63,87,5.457416227030099e-08
63,99,0.00024689200853671676
63,105,3.9224642038425845e-05
63,113,2.3141549908246694e-06
63,123,6.382694640674718e-08
63,148,0.00020372164595129202
63,154,3.32129310862273e-05
63,162,2.0679584059642883e-06
63,172,6.362027154083649e-08
63,212,0.00017165834695632385
63,218,2.8464763158058236e-05
63,226,1.8333521425791991e-06
63,236,6.007832097892888e-08
63,293,0.00014712531685612693
63,299,2.4686288411383037e-05
63,307,1.6268050769362518e-06
63,317,5.5525372948452274e-08
64,64,1.0852274321300043e-05
64,72,9.516120506162596e-07
64,82,2.923391243619116e-08
64,100,9.098869809819492e-06
64,108,8.785769857498858e-07
64,118,3.402554984733282e-08
64,149,7.701796425531181e-06
64,157,7.84862847529525e-07
64,167,3.390557259860136e-08
64,213,6.599239910165596e-06
64,221,6.95672488587257e-07
64,231,3.215043372529549e-08
64,294,5.7223141722525755e-06
64,302,6.172009042643871e-07
64,312,2.9706336365538808e-08
65,65,1.923607489843176e-05
65,73,1.750091456100783e-06
65,83,5.5726217378238855e-08
65,95,3.746649476738304e-05
65,101,1.6115013808310466e-05
65,109,1.61438480340701e-06
65,119,6.51615837495299e-08
65,144,3.084940724754422e-05
65,150,1.3633467300764637e-05
65,158,1.4417874123011492e-06
65,168,6.492053667200374e-08
65,208,2.595604543635358e-05
65,214,1.1677525126309177e-05
65,222,1.2777242077312328e-06
65,232,6.125627618181534e-08
65,289,2.2223148586237637e-05
65,295,1.012316231445662e-05
65,303,1.133428587779873e-06
65,313,5.660137717275588e-08
66,66,2.6904737214193302e-05
66,74,2.4162889484302303e-06
66,84,7.752722193410522e-08
66,92,2.5289406466968893e-05
66,96,6.457892104872097e-05
66,102,2.2528413994607572e-05
66,110,2.229315622131411e-06
66,120,9.059130063009151e-08
66,141,2.0447913910325726e-05
66,145,5.314719033780101e-05
66,151,1.9053219856446927e-05
66,159,1.9906391064602847e-06
66,169,9.02480242839596e-08
66,205,1.699274874728982e-05
66,209,4.4701266297412545e-05
66,215,1.6316180498799647e-05
66,223,1.7638805635720097e-06
66,233,8.519052230204852e-08
66,286,1.442124118233951e-05
66,290,3.826290388779688e-05
66,296,1.4142173633176569e-05
66,304,1.5645741472246697e-06
66,314,7.871260789443733e-08
67,67,3.025160332823807e-05
67,75,2.6882864347125265e-06
67,85,8.622254470082691e-08
67,93,3.642106820717551e-05
67,97,7.756861225666411e-05
67,103,2.532601631244843e-05
67,111,2.4800290256550916e-06
67,121,1.006704640999855e-07
67,142,2.9410218466392442e-05
67,146,6.382189353585538e-05
67,152,2.1416595517254155e-05
67,160,2.214361998942273e-06
67,170,1.0028574976377253e-07
67,206,2.4418612758268983e-05
67,210,5.3670567716086164e-05
67,216,1.8338489638300933e-05
67,224,1.9620531019397444e-06
67,234,9.473335913175139e-08
67,287,2.070978378875175e-05
67,291,4.593481185167096e-05
67,297,1.589402431851086e-05
67,305,1.7402578122393604e-06
67,315,8.752812135863853e-08
68,68,2.6904737214193302e-05
68,76,2.4162889484302303e-06
68,86,7.752722193410518e-08
68,94,2.5289406466968903e-05
68,98,6.457892104872098e-05
68,104,2.2528413994607572e-05
68,112,2.2293156221314105e-06
68,122,9.05913006300915e-08
68,143,2.0447913910325736e-05
68,147,5.3147190337801026e-05
68,153,1.9053219856446927e-05
68,161,1.9906391064602843e-06
68,171,9.024802428395956e-08
68,207,1.6992748747289826e-05
68,211,4.4701266297412545e-05
68,217,1.6316180498799647e-05
68,225,1.763880563572009e-06
68,235,8.519052230204852e-08
68,288,1.4421241182339514e-05
68,292,3.826290388779688e-05
68,298,1.4142173633176569e-05
68,306,1.5645741472246693e-06
68,316,7.871260789443732e-08
69,69,1.9236074898431756e-05
69,77,1.750091456100783e-06
69,87,5.5726217378238855e-08
69,99,3.746649476738304e-05
69,105,1.6115013808310463e-05
69,113,1.61438480340701e-06
69,123,6.51615837495299e-08
69,148,3.084940724754422e-05
69,154,1.3633467300764636e-05
69,162,1.4417874123011488e-06
69,172,6.492053667200374e-08
69,212,2.595604543635358e-05
69,218,1.1677525126309177e-05
69,226,1.2777242077312328e-06
69,236,6.125627618181534e-08
69,293,2.2223148586237637e-05
69,299,1.0123162314456619e-05
69,307,1.133428587779873e-06
69,317,5.6601377172755886e-08
70,70,1.0852274321300041e-05
70,78,9.516120506162596e-07
70,88,2.923391243619116e-08
70,106,9.098869809819492e-06
70,114,8.785769857498858e-07
70,124,3.402554984733282e-08
70,155,7.70179642553118e-06
70,163,7.848628475295248e-07
70,173,3.390557259860136e-08
70,219,6.599239910165596e-06
70,227,6.956724885872568e-07
70,237,3.215043372529549e-08
70,300,5.7223141722525755e-06
70,308,6.17200904264387e-07
70,318,2.9706336365538815e-08
71,71,1.0855535536545121e-07
71,107,1.0019810750076188e-07
71,156,8.949545644166443e-08
71,220,7.924397840146014e-08
71,301,7.029805972741718e-08
72,72,1.9857158618346204e-07
72,100,7.961367913089042e-07
72,108,1.8316435364295073e-07
72,118,1.1589427837325727e-08
72,149,6.729483065367862e-07
72,157,1.6353010188121907e-07
72,167,1.1543623494376517e-08
72,213,5.76055937161715e-07
72,221,1.448880424914595e-07
72,231,1.0895491485446378e-08
72,294,4.992073610713847e-07
72,302,1.285073749099057e-07
72,312,1.0066181758814481e-08
73,73,2.951530895129017e-07
73,83,1.4670620921349414e-08
73,95,2.0005723364355507e-06
73,101,1.4626644821668385e-06
73,109,2.7213768030521445e-07
73,119,1.7134726180374958e-08
73,144,1.6435854803772931e-06
73,150,1.2358791948151777e-06
73,158,2.428996507051332e-07
73,168,1.7064583258038205e-08
73,208,1.3807667646112093e-06
73,214,1.057643216160119e-06
73,222,2.151672782965134e-07
73,232,1.6104900435258563e-08
73,289,1.1808946695897042e-06
73,295,9.163008557190986e-07
73,303,1.9081544939516532e-07
73,313,1.4878038964979016e-08
74,74,3.724111143475454e-07
74,84,1.8293189086341193e-08
74,92,6.937374589239723e-07
74,96,3.5446793682083687e-06
74,102,2.01961091138797e-06
74,110,3.432824819732629e-07
74,120,2.1362978614151357e-08
74,141,5.550958135529384e-07
74,145,2.9109012200136835e-06
74,151,1.7060580694595521e-06
74,159,3.063422101736875e-07
74,169,2.1273733819487217e-08
74,205,4.5794321343938176e-07
74,209,2.444701383181226e-06
74,215,1.4598029833037103e-06
74,223,2.7133678809331327e-07
74,233,2.0076174082630747e-08
74,286,3.865815670196802e-07
74,290,2.0903812356291965e-06
74,296,1.2645760763692564e-06
74,304,2.406078873368497e-07
74,314,1.8546015249869294e-08
75,75,4.02329850136884e-07
75,85,1.9662918360035787e-08
75,93,9.80565645128869e-07
75,97,4.2446301749573424e-06
75,103,2.2466516854487746e-06
75,111,3.708266676414669e-07
75,121,2.2828384639246495e-08
75,142,7.829532749032238e-07
75,146,3.48499571408033e-06
75,152,1.8976977584059793e-06
75,160,3.309100935297507e-07
75,170,2.2732329059237928e-08
75,206,6.449607189771648e-07
75,210,2.9264400171529075e-06
75,216,1.623640872185911e-06
75,224,2.9308472682736433e-07
75,234,2.1452217526027897e-08
75,287,5.4387686585208e-07
75,291,2.5020544277619846e-06
75,297,1.4064279421222765e-06
75,305,2.5983259476432135e-07
75,315,1.993255748624291e-08
76,76,3.7241111434754524e-07
76,86,1.8293189086341186e-08
76,94,6.937374589239723e-07
76,98,3.544679368208368e-06
76,104,2.0196109113879695e-06
76,112,3.432824819732628e-07
76,122,2.136297861415135e-08
76,143,5.550958135529384e-07
76,147,2.9109012200136835e-06
76,153,1.7060580694595521e-06
76,161,3.063422101736874e-07
76,171,2.1273733819487214e-08
76,207,4.5794321343938134e-07
76,211,2.444701383181226e-06
76,217,1.45980298330371e-06
76,225,2.7133678809331316e-07
76,235,2.0076174082630737e-08
76,288,3.8658156701967984e-07
76,292,2.0903812356291965e-06
76,298,1.2645760763692564e-06
76,306,2.406078873368496e-07
76,316,1.854601524986929e-08
77,77,2.951530895129017e-07
77,87,1.4670620921349414e-08
77,99,2.000572336435551e-06
77,105,1.4626644821668383e-06
77,113,2.721376803052144e-07
77,123,1.7134726180374958e-08
77,148,1.6435854803772931e-06
77,154,1.2358791948151777e-06
77,162,2.428996507051332e-07
77,172,1.706458325803821e-08
77,212,1.3807667646112096e-06
77,218,1.057643216160119e-06
77,226,2.1516727829651335e-07
77,236,1.610490043525857e-08
77,293,1.1808946695897042e-06
77,299,9.163008557190985e-07
77,307,1.9081544939516532e-07
77,317,1.4878038964979021e-08
78,78,1.9857158618346204e-07
78,106,7.961367913089042e-07
78,114,1.8316435364295073e-07
78,124,1.1589427837325727e-08
78,155,6.72948306536786e-07
78,163,1.6353010188121907e-07
78,173,1.1543623494376517e-08
78,219,5.76055937161715e-07
78,227,1.4488804249145946e-07
78,237,1.0895491485446378e-08
78,300,4.992073610713846e-07
78,308,1.2850737490990567e-07
78,318,1.0066181758814483e-08
79,79,1.0855535536545123e-07
79,115,1.001981075007619e-07
79,164,8.949545644166447e-08
79,228,7.924397840146014e-08
79,309,7.029805972741719e-08
82,100,2.4401534820894582e-08
82,149,2.0684068516982725e-08
82,213,1.7686605648888454e-08
82,294,1.5313783253236637e-08
83,95,4.341860488951506e-08
83,101,4.6499242843785545e-08
83,109,1.350805000179687e-08
83,144,3.553008736680279e-08
83,150,3.923713188046298e-08
83,158,1.2045972861886952e-08
83,208,2.9797308767235523e-08
83,214,3.3545618977213665e-08
83,222,1.0664195132923444e-08
83,289,2.5451435335075147e-08
83,295,2.9043448161765983e-08
84,96,7.847404695268546e-08
84,102,6.467241151520448e-08
84,110,1.6840802068914367e-08
84,145,6.429171510488369e-08
84,151,5.447749959816945e-08
84,159,1.5016402569667214e-08
84,209,5.390887042809514e-08
84,215,4.6573693067865e-08
84,223,1.3292921740196978e-08
84,290,4.6041895500909066e-08
84,296,4.0436400365025766e-08
84,304,1.1140274193145079e-08
85,97,9.403748575711657e-08
85,103,7.194314485560248e-08
85,111,1.8100779430546685e-08
85,146,7.705773920875518e-08
85,152,6.060671810718165e-08
85,160,1.613930239116274e-08
85,210,6.46776212441894e-08
85,216,5.17721138954921e-08
85,224,1.4286589192711565e-08
85,291,5.523617619216791e-08
85,297,4.481586364115013e-08
85,305,1.2674552433865127e-08
86,98,7.847404695268544e-08
86,104,6.467241151520445e-08
86,112,1.6840802068914364e-08
86,147,6.429171510488369e-08
86,153,5.447749959816945e-08
86,161,1.501640256966721e-08
86,211,5.390887042809514e-08
86,217,4.657369306786499e-08
86,225,1.3292921740196974e-08
86,292,4.6041895500909066e-08
86,298,4.043640036502575e-08
86,306,1.1140274193145077e-08
87,99,4.3418604889515064e-08
87,105,4.6499242843785545e-08
87,113,1.350805000179687e-08
87,148,3.553008736680281e-08
87,154,3.923713188046298e-08
87,162,1.2045972861886952e-08
87,212,2.9797308767235516e-08
87,218,3.354561897721367e-08
87,226,1.0664195132923444e-08
87,293,2.5451435335075147e-08
87,299,2.9043448161765983e-08
88,106,2.440153482089459e-08
88,155,2.068406851698272e-08
88,219,1.768660564888846e-08
88,300,1.5313783253236634e-08
91,91,0.0009111558504203486
91,140,0.0007453475206682615
91,204,0.0006243932666399127
91,285,0.0005329635221839775
92,92,0.001096962775287387
92,96,0.00028786120336705663
92,102,2.126148015714356e-05
92,110,6.426913086656145e-07
92,141,0.0008966476359918474
92,145,0.00023782171911616997
92,151,1.8028862005745284e-05
92,159,5.754133144296307e-07
92,205,0.000750742079439732
92,209,0.00020056171107707884
92,215,1.546670648499883e-05
92,223,5.108000239393382e-07
92,286,0.0006405679866736602
92,290,0.00017200226207441302
92,296,1.342310024572738e-05
92,304,4.5366758141105686e-07
93,93,0.0015811887610358082
93,97,0.00041959760270138263
93,103,3.061864811568001e-05
93,111,9.085280832553639e-07
93,121,1.1298690593010097e-08
93,142,0.0012916032353733468
93,146,0.00034658703072143037
93,152,2.596250378488583e-05
93,160,8.134871185571873e-07
93,170,1.130101223767575e-08
93,206,0.0010809427489282093
93,210,0.0002922497576136431
93,216,2.227235803097716e-05
93,224,7.221777144073764e-07
93,234,1.0696939008875478e-08
93,287,0.0009220134298566288
93,291,0.0002506115780964678
93,297,1.932920718108577e-05
93,305,6.414372171845554e-07
94,94,0.001096962775287387
94,98,0.0002878612033670567
94,104,2.126148015714356e-05
94,112,6.42691308665614e-07
94,143,0.0008966476359918474
94,147,0.00023782171911616997
94,153,1.8028862005745288e-05
94,161,5.754133144296305e-07
94,207,0.000750742079439732
94,211,0.00020056171107707893
94,217,1.546670648499883e-05
94,225,5.10800023939338e-07
94,288,0.0006405679866736602
94,292,0.00017200226207441307
94,298,1.3423100245727382e-05
94,306,4.5366758141105675e-07
95,95,0.00019847854225953248
95,101,3.1429798417864124e-05
95,109,1.847965703512676e-06
95,119,5.0780741170632686e-08
95,144,0.00016377603882107195
95,150,2.6613173413819435e-05
95,158,1.651393121466113e-06
95,168,5.0617886346551705e-08
95,208,0.00013800114101189027
95,214,2.2808762515460047e-05
95,222,1.464067053557066e-06
95,232,4.7800406334090396e-08
95,289,0.00011827921332299192
95,295,1.978123060035725e-05
95,303,1.2991264536245018e-06
95,313,4.417830874301223e-08
96,96,0.0003301395256032441
96,102,5.414967032838165e-05
96,110,3.273398493643649e-06
96,120,9.176520790446725e-08
96,141,0.00023422234618636532
96,145,0.0002722396062965915
96,151,4.583744879831863e-05
96,159,2.9246844976596092e-06
96,169,9.14611815353949e-08
96,205,0.00019549396506453133
96,209,0.00022929228831443195
96,215,3.927679562881908e-05
96,223,2.5926050181563857e-06
96,233,8.636398869681318e-08
96,286,0.00016642952848629992
96,290,0.00019646094909495126
96,296,3.405835229384199e-05
96,304,2.3003320799849636e-06
96,314,7.981554994683738e-08
97,97,0.0004040068324668312
97,103,6.50274458682689e-05
97,111,3.91930257214099e-06
97,121,1.0995745218566197e-07
97,142,0.00034107323311979355
97,146,0.0003330469482584185
97,152,5.5037633056516586e-05
97,160,3.5015000078305742e-06
97,170,1.0958850890371626e-07
97,206,0.0002844872008242469
97,210,0.00028044711385827493
97,216,4.715557796796372e-05
97,224,3.1037444680180697e-06
97,234,1.0347806039264598e-07
97,287,0.00024207612371056813
97,291,0.00024025446771202926
97,297,4.088750558586165e-05
97,305,2.753740610427721e-06
97,315,9.562998049077961e-08
98,98,0.00033013952560324416
98,104,5.414967032838165e-05
98,112,3.273398493643649e-06
98,122,9.176520790446722e-08
98,143,0.00023422234618636532
98,147,0.0002722396062965916
98,153,4.583744879831864e-05
98,161,2.9246844976596092e-06
98,171,9.146118153539487e-08
98,207,0.00019549396506453136
98,211,0.00022929228831443198
98,217,3.927679562881909e-05
98,225,2.5926050181563857e-06
98,235,8.636398869681316e-08
98,288,0.00016642952848629994
98,292,0.00019646094909495137
98,298,3.405835229384199e-05
98,306,2.300332079984963e-06
98,316,7.981554994683738e-08
99,99,0.0001984785422595325
99,105,3.1429798417864124e-05
99,113,1.8479657035126764e-06
99,123,5.0780741170632726e-08
99,148,0.000163776038821072
99,154,2.6613173413819428e-05
99,162,1.6513931214661139e-06
99,172,5.0617886346551705e-08
99,212,0.0001380011410118903
99,218,2.280876251546004e-05
99,226,1.4640670535570662e-06
99,236,4.780040633409041e-08
99,293,0.00011827921332299196
99,299,1.978123060035725e-05
99,307,1.2991264536245018e-06
99,317,4.417830874301221e-08
100,100,7.628889613612945e-06
100,108,7.350464098636323e-07
100,118,2.8524010506613457e-08
100,149,6.457591756165069e-06
100,157,6.566488380819109e-07
100,167,2.8422764994978074e-08
100,213,5.533191061303885e-06
100,221,5.820330097181918e-07
100,231,2.6834377881885595e-08
100,294,4.797950153232012e-06
100,302,5.163809204649843e-07
100,312,2.4796807489827125e-08
101,101,1.3500610318282901e-05
101,109,1.3498867849994475e-06
101,119,5.434495225019818e-08
101,144,2.5879281424534366e-05
101,150,1.1421790610118395e-05
101,158,1.2055693991696023e-06
101,168,5.414557915019903e-08
101,208,2.177452179759087e-05
101,214,9.783241913701323e-06
101,222,1.0683602796269715e-06
101,232,5.111550087499996e-08
101,289,1.8642976824635416e-05
101,295,8.48106541150826e-06
101,303,9.477299143887799e-07
101,313,4.723146478663291e-08
102,102,1.8864352083057768e-05
102,110,1.8633590815349518e-06
102,120,7.56527464395766e-08
102,141,1.719197863767582e-05
102,145,4.456416401837164e-05
102,151,1.5954586671326584e-05
102,159,1.663883233730258e-06
102,169,7.536664234827812e-08
102,205,1.4287539764098327e-05
102,209,3.748268189933999e-05
102,215,1.3662805529781003e-05
102,223,1.474366306070235e-06
102,233,7.106948244652349e-08
102,286,1.2125669628711665e-05
102,290,3.2084305615298645e-05
102,296,1.1842421352921637e-05
102,304,1.3077914371507892e-06
102,314,6.566375079648912e-08
103,103,2.1202892015902083e-05
103,111,2.072647352611229e-06
103,121,8.403187117473086e-08
103,142,2.4726213508344925e-05
103,146,5.350332968295417e-05
103,152,1.793019694098985e-05
103,160,1.8506243998841036e-06
103,170,8.371118711107233e-08
103,206,2.0530447615028473e-05
103,210,4.4993848989964953e-05
103,216,1.5353293895954438e-05
103,224,1.6397426441549366e-06
103,234,7.90472265787184e-08
103,287,1.7412696327223084e-05
103,291,3.850907008315937e-05
103,297,1.3306861158085377e-05
103,305,1.454424401033832e-06
103,315,7.303543139819176e-08
104,104,1.8864352083057764e-05
104,112,1.8633590815349508e-06
104,122,7.56527464395766e-08
104,143,1.7191978637675826e-05
104,147,4.456416401837166e-05
104,153,1.5954586671326584e-05
104,161,1.6638832337302575e-06
104,171,7.53666423482781e-08
104,207,1.4287539764098328e-05
104,211,3.7482681899340004e-05
104,217,1.3662805529781e-05
104,225,1.4743663060702345e-06
104,235,7.106948244652348e-08
104,288,1.2125669628711665e-05
104,292,3.2084305615298645e-05
104,298,1.1842421352921637e-05
104,306,1.307791437150789e-06
104,316,6.56637507964891e-08
105,105,1.3500610318282897e-05
105,113,1.3498867849994473e-06
105,123,5.434495225019818e-08
105,148,2.5879281424534366e-05
105,154,1.1421790610118393e-05
105,162,1.2055693991696023e-06
105,172,5.4145579150199034e-08
105,212,2.1774521797590865e-05
105,218,9.78324191370132e-06
105,226,1.0683602796269715e-06
105,236,5.111550087499996e-08
105,293,1.8642976824635416e-05
105,299,8.481065411508257e-06
105,307,9.477299143887798e-07
105,317,4.7231464786632924e-08
106,106,7.628889613612942e-06
106,114,7.350464098636322e-07
106,124,2.8524010506613467e-08
106,155,6.457591756165069e-06
106,163,6.566488380819107e-07
106,173,2.8422764994978074e-08
106,219,5.533191061303885e-06
106,227,5.820330097181918e-07
106,237,2.6834377881885592e-08
106,300,4.79795015323201e-06
106,308,5.163809204649842e-07
106,318,2.479680748982712e-08
107,107,9.24854274898453e-08
107,156,8.253359295821479e-08
107,220,7.31430130877154e-08
107,301,6.48871666431582e-08
108,108,1.6895501690218943e-07
108,118,1.0674072145476964e-08
108,149,6.213172802197672e-07
108,157,1.50845347377262e-07
108,167,1.0562541328626072e-08
108,213,5.318609961890885e-07
108,221,1.336501815968796e-07
108,294,4.609119310657897e-07
108,302,1.1854058347667168e-07
109,109,2.50920898745884e-07
109,119,1.577706537566402e-08
109,144,1.5182365354222559e-06
109,150,1.1405875258306258e-06
109,158,2.2396246403949836e-07
109,168,1.518650978026287e-08
109,208,1.2754760528983878e-06
109,214,9.7610304932856e-07
109,222,1.9839547831398409e-07
109,232,1.4331546459900858e-08
109,289,1.090857993588911e-06
109,295,8.457008672897586e-07
109,303,1.7594269802582552e-07
109,313,1.3239186049421502e-08
110,110,3.16429798450736e-07
110,120,1.966708868511889e-08
110,141,5.142995786589449e-07
110,145,2.6881734113487596e-06
110,151,1.5740925215991913e-06
110,159,2.8238820892660755e-07
110,169,1.851828776288717e-08
110,205,4.2430888156796384e-07
110,209,2.2576793717134883e-06
110,215,1.3469077735948525e-06
110,223,2.5012182034527774e-07
110,233,1.7473898862116674e-08
110,286,3.5820028615583124e-07
110,290,1.930474033273331e-06
110,296,1.1667953352337838e-06
110,304,2.2179571923547285e-07
110,314,1.6140802232358163e-08
111,111,3.417255832514014e-07
111,121,2.1137591392262664e-08
111,142,7.255119358433312e-07
111,146,3.217944588331978e-06
111,152,1.750689679066984e-06
111,160,3.049444899964256e-07
111,170,2.1067669358328534e-08
111,206,5.976919826766277e-07
111,210,2.7022310560253184e-06
111,216,1.4979104814686827e-06
111,224,2.700914360199326e-07
111,234,1.988145637947674e-08
111,287,5.040454005585738e-07
111,291,2.310382801690005e-06
111,297,1.2975260997481486e-06
111,305,2.394971959669061e-07
111,315,1.836597089645023e-08
112,112,3.1642979845073587e-07
112,122,1.966708868511889e-08
112,143,5.142995786589445e-07
112,147,2.6881734113487596e-06
112,153,1.5740925215991913e-06
112,161,2.8238820892660744e-07
112,171,1.8518287762887165e-08
112,207,4.243088815679635e-07
112,211,2.2576793717134883e-06
112,217,1.3469077735948525e-06
112,225,2.5012182034527763e-07
112,235,1.7473898862116667e-08
112,288,3.58200286155831e-07
112,292,1.930474033273331e-06
112,298,1.1667953352337833e-06
112,306,2.2179571923547277e-07
112,316,1.614080223235816e-08
113,113,2.50920898745884e-07
113,123,1.577706537566402e-08
113,148,1.5182365354222559e-06
113,154,1.1405875258306256e-06
113,162,2.239624640394983e-07
113,172,1.518650978026287e-08
113,212,1.2754760528983878e-06
113,218,9.761030493285596e-07
113,226,1.9839547831398409e-07
113,236,1.4331546459900863e-08
113,293,1.0908579935889113e-06
113,299,8.457008672897586e-07
113,307,1.7594269802582552e-07
113,317,1.3239186049421505e-08
114,114,1.6895501690218943e-07
114,124,1.067407214547696e-08
114,155,6.213172802197672e-07
114,163,1.50845347377262e-07
114,173,1.0562541328626072e-08
114,219,5.318609961890884e-07
114,227,1.3365018159687958e-07
114,300,4.609119310657895e-07
114,308,1.1854058347667168e-07
115,115,9.248542748984532e-08
115,164,8.253359295821481e-08
115,228,7.314301308771543e-08
115,309,6.48871666431582e-08
118,149,2.407463793288861e-08
118,213,2.0673221099858935e-08
118,294,1.789980431817314e-08
119,144,4.1619675350363106e-08
119,150,4.585803733433544e-08
119,158,1.3598013455546285e-08
119,208,3.485023722925197e-08
119,214,3.9209524967037735e-08
119,222,1.2037198303309885e-08
119,289,2.976891902372137e-08
119,295,3.394469973691421e-08
119,303,1.0669532930158465e-08
120,145,7.518310797899231e-08
120,151,6.375709878823456e-08
120,159,1.658057269005697e-08
120,209,6.304092208313457e-08
120,215,5.4425404495969093e-08
120,223,1.4675419133168877e-08
120,290,5.384015460764557e-08
120,296,4.71174230492757e-08
120,304,1.3006737581963263e-08
121,146,9.010497652963638e-08
121,152,7.081821556541035e-08
121,160,1.886404540250604e-08
121,210,7.55463867580754e-08
121,216,6.054047662236875e-08
121,224,1.669866935974509e-08
121,291,6.459080370513885e-08
121,297,5.237068176468281e-08
121,305,1.4801291113870945e-08
122,147,7.518310797899231e-08
122,153,6.375709878823456e-08
122,161,1.658057269005696e-08
122,211,6.304092208313456e-08
122,217,5.4425404495969093e-08
122,225,1.4675419133168872e-08
122,292,5.384015460764558e-08
122,298,4.711742304927568e-08
122,306,1.3006737581963262e-08
123,148,4.1619675350363106e-08
123,154,4.585803733433543e-08
123,162,1.3598013455546286e-08
123,212,3.4850237229251986e-08
123,218,3.9209524967037735e-08
123,226,1.2037198303309886e-08
123,293,2.976891902372137e-08
123,299,3.394469973691421e-08
123,307,1.0669532930158465e-08
124,155,2.407463793288861e-08
124,219,2.0673221099858935e-08
124,300,1.789980431817314e-08
140,140,0.000609719346420142
140,204,0.0005107787410194393
140,285,0.0004359880089413416
141,141,0.000732923639635845
141,145,0.0001935111517034138
141,151,1.4578569616870487e-05
141,159,4.60490805119016e-07
141,205,0.0006136665861342621
141,209,0.00016319567176264357
141,215,1.250702976096026e-05
141,223,4.0879192012494993e-07
141,286,0.0005236129489749418
141,290,0.00013995850929114295
141,296,1.085465676275073e-05
141,304,3.6307472783638355e-07
142,142,0.0010550783782069448
142,146,0.00028173965354673277
142,152,2.0966938318635602e-05
142,160,6.496629884176408e-07
142,206,0.0008830092879237482
142,210,0.00023757333671266362
142,216,1.7987307659479177e-05
142,224,5.767719814744355e-07
142,287,0.0007531904675394871
142,291,0.0002037275498827744
142,297,1.5610694758348082e-05
142,305,5.123060142641389e-07
143,143,0.000732923639635845
143,147,0.0001935111517034138
143,153,1.4578569616870487e-05
143,161,4.6049080511901557e-07
143,207,0.0006136665861342621
143,211,0.00016319567176264362
143,217,1.2507029760960263e-05
143,225,4.0879192012494967e-07
143,288,0.0005236129489749418
143,292,0.00013995850929114298
143,298,1.0854656762750732e-05
143,306,3.6307472783638355e-07
144,144,0.00013514235556888398
144,150,2.1913499329209994e-05
144,158,1.3567530178806256e-06
144,168,4.148668385491423e-08
144,208,0.00011387456453583664
144,214,1.8780884601385303e-05
144,222,1.2028532475435244e-06
144,232,3.917777555998282e-08
144,289,9.760107400328511e-05
144,295,1.628807768717216e-05
144,303,1.0673531272799413e-06
144,313,3.6150640292700455e-08
145,145,0.00022449699560094682
145,151,3.7723802951304714e-05
145,159,2.4018315860140582e-06
145,169,7.493494939644836e-08
145,205,0.00016151660556916212
145,209,0.0001890829649724809
145,215,3.2324707202094395e-05
145,223,2.1291383385653124e-06
145,233,7.075858543287491e-08
145,286,0.00013750516410568838
145,290,0.0001620100144069009
145,296,2.8030087193902832e-05
145,304,1.889121371263276e-06
145,314,6.539380639552059e-08
146,146,0.00027455560265094597
146,152,4.528447960364488e-05
146,160,2.8749380547709046e-06
146,170,8.980383150071615e-08
146,206,0.00023500168810784217
146,210,0.00023119582267419004
146,216,3.879952855407164e-05
146,224,2.548394021155948e-06
146,234,8.479730674384334e-08
146,287,0.0001999704758038533
146,291,0.0001980630488275449
146,297,3.364236030507716e-05
146,305,2.261034895876907e-06
146,315,7.836653702196673e-08
147,147,0.00022449699560094687
147,153,3.7723802951304714e-05
147,161,2.4018315860140582e-06
147,171,7.493494939644833e-08
147,207,0.00016151660556916212
147,211,0.00018908296497248097
147,217,3.232470720209441e-05
147,225,2.1291383385653124e-06
147,235,7.075858543287491e-08
147,288,0.0001375051641056884
147,292,0.000162010014406901
147,298,2.8030087193902842e-05
147,306,1.889121371263276e-06
147,316,6.539380639552056e-08
148,148,0.000135142355568884
148,154,2.1913499329209994e-05
148,162,1.3567530178806256e-06
148,172,4.1486683854914246e-08
148,212,0.00011387456453583664
148,218,1.8780884601385303e-05
148,226,1.2028532475435246e-06
148,236,3.917777555998282e-08
148,293,9.760107400328512e-05
148,299,1.628807768717216e-05
148,307,1.0673531272799415e-06
148,317,3.615064029270047e-08
149,149,5.466166607564039e-06
149,157,5.550519407712622e-07
149,167,2.398934474388129e-08
149,213,4.6837102617463745e-06
149,221,4.920278913038325e-07
149,231,2.2648819518408362e-08
149,294,4.061360784269096e-06
149,302,4.365310447390039e-07
149,312,2.1015287493699535e-08
150,150,9.663154022755591e-06
150,158,1.018650187940662e-06
150,168,4.5690132939234757e-08
150,208,1.8437728473607476e-05
150,214,8.276933787077806e-06
150,222,9.02737914151149e-07
150,232,4.3133451327768056e-08
150,289,1.5786289785273635e-05
150,295,7.175292078719143e-06
150,303,8.008477433843895e-07
150,313,3.9856077616799503e-08
151,151,1.349376697234013e-05
151,159,1.4055794500039886e-06
151,169,6.351664974792832e-08
151,205,1.2115919414680333e-05
151,209,3.1729548186194714e-05
151,215,1.1555539299970863e-05
151,223,1.2455334745281361e-06
151,233,5.991829253322342e-08
151,286,1.0282807926266218e-05
151,290,2.7159890550009938e-05
151,296,1.0015964505166913e-05
151,304,1.1048312573371742e-06
151,314,5.5318184051578085e-08
152,152,1.5162751112036161e-05
152,160,1.5631845343917887e-06
152,170,7.054901879673743e-08
152,206,1.7409548340002574e-05
152,210,3.808248577893487e-05
152,216,1.2983690111229502e-05
152,224,1.3850819516675993e-06
152,234,6.659490350381279e-08
152,287,1.476602300025954e-05
152,291,3.259401204719263e-05
152,297,1.1253145785829262e-05
152,305,1.228532568890973e-06
152,315,6.153064560411043e-08
153,153,1.3493766972340133e-05
153,161,1.4055794500039886e-06
153,171,6.351664974792832e-08
153,207,1.2115919414680337e-05
153,211,3.172954818619472e-05
153,217,1.1555539299970865e-05
153,225,1.245533474528136e-06
153,235,5.991829253322342e-08
153,288,1.0282807926266218e-05
153,292,2.7159890550009948e-05
153,298,1.0015964505166913e-05
153,306,1.104831257337174e-06
153,316,5.531818405157807e-08
154,154,9.66315402275559e-06
154,162,1.0186501879406618e-06
154,172,4.5690132939234757e-08
154,212,1.8437728473607476e-05
154,218,8.276933787077803e-06
154,226,9.027379141511488e-07
154,236,4.3133451327768056e-08
154,293,1.5786289785273635e-05
154,299,7.175292078719141e-06
154,307,8.008477433843893e-07
154,317,3.9856077616799503e-08
155,155,5.466166607564039e-06
155,163,5.550519407712621e-07
155,173,2.3989344743881296e-08
155,219,4.683710261746374e-06
155,227,4.920278913038323e-07
155,237,2.2648819518408362e-08
155,300,4.061360784269095e-06
155,308,4.365310447390039e-07
155,318,2.101528749369953e-08
156,156,7.371485096515566e-08
156,220,6.533078284779195e-08
156,301,5.799712673708955e-08
157,157,1.3467760790781213e-07
157,213,4.751835643513861e-07
157,221,1.1932593411761668e-07
157,294,4.117585045806611e-07
157,302,1.0583605630812805e-07
158,158,1.9990363807046385e-07
158,168,1.3541182400190095e-08
158,208,1.1398205051851345e-06
158,214,8.718124203242905e-07
158,222,1.7708394954664497e-07
158,232,1.277890061108156e-08
158,289,9.748327028491764e-07
158,295,7.554378942656771e-07
158,303,1.5720250434073423e-07
158,313,1.1804919399278127e-08
159,159,2.5200989458020775e-07
159,169,1.6508730786436788e-08
159,205,3.799297504381061e-07
159,209,2.0171988555014326e-06
159,215,1.2027546478099927e-06
159,223,2.2321530543758492e-07
159,233,1.5577751008228348e-08
159,286,3.2074667396107075e-07
159,290,1.7248660464729538e-06
159,296,1.0419284312452493e-06
159,304,1.9793773384607344e-07
159,314,1.4389362295330369e-08
160,160,2.721256502009719e-07
160,170,1.8784981476202915e-08
160,206,5.352331728110536e-07
160,210,2.414225309699091e-06
160,216,1.337486462948436e-06
160,224,2.410234715315418e-07
160,234,1.7727353033950242e-08
160,287,4.5138937141502784e-07
160,291,2.0641483358168675e-06
160,297,1.1585520121479546e-06
160,305,2.1383277614671089e-07
160,315,1.6376104768700304e-08
161,161,2.5200989458020765e-07
161,171,1.6508730786436782e-08
161,207,3.7992975043810596e-07
161,211,2.017198855501433e-06
161,217,1.2027546478099925e-06
161,225,2.2321530543758484e-07
161,235,1.5577751008228345e-08
161,288,3.207466739610706e-07
161,292,1.7248660464729538e-06
161,298,1.0419284312452493e-06
161,306,1.9793773384607336e-07
161,316,1.4389362295330364e-08
162,162,1.9990363807046385e-07
162,172,1.3541182400190095e-08
162,212,1.139820505185135e-06
162,218,8.718124203242903e-07
162,226,1.7708394954664497e-07
162,236,1.277890061108156e-08
162,293,9.748327028491764e-07
162,299,7.55437894265677e-07
162,307,1.5720250434073423e-07
162,317,1.1804919399278129e-08
163,163,1.3467760790781207e-07
163,219,4.751835643513861e-07
163,227,1.1932593411761668e-07
163,300,4.1175850458066105e-07
163,308,1.0583605630812805e-07
164,164,7.371485096515566e-08
164,228,6.533078284779196e-08
164,309,5.799712673708958e-08
167,213,2.059892150178212e-08
167,294,1.7835529249086774e-08
168,208,3.473846524726273e-08
168,214,3.9066158903761064e-08
168,222,1.198694079669367e-08
168,289,2.9673612280075107e-08
168,295,3.3820697389062424e-08
168,303,1.0625017619492086e-08
169,209,6.283337808720604e-08
169,215,5.4221501470741734e-08
169,223,1.4611902195195349e-08
169,290,5.366298553314898e-08
169,296,4.694108006111554e-08
169,304,1.2950487397637183e-08
170,210,7.529455060259535e-08
170,216,6.031067841874737e-08
170,224,1.662873552727552e-08
170,291,6.43761245448184e-08
170,297,5.217227802593297e-08
170,305,1.4739338041726038e-08
171,211,6.283337808720604e-08
171,217,5.4221501470741734e-08
171,225,1.4611902195195344e-08
171,292,5.3662985533148974e-08
171,298,4.694108006111553e-08
171,306,1.2950487397637178e-08
172,212,3.473846524726273e-08
172,218,3.9066158903761064e-08
172,226,1.1986940796693672e-08
172,293,2.9673612280075104e-08
172,299,3.3820697389062404e-08
172,307,1.0625017619492089e-08
173,219,2.059892150178212e-08
173,300,1.783552924908678e-08
204,204,0.0004278984802872513
204,285,0.00036524272546913333
205,205,0.0005138182318592375
205,209,0.00013621483729701076
205,215,1.0394470306864289e-05
205,223,3.372815000553208e-07
205,286,0.00043841939269296425
205,290,0.00011682033849587924
205,296,9.021263819385746e-06
205,304,2.9952842012298164e-07
206,206,0.0007390104851589901
206,210,0.0001981646194410999
206,216,1.493573646682319e-05
206,224,4.7519745248422135e-07
206,287,0.0006303671307020739
206,291,0.00016993489923488147
206,297,1.2962489500777359e-05
206,305,4.220880255223792e-07
207,207,0.0005138182318592375
207,211,0.00013621483729701079
207,217,1.0394470306864289e-05
207,225,3.372815000553207e-07
207,288,0.00043841939269296425
207,292,0.00011682033849587924
207,298,9.021263819385748e-06
207,306,2.995284201229813e-07
208,208,9.595421002881476e-05
208,214,1.5802203588836618e-05
208,222,1.010527281838486e-06
208,232,3.280485824960623e-08
208,289,8.22419412769919e-05
208,295,1.3704649741614943e-05
208,303,8.966914420378753e-07
208,313,3.0318634648161494e-08
209,209,0.00015925637679696186
209,215,2.7188487934322383e-05
209,223,1.7881872131182144e-06
209,233,5.933248374163597e-08
209,286,0.00011596572013749681
209,290,0.00013645457981318045
209,296,2.3576239612405102e-05
209,304,1.586626987797124e-06
209,314,5.483195183466056e-08
210,210,0.00019468500884963492
210,216,3.2629084692847e-05
210,224,2.140019315132542e-06
210,234,7.10973337288908e-08
210,287,0.0001686261396488996
210,291,0.00016678539896229213
210,297,2.829221629164262e-05
210,305,1.8987124748766891e-06
210,315,6.577917758839362e-08
211,211,0.00015925637679696189
211,217,2.7188487934322383e-05
211,225,1.7881872131182142e-06
211,235,5.9332483741635946e-08
211,288,0.00011596572013749681
211,292,0.00013645457981318048
211,298,2.3576239612405105e-05
211,306,1.586626987797124e-06
211,316,5.483195183466055e-08
212,212,9.595421002881477e-05
212,218,1.5802203588836618e-05
212,226,1.0105272818384858e-06
212,236,3.280485824960623e-08
212,293,8.224194127699193e-05
212,299,1.3704649741614943e-05
212,307,8.966914420378753e-07
212,317,3.0318634648161494e-08
213,213,4.013272054228392e-06
213,221,4.2119114528442514e-07
213,231,1.9447167512408656e-08
213,294,3.4800154195630925e-06
213,302,3.7373076222950073e-07
213,312,1.7970122620635004e-08
214,214,7.089612049224024e-06
214,222,7.727412644470979e-07
214,232,3.688026136310836e-08
214,289,1.3529657284035517e-05
214,295,6.146013653112949e-06
214,303,6.854929605166236e-07
214,313,3.40753873033816e-08
215,215,9.895758486033022e-06
215,223,1.0657930025187715e-06
215,233,5.118443664609012e-08
215,286,8.82190964216957e-06
215,290,2.32728131797345e-05
215,296,8.577350267820495e-06
215,304,9.453772794694897e-07
215,314,4.729335431512428e-08
216,216,1.1117825107678717e-05
216,224,1.1850875568186123e-06
216,234,5.688903424679401e-08
216,287,1.2668011305460931e-05
216,291,2.7926692054734245e-05
216,297,9.636016123146825e-06
216,305,1.0511616517310194e-06
216,315,5.2563096257432936e-08
217,217,9.895758486033026e-06
217,225,1.065793002518771e-06
217,235,5.118443664609012e-08
217,288,8.82190964216957e-06
217,292,2.3272813179734504e-05
217,298,8.577350267820495e-06
217,306,9.453772794694895e-07
217,316,4.7293354315124274e-08
218,218,7.089612049224023e-06
218,226,7.727412644470979e-07
218,236,3.688026136310836e-08
218,293,1.3529657284035517e-05
218,299,6.146013653112948e-06
218,307,6.854929605166235e-07
218,317,3.407538730338159e-08
219,219,4.013272054228391e-06
219,227,4.2119114528442514e-07
219,237,1.944716751240866e-08
219,300,3.480015419563092e-06
219,308,3.737307622295007e-07
219,318,1.7970122620635004e-08
220,220,5.794034268940095e-08
220,301,5.137087273490135e-08
221,221,1.0572447476126538e-07
221,294,3.6501841420089645e-07
221,302,9.376937523288652e-08
222,222,1.570283050866366e-07
222,232,1.1312185440413352e-08
222,289,8.64262576855215e-07
222,295,6.695007911108359e-07
222,303,1.3925749478678112e-07
222,313,1.0450015753804915e-08
223,223,1.9771201490274356e-07
223,233,1.37879360137913e-08
223,286,2.847099809615452e-07
223,290,1.5290549741045444e-06
223,296,9.232630468276462e-07
223,304,1.7532276990029104e-07
223,314,1.2736117948180419e-08
224,224,2.1358668805017974e-07
224,234,1.5692542897271537e-08
224,287,4.0076172254163146e-07
224,291,1.8297072898736591e-06
224,297,1.0265814337915067e-06
224,305,1.8939307721549894e-07
224,315,1.4496419143069e-08
225,225,1.9771201490274348e-07
225,235,1.3787936013791298e-08
225,288,2.847099809615452e-07
225,292,1.5290549741045444e-06
225,298,9.232630468276461e-07
225,306,1.75322769900291e-07
225,316,1.2736117948180415e-08
226,226,1.570283050866366e-07
226,236,1.1312185440413353e-08
226,293,8.642625768552148e-07
226,299,6.695007911108359e-07
226,307,1.3925749478678112e-07
226,317,1.0450015753804915e-08
227,227,1.0572447476126536e-07
227,300,3.650184142008964e-07
227,308,9.376937523288652e-08
228,228,5.794034268940097e-08
228,309,5.137087273490137e-08
231,294,1.6838322519444303e-08
232,289,2.8022033364903724e-08
232,295,3.1928376522498316e-08
232,303,1.0026946790227214e-08
233,290,5.067265392714679e-08
233,296,4.4438312722247125e-08
233,304,1.2220237325543378e-08
234,291,6.078766277082083e-08
234,297,4.924857214490151e-08
234,305,1.390954028095627e-08
235,292,5.067265392714679e-08
235,298,4.4438312722247125e-08
235,306,1.2220237325543371e-08
236,293,2.8022033364903728e-08
236,299,3.1928376522498316e-08
236,307,1.0026946790227214e-08
237,300,1.6838322519444297e-08
285,285,0.0003117640503605739
286,286,0.00037408619290129605
286,290,9.945478191104702e-05
286,296,7.656545118738632e-06
286,304,2.5288610506438625e-07
287,287,0.0005376986678074616
287,291,0.00014460527402404747
287,297,1.099447094505115e-05
287,305,3.559495386034981e-07
288,288,0.00037408619290129605
288,292,9.945478191104702e-05
288,298,7.656545118738635e-06
288,306,2.5288610506438614e-07
289,289,7.048938306966014e-05
289,295,1.173392041479231e-05
289,303,7.669065734390828e-07
289,313,2.5897341826409432e-08
290,290,0.0001169178201709195
290,296,2.01801918645759e-05
290,304,1.3566968271496782e-06
290,314,4.683069129197822e-08
291,291,0.00014288446201661103
291,297,2.4214299010011496e-05
291,305,1.6233957328418343e-06
291,315,5.6178221452096976e-08
292,292,0.00011691782017091953
292,298,2.0180191864575903e-05
292,306,1.3566968271496782e-06
292,316,4.683069129197822e-08
293,293,7.048938306966015e-05
293,299,1.173392041479231e-05
293,307,7.669065734390828e-07
293,317,2.589734182640943e-08
294,294,3.017619402131823e-06
294,302,3.238480685051778e-07
294,312,1.5559448130819386e-08
295,295,5.328014911980863e-06
295,303,5.939383407427242e-07
295,313,2.9502509872329204e-08
296,296,7.434606064835398e-06
296,304,8.189529453502112e-07
296,314,4.105989732018413e-08
297,297,8.351722125307075e-06
297,305,9.105728960427143e-07
297,315,4.5503715816715984e-08
298,298,7.434606064835398e-06
298,306,8.189529453502112e-07
298,316,4.105989732018413e-08
299,299,5.328014911980862e-06
299,307,5.939383407427239e-07
299,317,2.9502509872329214e-08
300,300,3.017619402131823e-06
300,308,3.238480685051778e-07
300,318,1.5559448130819386e-08
301,301,4.557164945556339e-08
302,302,8.316897371170508e-08
303,303,1.2349799247053727e-07
304,304,1.5547150845559596e-07
304,314,1.1288030812519355e-08
305,305,1.6797395301599567e-07
305,315,1.2849336114919163e-08
306,306,1.554715084555959e-07
306,316,1.1288030812519349e-08
307,307,1.2349799247053727e-07
308,308,8.316897371170506e-08
309,309,4.557164945556341e-08
