# Basis size = 385
0,0,0.4929398669311862
0,1,0.10511767886528477
0,3,0.05809398386328936
0,5,0.052208648466562646
0,7,0.031554810851969185
0,11,0.002176089221804416
0,14,0.03284521537530689
0,16,0.020419410849296753
0,20,0.0016339544468290774
0,26,4.2199763403977755e-05
0,30,0.023158084865506412
0,32,0.014579423440513174
0,36,0.00123388402360514
0,42,3.8521805597717576e-05
0,50,5.083970968429273e-07
0,55,0.017476519456903945
0,57,0.011076729876727906
0,61,0.0009640094862463249
0,67,3.257047581030631e-05
0,75,5.338586549094507e-07
0,91,0.013801936173402477
0,93,0.008782940107456732
0,97,0.0007767914701816432
0,103,2.7375996672776355e-05
0,111,4.939725778958895e-07
0,140,0.01126141477064157
0,142,0.007184849878587918
0,146,0.0006419501920099839
0,152,2.320998772206534e-05
0,160,4.4191509431805925e-07
0,204,0.009417433123196695
0,206,0.006019015930439239
0,210,0.0005414848314185751
0,216,1.9909356055582247e-05
0,224,3.920812616680197e-07
0,285,0.008028418819584689
0,287,0.005137726515961729
0,291,0.00046444671638203684
0,297,1.7277411526056695e-05
0,305,3.4809875527074914e-07
1,1,0.04575685128821557
1,5,0.02444907576398697
1,14,0.015742398326478408
1,30,0.01121507952067091
1,55,0.008510550431966142
1,91,0.006743379882428087
1,140,0.005513867037598461
1,204,0.0046177246062088775
1,285,0.003940727663617557
2,2,0.059654223471094794
2,6,0.031263239876104985
2,10,0.005394201650930139
2,15,0.01997747121237077
2,19,0.00400925150999595
2,25,0.0001946965700573818
2,31,0.014180769155638186
2,35,0.0030133233514902133
2,41,0.00017698914003910234
2,49,3.847011823643893e-06
2,56,0.010739670065014773
2,60,0.0023482120281379444
2,66,0.0001493073745188778
2,74,4.031356664088339e-06
2,84,4.83128827979367e-08
2,92,0.008499368570516972
2,96,0.0018892422383186545
2,102,0.0001253240108446885
2,110,3.7253990435220687e-06
2,120,5.6525901579691116e-08
2,141,0.006944225700426904
2,145,0.0015597239972275328
2,151,0.00010615846846761294
2,159,3.3302062725571323e-06
2,169,5.635822136083838e-08
2,205,0.005812472203916491
2,209,0.0013147199068828358
2,215,9.100663907554299e-05
2,223,2.953029955153595e-06
2,233,5.323003476060729e-08
2,286,0.004958395334180073
2,290,0.0011271159265275046
2,296,7.894157484850715e-05
2,304,2.620729796477633e-06
2,314,4.920233178832938e-08
3,3,0.07644409265772233
3,7,0.03940033637211797
3,11,0.007255673855497632
3,16,0.025029129388214465
3,20,0.005380889820980365
3,26,0.00026687311311885607
3,32,0.01771800594723252
3,36,0.004040098550587957
3,42,0.00024246616056146275
3,50,5.3232301108231274e-06
3,57,0.013398561365618929
3,61,0.0031466029443675066
3,67,0.00020448162662165206
3,75,5.577238233431788e-06
3,85,6.724018993593657e-08
3,93,0.010594069737136945
3,97,0.002530734497318581
3,103,0.00017160425748433247
3,111,5.1535337767076516e-06
3,121,7.865511903294965e-08
3,142,0.008650595322878948
3,146,0.002088873388421616
3,152,0.00014534395290137538
3,160,4.606347924760839e-06
3,170,7.841756825295718e-08
3,206,0.007237837631453684
3,210,0.0017604867307106416
3,216,0.0001245891218820772
3,224,4.084423645531608e-06
3,234,7.40622314766147e-08
3,287,0.0061725474498971564
3,291,0.001509112850001063
3,297,0.00010806563131176587
3,305,3.6246752392847363e-06
3,315,6.846475331694116e-08
4,4,0.059654223471094794
4,8,0.031263239876104985
4,12,0.005394201650930141
4,17,0.01997747121237077
4,21,0.004009251509995952
4,27,0.00019469657005738187
4,33,0.014180769155638186
4,37,0.0030133233514902137
4,43,0.00017698914003910237
4,51,3.847011823643895e-06
4,58,0.010739670065014773
4,62,0.002348212028137945
4,68,0.00014930737451887782
4,76,4.03135666408834e-06
4,86,4.8312882797936766e-08
4,94,0.008499368570516972
4,98,0.0018892422383186545
4,104,0.00012532401084468846
4,112,3.7253990435220687e-06
4,122,5.6525901579691175e-08
4,143,0.006944225700426904
4,147,0.0015597239972275328
4,153,0.00010615846846761294
4,161,3.330206272557129e-06
4,171,5.635822136083812e-08
4,207,0.005812472203916491
4,211,0.0013147199068828362
4,217,9.100663907554299e-05
4,225,2.9530299551535928e-06
4,235,5.323003476060715e-08
4,288,0.004958395334180073
4,292,0.0011271159265275046
4,298,7.894157484850718e-05
4,306,2.6207297964776307e-06
4,316,4.920233178832925e-08
5,5,0.013186785819349576
5,14,0.00851740297152728
5,30,0.0060765580706303056
5,55,0.004614732407712213
5,91,0.0036581940830895288
5,140,0.0029920925013635882
5,204,0.002506313849025031
5,285,0.0021391794272380684
6,6,0.01658905444374646
6,10,0.0025523894327464753
6,15,0.010645759795468824
6,19,0.001906649393867713
6,25,8.124946546404977e-05
6,31,0.007571547514799871
6,35,0.0014363416951477899
6,41,7.407095265428051e-05
6,49,1.3723109476341604e-06
6,56,0.005740305689244746
6,60,0.0011207089161817355
6,66,6.258250434284585e-05
6,74,1.4408811333344816e-06
6,84,1.401606643887832e-08
6,92,0.0045457654370557364
6,96,0.0009023398755853646
6,102,5.257862983054996e-05
6,110,1.3331469595805642e-06
6,120,1.642497986331277e-08
6,141,0.0037155512392825535
6,145,0.0007453189957987464
6,151,4.456470240884125e-05
6,159,1.192597119543527e-06
6,169,1.6393225529209637e-08
6,205,0.0031108779431013468
6,209,0.0006284530561948155
6,215,3.8219806464214834e-05
6,223,1.0580772763428868e-06
6,233,1.549429854933604e-08
6,286,0.002654305529126257
6,290,0.0005389046878975092
6,296,3.316264540914054e-05
6,304,9.393569255435793e-07
6,314,1.4329169582131683e-08
7,7,0.020636204288238206
7,11,0.003384018165251151
7,16,0.013181642838402398
7,20,0.002523924994725514
7,26,0.00010982055688529516
7,32,0.009354887539497729
7,36,0.0018999702454291034
7,42,0.00010008433582593683
7,50,1.8713282674762757e-06
7,57,0.007083978831466237
7,61,0.0014818677580387407
7,67,8.45458001510265e-05
7,75,1.9646825463864224e-06
7,85,1.9279663814812075e-08
7,93,0.005605833179340707
7,97,0.0011928412579945663
7,103,7.102325412263538e-05
7,111,1.8176846234397928e-06
7,121,2.2604477941397164e-08
7,142,0.004579895528616598
7,146,0.0009851152730720113
7,152,6.019372740307757e-05
7,160,1.6260032251356717e-06
7,170,2.2560042107896316e-08
7,206,0.003833341373922189
7,210,0.0008305605567062044
7,216,5.1621115618108734e-05
7,224,1.4425629582981383e-06
7,234,2.131092256320437e-08
7,287,0.0032699930085668045
7,291,0.0007121594086110945
7,297,4.478914870398801e-05
7,305,1.2806913268825335e-06
7,315,1.9708099402619518e-08
8,8,0.01658905444374646
8,12,0.0025523894327464753
8,17,0.010645759795468824
8,21,0.0019066493938677135
8,27,8.124946546404977e-05
8,33,0.007571547514799871
8,37,0.0014363416951477899
8,43,7.407095265428051e-05
8,51,1.3723109476341591e-06
8,58,0.005740305689244746
8,62,0.0011207089161817357
8,68,6.258250434284587e-05
8,76,1.4408811333344811e-06
8,86,1.4016066438878285e-08
8,94,0.0045457654370557364
8,98,0.0009023398755853648
8,104,5.257862983054998e-05
8,112,1.3331469595805631e-06
8,122,1.642497986331264e-08
8,143,0.0037155512392825535
8,147,0.0007453189957987465
8,153,4.456470240884127e-05
8,161,1.1925971195435259e-06
8,171,1.6393225529209637e-08
8,207,0.0031108779431013468
8,211,0.0006284530561948157
8,217,3.821980646421484e-05
8,225,1.0580772763428866e-06
8,235,1.5494298549336007e-08
8,288,0.002654305529126257
8,292,0.0005389046878975093
8,298,3.316264540914055e-05
8,306,9.393569255435786e-07
8,316,1.4329169582131714e-08
9,9,0.0017714620845788833
9,18,0.0013110852633577135
9,24,0.00011108118896216716
9,34,0.0009834681244010196
9,40,0.00010081019208152478
9,48,3.194396691766261e-06
9,59,0.0007655749488139421
9,65,8.496598611583547e-05
9,73,3.344766764788837e-06
9,83,5.383707690887487e-08
9,95,0.0006155423432958191
9,101,7.127880645681386e-05
9,109,3.089515347355817e-06
9,119,6.296078846774859e-08
9,144,0.0005079677384704205
9,150,6.0356831222734994e-05
9,158,2.7608154510223732e-06
9,168,6.275560729584884e-08
9,208,0.0004280523166805521
9,214,5.172958724398718e-05
9,222,2.4475967707804646e-06
9,232,5.92598875244723e-08
9,289,0.00036689596333551054
9,295,4.486379283757769e-05
9,303,2.1718352450300967e-06
9,313,5.4768002918923676e-08
10,10,0.0024058339779316575
10,15,0.0015703788670314571
10,19,0.0017727955566258298
10,25,0.00016755918911652866
10,31,0.001094896678394746
10,35,0.0013270972179840505
10,41,0.00015193098845774677
10,49,5.123029561996581e-06
10,56,0.0008210772818336173
10,60,0.001031925806803454
10,66,0.00012799037739213073
10,74,5.362648565261538e-06
10,84,8.973683455906394e-08
10,92,0.0006459240758695494
10,96,0.0008291402151917569
10,102,0.00010734112642025144
10,110,4.952625634224058e-06
10,120,1.050098172653491e-07
10,141,0.0005256849236614382
10,145,0.0006839390131266232
10,151,9.08761730205713e-05
10,159,4.425224783496664e-06
10,169,1.0466019125922409e-07
10,205,0.0004388323496246918
10,209,0.0005761673030255695
10,215,7.78764789191438e-05
10,223,3.9228841129425725e-06
10,233,9.880630159771645e-08
10,286,0.0003736325867585163
10,290,0.0004937442399688581
10,296,6.753408222673202e-05
10,304,3.4807212037935275e-06
10,314,9.126674200469445e-08
11,11,0.0026957475274437034
11,16,0.0020707571810700824
11,20,0.0019827819735850527
11,26,0.00018979940568181918
11,32,0.0014400285267132534
11,36,0.0014830263784238276
11,42,0.0001720333723852469
11,50,5.878250735062433e-06
11,57,0.0010783503498344952
11,61,0.0011526387561240886
11,67,0.00014489606299276104
11,75,6.1525615655668704e-06
11,85,1.0404648553311726e-07
11,93,0.0008475773481850681
11,97,0.0009258724890031214
11,103,0.00012150465154370497
11,111,5.681706813866388e-06
11,121,1.2165072369145714e-07
11,142,0.0006894083216467614
11,146,0.0007635924974059975
11,152,0.00010285909976987412
11,160,5.076444357437298e-06
11,170,1.2124275846867936e-07
11,206,0.0005752806146684922
11,210,0.0006431892143222354
11,216,8.814052338001971e-05
11,224,4.5000436902097796e-06
11,234,1.1449352009038792e-07
11,287,0.0004896705753477098
11,291,0.0005511292444832371
11,297,7.643206689205925e-05
11,305,3.9927421449244995e-06
11,315,1.0581023638815126e-07
12,12,0.0024058339779316584
12,17,0.001570378867031458
12,21,0.0017727955566258298
12,27,0.0001675591891165287
12,33,0.0010948966783947461
12,37,0.001327097217984051
12,43,0.00015193098845774677
12,51,5.123029561996581e-06
12,58,0.0008210772818336177
12,62,0.0010319258068034545
12,68,0.00012799037739213073
12,76,5.362648565261537e-06
12,86,8.973683455906396e-08
12,94,0.0006459240758695494
12,98,0.000829140215191757
12,104,0.00010734112642025144
12,112,4.9526256342240566e-06
12,122,1.05009817265349e-07
12,143,0.0005256849236614384
12,147,0.0006839390131266232
12,153,9.087617302057133e-05
12,161,4.425224783496662e-06
12,171,1.0466019125922406e-07
12,207,0.00043883234962469205
12,211,0.0005761673030255695
12,217,7.78764789191438e-05
12,225,3.9228841129425725e-06
12,235,9.880630159771638e-08
12,288,0.00037363258675851633
12,292,0.0004937442399688582
12,298,6.753408222673204e-05
12,306,3.4807212037935275e-06
12,316,9.126674200469443e-08
13,13,0.0017714620845788844
13,22,0.0013110852633577135
13,28,0.00011108118896216716
13,38,0.0009834681244010198
13,44,0.00010081019208152478
13,52,3.1943966917662614e-06
13,63,0.0007655749488139422
13,69,8.496598611583546e-05
13,77,3.344766764788838e-06
13,87,5.383707690887485e-08
13,99,0.0006155423432958194
13,105,7.127880645681388e-05
13,113,3.089515347355817e-06
13,123,6.296078846774864e-08
13,148,0.0005079677384704206
13,154,6.0356831222735e-05
13,162,2.7608154510223737e-06
13,172,6.275560729584886e-08
13,212,0.0004280523166805523
13,218,5.172958724398717e-05
13,226,2.447596770780465e-06
13,236,5.925988752447231e-08
13,293,0.0003668959633355106
13,299,4.486379283757769e-05
13,307,2.1718352450300967e-06
13,317,5.476800291892366e-08
14,14,0.005507215562714248
14,30,0.00393088890151401
14,55,0.00298601476463433
14,91,0.0023674434875480973
14,140,0.0019365627036250282
14,204,0.0016222653520453205
14,285,0.0013846978209615926
15,15,0.006841680863214591
15,19,0.0011752622694542229
15,25,4.7512689219703595e-05
15,31,0.004869228942521639
15,35,0.0008861170861380682
15,41,4.336540055906635e-05
15,49,7.468903927994875e-07
15,56,0.003692895801509791
15,60,0.0006917128343259345
15,66,3.666259655458943e-05
15,74,7.843603900926002e-07
15,92,0.0029250490211337144
15,96,0.0005570872390344616
15,102,3.0813762021512335e-05
15,110,7.26123687221576e-07
15,141,0.002391169712122485
15,145,0.0004602355711458325
15,151,2.6123626086541505e-05
15,159,6.498105477662287e-07
15,205,0.002002220423583231
15,209,0.0003881120771005497
15,215,2.240805819426292e-05
15,223,5.766601354474683e-07
15,286,0.0017084791466178808
15,290,0.0003328391007104066
15,296,1.9445416725667e-05
15,304,5.120528642215352e-07
16,16,0.008435804975583293
16,20,0.0015477079580048007
16,26,6.384496452396891e-05
16,32,0.005991979621603902
16,36,0.0011662151667993614
16,42,5.825909699901141e-05
16,50,1.0104169512067022e-06
16,57,0.004539538130766099
16,61,0.0009100553243749797
16,67,4.92480659761286e-05
16,75,1.0619020202789742e-06
16,93,0.0035933219301140336
16,97,0.000732786170112664
16,103,4.138830743160049e-05
16,111,9.830502792546557e-07
16,121,1.0846739588910869e-08
16,142,0.0029362352796367714
16,146,0.000605298901469295
16,152,3.508689121013292e-05
16,160,8.79729321575747e-07
16,170,1.083291815189641e-08
16,206,0.0024579150636418294
16,210,0.0005104065805168257
16,216,3.009544906112893e-05
16,224,7.806933743151008e-07
16,234,1.0243514020639023e-08
16,287,0.002096886208546566
16,291,0.00043768698370129014
16,297,2.611579583795895e-05
16,305,6.932248000877564e-07
17,17,0.006841680863214591
17,21,0.0011752622694542229
17,27,4.7512689219703595e-05
17,33,0.004869228942521639
17,37,0.0008861170861380683
17,43,4.336540055906636e-05
17,51,7.468903927994872e-07
17,58,0.003692895801509791
17,62,0.0006917128343259347
17,68,3.666259655458945e-05
17,76,7.843603900926001e-07
17,94,0.0029250490211337144
17,98,0.0005570872390344616
17,104,3.0813762021512335e-05
17,112,7.261236872215748e-07
17,143,0.002391169712122485
17,147,0.0004602355711458326
17,153,2.6123626086541515e-05
17,161,6.498105477662277e-07
17,207,0.002002220423583231
17,211,0.0003881120771005497
17,217,2.2408058194262925e-05
17,225,5.766601354474681e-07
17,288,0.0017084791466178808
17,292,0.0003328391007104066
17,298,1.9445416725667e-05
17,306,5.120528642215344e-07
18,18,0.0009712427971745215
18,24,8.061838083616731e-05
18,34,0.0007288543885493276
18,40,7.319612079106667e-05
18,48,2.2709748024465623e-06
18,59,0.0005675025257197045
18,65,6.170663127829287e-05
18,73,2.3784681218747e-06
18,83,3.7402485877136874e-08
18,95,0.0004563499710129557
18,101,5.177369675911914e-05
18,109,2.197289443037652e-06
18,119,4.3747400624681925e-08
18,144,0.00037663019724263106
18,150,4.384453727966145e-05
18,158,1.963674795361449e-06
18,168,4.360891819864526e-08
18,208,0.00031739679713178225
18,214,3.757990665524736e-05
18,222,1.7410087685804621e-06
18,232,4.118274677177113e-08
18,289,0.00027206188466866367
18,295,3.259360704875273e-05
18,303,1.5449293723615e-06
18,313,3.8062884127653626e-08
19,19,0.001307741563171778
19,25,0.00012124702577528406
19,31,0.0008201346478762837
19,35,0.0009794522118141797
19,41,0.00010999061614108067
19,49,3.6334913649395773e-06
19,56,0.0006153260247389966
19,60,0.0007618103667119872
19,66,9.268269076840411e-05
19,74,3.8044761052620176e-06
19,84,6.224675239557525e-08
19,92,0.0004842060358094403
19,96,0.0006122057898190212
19,102,7.774186813278712e-05
19,110,3.5141118143736692e-06
19,120,7.282329819698664e-08
19,141,0.00039414603137408655
19,145,0.00050504831726649
19,151,6.582370551236013e-05
19,159,3.1402186215159313e-06
19,169,7.258850029744355e-08
19,205,0.00032906922027226975
19,209,0.0004254962583640608
19,215,5.641162649153401e-05
19,223,2.7839471675698743e-06
19,233,6.852509841066134e-08
19,286,0.00028020392550339026
19,290,0.00036464627052953236
19,296,4.8922290652302157e-05
19,304,2.470282720986522e-06
19,314,6.333207661106593e-08
20,20,0.0014600733024733403
20,26,0.0001371700490719198
20,32,0.0010773719032436502
20,36,0.0010926509013408025
20,42,0.00012439153808716845
20,50,4.165129872349576e-06
20,57,0.0008072234799746228
20,61,0.0008494780335995988
20,67,0.00010479731240002991
20,75,4.36068014755452e-06
20,85,7.21806089839846e-08
20,93,0.0006346855083444916
20,97,0.0006824742690357692
20,103,8.789336353741861e-05
20,111,4.027610322932769e-06
20,121,8.441538279021674e-08
20,142,0.0005163575536172139
20,146,0.0005629193485426643
20,152,7.441365182951854e-05
20,160,3.59893224653722e-06
20,170,8.41419716017471e-08
20,206,0.00043094210957215416
20,210,0.0004741951999056334
20,216,6.377003179468863e-05
20,224,3.190523134047595e-06
20,234,7.94567415342168e-08
20,287,0.000366851185008126
20,291,0.00040634609076255614
20,297,5.530150336488904e-05
20,305,2.8309950576272807e-06
20,315,7.34355676353399e-08
21,21,0.0013077415631717782
21,27,0.00012124702577528403
21,33,0.0008201346478762837
21,37,0.0009794522118141801
21,43,0.00010999061614108067
21,51,3.6334913649395773e-06
21,58,0.0006153260247389966
21,62,0.0007618103667119873
21,68,9.268269076840411e-05
21,76,3.8044761052620167e-06
21,86,6.224675239557525e-08
21,94,0.0004842060358094405
21,98,0.0006122057898190213
21,104,7.774186813278712e-05
21,112,3.5141118143736684e-06
21,122,7.282329819698659e-08
21,143,0.00039414603137408655
21,147,0.0005050483172664901
21,153,6.582370551236013e-05
21,161,3.14021862151593e-06
21,171,7.258850029744351e-08
21,207,0.0003290692202722698
21,211,0.000425496258364061
21,217,5.641162649153402e-05
21,225,2.7839471675698734e-06
21,235,6.85250984106613e-08
21,288,0.00028020392550339026
21,292,0.0003646462705295324
21,298,4.892229065230216e-05
21,306,2.470282720986522e-06
21,316,6.333207661106591e-08
22,22,0.0009712427971745218
22,28,8.061838083616731e-05
22,38,0.0007288543885493277
22,44,7.319612079106667e-05
22,52,2.2709748024465623e-06
22,63,0.0005675025257197048
22,69,6.170663127829287e-05
22,77,2.3784681218747e-06
22,87,3.740248587713686e-08
22,99,0.0004563499710129558
22,105,5.177369675911914e-05
22,113,2.1972894430376515e-06
22,123,4.374740062468194e-08
22,148,0.0003766301972426311
22,154,4.384453727966145e-05
22,162,1.9636747953614485e-06
22,172,4.360891819864524e-08
22,212,0.0003173967971317824
22,218,3.757990665524736e-05
22,226,1.7410087685804621e-06
22,236,4.118274677177112e-08
22,293,0.0002720618846686637
22,299,3.259360704875272e-05
22,307,1.5449293723614997e-06
22,317,3.8062884127653593e-08
23,23,1.9569286375189396e-05
23,39,1.7743968212917653e-05
23,47,8.955773714100345e-07
23,64,1.4947899343713392e-05
23,72,9.373316745886806e-07
23,82,2.0634189377502946e-08
23,100,1.2536260334435136e-05
23,108,8.65576422253673e-07
23,118,2.4126427302615098e-08
23,149,1.0613319300684119e-05
23,157,7.733553337144274e-07
23,167,2.4043372358912925e-08
23,213,9.09509074434042e-06
23,221,6.855366851670184e-07
23,231,2.2699319673249027e-08
23,294,7.887205745286655e-06
23,302,6.082495484724116e-07
23,312,2.0976839900156804e-08
24,24,2.7389985496445064e-05
24,34,5.992075117232394e-05
24,40,2.479520654016122e-05
24,48,1.4164389872802842e-06
24,59,4.641152952289317e-05
24,65,2.0869717133612062e-05
24,73,1.4818669295817225e-06
24,83,3.5198789749195585e-08
24,95,3.7202988779291294e-05
24,101,1.7493404709051733e-05
24,109,1.3681148216638546e-06
24,119,4.113924417933792e-08
24,144,3.064069148140027e-05
24,150,1.4805001835957657e-05
24,158,1.2221549822888957e-06
24,168,4.0995226482015755e-08
24,208,2.5785203202758e-05
24,214,1.2684168804288643e-05
24,222,1.0832543957945977e-06
24,232,3.870553784605633e-08
24,289,2.207979840782526e-05
24,295,1.0997782001653514e-05
24,303,9.610602315184416e-07
24,313,3.577702458481129e-08
25,25,3.335737433163129e-05
25,31,3.23082852911412e-05
25,35,8.99933201789757e-05
25,41,3.0168767502135996e-05
25,49,1.7778994647922597e-06
25,56,2.389097371415106e-05
25,60,6.965123936437985e-05
25,66,2.5379496466498333e-05
25,74,1.8595419654732384e-06
25,84,4.563010709746486e-08
25,92,1.863337529565558e-05
25,96,5.580605362901099e-05
25,102,2.1267009641602527e-05
25,110,1.7164942161455709e-06
25,120,5.338016332050515e-08
25,141,1.5079250126202185e-05
25,145,4.5948603859015825e-05
25,151,1.799499014796791e-05
25,159,1.533211391657582e-06
25,169,5.319001642183791e-08
25,205,1.2538811161974637e-05
25,209,3.86593611539005e-05
25,215,1.5415058417379634e-05
25,223,1.3588642012620105e-06
25,233,5.021709601335968e-08
25,286,1.0645900601516178e-05
25,290,3.3099044993364065e-05
25,296,1.3364276307395598e-05
25,304,1.2054829427837853e-06
25,314,4.636942633195492e-08
26,26,3.5646934673683696e-05
26,32,4.328680000580539e-05
26,36,0.00010175267224355188
26,42,3.222876996455854e-05
26,50,1.910072582756189e-06
26,57,3.195602988225656e-05
26,61,7.87274815899299e-05
26,67,2.7107586051351975e-05
26,75,1.9976024574557906e-06
26,85,4.941837093610179e-08
26,93,2.4897972935599716e-05
26,97,6.306634639321798e-05
26,103,2.2712576155602132e-05
26,111,1.8438316880168396e-06
26,121,5.7815288168357636e-08
26,142,2.013530775631893e-05
26,146,5.191999517230396e-05
26,152,1.9216852826220566e-05
26,160,1.6469045727151943e-06
26,170,5.7608095633900237e-08
26,206,1.6735234339905423e-05
26,210,4.367954093457764e-05
26,216,1.646094277158454e-05
26,224,1.4596009507438716e-06
26,234,5.434276444282953e-08
26,287,1.420401085655989e-05
26,291,3.739489246807723e-05
26,297,1.4270522172970623e-05
26,305,1.2948652196159562e-06
26,315,5.021608463074598e-08
27,27,3.33573743316313e-05
27,33,3.230828529114121e-05
27,37,8.999332017897572e-05
27,43,3.0168767502135996e-05
27,51,1.7778994647922593e-06
27,58,2.3890973714151067e-05
27,62,6.965123936437987e-05
27,68,2.5379496466498333e-05
27,76,1.8595419654732384e-06
27,86,4.5630107097464855e-08
27,94,1.863337529565558e-05
27,98,5.580605362901099e-05
27,104,2.1267009641602534e-05
27,112,1.7164942161455709e-06
27,122,5.338016332050513e-08
27,143,1.5079250126202193e-05
27,147,4.5948603859015825e-05
27,153,1.799499014796791e-05
27,161,1.533211391657582e-06
27,171,5.319001642183789e-08
27,207,1.2538811161974646e-05
27,211,3.8659361153900504e-05
27,217,1.541505841737964e-05
27,225,1.3588642012620105e-06
27,235,5.021709601335966e-08
27,288,1.0645900601516181e-05
27,292,3.309904499336408e-05
27,298,1.3364276307395603e-05
27,306,1.2054829427837853e-06
27,316,4.636942633195491e-08
28,28,2.7389985496445058e-05
28,38,5.992075117232394e-05
28,44,2.4795206540161214e-05
28,52,1.4164389872802842e-06
28,63,4.641152952289317e-05
28,69,2.0869717133612052e-05
28,77,1.481866929581722e-06
28,87,3.519878974919556e-08
28,99,3.7202988779291294e-05
28,105,1.749340470905173e-05
28,113,1.3681148216638544e-06
28,123,4.113924417933792e-08
28,148,3.064069148140027e-05
28,154,1.4805001835957655e-05
28,162,1.2221549822888955e-06
28,172,4.099522648201576e-08
28,212,2.5785203202758007e-05
28,218,1.2684168804288643e-05
28,226,1.0832543957945977e-06
28,236,3.870553784605632e-08
28,293,2.207979840782526e-05
28,299,1.0997782001653514e-05
28,307,9.610602315184414e-07
28,317,3.5777024584811284e-08
29,29,1.956928637518939e-05
29,45,1.774396821291765e-05
29,53,8.955773714100345e-07
29,70,1.4947899343713387e-05
29,78,9.373316745886806e-07
29,88,2.0634189377502946e-08
29,106,1.2536260334435136e-05
29,114,8.65576422253673e-07
29,124,2.4126427302615098e-08
29,155,1.0613319300684117e-05
29,163,7.733553337144272e-07
29,173,2.4043372358912925e-08
29,219,9.095090744340419e-06
29,227,6.855366851670184e-07
29,237,2.2699319673249027e-08
29,300,7.887205745286652e-06
29,308,6.082495484724114e-07
29,318,2.0976839900156804e-08
30,30,0.0028063670862298828
30,55,0.002132047712470985
30,91,0.0016905007940742453
30,140,0.0013828887958062433
30,204,0.0011584871848649362
30,285,0.0009888583858768214
31,31,0.00346649205378528
31,35,0.0006186088087884722
31,41,2.950553754942762e-05
31,49,4.884753728239421e-07
31,56,0.0026294735396880323
31,60,0.00048299780027996923
31,66,2.4952842745903916e-05
31,74,5.136361403359808e-07
31,92,0.0020829461399726437
31,96,0.0003890444471353426
31,102,2.0976048223297866e-05
31,110,4.7564677640544794e-07
31,141,0.0017028762605207687
31,145,0.0003214295251464019
31,151,1.7785478561193213e-05
31,159,4.2574280582379657e-07
31,205,0.0014259480799081608
31,209,0.0002710783462816304
31,215,1.5257113008428368e-05
31,223,3.7786774614110045e-07
31,286,0.0012167890597534598
31,290,0.00023248234930593287
31,296,1.3240713518862963e-05
31,304,3.355657345122249e-07
32,32,0.0042578059020903685
32,36,0.0008121835904005976
32,42,3.952484699328399e-05
32,50,6.587273978152792e-07
32,57,0.003226413554248362
32,61,0.0006339437866566416
32,67,3.342298633550126e-05
32,75,6.92677805627953e-07
32,93,0.0025542338439320726
32,97,0.0005105339701345691
32,103,2.809464767220095e-05
32,111,6.414569663454591e-07
32,142,0.002087330443820132
32,146,0.0004217538422130533
32,152,2.3820396446008247e-05
32,160,5.74162204450773e-07
32,206,0.0017473986495469317
32,210,0.000355657779169476
32,216,2.0433592985490486e-05
32,224,5.096008926895739e-07
32,287,0.0014907941938330223
32,291,0.00030500140500273074
32,297,1.773272657554649e-05
32,305,4.525531538313103e-07
33,33,0.00346649205378528
33,37,0.0006186088087884724
33,43,2.950553754942764e-05
33,51,4.884753728239411e-07
33,58,0.0026294735396880323
33,62,0.00048299780027996934
33,68,2.4952842745903933e-05
33,76,5.1363614033598e-07
33,94,0.0020829461399726437
33,98,0.0003890444471353428
33,104,2.0976048223297877e-05
33,112,4.7564677640544736e-07
33,143,0.0017028762605207687
33,147,0.000321429525146402
33,153,1.778547856119322e-05
33,161,4.2574280582379614e-07
33,207,0.0014259480799081608
33,211,0.00027107834628163044
33,217,1.5257113008428371e-05
33,225,3.7786774614110003e-07
33,288,0.0012167890597534598
33,292,0.00023248234930593295
33,298,1.3240713518862965e-05
33,306,3.3556573451222434e-07
34,34,0.0005470644071743471
34,40,5.4415131290746836e-05
34,48,1.671483490182706e-06
34,59,0.0004260017893383235
34,65,4.587874010014721e-05
34,73,1.7508053135888956e-06
34,83,2.7238791579619206e-08
34,95,0.0003425857837435607
34,101,3.849620014493784e-05
34,109,1.617552425550037e-06
34,119,3.186146505132297e-08
34,144,0.0002827511780888634
34,150,3.260190299407759e-05
34,158,1.4456642459559677e-06
34,168,3.176218072890676e-08
34,208,0.00023828907653845088
34,214,2.7944479351145693e-05
34,222,1.2817809345393447e-06
34,232,2.999492584098139e-08
34,289,0.0002042575407992929
34,295,2.4237172360421636e-05
34,303,1.1374472126455861e-06
34,313,2.7723702928284935e-08
35,35,0.0007337445795538767
35,41,8.165651625784583e-05
35,49,2.671395748067828e-06
35,56,0.0004642288217047865
35,60,0.00057077239797323
35,66,6.881548513445463e-05
35,74,2.797448557903073e-06
35,84,4.532256402618069e-08
35,92,0.0003653551082710581
35,96,0.00045871855352419143
35,102,5.772625692241492e-05
35,110,2.584134642866889e-06
35,120,5.301099486165959e-08
35,141,0.00029742676165008463
35,145,0.00037844527096143307
35,151,4.887890888431646e-05
35,159,2.3093002869625535e-06
35,169,5.284296583820447e-08
35,205,0.00024833400868177287
35,209,0.00031884565052542384
35,215,4.1891102148565054e-05
35,223,2.047365527311765e-06
35,233,4.990255427054642e-08
35,286,0.0002114666196165081
35,290,0.00027325427133626163
35,296,3.633038127418022e-05
35,304,1.8167339147156754e-06
35,314,4.612201501558788e-08
36,36,0.0008178916029878192
36,42,9.229465360903837e-05
36,50,3.0608866279500106e-06
36,57,0.0006086835620511198
36,61,0.0006359527342692817
36,67,7.776651173945588e-05
36,75,3.204985553364838e-06
36,85,5.2453619381461025e-08
36,93,0.00047865517359987816
36,97,0.0005109685153965409
36,103,6.522761725848904e-05
36,111,2.9604104870399225e-06
36,121,6.137457391033613e-08
36,142,0.000389455633719692
36,146,0.00042148313737117374
36,152,5.522623779909636e-05
36,160,2.6454536791507334e-06
36,170,6.117894099464386e-08
36,206,0.00032505447652971057
36,210,0.0003550614100585008
36,216,4.73286338496869e-05
36,224,2.3453251549820345e-06
36,234,5.777438908051264e-08
36,287,0.00027672505193559554
36,291,0.0003042661171847468
36,297,4.1044650125248445e-05
36,305,2.081087589694881e-06
36,315,5.337534611602303e-08
37,37,0.0007337445795538768
37,43,8.165651625784583e-05
37,51,2.6713957480678285e-06
37,58,0.00046422882170478664
37,62,0.00057077239797323
37,68,6.881548513445463e-05
37,76,2.7974485579030718e-06
37,86,4.532256402618066e-08
37,94,0.0003653551082710581
37,98,0.0004587185535241915
37,104,5.772625692241492e-05
37,112,2.584134642866889e-06
37,122,5.301099486165957e-08
37,143,0.0002974267616500847
37,147,0.0003784452709614331
37,153,4.8878908884316484e-05
37,161,2.3093002869625535e-06
37,171,5.2842965838204466e-08
37,207,0.00024833400868177287
37,211,0.000318845650525424
37,217,4.1891102148565054e-05
37,225,2.0473655273117645e-06
37,235,4.9902554270546384e-08
37,288,0.00021146661961650814
37,292,0.0002732542713362618
37,298,3.633038127418022e-05
37,306,1.8167339147156754e-06
37,316,4.612201501558789e-08
38,38,0.0005470644071743472
38,44,5.4415131290746836e-05
38,52,1.6714834901827063e-06
38,63,0.0004260017893383236
38,69,4.587874010014719e-05
38,77,1.7508053135888956e-06
38,87,2.723879157961922e-08
38,99,0.00034258578374356084
38,105,3.8496200144937826e-05
38,113,1.6175524255500366e-06
38,123,3.1861465051322986e-08
38,148,0.00028275117808886346
38,154,3.260190299407759e-05
38,162,1.4456642459559673e-06
38,172,3.176218072890678e-08
38,212,0.00023828907653845101
38,218,2.7944479351145693e-05
38,226,1.2817809345393445e-06
38,236,2.9994925840981344e-08
38,293,0.000204257540799293
38,299,2.4237172360421636e-05
38,307,1.1374472126455861e-06
38,317,2.772370292828491e-08
39,39,1.6091156221022133e-05
39,47,8.069455059016281e-07
39,64,1.355656681800027e-05
39,72,8.446324863346023e-07
39,82,1.846789052576602e-08
39,100,1.1369921742309419e-05
39,108,7.800046472172314e-07
39,118,2.1592474227910743e-08
39,149,9.626172281613069e-06
39,157,6.969209857798317e-07
39,167,2.1518782012829617e-08
39,213,8.24932279081956e-06
39,221,6.177956902500656e-07
39,231,2.031812983795325e-08
39,294,7.153866377171367e-06
39,302,5.481962934182199e-07
39,312,1.8776610206006875e-08
40,40,2.244979039038821e-05
40,48,1.27498564987139e-06
40,59,4.2151853678714406e-05
40,65,1.8897251308483933e-05
40,73,1.333988516005196e-06
40,83,3.1659896260928685e-08
40,95,3.3790746083684064e-05
40,101,1.5840892744442584e-05
40,109,1.2316228381345694e-06
40,119,3.7003278550213796e-08
40,144,2.7831553927151264e-05
40,150,1.3406901414317152e-05
40,158,1.1002600570463949e-06
40,168,3.678832096075652e-08
40,208,2.3421917618288186e-05
40,214,1.1486613280934713e-05
40,222,9.752396577907514e-07
40,232,3.4733580074258303e-08
40,289,2.005655307072775e-05
40,295,9.959610897222339e-06
40,303,8.652223559512083e-07
40,313,3.204092861590748e-08
41,41,2.7289586048139002e-05
41,49,1.599288110270914e-06
41,56,2.182560824400025e-05
41,60,6.320650498591753e-05
41,66,2.2959510773300274e-05
41,74,1.672871700820831e-06
41,84,4.0784736689478506e-08
41,92,1.7025975865440617e-05
41,96,5.064609346253913e-05
41,102,1.9240229168828495e-05
41,110,1.544263267465342e-06
41,120,4.770053935806211e-08
41,141,1.3780293945919846e-05
41,145,4.1702159748647715e-05
41,151,1.6280679400832614e-05
41,159,1.3794168989198377e-06
41,169,4.753280274055451e-08
41,205,1.1459743490317272e-05
41,209,3.508775990512566e-05
41,215,1.394687038571905e-05
41,223,1.2225568276983767e-06
41,233,4.487748860667971e-08
41,286,9.730380327957767e-06
41,290,3.0041833108719167e-05
41,296,1.20916257421224e-05
41,304,1.0846343629544171e-06
41,314,4.147055994147383e-08
42,42,2.914340887591947e-05
42,50,1.7178048968794545e-06
42,57,2.9189354606696923e-05
42,61,7.141910450722991e-05
42,67,2.4514840803255107e-05
42,75,1.796667909188269e-06
42,85,4.418638581666508e-08
42,93,2.2747488740071195e-05
42,97,5.7215564802736224e-05
42,103,2.0541395129800392e-05
42,111,1.6584631054225049e-06
42,121,5.1652765926945537e-08
42,142,1.8398847529666303e-05
42,146,4.7105865975902176e-05
42,152,1.738048376021085e-05
42,160,1.4813814572542438e-06
42,170,5.1470335550261244e-08
42,206,1.5293525950432618e-05
42,210,3.96310443645582e-05
42,216,1.4888306754074023e-05
42,224,1.3129348520409373e-06
42,234,4.859454543692333e-08
42,287,1.2981314153365922e-05
42,291,3.392971843038812e-05
42,297,1.290738728549964e-05
42,305,1.1647493504399188e-06
42,315,4.490509218945759e-08
43,43,2.7289586048139002e-05
43,51,1.5992881102709137e-06
43,58,2.1825608244000256e-05
43,62,6.320650498591753e-05
43,68,2.295951077330028e-05
43,76,1.672871700820831e-06
43,86,4.07847366894785e-08
43,94,1.7025975865440617e-05
43,98,5.064609346253913e-05
43,104,1.9240229168828498e-05
43,112,1.544263267465342e-06
43,122,4.770053935806211e-08
43,143,1.3780293945919851e-05
43,147,4.1702159748647715e-05
43,153,1.6280679400832614e-05
43,161,1.379416898919837e-06
43,171,4.7532802740554496e-08
43,207,1.1459743490317275e-05
43,211,3.508775990512566e-05
43,217,1.394687038571905e-05
43,225,1.2225568276983765e-06
43,235,4.487748860667971e-08
43,288,9.730380327957767e-06
43,292,3.0041833108719174e-05
43,298,1.2091625742122402e-05
43,306,1.084634362954417e-06
43,316,4.1470559941473815e-08
44,44,2.2449790390388208e-05
44,52,1.27498564987139e-06
44,63,4.2151853678714406e-05
44,69,1.889725130848393e-05
44,77,1.333988516005196e-06
44,87,3.1659896260928685e-08
44,99,3.3790746083684064e-05
44,105,1.5840892744442584e-05
44,113,1.231622838134569e-06
44,123,3.70032785502138e-08
44,148,2.7831553927151257e-05
44,154,1.3406901414317148e-05
44,162,1.1002600570463947e-06
44,172,3.678832096075652e-08
44,212,2.3421917618288186e-05
44,218,1.148661328093471e-05
44,226,9.752396577907512e-07
44,236,3.473358007425831e-08
44,293,2.0056553070727754e-05
44,299,9.959610897222334e-06
44,307,8.65222355951208e-07
44,317,3.204092861590748e-08
45,45,1.609115622102213e-05
45,53,8.069455059016283e-07
45,70,1.3556566818000265e-05
45,78,8.44632486334602e-07
45,88,1.8467890525766028e-08
45,106,1.1369921742309416e-05
45,114,7.800046472172313e-07
45,124,2.1592474227910753e-08
45,155,9.626172281613064e-06
45,163,6.969209857798316e-07
45,173,2.1518782012829617e-08
45,219,8.24932279081956e-06
45,227,6.177956902500656e-07
45,237,2.031812983795326e-08
45,300,7.153866377171365e-06
45,308,5.481962934182199e-07
45,318,1.8776610206006875e-08
46,46,1.0275120950653512e-07
46,71,1.0750904519329756e-07
46,107,9.926072945833094e-08
46,156,8.867316836666438e-08
46,220,7.859757136224208e-08
46,301,6.966091310925185e-08
47,47,1.4635387657859933e-07
47,64,6.774512807692607e-07
47,72,1.5302088592673847e-07
47,100,5.670196585147482e-07
47,108,1.4121966241119673e-07
47,149,4.793922396978527e-07
47,157,1.2612326703194663e-07
47,213,4.104343725578952e-07
47,221,1.1176859607422287e-07
47,294,3.556899110360674e-07
47,302,9.914838682948542e-08
48,48,1.8576720641142093e-07
48,59,1.2877099255103268e-06
48,65,1.0697967707874868e-06
48,73,1.9394256333868634e-07
48,95,1.0288591383927696e-06
48,101,8.950279814231243e-07
48,109,1.7893521106898872e-07
48,144,8.455793547110034e-07
48,150,7.565683626914284e-07
48,158,1.5978894713999096e-07
48,208,7.105462778161316e-07
48,214,6.476576613832976e-07
48,222,1.4158732226903538e-07
48,289,6.078026384662407e-07
48,295,5.612466523546775e-07
48,303,1.255948858948714e-07
49,49,2.1309823566763325e-07
49,56,3.5327434988933577e-07
49,60,2.056785646018213e-06
49,66,1.3414390047483447e-06
49,74,2.2264589135921928e-07
49,92,2.717131074146081e-07
49,96,1.6427240238037879e-06
49,102,1.122054170243346e-06
49,110,2.0539892661462944e-07
49,120,1.0686992690837649e-08
49,141,2.178304148675596e-07
49,145,1.3497650366150715e-06
49,151,9.483387624537355e-07
49,159,1.8342650628023484e-07
49,169,1.0645551097892406e-08
49,205,1.799757922911786e-07
49,209,1.1340308682417115e-06
49,215,8.117826285325136e-07
49,223,1.6251955426846132e-07
49,233,1.0048358389675353e-08
49,286,1.5209043769655877e-07
49,290,9.699366680678779e-07
49,296,7.03387593760042e-07
49,304,1.4414834853360317e-07
50,50,2.231786364717494e-07
50,57,4.7528754893743255e-07
50,61,2.3560843946210773e-06
50,67,1.4406774383352685e-06
50,75,2.3302115938669465e-07
50,93,3.6499669182597985e-07
50,97,1.8814883915571654e-06
50,103,1.2049810422946615e-06
50,111,2.149438503854406e-07
50,121,1.1221813993790443e-08
50,142,2.9339828803665557e-07
50,146,1.5457973800788341e-06
50,152,1.0183724678867e-06
50,160,1.9191950688938173e-07
50,170,1.1178101017973255e-08
50,206,2.413542701821168e-07
50,210,1.2986437437260287e-06
50,216,8.71681824056093e-07
50,224,1.7004204345519535e-07
50,234,1.0550905451707653e-08
50,287,2.0385369345133808e-07
50,291,1.1106765209593942e-06
50,297,7.552802784148775e-07
50,305,1.5086673852070104e-07
51,51,2.1309823566763314e-07
51,58,3.532743498893354e-07
51,62,2.056785646018213e-06
51,68,1.3414390047483447e-06
51,76,2.226458913592192e-07
51,94,2.7171310741460774e-07
51,98,1.6427240238037879e-06
51,104,1.122054170243346e-06
51,112,2.0539892661462936e-07
51,122,1.0686992690837647e-08
51,143,2.1783041486755947e-07
51,147,1.3497650366150715e-06
51,153,9.483387624537355e-07
51,161,1.8342650628023482e-07
51,171,1.0645551097892404e-08
51,207,1.7997579229117846e-07
51,211,1.1340308682417117e-06
51,217,8.117826285325136e-07
51,225,1.6251955426846132e-07
51,235,1.0048358389675353e-08
51,288,1.520904376965586e-07
51,292,9.699366680678779e-07
51,298,7.03387593760042e-07
51,306,1.4414834853360312e-07
52,52,1.8576720641142093e-07
52,63,1.2877099255103268e-06
52,69,1.0697967707874866e-06
52,77,1.9394256333868634e-07
52,99,1.0288591383927698e-06
52,105,8.950279814231243e-07
52,113,1.7893521106898875e-07
52,148,8.455793547110034e-07
52,154,7.565683626914282e-07
52,162,1.5978894713999096e-07
52,212,7.105462778161316e-07
52,218,6.476576613832976e-07
52,226,1.4158732226903538e-07
52,293,6.078026384662407e-07
52,299,5.612466523546773e-07
52,307,1.255948858948714e-07
53,53,1.463538765785993e-07
53,70,6.774512807692606e-07
53,78,1.5302088592673844e-07
53,106,5.67019658514748e-07
53,114,1.4121966241119673e-07
53,155,4.793922396978527e-07
53,163,1.2612326703194663e-07
53,219,4.104343725578952e-07
53,227,1.1176859607422285e-07
53,300,3.5568991103606727e-07
53,308,9.91483868294854e-08
54,54,1.0275120950653515e-07
54,79,1.075090451932976e-07
54,115,9.926072945833094e-08
54,164,8.867316836666442e-08
54,228,7.85975713622421e-08
54,309,6.966091310925186e-08
55,55,0.001619858274094724
55,91,0.0012844348848629632
55,140,0.0010507387028024595
55,204,0.000880250072861289
55,285,0.0007513706013870248
56,56,0.0019947387374320167
56,60,0.00036250410950640106
56,66,1.846119793729604e-05
56,74,3.7158704276829586e-07
56,92,0.001580224105239095
56,96,0.0002920102676054378
56,102,1.552063232089148e-05
56,110,3.441667760123766e-07
56,141,0.0012919298943366005
56,145,0.00024127083457661748
56,151,1.316076818913248e-05
56,159,3.080918050124312e-07
56,205,0.0010818571307461933
56,209,0.0002034827934801503
56,215,1.1290387289455367e-05
56,223,2.7346878682079464e-07
56,286,0.0009231850786886494
56,290,0.00017451498037185224
56,296,9.798565702568941e-06
56,304,2.428678834312522e-07
57,57,0.002445143658209997
57,61,0.00047516793645214914
57,67,2.468789997761668e-05
57,75,4.999492731041923e-07
57,93,0.001935865459056952
57,97,0.0003826982548781359
57,103,2.075458942438335e-05
57,111,4.630719561937636e-07
57,142,0.0015820684480016929
57,146,0.00031616504236438075
57,152,1.7598365413671083e-05
57,160,4.1454468564044135e-07
57,206,0.0013244618178001849
57,210,0.0002666262076275533
57,216,1.5096997990854556e-05
57,224,3.6795056966957627e-07
57,287,0.001129990273157924
57,291,0.00022865652416508448
57,297,1.3101999067495788e-05
57,305,3.2677709888733395e-07
58,58,0.0019947387374320167
58,62,0.0003625041095064011
58,68,1.8461197937296045e-05
58,76,3.7158704276829506e-07
58,94,0.001580224105239095
58,98,0.00029201026760543785
58,104,1.5520632320891486e-05
58,112,3.441667760123762e-07
58,143,0.0012919298943366005
58,147,0.00024127083457661753
58,153,1.3160768189132481e-05
58,161,3.080918050124308e-07
58,207,0.0010818571307461933
58,211,0.00020348279348015035
58,217,1.1290387289455374e-05
58,225,2.734687868207941e-07
58,288,0.0009231850786886494
58,292,0.00017451498037185232
58,298,9.798565702568944e-06
58,306,2.42867883431252e-07
59,59,0.00033174877428891124
59,65,3.554141008078996e-05
59,73,1.3489060708623396e-06
59,83,2.079503798465112e-08
59,95,0.00026679780743529667
59,101,2.98233759732897e-05
59,109,1.2462940968665998e-06
59,119,2.440291228378204e-08
59,144,0.0002202049526225703
59,150,2.525760225646367e-05
59,158,1.1138855259652046e-06
59,168,2.4327561926275103e-08
59,208,0.00018558098225543104
59,214,2.1649715920571292e-05
59,222,9.876273107341053e-07
59,232,2.2974650333751687e-08
59,289,0.00015907876379118484
59,295,1.8777732564535796e-05
59,303,8.764273046696325e-07
59,313,2.1168721559590536e-08
60,60,0.00044402819989911095
60,66,5.3270339999977896e-05
60,74,2.153983120519899e-06
60,84,3.468557236517336e-08
60,92,0.0002853168561832067
60,96,0.0003568713613928549
60,102,4.4688048913517344e-05
60,110,1.9898164995517935e-06
60,120,4.058444281900198e-08
60,141,0.00023228050101832055
60,145,0.0002944286173243493
60,151,3.783995714568245e-05
60,159,1.7782375749362034e-06
60,169,4.045694506752397e-08
60,205,0.00019394696033359817
60,209,0.0002480649165675097
60,215,3.243085667563406e-05
60,223,1.576567776625284e-06
60,233,3.820676153244474e-08
60,286,0.00016515764484723982
60,290,0.00021259716480978558
60,296,2.8126264143818405e-05
60,304,1.3989887147979603e-06
60,314,3.530003038745792e-08
61,61,0.0004945245087028054
61,67,6.0180811848672784e-05
61,75,2.467173879035293e-06
61,85,4.020778026138805e-08
61,93,0.0003736922949172933
61,97,0.00039735070082885625
61,103,5.04794624776847e-05
61,111,2.278996855931517e-06
61,121,4.696266329843501e-08
61,142,0.0003040694121182695
61,146,0.00032776990762941867
61,152,4.274079751965519e-05
61,160,2.0365877093844385e-06
61,170,4.68142921514155e-08
61,206,0.00025379727584521114
61,210,0.00027612401703737833
61,216,3.6629336197438423e-05
61,224,1.8055708661415167e-06
61,234,4.427309225894023e-08
61,287,0.00021606817037151367
61,291,0.00023662486051647413
61,297,3.1766348625959204e-05
61,305,1.6021662586160798e-06
61,315,4.0919197054440995e-08
62,62,0.00044402819989911106
62,68,5.3270339999977896e-05
62,76,2.1539831205198993e-06
62,86,3.468557236517334e-08
62,94,0.0002853168561832067
62,98,0.00035687136139285513
62,104,4.4688048913517344e-05
62,112,1.989816499551793e-06
62,122,4.0584442819001963e-08
62,143,0.00023228050101832057
62,147,0.00029442861732434936
62,153,3.783995714568245e-05
62,161,1.7782375749362032e-06
62,171,4.0456945067523946e-08
62,207,0.00019394696033359817
62,211,0.00024806491656750976
62,217,3.243085667563407e-05
62,225,1.576567776625284e-06
62,235,3.8206761532444744e-08
62,288,0.00016515764484723985
62,292,0.00021259716480978566
62,298,2.8126264143818412e-05
62,306,1.398988714797961e-06
62,316,3.5300030387457885e-08
63,63,0.0003317487742889113
63,69,3.554141008078996e-05
63,77,1.34890607086234e-06
63,87,2.0795037984651142e-08
63,99,0.0002667978074352968
63,105,2.9823375973289694e-05
63,113,1.2462940968666003e-06
63,123,2.440291228378205e-08
63,148,0.00022020495262257037
63,154,2.525760225646367e-05
63,162,1.1138855259652048e-06
63,172,2.4327561926275093e-08
63,212,0.00018558098225543107
63,218,2.1649715920571292e-05
63,226,9.87627310734105e-07
63,236,2.2974650333751687e-08
63,293,0.0001590787637911849
63,299,1.8777732564535796e-05
63,307,8.764273046696326e-07
63,317,2.1168721559590546e-08
64,64,1.142168360721953e-05
64,72,7.091206260975481e-07
64,82,1.5478283465226962e-08
64,100,9.579629128097094e-06
64,108,6.548826825553739e-07
64,118,1.8061611520965267e-08
64,149,8.110579156458858e-06
64,157,5.851370731133756e-07
64,167,1.8000257760242323e-08
64,213,6.9505825480835105e-06
64,221,5.187419249279275e-07
64,231,1.6996110104210742e-08
64,294,6.02764048774979e-06
64,302,4.6026923682021235e-07
64,312,1.5733974836014057e-08
65,65,1.5907631868677893e-05
65,73,1.11935406073389e-06
65,83,2.6357300715390225e-08
65,95,2.849256635635671e-05
65,101,1.3335170302134067e-05
65,109,1.0334909245091621e-06
65,119,3.081532897697866e-08
65,144,2.3468293800188235e-05
65,150,1.1286396069235338e-05
65,158,9.23276308208379e-07
65,168,3.0709279993017924e-08
65,208,1.975029401251092e-05
65,214,9.66995222206161e-06
65,222,8.183763159103016e-07
65,232,2.8995270190999037e-08
65,289,1.6912647402234723e-05
65,295,8.38452762037723e-06
65,303,7.260878138349911e-07
65,313,2.679504767009989e-08
66,66,1.9317463284179555e-05
66,74,1.40322481424431e-06
66,84,3.409996632278908e-08
66,92,1.440299092987725e-05
66,96,4.26862330276928e-05
66,102,1.6188656596639016e-05
66,110,1.29538277642964e-06
66,120,3.986624383114978e-08
66,141,1.1658170577169142e-05
66,145,3.5148811158323104e-05
66,151,1.3698749322772673e-05
66,159,1.1571083833969875e-06
66,169,3.97273602967179e-08
66,205,9.69546707412766e-06
66,209,2.9574355190695227e-05
66,215,1.1735215239719696e-05
66,223,1.025582220530933e-06
66,233,3.750772403964867e-08
66,286,8.232641728922543e-06
66,290,2.532163210804682e-05
66,296,1.0174268383151645e-05
66,304,9.09878990086828e-07
66,314,3.466083869795913e-08
67,67,2.062241935428742e-05
67,75,1.5068986399788145e-06
67,85,3.693959057170502e-08
67,93,1.9241786372375166e-05
67,97,4.8214550825738e-05
67,103,1.7280405571510367e-05
67,111,1.391022829190325e-06
67,121,4.3183325903295805e-08
67,142,1.5564562276292033e-05
67,146,3.969612096240904e-05
67,152,1.4621589549216121e-05
67,160,1.2425134046257976e-06
67,170,4.303157389000922e-08
67,206,1.2938315633542388e-05
67,210,3.339769889918794e-05
67,216,1.252514855102086e-05
67,224,1.1012635514726424e-06
67,234,4.0627776095085046e-08
67,287,1.0982619581621488e-05
67,291,2.8593321353316606e-05
67,297,1.0858759714450827e-05
67,305,9.769640158782643e-07
67,315,3.7542908675346136e-08
68,68,1.9317463284179555e-05
68,76,1.40322481424431e-06
68,86,3.4099966322789086e-08
68,94,1.4402990929877256e-05
68,98,4.268623302769281e-05
68,104,1.6188656596639016e-05
68,112,1.29538277642964e-06
68,122,3.9866243831149765e-08
68,143,1.165817057716915e-05
68,147,3.5148811158323104e-05
68,153,1.3698749322772673e-05
68,161,1.1571083833969871e-06
68,171,3.972736029671789e-08
68,207,9.695467074127662e-06
68,211,2.9574355190695237e-05
68,217,1.1735215239719696e-05
68,225,1.0255822205309328e-06
68,235,3.7507724039648665e-08
68,288,8.232641728922543e-06
68,292,2.532163210804682e-05
68,298,1.0174268383151645e-05
68,306,9.098789900868277e-07
68,316,3.466083869795913e-08
69,69,1.590763186867789e-05
69,77,1.11935406073389e-06
69,87,2.6357300715390232e-08
69,99,2.8492566356356714e-05
69,105,1.3335170302134067e-05
69,113,1.033490924509162e-06
69,123,3.081532897697868e-08
69,148,2.3468293800188235e-05
69,154,1.1286396069235335e-05
69,162,9.232763082083788e-07
69,172,3.0709279993017924e-08
69,212,1.975029401251092e-05
69,218,9.66995222206161e-06
69,226,8.183763159103016e-07
69,236,2.8995270190999034e-08
69,293,1.6912647402234723e-05
69,299,8.384527620377228e-06
69,307,7.260878138349909e-07
69,317,2.679504767009989e-08
70,70,1.1421683607219525e-05
70,78,7.091206260975481e-07
70,88,1.5478283465226966e-08
70,106,9.57962912809709e-06
70,114,6.548826825553738e-07
70,124,1.8061611520965263e-08
70,155,8.110579156458855e-06
70,163,5.851370731133753e-07
70,173,1.8000257760242327e-08
70,219,6.950582548083508e-06
70,227,5.187419249279275e-07
70,237,1.6996110104210742e-08
70,300,6.027640487749787e-06
70,308,4.6026923682021235e-07
70,318,1.5733974836014053e-08
71,71,1.1249086772418161e-07
71,107,1.0386238410044683e-07
71,156,9.278522279397191e-08
71,220,8.224311040082068e-08
71,301,7.296637492902195e-08
72,72,1.599973709286804e-07
72,100,5.934953237990637e-07
72,108,1.4766131880259726e-07
72,149,5.01821038117968e-07
72,157,1.318781703179707e-07
72,213,4.2964174938502515e-07
72,221,1.1696899403614438e-07
72,294,3.723383717069097e-07
72,302,1.0376147419773285e-07
73,73,2.0269097010818574e-07
73,95,1.0777960889075641e-06
73,101,9.365286455274786e-07
73,109,1.8701095997510022e-07
73,144,8.85821181553596e-07
73,150,7.916498158813619e-07
73,158,1.670012991887454e-07
73,208,7.44374730189484e-07
73,214,6.776969465514806e-07
73,222,1.479796278846056e-07
73,289,6.367475038770056e-07
73,295,5.872204862716371e-07
73,303,1.312596510737199e-07
74,74,2.3263044998420983e-07
74,92,2.8585339756264176e-07
74,96,1.7204247482884576e-06
74,102,1.1737533186336513e-06
74,110,2.1460171311083886e-07
74,120,1.113972317983792e-08
74,141,2.2922003684516403e-07
74,145,1.4136465713400536e-06
74,151,9.920629128394833e-07
74,159,1.916555290023441e-07
74,169,1.1096658998072589e-08
74,205,1.8938481712715423e-07
74,209,1.1877234946362862e-06
74,215,8.492210816276533e-07
74,223,1.698124626647029e-07
74,233,1.047424624905352e-08
74,286,1.6005087390951486e-07
74,290,1.0158733262190153e-06
74,296,7.358328303919969e-07
74,304,1.5061800305910664e-07
75,75,2.4344633542023006e-07
75,85,1.001124035757505e-08
75,93,3.840315838137454e-07
75,97,1.9702811622455397e-06
75,103,1.2604196293910666e-06
75,111,2.2456564430043674e-07
75,121,1.1696542698586564e-08
75,142,3.0810380152665225e-07
75,146,1.6187938554257943e-06
75,152,1.0652610394616533e-06
75,160,2.0051429726551366e-07
75,170,1.1651120254788339e-08
75,206,2.539928486490125e-07
75,210,1.3599938896508085e-06
75,216,9.118038311209131e-07
75,224,1.7765811472836017e-07
75,234,1.0997474443963624e-08
75,287,2.145440877285909e-07
75,291,1.1631625113071922e-06
75,297,7.900374486093414e-07
75,305,1.5757436350867597e-07
75,315,1.016074739537194e-08
76,76,2.3263044998420975e-07
76,94,2.8585339756264134e-07
76,98,1.7204247482884571e-06
76,104,1.1737533186336511e-06
76,112,2.1460171311083884e-07
76,122,1.113972317983792e-08
76,143,2.292200368451639e-07
76,147,1.413646571340053e-06
76,153,9.920629128394828e-07
76,161,1.9165552900234402e-07
76,171,1.1096658998072585e-08
76,207,1.8938481712715386e-07
76,211,1.1877234946362862e-06
76,217,8.492210816276533e-07
76,225,1.6981246266470283e-07
76,235,1.0474246249053518e-08
76,288,1.6005087390951467e-07
76,292,1.0158733262190157e-06
76,298,7.358328303919967e-07
76,306,1.506180030591066e-07
77,77,2.0269097010818574e-07
77,99,1.0777960889075641e-06
77,105,9.365286455274782e-07
77,113,1.8701095997510022e-07
77,148,8.85821181553596e-07
77,154,7.916498158813616e-07
77,162,1.670012991887454e-07
77,212,7.443747301894841e-07
77,218,6.776969465514806e-07
77,226,1.479796278846056e-07
77,293,6.367475038770054e-07
77,299,5.872204862716371e-07
77,307,1.3125965107371987e-07
78,78,1.599973709286804e-07
78,106,5.934953237990634e-07
78,114,1.4766131880259726e-07
78,155,5.018210381179678e-07
78,163,1.3187817031797066e-07
78,219,4.2964174938502504e-07
78,227,1.1696899403614438e-07
78,300,3.7233837170690964e-07
78,308,1.0376147419773284e-07
79,79,1.1249086772418164e-07
79,115,1.0386238410044684e-07
79,164,9.278522279397192e-08
79,228,8.224311040082071e-08
79,309,7.296637492902196e-08
82,100,1.292302623638475e-08
82,149,1.0908907676433231e-08
83,95,1.6487421526152626e-08
83,101,2.2028359450221277e-08
83,144,1.3517503097514505e-08
83,150,1.861960919096808e-08
83,208,1.1295602740274148e-08
83,214,1.5963616302763897e-08
83,295,1.3856127319015107e-08
84,96,2.75706228459116e-08
84,102,2.84688739445043e-08
84,145,2.2601580374278496e-08
84,151,2.4072069075237606e-08
84,209,1.8936649060584412e-08
84,215,2.058511769659343e-08
84,290,1.617641494808608e-08
84,296,1.786588847752482e-08
85,97,3.19998999098811e-08
85,103,3.083585737592508e-08
85,146,2.624655238362556e-08
85,152,2.610331643674357e-08
85,210,2.2106845365686428e-08
85,216,2.232148359964961e-08
85,291,1.8886670690465918e-08
85,297,1.9326734312866855e-08
86,98,2.7570622845911596e-08
86,104,2.8468873944504295e-08
86,147,2.2601580374278496e-08
86,153,2.4072069075237606e-08
86,211,1.8936649060584415e-08
86,217,2.058511769659343e-08
86,292,1.6176414948086074e-08
86,298,1.786588847752482e-08
87,99,1.6487421526152636e-08
87,105,2.202835945022128e-08
87,148,1.3517503097514505e-08
87,154,1.8619609190968073e-08
87,212,1.1295602740274148e-08
87,218,1.5963616302763903e-08
87,299,1.3856127319015107e-08
88,106,1.2923026236384753e-08
88,155,1.0908907676433231e-08
91,91,0.001018490884882571
91,140,0.0008331942157473507
91,204,0.0006980105885949412
91,285,0.0005958175630084152
92,92,0.0012518873395970039
92,96,0.0002298431133614987
92,102,1.21096342540542e-05
92,110,2.6479033343012383e-07
92,141,0.0010235159001764289
92,145,0.00018991113409193373
92,151,1.026883802815738e-05
92,159,2.3704089282671217e-07
92,205,0.0008571005562552234
92,209,0.00016017017994957025
92,215,8.809708327854787e-06
92,223,2.1040363831591816e-07
92,286,0.0007314002196313151
92,290,0.00013737024334291222
92,296,7.645822650933747e-06
92,304,1.8685967410052966e-07
93,93,0.0015327244976972645
93,97,0.0003009851198439327
93,103,1.6177255357275477e-05
93,111,3.557590862453161e-07
93,142,0.001252639056271333
93,146,0.0002486659574227508
93,152,1.3717766400939843e-05
93,160,3.1850352751983887e-07
93,206,0.0010486925172828634
93,210,0.00020970793518781752
93,216,1.176834905544265e-05
93,224,2.8367487674062094e-07
93,287,0.0008947241976370454
93,291,0.0001798466885550503
93,297,1.0213448841087986e-05
93,305,2.519399523459922e-07
94,94,0.0012518873395970039
94,98,0.00022984311336149866
94,104,1.21096342540542e-05
94,112,2.647903334301237e-07
94,143,0.0010235159001764289
94,147,0.00018991113409193373
94,153,1.0268838028157386e-05
94,161,2.3704089282671211e-07
94,207,0.0008571005562552234
94,211,0.00016017017994957028
94,217,8.809708327854788e-06
94,225,2.1040363831591814e-07
94,288,0.0007314002196313151
94,292,0.00013737024334291228
94,298,7.645822650933748e-06
94,306,1.868596741005295e-07
95,95,0.0002145676523048187
95,101,2.39091008068692e-05
95,109,9.958276364384723e-07
95,119,1.936709820518536e-08
95,144,0.00017709852481925882
95,150,2.024905399313589e-05
95,158,8.900426624592967e-07
95,168,1.9307732114648074e-08
95,208,0.00014925378446306337
95,214,1.7356776082374324e-05
95,222,7.891651211825649e-07
95,232,1.815815505255411e-08
95,289,0.00012794018256540344
95,295,1.5054355603779772e-05
95,303,7.003157735686678e-07
95,313,1.6783175389291335e-08
96,96,0.00028682934348083216
96,102,3.580990422463876e-05
96,110,1.589341204107336e-06
96,120,3.2290439923799415e-08
96,141,0.0001871238388519569
96,145,0.00023664583072713133
96,151,3.032277893564472e-05
96,159,1.4203679299255942e-06
96,169,3.214857932831226e-08
96,205,0.00015624559955444497
96,209,0.00019938337955954463
96,215,2.59885185479306e-05
96,223,1.2592997483058772e-06
96,233,3.036063141741302e-08
96,286,0.00013305450213077006
96,290,0.00017087734375361704
96,296,2.2539196952666675e-05
96,304,1.1174653502136204e-06
96,314,2.8060561160545048e-08
97,97,0.0003192815810335342
97,103,4.0443204112377125e-05
97,111,1.8200512960715036e-06
97,121,3.7430016537023306e-08
97,142,0.0002449162770701372
97,146,0.0002633761370264725
97,152,3.424367923469217e-05
97,160,1.6264852600236222e-06
97,170,3.73125513232412e-08
97,206,0.000204428536464459
97,210,0.00022187922590013318
97,216,2.934737539555827e-05
97,224,1.4420023612523609e-06
97,234,3.523733489739353e-08
97,287,0.0001740412817809781
97,291,0.0001901413123902532
97,297,2.545135600793349e-05
97,305,1.2795672295226342e-06
97,315,3.256814802434759e-08
98,98,0.0002868293434808323
98,104,3.580990422463876e-05
98,112,1.589341204107337e-06
98,122,3.2290439923799395e-08
98,143,0.00018712383885195692
98,147,0.0002366458307271314
98,153,3.0322778935644723e-05
98,161,1.4203679299255942e-06
98,171,3.214857932831228e-08
98,207,0.00015624559955444497
98,211,0.0001993833795595447
98,217,2.598851854793061e-05
98,225,1.2592997483058775e-06
98,235,3.0360631417412994e-08
98,288,0.00013305450213077006
98,292,0.0001708773437536171
98,298,2.253919695266668e-05
98,306,1.1174653502136204e-06
98,316,2.806056116054503e-08
99,99,0.0002145676523048187
99,105,2.3909100806869194e-05
99,113,9.95827636438472e-07
99,123,1.936709820518536e-08
99,148,0.00017709852481925884
99,154,2.024905399313589e-05
99,162,8.900426624592967e-07
99,172,1.9307732114648087e-08
99,212,0.00014925378446306345
99,218,1.7356776082374324e-05
99,226,7.891651211825648e-07
99,236,1.8158155052554086e-08
99,293,0.0001279401825654035
99,299,1.5054355603779772e-05
99,307,7.003157735686678e-07
99,317,1.678317538929132e-08
100,100,8.034773581652965e-06
100,108,5.481514515597011e-07
100,118,1.5108487091338268e-08
100,149,6.80269587167734e-06
100,157,4.897697573672506e-07
100,167,1.5056284831105052e-08
100,213,5.82979710219353e-06
100,221,4.3417068444908726e-07
100,231,1.4215797259857343e-08
100,294,5.055704118419332e-06
100,302,3.852327487093359e-07
100,312,1.3136982773904763e-08
101,101,1.1178897986501526e-05
101,109,8.646851703665674e-07
101,119,2.573004929397505e-08
101,144,1.969334032222985e-05
101,150,9.461511302456525e-06
101,158,7.724977485663466e-07
101,168,2.5641761924524738e-08
101,208,1.657352201098571e-05
101,214,8.106489797738138e-06
101,222,6.847438313088522e-07
101,232,2.4210759799005425e-08
101,289,1.4192429366195222e-05
101,295,7.028905028208747e-06
101,303,6.075156732070632e-07
101,313,2.2394695440275406e-08
102,102,1.3566842858734437e-05
102,110,1.0835946660255402e-06
102,120,3.328241412379184e-08
102,141,9.802288859459849e-06
102,145,2.9487135297578988e-05
102,151,1.1480340777979288e-05
102,159,9.67951438648263e-07
102,169,3.3166818703153486e-08
102,205,8.152274636103228e-06
102,209,2.4810868583764952e-05
102,215,9.83486373311001e-06
102,223,8.579606315459078e-07
102,233,3.131496086519574e-08
102,286,6.922430806632781e-06
102,290,2.124328554030928e-05
102,296,8.526739673807941e-06
102,304,7.611759445024261e-07
102,314,2.893826434730482e-08
103,103,1.4480221766333184e-05
103,111,1.163495168092454e-06
103,121,3.60479255467962e-08
103,142,1.3086335205068705e-05
103,146,3.329815098982007e-05
103,152,1.2252400682529474e-05
103,160,1.0393301227260757e-06
103,170,3.592163689468355e-08
103,206,1.0878604030676483e-05
103,210,2.8015176673667793e-05
103,216,1.0495769414519505e-05
103,224,9.211751293599425e-07
103,234,3.3915260668247407e-08
103,287,9.234463560088429e-06
103,291,2.3985413495101577e-05
103,297,9.099451584317868e-06
103,305,8.172280104565117e-07
103,315,3.1340745196460356e-08
104,104,1.3566842858734437e-05
104,112,1.0835946660255398e-06
104,122,3.328241412379183e-08
104,143,9.802288859459849e-06
104,147,2.9487135297579e-05
104,153,1.148034077797929e-05
104,161,9.67951438648263e-07
104,171,3.316681870315348e-08
104,207,8.15227463610323e-06
104,211,2.481086858376496e-05
104,217,9.834863733110016e-06
104,225,8.579606315459077e-07
104,235,3.131496086519573e-08
104,288,6.922430806632785e-06
104,292,2.124328554030929e-05
104,298,8.526739673807943e-06
104,306,7.611759445024261e-07
104,316,2.893826434730482e-08
105,105,1.1178897986501524e-05
105,113,8.646851703665674e-07
105,123,2.5730049293975058e-08
105,148,1.969334032222985e-05
105,154,9.461511302456523e-06
105,162,7.724977485663463e-07
105,172,2.5641761924524738e-08
105,212,1.657352201098571e-05
105,218,8.106489797738136e-06
105,226,6.847438313088523e-07
105,236,2.4210759799005428e-08
105,293,1.4192429366195222e-05
105,299,7.028905028208746e-06
105,307,6.075156732070632e-07
105,317,2.2394695440275403e-08
106,106,8.034773581652965e-06
106,114,5.481514515597009e-07
106,124,1.5108487091338268e-08
106,155,6.802695871677337e-06
106,163,4.897697573672504e-07
106,173,1.5056284831105056e-08
106,219,5.829797102193529e-06
106,227,4.3417068444908715e-07
106,237,1.4215797259857345e-08
106,300,5.055704118419329e-06
106,308,3.852327487093358e-07
106,318,1.313698277390477e-08
107,107,9.589531077230287e-08
107,156,8.566994266416873e-08
107,220,7.59366591904396e-08
107,301,6.729476872294945e-08
108,108,1.3627818220828069e-07
108,149,4.6344882377025645e-07
108,157,1.2181217812279563e-07
108,213,3.967914829008879e-07
108,221,1.0795076710538318e-07
108,294,3.438711712823973e-07
108,302,9.576193778936901e-08
109,109,1.7255602270537524e-07
109,144,8.184652832382884e-07
109,150,7.309550483214453e-07
109,158,1.5408474742806396e-07
109,208,6.877813248070148e-07
109,214,6.2573035740855e-07
109,222,1.3653513204165973e-07
109,289,5.88341214564161e-07
109,295,5.421796119842389e-07
109,303,1.213456017461166e-07
110,110,1.979677061256378e-07
110,120,1.0261605077835546e-08
110,141,2.123700291556452e-07
110,145,1.3059582466925094e-06
110,151,9.158598564132258e-07
110,159,1.7680362515734388e-07
110,169,1.022200969423175e-08
110,205,1.7545223935112408e-07
110,209,1.09725733980753e-06
110,215,7.839865471117497e-07
110,223,1.5665470617510872e-07
110,286,1.4828347928873444e-07
110,290,9.385040676323972e-07
110,296,6.792929652979357e-07
110,304,1.3894814317291267e-07
111,111,2.0716872009005486e-07
111,121,1.077416461774984e-08
111,142,2.849959202887417e-07
111,146,1.495387167580426e-06
111,152,9.833420462661234e-07
111,160,1.849664978319152e-07
111,170,1.0732402070505139e-08
111,206,2.353217362112401e-07
111,210,1.2563305258024676e-06
111,216,8.417142107890991e-07
111,224,1.6393393151948743e-07
111,234,1.0130348245602243e-08
111,287,1.9878149329437434e-07
111,291,1.074510902721822e-06
111,297,7.293258372338994e-07
111,305,1.4540192407107476e-07
112,112,1.9796770612563776e-07
112,122,1.0261605077835543e-08
112,143,2.1237002915564497e-07
112,147,1.3059582466925094e-06
112,153,9.158598564132257e-07
112,161,1.768036251573438e-07
112,171,1.0222009694231747e-08
112,207,1.7545223935112382e-07
112,211,1.09725733980753e-06
112,217,7.839865471117499e-07
112,225,1.566547061751087e-07
112,288,1.4828347928873436e-07
112,292,9.385040676323972e-07
112,298,6.792929652979357e-07
112,306,1.3894814317291261e-07
113,113,1.7255602270537524e-07
113,148,8.184652832382882e-07
113,154,7.30955048321445e-07
113,162,1.5408474742806396e-07
113,212,6.87781324807015e-07
113,218,6.2573035740855e-07
113,226,1.3653513204165973e-07
113,293,5.88341214564161e-07
113,299,5.421796119842389e-07
113,307,1.213456017461166e-07
114,114,1.3627818220828069e-07
114,155,4.634488237702564e-07
114,163,1.2181217812279563e-07
114,219,3.967914829008879e-07
114,227,1.0795076710538314e-07
114,300,3.4387117128239727e-07
114,308,9.576193778936901e-08
115,115,9.589531077230291e-08
115,164,8.566994266416873e-08
115,228,7.593665919043963e-08
115,309,6.729476872294946e-08
118,149,1.2753878252514778e-08
118,213,1.0907659684728919e-08
119,144,1.5812673930382328e-08
119,150,2.174138885052456e-08
119,208,1.3265480078834284e-08
119,214,1.8616782651732267e-08
119,289,1.1287797220034678e-08
119,295,1.6159941448119285e-08
120,145,2.643734714601875e-08
120,151,2.8143248002747135e-08
120,209,2.217684190093387e-08
120,215,2.4066895881911335e-08
120,290,1.8921871118128893e-08
120,296,2.0887038174531515e-08
121,146,3.0684808915552306e-08
121,152,3.0427246161748575e-08
121,210,2.5753238981294444e-08
121,216,2.609464183621925e-08
121,291,2.209276977234131e-08
121,297,2.2594381873569936e-08
122,147,2.643734714601872e-08
122,153,2.8143248002747132e-08
122,211,2.217684190093386e-08
122,217,2.4066895881911328e-08
122,292,1.892187111812888e-08
122,298,2.0887038174531512e-08
123,148,1.5812673930382322e-08
123,154,2.1741388850524566e-08
123,212,1.3265480078834292e-08
123,218,1.8616782651732267e-08
123,293,1.1287797220034678e-08
123,299,1.6159941448119285e-08
124,155,1.2753878252514781e-08
124,219,1.0907659684728922e-08
140,140,0.0006816156149522038
140,204,0.0005710289943258812
140,285,0.00048742914950468695
141,141,0.0008368157081146382
141,145,0.0001546165631861469
141,151,8.312466572289709e-06
141,159,1.9010899177116984e-07
141,205,0.0007007628160134854
141,209,0.0001304045436402913
141,215,7.131459911936692e-06
141,223,1.6875942536112478e-07
141,286,0.0005979945671278194
141,290,0.00011184269481172011
141,296,6.1893788729304e-06
141,304,1.4988470796746946e-07
142,142,0.0010237535283310027
142,146,0.0002023475940596732
142,152,1.1097111923253616e-05
142,160,2.551647420544666e-07
142,206,0.0008570829301287062
142,210,0.00017064862596151604
142,216,9.520313575702194e-06
142,224,2.2651372315820637e-07
142,287,0.0007312528730737685
142,291,0.00014635070613997045
142,297,8.262560697132932e-06
142,305,2.0118251282374419e-07
143,143,0.0008368157081146382
143,147,0.00015461656318614694
143,153,8.312466572289712e-06
143,161,1.9010899177116984e-07
143,207,0.0007007628160134854
143,211,0.00013040454364029132
143,217,7.131459911936694e-06
143,225,1.687594253611247e-07
143,288,0.0005979945671278194
143,292,0.00011184269481172015
143,298,6.1893788729304e-06
143,306,1.4988470796746914e-07
144,144,0.0001461737686818273
144,150,1.667877044930095e-05
144,158,7.315284046066383e-07
144,168,1.5763985513485468e-08
144,208,0.00012319198723459416
144,214,1.4296545187741516e-05
144,222,6.486212913965605e-07
144,232,1.4887846699930791e-08
144,289,0.00010560049144268099
144,295,1.2400152805490862e-05
144,303,5.755980775299037e-07
144,313,1.3760581863125646e-08
145,145,0.00019524442815396203
145,151,2.4969101551469695e-05
145,159,1.1671268952241085e-06
145,169,2.635476519625361e-08
145,205,0.0001291041447934024
145,209,0.00016450224822860428
145,215,2.1400229463797188e-05
145,223,1.0347817747613644e-06
145,233,2.4889240129240753e-08
145,286,0.00010994256600711042
145,290,0.00014098391985546883
145,296,1.855997942551894e-05
145,304,9.182394618699214e-07
145,314,2.3004190515766583e-08
146,146,0.00021726202329979124
146,152,2.819418199166238e-05
146,160,1.3363656293435786e-06
146,170,3.058883276337815e-08
146,206,0.00016889942192030213
146,210,0.00018303213924632486
146,216,2.4163163589821094e-05
146,224,1.1847979917817012e-06
146,234,2.890285294733122e-08
146,287,0.00014379487075387242
146,291,0.0001568518239505764
146,297,2.095559922049409e-05
146,305,1.0513397629856038e-06
146,315,2.6713778430151927e-08
147,147,0.00019524442815396206
147,153,2.49691015514697e-05
147,161,1.167126895224108e-06
147,171,2.635476519625362e-08
147,207,0.0001291041447934024
147,211,0.00016450224822860433
147,217,2.1400229463797198e-05
147,225,1.0347817747613642e-06
147,235,2.4889240129240746e-08
147,288,0.00010994256600711044
147,292,0.00014098391985546888
147,298,1.8559979425518942e-05
147,306,9.182394618699213e-07
147,316,2.300419051576657e-08
148,148,0.00014617376868182732
148,154,1.6678770449300948e-05
148,162,7.315284046066382e-07
148,172,1.5763985513485464e-08
148,212,0.00012319198723459416
148,218,1.4296545187741516e-05
148,226,6.486212913965604e-07
148,236,1.4887846699930785e-08
148,293,0.00010560049144268103
148,299,1.2400152805490862e-05
148,307,5.755980775299037e-07
148,317,1.3760581863125632e-08
149,149,5.7595852655541325e-06
149,157,4.1409699338048983e-07
149,167,1.2709892348561623e-08
149,213,4.935890058812689e-06
149,221,3.6708997063550297e-07
149,231,1.2000439884112227e-08
149,294,4.280505232929901e-06
149,302,3.2571412201598705e-07
149,312,1.108978000617461e-08
150,150,8.00801988533935e-06
150,158,6.530152224560276e-07
150,168,2.16668356527782e-08
150,208,1.4036637167783568e-05
150,214,6.861164049949116e-06
150,222,5.788605795086385e-07
150,232,2.0456368815333324e-08
150,289,1.2020069328399374e-05
150,295,5.949163993891536e-06
150,303,5.135070257456687e-07
150,313,1.8972858925652373e-08
151,151,9.714803208868178e-06
151,159,8.181644732497219e-07
151,169,2.8045180915719436e-08
151,205,6.9133670562548185e-06
151,209,2.100947982294296e-05
151,215,8.322437549929024e-06
151,223,7.251648480096396e-07
151,233,2.6479079424347195e-08
151,286,5.870505262702421e-06
151,290,1.798859167875402e-05
151,296,7.215506465357902e-06
151,304,6.43334047406752e-07
151,314,2.4524282644257808e-08
152,152,1.0367442019123082e-05
152,160,8.784106257380829e-07
152,170,3.0320860765103995e-08
152,206,9.22516945692702e-06
152,210,2.3721156275509235e-05
152,216,8.881104981747274e-06
152,224,7.785410078403396e-07
152,234,2.8653299276878455e-08
152,287,7.831041340212114e-06
152,291,2.0309271751196373e-05
152,297,7.699607389772303e-06
152,305,6.906816902572057e-07
152,315,2.6528369958134682e-08
153,153,9.714803208868178e-06
153,161,8.181644732497219e-07
153,171,2.804518091571943e-08
153,207,6.9133670562548185e-06
153,211,2.1009479822942973e-05
153,217,8.322437549929026e-06
153,225,7.251648480096396e-07
153,235,2.6479079424347192e-08
153,288,5.870505262702424e-06
153,292,1.7988591678754028e-05
153,298,7.215506465357903e-06
153,306,6.433340474067519e-07
153,316,2.4524282644257805e-08
154,154,8.008019885339345e-06
154,162,6.530152224560276e-07
154,172,2.1666835652778198e-08
154,212,1.4036637167783566e-05
154,218,6.861164049949115e-06
154,226,5.788605795086384e-07
154,236,2.0456368815333318e-08
154,293,1.2020069328399374e-05
154,299,5.949163993891535e-06
154,307,5.135070257456686e-07
154,317,1.897285892565237e-08
155,155,5.759585265554131e-06
155,163,4.1409699338048983e-07
155,173,1.2709892348561624e-08
155,219,4.935890058812688e-06
155,227,3.6708997063550297e-07
155,237,1.2000439884112227e-08
155,300,4.280505232929899e-06
155,308,3.2571412201598695e-07
155,318,1.108978000617461e-08
156,156,7.653529446326269e-08
156,220,6.776090653736027e-08
156,301,6.011791528859963e-08
157,157,1.0879173996534632e-07
157,213,3.545394329700207e-07
157,221,9.641233323960687e-08
157,294,3.0725526940781995e-07
157,302,8.55265520298115e-08
158,158,1.3786148610363192e-07
158,208,6.147297990786607e-07
158,214,5.59047384541631e-07
158,222,1.2215704079784737e-07
158,289,5.258541146838943e-07
158,295,4.84372270871089e-07
158,303,1.083535479059176e-07
159,159,1.5786170657107158e-07
159,205,1.5708810566483695e-07
159,209,9.806178398391142e-07
159,215,7.003259790676175e-07
159,223,1.3994374014191318e-07
159,286,1.3276643816658418e-07
159,290,8.387444979706024e-07
159,296,6.068065959719999e-07
159,304,1.2411157392368263e-07
160,160,1.6519508032252195e-07
160,206,2.1069808561934998e-07
160,210,1.1227373760702804e-06
160,216,7.518828959664155e-07
160,224,1.46366555122704e-07
160,287,1.779865922863342e-07
160,291,9.60256764364962e-07
160,297,6.514563186416565e-07
160,305,1.2982778936595833e-07
161,161,1.5786170657107153e-07
161,207,1.5708810566483663e-07
161,211,9.806178398391142e-07
161,217,7.003259790676172e-07
161,225,1.399437401419131e-07
161,288,1.3276643816658405e-07
161,292,8.387444979706022e-07
161,298,6.068065959719997e-07
161,306,1.241115739236826e-07
162,162,1.3786148610363192e-07
162,212,6.147297990786607e-07
162,218,5.590473845416309e-07
162,226,1.2215704079784737e-07
162,293,5.258541146838942e-07
162,299,4.843722708710889e-07
162,307,1.0835354790591757e-07
163,163,1.0879173996534629e-07
163,219,3.5453943297002065e-07
163,227,9.641233323960685e-08
163,300,3.072552694078199e-07
163,308,8.552655202981147e-08
164,164,7.653529446326269e-08
164,228,6.776090653736028e-08
164,309,6.011791528859964e-08
167,213,1.08700885644941e-08
168,208,1.3224741457190634e-08
168,214,1.8596980497643184e-08
168,289,1.125266383175009e-08
168,295,1.610353792537144e-08
169,209,2.2107741643442178e-08
169,215,2.4038377381809816e-08
169,290,1.886263866739305e-08
169,296,2.0813708294239383e-08
170,210,2.5672908645619452e-08
170,216,2.6002726397709345e-08
170,291,2.2024114790285015e-08
170,297,2.2514872696099077e-08
171,211,2.2107741643442188e-08
171,217,2.4038377381809813e-08
171,292,1.886263866739304e-08
171,298,2.0813708294239377e-08
172,212,1.3224741457190629e-08
172,218,1.8596980497643184e-08
172,293,1.1252663831750089e-08
172,299,1.6103537925371436e-08
173,219,1.0870088564494102e-08
204,204,0.00047838631883344133
204,285,0.0004083508739666341
205,205,0.0005868336662405128
205,209,0.00010888815098971175
205,215,5.93121811275401e-06
205,223,1.394502101514512e-07
205,286,0.0005007756256893847
205,290,9.338953243332682e-05
205,296,5.14774026346277e-06
205,304,1.2385568683837314e-07
206,206,0.000717552777462329
206,210,0.00014244171400748675
206,216,7.914472375009255e-06
206,224,1.8704516133876304e-07
206,287,0.0006122110175650076
206,291,0.00012216091405476204
206,297,6.868942924636968e-06
206,305,1.6613088389833391e-07
207,207,0.0005868336662405128
207,211,0.00010888815098971177
207,217,5.9312181127540115e-06
207,225,1.3945021015145086e-07
207,288,0.0005007756256893847
207,292,9.338953243332683e-05
207,298,5.147740263462771e-06
207,306,1.2385568683837296e-07
208,208,0.00010382388223886893
208,214,1.2031839411487307e-05
208,222,5.450624927587389e-07
208,232,1.2439960371596907e-08
208,289,8.899836686250482e-05
208,295,1.0435855406071857e-05
208,303,4.836997697918994e-07
208,313,1.1497032457500693e-08
209,209,0.0001386012499138125
209,215,1.80066479204746e-05
209,223,8.694260199559154e-07
209,233,2.08524324064908e-08
209,286,9.27275939471977e-05
209,290,0.00011878631587525249
209,296,1.5616874064254234e-05
209,304,7.715149712688268e-07
209,314,1.9272078763327415e-08
210,210,0.00015419602045375926
210,216,2.0329874777604003e-05
210,224,9.954038920431466e-07
210,234,2.4245372556458165e-08
210,287,0.00012127058934015019
210,291,0.00013214082357902707
210,297,1.7631128584411752e-05
210,305,8.832826001980724e-07
210,315,2.2501557523517795e-08
211,211,0.00013860124991381254
211,217,1.8006647920474603e-05
211,225,8.694260199559156e-07
211,235,2.0852432406490786e-08
211,288,9.272759394719772e-05
211,292,0.00011878631587525253
211,298,1.5616874064254237e-05
211,306,7.715149712688268e-07
211,316,1.9272078763327418e-08
212,212,0.00010382388223886894
212,218,1.2031839411487304e-05
212,226,5.45062492758739e-07
212,236,1.2439960371596894e-08
212,293,8.899836686250486e-05
212,299,1.0435855406071857e-05
212,307,4.836997697918995e-07
212,317,1.1497032457500703e-08
213,213,4.23000648215248e-06
213,221,3.1429415028652473e-07
213,231,1.0263362731684674e-08
213,294,3.668356287429023e-06
213,302,2.7886934497759647e-07
214,214,5.878597301565554e-06
214,222,4.954679566077034e-07
214,232,1.755837700382946e-08
214,289,1.0303292174524972e-05
214,295,5.097214323422858e-06
214,303,4.396299291154431e-07
214,313,1.622559287860793e-08
215,215,7.129647330934413e-06
215,223,6.207064091800967e-07
215,233,2.269556068428255e-08
215,286,5.036558707365459e-06
215,290,1.541760490389437e-05
215,296,6.181379994697978e-06
215,304,5.506769776125455e-07
215,314,2.09713503804933e-08
216,216,7.607886093271218e-06
216,224,6.663787348552875e-07
216,234,2.4550040759057853e-08
216,287,6.71849038398045e-06
216,291,1.740573275652374e-05
216,297,6.595773747717189e-06
216,305,5.911870802128319e-07
216,315,2.2685356512075292e-08
217,217,7.129647330934413e-06
217,225,6.207064091800967e-07
217,235,2.2695560684282543e-08
217,288,5.036558707365461e-06
217,292,1.5417604903894378e-05
217,298,6.181379994697979e-06
217,306,5.506769776125455e-07
217,316,2.0971350380493293e-08
218,218,5.878597301565553e-06
218,226,4.954679566077032e-07
218,236,1.755837700382946e-08
218,293,1.0303292174524972e-05
218,299,5.097214323422857e-06
218,307,4.396299291154431e-07
218,317,1.6225592878607935e-08
219,219,4.230006482152478e-06
219,227,3.1429415028652473e-07
219,237,1.0263362731684672e-08
219,300,3.6683562874290216e-06
219,308,2.788693449775964e-07
220,220,6.00614284317461e-08
220,301,5.324031522550295e-08
221,221,8.544180073007995e-08
221,294,2.723776702766817e-07
221,302,7.579482791873133e-08
222,222,1.0824185954754189e-07
222,289,4.6626064421806853e-07
222,295,4.2938341259420985e-07
222,303,9.60109420970738e-08
223,223,1.2398159350108294e-07
223,286,1.1786145517359508e-07
223,290,7.436474743054698e-07
223,296,5.37832689030272e-07
223,304,1.0996756008187567e-07
224,224,1.2969123181857768e-07
224,287,1.580085624901332e-07
224,291,8.513443632416375e-07
224,297,5.773943853588317e-07
224,305,1.1503049791746278e-07
225,225,1.2398159350108294e-07
225,288,1.1786145517359502e-07
225,292,7.436474743054698e-07
225,298,5.37832689030272e-07
225,306,1.0996756008187562e-07
226,226,1.0824185954754189e-07
226,293,4.6626064421806853e-07
226,299,4.2938341259420975e-07
226,307,9.601094209707377e-08
227,227,8.544180073007995e-08
227,300,2.7237767027668164e-07
227,308,7.579482791873131e-08
228,228,6.006142843174613e-08
228,309,5.324031522550296e-08
232,289,1.0627014139745106e-08
232,295,1.5238358133069186e-08
233,290,1.7813329659669906e-08
233,296,1.96510722163316e-08
234,291,2.079942246310914e-08
234,297,2.1257091687774182e-08
235,292,1.7813329659669886e-08
235,298,1.96510722163316e-08
236,293,1.062701413974511e-08
236,299,1.523835813306919e-08
285,285,0.00034856937619397784
286,286,0.000427339219944565
286,290,7.95295443792245e-05
286,296,4.3712595234157015e-06
286,304,1.0468198180577357e-07
287,287,0.0005223363570258926
287,291,0.00010400465104307355
287,297,5.830997967320856e-06
287,305,1.4034291006824906e-07
288,288,0.000427339219944565
288,292,7.952954437922451e-05
288,298,4.371259523415702e-06
288,306,1.046819818057735e-07
289,289,7.629001672631822e-05
289,295,8.936640105354378e-06
289,303,4.137705915197843e-07
290,290,0.00010180444293813829
290,296,1.3371449547636934e-05
290,304,6.598981595312444e-07
290,314,1.6464135132975108e-08
291,291,0.00011324056199438985
291,297,1.5095089229532551e-05
291,305,7.554557000341288e-07
291,315,1.9224276327878678e-08
292,292,0.00010180444293813832
292,298,1.3371449547636934e-05
292,306,6.598981595312444e-07
292,316,1.6464135132975098e-08
293,293,7.629001672631825e-05
293,299,8.93664010535438e-06
293,307,4.137705915197843e-07
294,294,3.1812855005487764e-06
294,302,2.4167803300698547e-07
295,295,4.419701737932402e-06
295,303,3.8095856970155386e-07
295,313,1.4081396394205027e-08
296,296,5.359245332482575e-06
296,304,4.771982690182605e-07
296,314,1.8157925017871583e-08
297,297,5.718329661777536e-06
297,305,5.122442030844202e-07
297,315,1.9643308576389987e-08
298,298,5.359245332482575e-06
298,306,4.771982690182603e-07
298,316,1.815792501787158e-08
299,299,4.4197017379324e-06
299,307,3.8095856970155386e-07
299,317,1.4081396394205029e-08
300,300,3.181285500548775e-06
300,308,2.416780330069854e-07
301,301,4.723481507260332e-08
302,302,6.723569430605902e-08
303,303,8.51598384828681e-08
304,304,9.753654902010783e-08
305,305,1.0202551845021379e-07
306,306,9.753654902010782e-08
307,307,8.51598384828681e-08
308,308,6.7235694306059e-08
309,309,4.723481507260333e-08
