# Basis size = 385
0,0,0.023602083580116093
0,3,0.024947511692172533
0,7,0.011482320902453921
0,11,0.005769367150966763
0,16,0.007001848716971248
0,20,0.004173565552197045
0,26,0.0006007813456910959
0,32,0.004862452011349696
0,36,0.00309765066890002
0,42,0.0005411492565304139
0,50,3.632467980626771e-05
0,57,0.003638706227120576
0,61,0.0023974826685248625
0,67,0.00045423929208575483
0,75,3.7915243173584356e-05
0,85,1.45096858133905e-06
0,93,0.0028588893148928044
0,97,0.0019209431289727655
0,103,0.00038012879852079287
0,111,3.495566617949606e-05
0,121,1.6943141466838246e-06
0,133,4.1500109121865296e-08
0,142,0.0023248173700246002
0,146,0.001581653795346907
0,152,0.00032136808792794795
0,160,3.1198270805872615e-05
0,170,1.6871315395041522e-06
0,182,5.294741783068128e-08
0,206,0.001939641569797111
0,210,0.0013307582916577618
0,216,0.0002751309686174921
0,224,2.7635471190624132e-05
0,234,1.5920689089489524e-06
0,246,5.6308473159215915e-08
0,287,0.0016508066649908882
0,291,0.0011393673989060337
0,297,0.00023842734483114575
0,305,2.450710434176821e-05
0,315,1.470681881895662e-06
0,327,5.583424679951425e-08
1,1,0.02392678513720485
1,5,0.01029953998213883
1,14,0.006070956838480037
1,30,0.004141787568708899
1,55,0.0030679038639054453
1,91,0.0023951297051275936
1,140,0.0019395075164778304
1,204,0.0016134430926110232
1,285,0.0013702864121014925
2,2,0.010924813902464817
2,6,0.004265874240278113
2,10,0.0061505831408586245
2,15,0.0024354455829217574
2,19,0.004323608873896129
2,25,0.0011737339450080802
2,31,0.0016375369754796562
2,35,0.0031660403240312126
2,41,0.001047189329324561
2,49,0.00011403755772536243
2,56,0.0012034629256368172
2,60,0.0024323917709703122
2,66,0.000874443386128098
2,74,0.00011853466797042051
2,84,6.77602970840696e-06
2,92,0.0009351211370204846
2,96,0.0019402186933541688
2,102,0.0007294763253871502
2,110,0.00010900627789178873
2,120,7.895378145474528e-06
2,132,2.7317962634289496e-07
2,141,0.0007549188134892195
2,145,0.001592882332381505
2,151,0.0006154530117481952
2,159,9.712981558838983e-05
2,169,7.850956130587137e-06
2,181,3.489496016511914e-07
2,205,0.0006266878945088354
2,209,0.0013375292372189243
2,215,0.0005261650954926153
2,223,8.594102704054157e-05
2,233,7.401614106271582e-06
2,245,3.708023023564802e-07
2,259,1.0061802081986897e-08
2,286,0.0005314441425719288
2,290,0.00114352611318393
2,296,0.00045551458032169924
2,304,7.615110011467006e-05
2,314,6.832603351004507e-06
2,326,3.674521577285897e-07
2,340,1.133171819186987e-08
3,3,0.07701641111057765
3,7,0.02614400825945424
3,11,0.031001654703392695
3,16,0.013964891340691133
3,20,0.021443256990373714
3,26,0.004840573707592159
3,32,0.009062779874718728
3,36,0.015581078113963559
3,42,0.004299818383022572
3,50,0.00040900693666549756
3,57,0.006523780340040181
3,61,0.011919454168742957
3,67,0.003581905878258153
3,75,0.0004244395230386341
3,85,2.1891843561889382e-05
3,93,0.005003369638878042
3,97,0.009482921818471768
3,103,0.00298374657100239
3,111,0.0003899339505501558
3,121,2.5489285975955396e-05
3,133,8.136281879022705e-07
3,142,0.004004143537311621
3,146,0.0077720650706983915
3,152,0.0025149788926650866
3,160,0.0003472257097224375
3,170,2.5333705204296447e-05
3,182,1.038902661252186e-06
3,196,2.2568005523969375e-08
3,206,0.003303818870503211
3,210,0.006518497252681024
3,216,0.0021487155002224926
3,224,0.0003070912743451784
3,234,2.387596034113289e-05
3,246,1.103678016407536e-06
3,260,3.113260410552469e-08
3,287,0.0027893673610265377
3,291,0.0055683369775220305
3,297,0.0018593312038370112
3,305,0.00027202284249597253
3,315,2.203525951188978e-05
3,327,1.0935042394802783e-06
3,341,3.505111514704338e-08
4,4,0.010924813902464817
4,8,0.004265874240278113
4,12,0.006150583140858626
4,17,0.0024354455829217574
4,21,0.004323608873896129
4,27,0.00117373394500808
4,33,0.0016375369754796562
4,37,0.0031660403240312135
4,43,0.001047189329324561
4,51,0.00011403755772536243
4,58,0.0012034629256368172
4,62,0.002432391770970313
4,68,0.0008744433861280982
4,76,0.00011853466797042051
4,86,6.7760297084069584e-06
4,94,0.0009351211370204846
4,98,0.0019402186933541693
4,104,0.0007294763253871502
4,112,0.00010900627789178872
4,122,7.895378145474528e-06
4,134,2.731796263428949e-07
4,143,0.0007549188134892195
4,147,0.001592882332381505
4,153,0.0006154530117481952
4,161,9.712981558838983e-05
4,171,7.850956130587135e-06
4,183,3.489496016511914e-07
4,207,0.0006266878945088354
4,211,0.0013375292372189243
4,217,0.0005261650954926153
4,225,8.594102704054157e-05
4,235,7.401614106271582e-06
4,247,3.708023023564802e-07
4,261,1.0061802081986897e-08
4,288,0.0005314441425719288
4,292,0.0011435261131839303
4,298,0.00045551458032169924
4,306,7.615110011467006e-05
4,316,6.832603351004506e-06
4,328,3.674521577285897e-07
4,342,1.133171819186987e-08
5,5,0.004878114443182795
5,14,0.002980067225985047
5,30,0.0020682329221023772
5,55,0.0015465833288230944
5,91,0.0012144312825827384
5,140,0.0009871377915728348
5,204,0.0008233253775153214
5,285,0.000700553623341292
6,6,0.0019334729376288187
6,10,0.0018231676286026746
6,15,0.001166245846658672
6,19,0.0013341868283479141
6,25,0.00024396243692537071
6,31,0.0008049892165780674
6,35,0.0009949642261619606
6,41,0.00022250185082209694
6,49,1.3625100715735948e-05
6,56,0.0006002354332248202
6,60,0.0007719460101604517
6,66,0.00018799557075146477
6,74,1.443301358517185e-05
6,84,1.979412826020588e-07
6,92,0.00047053077154311215
6,96,0.0006193852446743184
6,102,0.00015793535175550566
6,110,1.342283756203431e-05
6,120,2.4096294484774577e-07
6,141,0.00038205270550107593
6,145,0.0005104439199750797
6,151,0.00013385457212764404
6,159,1.2047140788570994e-05
6,169,2.462685149483587e-07
6,205,0.0003184181381687335
6,209,0.00042973363727270673
6,215,0.00011479056208023705
6,223,1.0712000177536198e-05
6,233,2.364783625373475e-07
6,286,0.0002707951450221964
6,290,0.00036808700905078666
6,296,9.959709567514443e-05
6,304,9.52511071807872e-06
6,314,2.211408255842641e-07
7,7,0.011339063900551623
7,11,0.0075762494278035705
7,16,0.0066855225213259374
7,20,0.005559100730666977
7,26,0.0007548533361359229
7,32,0.004559189269692606
7,36,0.004148514899604511
7,42,0.0006936194189704254
7,50,2.7823837235150065e-05
7,57,0.003375790610184151
7,61,0.0032193838395267295
7,67,0.0005882808277211726
7,75,2.9968715976318528e-05
7,93,0.002634739842409384
7,97,0.002583372867911815
7,103,0.0004953093984957256
7,111,2.813911834624483e-05
7,142,0.002133087224472117
7,146,0.0021290821788146224
7,152,0.0004203775280864506
7,160,2.5407881046438174e-05
7,206,0.001774202547467726
7,210,0.0017924726529843782
7,216,0.00036084752510439673
7,224,2.2683790932902675e-05
7,287,0.0015066420857148947
7,291,0.001535352719919509
7,297,0.0003132963152629403
7,305,2.022818600078534e-05
8,8,0.0019334729376288187
8,12,0.0018231676286026746
8,17,0.001166245846658672
8,21,0.0013341868283479141
8,27,0.00024396243692537074
8,33,0.0008049892165780674
8,37,0.0009949642261619608
8,43,0.00022250185082209694
8,51,1.3625100715735945e-05
8,58,0.0006002354332248202
8,62,0.0007719460101604517
8,68,0.00018799557075146477
8,76,1.4433013585171845e-05
8,86,1.9794128260205877e-07
8,94,0.00047053077154311215
8,98,0.0006193852446743185
8,104,0.00015793535175550566
8,112,1.3422837562034307e-05
8,122,2.4096294484774577e-07
8,143,0.00038205270550107593
8,147,0.0005104439199750797
8,153,0.00013385457212764404
8,161,1.204714078857099e-05
8,171,2.4626851494835863e-07
8,207,0.0003184181381687335
8,211,0.00042973363727270673
8,217,0.00011479056208023708
8,225,1.0712000177536195e-05
8,235,2.3647836253734748e-07
8,288,0.0002707951450221964
8,292,0.0003680870090507868
8,298,9.959709567514443e-05
8,306,9.525110718078719e-06
8,316,2.2114082558426399e-07
9,9,0.0005939915689120595
9,18,0.0004125504031426407
9,24,0.00019515571088368303
9,34,0.00030037371722510265
9,40,0.0001734494032412678
9,48,2.7328335881560293e-05
9,59,0.00023004438688349702
9,65,0.00014453385957926887
9,73,2.8359557400674446e-05
9,83,2.158019704720174e-06
9,95,0.00018314634305020199
9,101,0.0001204199732682887
9,109,2.6054087179154458e-05
9,119,2.512464732516091e-06
9,131,1.099934830355634e-07
9,144,0.00015017226416279308
9,150,0.0001015135680118105
9,158,2.32005138596868e-05
9,168,2.4969863013731482e-06
9,180,1.4043455330816818e-07
9,208,0.0001259902420993783
9,214,8.673718499310943e-05
9,222,2.0518892446374382e-05
9,232,2.353308917954694e-06
9,244,1.491807857716267e-07
9,289,0.00010764968272042017
9,295,7.506016070263668e-05
9,303,1.8175754960512022e-05
9,313,2.171821176243573e-06
9,325,1.4779866479901397e-07
10,10,0.004868002515365127
10,15,0.0009039436358629872
10,19,0.0033157979092264954
10,25,0.0011784227714459884
10,31,0.0005617940756954649
10,35,0.0023915947642432875
10,41,0.0010420115998538712
10,49,0.00013873068496107928
10,56,0.00039376304807592556
10,60,0.0018220912192361092
10,66,0.0008658653140196092
10,74,0.0001436947214393313
10,84,9.72575155627376e-06
10,92,0.00029679694073723247
10,96,0.0014460150682584182
10,102,0.0007201778618901878
10,110,0.00013186270799362594
10,120,1.1313508237830827e-05
10,132,4.542578052210037e-07
10,141,0.00023472767995143763
10,145,0.0011832027412794419
10,151,0.0006064339773286361
10,159,0.00011733339011400952
10,169,1.1237650797734866e-05
10,181,5.798500358073011e-07
10,195,1.4745373954632114e-08
10,205,0.00019205423226672938
10,209,0.0009912486563548773
10,215,0.0005177660730572738
10,223,0.00010371860715740546
10,233,1.0586598364815517e-05
10,245,6.157854655381137e-07
10,259,2.0406412709882127e-08
10,286,0.00016115396787229602
10,290,0.0008460785844580612
10,296,0.0004478168773683242
10,304,9.184101584146088e-05
10,314,9.767536322263911e-06
10,326,6.099545327432293e-07
10,340,2.2969380183012027e-08
11,11,0.016724647573693376
11,16,0.0032845503777734256
11,20,0.011205955690982077
11,26,0.003256556452010242
11,32,0.0018628682484299734
11,36,0.008017991428308682
11,42,0.002867402449045224
11,50,0.0003317620280453703
11,57,0.0012262767715745795
11,61,0.0060814293151188045
11,67,0.002377135983035626
11,75,0.00034310561128226126
11,85,2.097020425653248e-05
11,93,0.0008845819171485443
11,97,0.0048130369628892125
11,103,0.00197437104526425
11,111,0.0003145611427230262
11,121,2.4377245329687274e-05
11,133,9.066976269091602e-07
11,142,0.0006778864600737441
11,146,0.003931210730343913
11,152,0.0016610085323146594
11,160,0.0002797317780427362
11,170,2.420327173641203e-05
11,182,1.1567584999183823e-06
11,196,2.911352496139733e-08
11,206,0.0005419394355540705
11,210,0.0032893653666608703
11,216,0.0014172499220181226
11,224,0.0002471703414215502
11,234,2.2794229620606223e-05
11,246,1.2281666427643438e-06
11,260,3.9820686313816504e-08
11,287,0.00044688085930499557
11,291,0.002805135852590071
11,297,0.0012252250283161638
11,305,0.00021879989653850534
11,315,2.1026181530910453e-05
11,327,1.21633825106727e-06
11,341,4.4811070537039217e-08
12,12,0.00486800251536513
12,17,0.0009039436358629872
12,21,0.003315797909226497
12,27,0.0011784227714459886
12,33,0.0005617940756954649
12,37,0.002391594764243288
12,43,0.0010420115998538717
12,51,0.00013873068496107928
12,58,0.00039376304807592566
12,62,0.0018220912192361098
12,68,0.0008658653140196093
12,76,0.00014369472143933127
12,86,9.72575155627376e-06
12,94,0.0002967969407372326
12,98,0.0014460150682584188
12,104,0.000720177861890188
12,112,0.00013186270799362594
12,122,1.1313508237830827e-05
12,134,4.5425780522100384e-07
12,143,0.00023472767995143763
12,147,0.0011832027412794423
12,153,0.0006064339773286364
12,161,0.00011733339011400952
12,171,1.1237650797734866e-05
12,183,5.798500358073013e-07
12,197,1.4745373954632117e-08
12,207,0.00019205423226672938
12,211,0.0009912486563548773
12,217,0.0005177660730572739
12,225,0.00010371860715740546
12,235,1.0586598364815517e-05
12,247,6.157854655381137e-07
12,261,2.0406412709882127e-08
12,288,0.00016115396787229602
12,292,0.0008460785844580614
12,298,0.0004478168773683242
12,306,9.184101584146086e-05
12,316,9.767536322263908e-06
12,328,6.099545327432295e-07
12,342,2.2969380183012027e-08
13,13,0.0005939915689120596
13,22,0.0004125504031426408
13,28,0.00019515571088368303
13,38,0.00030037371722510265
13,44,0.0001734494032412678
13,52,2.73283358815603e-05
13,63,0.00023004438688349708
13,69,0.00014453385957926887
13,77,2.8359557400674452e-05
13,87,2.1580197047201748e-06
13,99,0.00018314634305020199
13,105,0.00012041997326828868
13,113,2.6054087179154458e-05
13,123,2.5124647325160917e-06
13,135,1.0999348303556342e-07
13,148,0.00015017226416279313
13,154,0.0001015135680118105
13,162,2.32005138596868e-05
13,172,2.4969863013731482e-06
13,184,1.4043455330816818e-07
13,212,0.00012599024209937834
13,218,8.673718499310943e-05
13,226,2.0518892446374385e-05
13,236,2.353308917954694e-06
13,248,1.4918078577162677e-07
13,293,0.00010764968272042021
13,299,7.50601607026367e-05
13,307,1.8175754960512022e-05
13,317,2.1718211762435735e-06
13,329,1.4779866479901397e-07
14,14,0.001843510881713757
14,30,0.0012869464348961455
14,55,0.0009654341810017067
14,91,0.0007595606603674393
14,140,0.0006181785809733309
14,204,0.0005160397124789517
14,285,0.00043936137557325396
15,15,0.0007164209893570904
15,19,0.000676387888308408
15,25,9.10577050668662e-05
15,31,0.0004986501650960011
15,35,0.0005093438031230987
15,41,8.490110923535067e-05
15,49,1.1793201799526068e-06
15,56,0.00037350048167327995
15,60,0.0003972137145369251
15,66,7.255931055480996e-05
15,74,1.4243922426290718e-06
15,92,0.00029358891670676297
15,96,0.0003196870985592854
15,102,6.136828944712425e-05
15,110,1.4200418499849905e-06
15,141,0.00023880398578559806
15,145,0.00026397675902354044
15,151,5.22351199385369e-05
15,159,1.329045854792829e-06
15,205,0.0001992698628303464
15,209,0.0002225351329869136
15,215,4.492623946283769e-05
15,223,1.2146086765460888e-06
15,286,0.00016961350259888156
15,290,0.00019079368217398053
15,296,3.906056314462127e-05
15,304,1.1007541279850244e-06
16,16,0.004071912137789376
16,20,0.002515658716206783
16,26,0.00018353013780974934
16,32,0.002818757423505942
16,36,0.0019116864204026514
16,42,0.0001801703164176838
16,57,0.0021042131127812017
16,61,0.0014976187520555498
16,67,0.0001578756536680241
16,93,0.0016504217077883657
16,97,0.001208466643380938
16,103,0.00013543115317695656
16,142,0.0013404781298034395
16,146,0.0009995128035804029
16,152,0.00011630135569466807
16,206,0.001117407492126342
16,210,0.0008435296695911261
16,216,0.000100623051055044
16,287,0.0009503948142938578
16,291,0.0007237751068906058
16,297,8.785111830307882e-05
17,17,0.0007164209893570904
17,21,0.0006763878883084081
17,27,9.105770506686623e-05
17,33,0.0004986501650960011
17,37,0.0005093438031230987
17,43,8.490110923535067e-05
17,51,1.1793201799526066e-06
17,58,0.00037350048167327995
17,62,0.00039721371453692517
17,68,7.255931055480996e-05
17,76,1.4243922426290714e-06
17,94,0.00029358891670676297
17,98,0.00031968709855928544
17,104,6.136828944712425e-05
17,112,1.4200418499849905e-06
17,143,0.00023880398578559806
17,147,0.0002639767590235405
17,153,5.223511993853688e-05
17,161,1.3290458547928277e-06
17,207,0.0001992698628303464
17,211,0.0002225351329869137
17,217,4.492623946283769e-05
17,225,1.2146086765460884e-06
17,288,0.00016961350259888156
17,292,0.00019079368217398053
17,298,3.906056314462127e-05
17,306,1.1007541279850244e-06
18,18,0.0002878146778188884
18,24,0.00013161668776354526
18,34,0.00020999478698233452
18,40,0.00011716964590430044
18,48,1.7905084556938564e-05
18,59,0.0001610113807979095
18,65,9.772365602084325e-05
18,73,1.859551319867703e-05
18,83,1.3730181895007094e-06
18,95,0.00012827586652262326
18,101,8.146345264575618e-05
18,109,1.7092006449822737e-05
18,119,1.5992267332582597e-06
18,131,6.747669736654812e-08
18,144,0.00010522836422489128
18,150,6.869741759251288e-05
18,158,1.5224744974828657e-05
18,168,1.5898402461838956e-06
18,180,8.617787254838479e-08
18,208,8.831101712945908e-05
18,214,5.8711866690209286e-05
18,222,1.3467884951111331e-05
18,232,1.4985964490725861e-06
18,244,9.209711483658531e-08
18,289,7.547225742919054e-05
18,295,5.081649072035375e-05
18,303,1.193175524019077e-05
18,313,1.383224852417517e-06
18,325,9.125683881277673e-08
19,19,0.0022708754388214855
19,25,0.0007798284227652766
19,31,0.0004259400606115171
19,35,0.0016421665603812221
19,41,0.000690872723385625
19,49,8.922722242951043e-05
19,56,0.00030100791029589725
19,60,0.0012529063290158376
19,66,0.0005746813503063891
19,74,9.250326229921547e-05
19,84,6.076289362757145e-06
19,92,0.00022811284835929047
19,96,0.0009951701074613533
19,102,0.0004782877161132866
19,110,8.493259139317543e-05
19,120,7.071803075475921e-06
19,132,2.7533236480176165e-07
19,141,0.00018107828913507186
19,145,0.0008147584990568776
19,151,0.0004029120199789349
19,159,7.560095213200981e-05
19,169,7.026690799637229e-06
19,181,3.5151507457519216e-07
19,205,0.00014855062044620638
19,209,0.0006828432434855788
19,215,0.0003440978284456511
19,223,6.68447764824086e-05
19,233,6.621083040777511e-06
19,245,3.7337894761531985e-07
19,259,1.0755159801373544e-08
19,286,0.00012489240619483066
19,290,0.00058300198238818
19,296,0.0002976705396692531
19,304,5.920013651118567e-05
19,314,6.109802134379917e-06
19,326,3.6989950351490815e-07
19,340,1.2108841262927631e-08
20,20,0.0075566381425947364
20,26,0.0021206968977254548
20,32,0.0014715181836183146
20,36,0.005423524903227514
20,42,0.001871309601275519
20,50,0.00021009542099562843
20,57,0.0009902848868510955
20,61,0.004120605082490199
20,67,0.0015531835114148173
20,75,0.00021749632260534608
20,85,1.2907162924753352e-05
20,93,0.000725812045569168
20,97,0.0032645629950276743
20,103,0.0012909429610662077
20,111,0.00019952222924709233
20,121,1.5012452879087218e-05
20,133,5.418298139408142e-07
20,142,0.000562744230728778
20,146,0.002668250307527853
20,152,0.0010865543048198406
20,160,0.000177499949935995
20,170,1.491063644727277e-05
20,182,6.914973902646414e-07
20,196,1.6657889754050505e-08
20,206,0.00045382724089565945
20,210,0.002233649913308337
20,216,0.000927393831708425
20,224,0.00015688070896438644
20,234,1.4046022265174942e-05
20,246,7.343552678541078e-07
20,260,2.3828519502793265e-08
20,287,0.00037671594230954887
20,291,0.0019054711392227197
20,297,0.0008019227939873787
20,305,0.0001389005194376832
20,315,1.2958803508089229e-05
20,327,7.274038129813228e-07
20,341,2.6821937039459417e-08
21,21,0.0022708754388214864
21,27,0.0007798284227652767
21,33,0.0004259400606115171
21,37,0.0016421665603812224
21,43,0.000690872723385625
21,51,8.92272224295104e-05
21,58,0.00030100791029589725
21,62,0.0012529063290158376
21,68,0.0005746813503063891
21,76,9.250326229921546e-05
21,86,6.076289362757143e-06
21,94,0.00022811284835929047
21,98,0.0009951701074613533
21,104,0.0004782877161132866
21,112,8.493259139317543e-05
21,122,7.07180307547592e-06
21,134,2.7533236480176165e-07
21,143,0.0001810782891350719
21,147,0.0008147584990568776
21,153,0.0004029120199789349
21,161,7.56009521320098e-05
21,171,7.026690799637229e-06
21,183,3.5151507457519216e-07
21,207,0.00014855062044620638
21,211,0.0006828432434855791
21,217,0.00034409782844565113
21,225,6.684477648240858e-05
21,235,6.621083040777512e-06
21,247,3.7337894761531985e-07
21,261,1.0755159801373544e-08
21,288,0.00012489240619483066
21,292,0.0005830019823881801
21,298,0.00029767053966925323
21,306,5.920013651118567e-05
21,316,6.109802134379917e-06
21,328,3.6989950351490815e-07
21,342,1.2108841262927636e-08
22,22,0.00028781467781888853
22,28,0.00013161668776354526
22,38,0.00020999478698233452
22,44,0.00011716964590430044
22,52,1.7905084556938568e-05
22,63,0.00016101138079790953
22,69,9.772365602084325e-05
22,77,1.859551319867703e-05
22,87,1.3730181895007094e-06
22,99,0.00012827586652262334
22,105,8.146345264575617e-05
22,113,1.709200644982274e-05
22,123,1.59922673325826e-06
22,135,6.747669736654814e-08
22,148,0.0001052283642248913
22,154,6.869741759251288e-05
22,162,1.5224744974828657e-05
22,172,1.589840246183896e-06
22,184,8.617787254838479e-08
22,212,8.831101712945911e-05
22,218,5.871186669020927e-05
22,226,1.3467884951111333e-05
22,236,1.4985964490725868e-06
22,248,9.209711483658534e-08
22,293,7.547225742919057e-05
22,299,5.081649072035375e-05
22,307,1.1931755240190771e-05
22,317,1.3832248524175172e-06
22,329,9.125683881277674e-08
23,23,8.995138051900394e-06
23,39,7.978275274105663e-06
23,47,1.99361268019355e-06
23,64,6.640765937347744e-06
23,72,2.067044876493128e-06
23,82,2.1264602973607386e-07
23,100,5.52906956545678e-06
23,108,1.8980086704530961e-06
23,118,2.474609785044672e-07
23,130,1.2570431154842683e-08
23,149,4.658917280946232e-06
23,157,1.6895479652952847e-06
23,167,2.4586696829204296e-07
23,179,1.6049234860109222e-08
23,213,3.979553527315505e-06
23,221,1.4935226377427122e-06
23,231,2.3166462944425566e-07
23,243,1.704872946378005e-08
23,294,3.4430510942901024e-06
23,302,1.3227499805913672e-06
23,312,2.1376895874454333e-07
23,324,1.6890758695541208e-08
24,24,7.89525821997484e-05
24,34,9.447529165690881e-05
24,40,6.961983467342121e-05
24,48,1.3036629590014022e-05
24,59,7.17853304552992e-05
24,65,5.776290492608453e-05
24,73,1.3488210001336431e-05
24,83,1.184057247623946e-06
24,95,5.6875591519449606e-05
24,101,4.7999520510117097e-05
24,109,1.2369308229736605e-05
24,119,1.3766214080451814e-06
24,131,6.71942841943768e-08
24,144,4.648852099069682e-05
24,150,4.0394199209704735e-05
24,158,1.1001610201067413e-05
24,168,1.3669194002611642e-06
24,180,8.716761511016707e-08
24,208,3.8917721029641646e-05
24,214,3.4473784504703414e-05
24,222,9.722136771264928e-06
24,232,1.28742070422789e-06
24,244,9.255067245882972e-08
24,289,3.3200476768139224e-05
24,295,2.9807594924884534e-05
24,303,8.606936892390747e-06
24,313,1.1876135062829737e-06
24,325,9.166080853132885e-08
25,25,0.00034076623438820616
25,31,4.5346475765464835e-05
25,35,0.0005545777371095172
25,41,0.0002990104856700774
25,49,4.658952475598712e-05
25,56,2.6792690177234107e-05
25,60,0.000419194317449669
25,66,0.00024741475679787724
25,74,4.8116398328261364e-05
25,84,3.728084484620998e-06
25,92,1.7702152033334233e-05
25,96,0.00033106695591978444
25,102,0.00020525712107226983
25,110,4.407670614795492e-05
25,120,4.330926842504419e-06
25,132,1.9705041959620224e-07
25,141,1.2639198954992174e-05
25,145,0.0002700371565290217
25,151,0.00017254954650481382
25,159,3.917515481087057e-05
25,169,4.298171563121802e-06
25,181,2.5069240072535926e-07
25,205,9.544992528524465e-06
25,209,0.0002257330703611133
25,215,0.00014715096653069554
25,223,3.4602260007931653e-05
25,233,4.046751391497746e-06
25,245,2.661010862953973e-07
25,286,7.516591900294849e-06
25,290,0.00019237079998462146
25,296,0.00012716600765369854
25,304,3.06222928148502e-05
25,314,3.7320747104702826e-06
25,326,2.634907094069334e-07
25,340,1.0242923505909702e-08
26,26,0.0007549620464071892
26,32,4.295976876506078e-05
26,36,0.0014961682246493596
26,42,0.0006598569512321462
26,50,8.961008921478498e-05
26,61,0.0011258597184750322
26,67,0.0005448146686422198
26,75,9.241988650810068e-05
26,85,6.5064391545933834e-06
26,97,0.00088671623628562
26,103,0.0004513876486324261
26,111,8.459022038435499e-05
26,121,7.55416230456925e-06
26,133,3.1960034843204167e-07
26,146,0.0007219433437697584
26,152,0.0003791335209820714
26,160,7.514265648660804e-05
26,170,7.4941991290543735e-06
26,182,4.0755699007061197e-07
26,196,1.1123040520407576e-08
26,210,0.000602738407850181
26,216,0.0003231355931651452
26,224,6.634649756882211e-05
26,234,7.0539996941743555e-06
26,246,4.325272194644469e-07
26,260,1.5438340250068374e-08
26,291,0.0005131920304935264
26,297,0.0002791313469946661
26,305,5.869989310491894e-05
26,315,6.5042712746241704e-06
26,327,4.2822770117784017e-07
26,341,1.7596384803884223e-08
27,27,0.0003407662343882062
27,33,4.5346475765464835e-05
27,37,0.0005545777371095173
27,43,0.0002990104856700774
27,51,4.658952475598712e-05
27,58,2.6792690177234107e-05
27,62,0.000419194317449669
27,68,0.0002474147567978773
27,76,4.8116398328261364e-05
27,86,3.728084484620997e-06
27,94,1.7702152033334233e-05
27,98,0.00033106695591978444
27,104,0.0002052571210722699
27,112,4.4076706147954905e-05
27,122,4.330926842504419e-06
27,134,1.9705041959620224e-07
27,143,1.2639198954992174e-05
27,147,0.0002700371565290218
27,153,0.00017254954650481382
27,161,3.917515481087056e-05
27,171,4.298171563121802e-06
27,183,2.5069240072535926e-07
27,207,9.544992528524465e-06
27,211,0.0002257330703611133
27,217,0.00014715096653069554
27,225,3.460226000793165e-05
27,235,4.046751391497746e-06
27,247,2.661010862953973e-07
27,288,7.516591900294849e-06
27,292,0.0001923707999846215
27,298,0.00012716600765369854
27,306,3.06222928148502e-05
27,316,3.7320747104702826e-06
27,328,2.634907094069334e-07
27,342,1.0242923505909702e-08
28,28,7.895258219974838e-05
28,38,9.447529165690881e-05
28,44,6.961983467342121e-05
28,52,1.3036629590014016e-05
28,63,7.178533045529918e-05
28,69,5.7762904926084526e-05
28,77,1.3488210001336431e-05
28,87,1.184057247623946e-06
28,99,5.6875591519449606e-05
28,105,4.799952051011709e-05
28,113,1.2369308229736605e-05
28,123,1.3766214080451816e-06
28,135,6.719428419437681e-08
28,148,4.648852099069682e-05
28,154,4.039419920970473e-05
28,162,1.1001610201067413e-05
28,172,1.3669194002611647e-06
28,184,8.716761511016709e-08
28,212,3.8917721029641646e-05
28,218,3.4473784504703414e-05
28,226,9.722136771264928e-06
28,236,1.28742070422789e-06
28,248,9.255067245882972e-08
28,293,3.3200476768139224e-05
28,299,2.9807594924884527e-05
28,307,8.606936892390747e-06
28,317,1.1876135062829742e-06
28,329,9.166080853132885e-08
29,29,8.995138051900392e-06
29,45,7.978275274105663e-06
29,53,1.9936126801935497e-06
29,70,6.640765937347744e-06
29,78,2.0670448764931286e-06
29,88,2.1264602973607384e-07
29,106,5.52906956545678e-06
29,114,1.8980086704530961e-06
29,124,2.4746097850446717e-07
29,136,1.2570431154842683e-08
29,155,4.658917280946232e-06
29,163,1.6895479652952847e-06
29,173,2.4586696829204296e-07
29,185,1.6049234860109222e-08
29,219,3.979553527315505e-06
29,227,1.4935226377427126e-06
29,237,2.3166462944425563e-07
29,249,1.704872946378005e-08
29,300,3.4430510942901024e-06
29,308,1.3227499805913672e-06
29,318,2.1376895874454333e-07
29,330,1.6890758695541208e-08
30,30,0.0009008441146993712
30,55,0.000676784428690429
30,91,0.0005329365712312942
30,140,0.0004339875898801319
30,204,0.00036242501154125654
30,285,0.00030865959545189425
31,31,0.0003483860581376806
31,35,0.00032255631501263636
31,41,4.318981254569381e-05
31,56,0.0002614783751544153
31,60,0.0002522880302216432
31,66,3.7307619046718665e-05
31,92,0.000205784129887529
31,96,0.0002034006656046343
31,102,3.174855990562e-05
31,141,0.00016751559700693548
31,145,0.00016814220951679883
31,151,2.712902632574042e-05
31,205,0.00013985852336331932
31,209,0.00014185300431366425
31,215,2.3394420003364326e-05
31,286,0.00011908985297637642
31,290,0.00012168522773292715
31,296,2.037778363116907e-05
32,32,0.001964412426186828
32,36,0.0011322059965275689
32,42,5.083907782101397e-05
32,57,0.0014717383215072555
32,61,0.0008926068211524264
32,67,4.8113905862909056e-05
32,93,0.0011568449845904207
32,97,0.00072292004860102
32,103,4.298123477639703e-05
32,142,0.0009409098345533941
32,146,0.0005993314586934661
32,152,3.781878491042669e-05
32,206,0.0007850838692661627
32,210,0.0005066026076320096
32,216,3.324359019400142e-05
32,287,0.0006681991758630174
32,291,0.0004351694254508137
32,297,2.9344003077041926e-05
33,33,0.0003483860581376806
33,37,0.00032255631501263647
33,43,4.318981254569381e-05
33,58,0.0002614783751544153
33,62,0.0002522880302216432
33,68,3.730761904671866e-05
33,94,0.000205784129887529
33,98,0.00020340066560463435
33,104,3.174855990562e-05
33,143,0.00016751559700693548
33,147,0.00016814220951679885
33,153,2.712902632574042e-05
33,207,0.00013985852336331932
33,211,0.00014185300431366425
33,217,2.3394420003364326e-05
33,288,0.00011908985297637642
33,292,0.00012168522773292715
33,298,2.037778363116907e-05
34,34,0.00015336658516878042
34,40,8.417127857280452e-05
34,48,1.2670266491166371e-05
34,59,0.00011765527930958644
34,65,7.023187948224173e-05
34,73,1.3163993866703089e-05
34,83,9.570915462194708e-07
34,95,9.376516649186766e-05
34,101,5.8561121337424534e-05
34,109,1.2102485578373357e-05
34,119,1.1153225919038325e-06
34,131,4.626163990488605e-08
34,144,7.693454529982447e-05
34,150,4.939235885762851e-05
34,158,1.0781959677228072e-05
34,168,1.1089387716314542e-06
34,180,5.9193265850612635e-08
34,208,6.457528071943501e-05
34,214,4.2217760190096235e-05
34,222,9.538684831243108e-06
34,232,1.0453991812262314e-06
34,244,6.28831247775095e-08
34,289,5.51929864148102e-05
34,295,3.654346126013711e-05
34,303,8.451359854843038e-06
34,313,9.648297159706353e-07
34,325,6.231467633176703e-08
35,35,0.0011889765420842848
35,41,0.0004917712071656231
35,49,6.255832306065802e-05
35,56,0.00022873874776536913
35,60,0.0009077514879188096
35,66,0.00040927098428331316
35,74,6.488417181750143e-05
35,84,4.197494873412239e-06
35,92,0.00017373674128014918
35,96,0.0007213122970308029
35,102,0.0003407259582998741
35,110,5.958995759394057e-05
35,120,4.886544403816576e-06
35,132,1.8722806572288173e-07
35,141,0.00013812656108181913
35,145,0.0005907049722103623
35,151,0.00028708604027052935
35,159,5.30520170195281e-05
35,169,4.85617508476322e-06
35,181,2.3907245897821226e-07
35,205,0.00011343834352255447
35,209,0.0004951562920163524
35,215,0.0002452125339301999
35,223,4.691310736175619e-05
35,233,4.576279522209498e-06
35,245,2.5397083709200367e-07
35,286,9.544856488417298e-05
35,290,0.000422813009439494
35,296,0.00021214790081905684
35,304,4.155149683145167e-05
35,314,4.223241046849898e-06
35,326,2.5162419844697193e-07
36,36,0.0038982767212048224
36,42,0.001321621522480201
36,50,0.00014615048073204714
36,57,0.0007684959568347968
36,61,0.002964177819649781
36,67,0.0010975768554545766
36,75,0.00015137464614911532
36,85,8.84787450516346e-06
36,93,0.0005666581252096194
36,97,0.002349539379875622
36,103,0.0009125796015534498
36,111,0.00013890689473403713
36,121,1.029395368222977e-05
36,133,3.656938644006657e-07
36,142,0.0004412549255837804
36,146,0.001920986185315846
36,152,0.0007682695881659843
36,160,0.00012359928747207735
36,170,1.0226008583687575e-05
36,182,4.667909678828761e-07
36,196,1.0750163587163372e-08
36,206,0.00035698944376123045
36,210,0.0016084558678774576
36,216,0.0006558341216656838
36,224,0.00010925610457637824
36,234,9.634246765756547e-06
36,246,4.95782234502351e-07
36,260,1.5201180430953905e-08
36,287,0.0002970458374540162
36,291,0.0013723520861004342
36,297,0.000567166732832236
36,305,9.674354459557468e-05
36,315,8.889314184764969e-06
36,327,4.911318646675318e-07
36,341,1.71240790475996e-08
37,37,0.0011889765420842848
37,43,0.0004917712071656231
37,51,6.255832306065801e-05
37,58,0.00022873874776536924
37,62,0.0009077514879188098
37,68,0.0004092709842833132
37,76,6.488417181750143e-05
37,86,4.197494873412239e-06
37,94,0.00017373674128014918
37,98,0.000721312297030803
37,104,0.0003407259582998741
37,112,5.958995759394057e-05
37,122,4.886544403816576e-06
37,134,1.8722806572288175e-07
37,143,0.00013812656108181913
37,147,0.0005907049722103624
37,153,0.00028708604027052935
37,161,5.30520170195281e-05
37,171,4.85617508476322e-06
37,183,2.390724589782123e-07
37,207,0.00011343834352255449
37,211,0.0004951562920163524
37,217,0.00024521253393019994
37,225,4.691310736175618e-05
37,235,4.576279522209498e-06
37,247,2.5397083709200367e-07
37,288,9.544856488417298e-05
37,292,0.00042281300943949413
37,298,0.00021214790081905684
37,306,4.155149683145167e-05
37,316,4.223241046849898e-06
37,328,2.5162419844697193e-07
38,38,0.00015336658516878048
38,44,8.417127857280452e-05
38,52,1.2670266491166371e-05
38,63,0.00011765527930958648
38,69,7.023187948224173e-05
38,77,1.316399386670309e-05
38,87,9.57091546219471e-07
38,99,9.376516649186769e-05
38,105,5.8561121337424534e-05
38,113,1.210248557837336e-05
38,123,1.1153225919038325e-06
38,135,4.6261639904886054e-08
38,148,7.693454529982447e-05
38,154,4.939235885762851e-05
38,162,1.0781959677228073e-05
38,172,1.1089387716314542e-06
38,184,5.919326585061264e-08
38,212,6.457528071943503e-05
38,218,4.221776019009622e-05
38,226,9.53868483124311e-06
38,236,1.0453991812262314e-06
38,248,6.288312477750952e-08
38,293,5.519298641481022e-05
38,299,3.654346126013711e-05
38,307,8.451359854843038e-06
38,317,9.648297159706353e-07
38,329,6.231467633176703e-08
39,39,7.079737641941213e-06
39,47,1.7542691634413126e-06
39,64,5.894401924496969e-06
39,72,1.8192895215000286e-06
39,82,1.8580377255601245e-07
39,100,4.908422670925907e-06
39,108,1.6707352759992491e-06
39,118,2.160949271880629e-07
39,130,1.0914741563002937e-08
39,149,4.136369458861134e-06
39,157,1.4869956476016823e-06
39,167,2.1471992525979564e-07
39,179,1.3936877824996427e-08
39,213,3.5334467858966027e-06
39,221,1.3148939072066455e-06
39,231,2.023277362141106e-07
39,243,1.4805938864297092e-08
39,294,3.05724210277657e-06
39,302,1.1645958741347751e-06
39,312,1.8684541417313425e-07
39,324,1.4669540330837312e-08
40,40,6.142369334301012e-05
40,48,1.1409244206660235e-05
40,59,6.398387335340521e-05
40,65,5.0977807195864176e-05
40,73,1.1807369109447097e-05
40,83,1.0285580628352896e-06
40,95,5.070793715384979e-05
40,101,4.2368901781270715e-05
40,109,1.0829515469281074e-05
40,119,1.195982729430964e-06
40,131,5.7934641548725986e-08
40,144,4.145443664642287e-05
40,150,3.565988340615863e-05
40,158,9.63300900865453e-06
40,168,1.1876563083509768e-06
40,180,7.453309037352629e-08
40,208,3.470759208864532e-05
40,214,3.043582246455605e-05
40,222,8.513263297007387e-06
40,232,1.1186583775228045e-06
40,244,7.976801554119355e-08
40,289,2.9611379887694823e-05
40,295,2.6317705129631946e-05
40,303,7.53680624511293e-06
40,313,1.0319781606172706e-06
40,325,7.900429814609021e-08
41,41,0.00026253059217339135
41,49,4.0583600138296745e-05
41,56,2.6018450304922237e-05
41,60,0.0003719116131265074
41,66,0.00021730189980622642
41,74,4.1924972936899124e-05
41,84,3.2241950333395603e-06
41,92,1.748602828865558e-05
41,96,0.0002938170767793082
41,102,0.0001803116038025999
41,110,3.841136657739787e-05
41,120,3.746094297885485e-06
41,132,1.6878466926823644e-07
41,141,1.2668588723879493e-05
41,145,0.00023970349246877053
41,151,0.00015159896500087594
41,159,3.414350927608506e-05
41,169,3.718108591586948e-06
41,181,2.157512815784237e-07
41,205,9.686151987737923e-06
41,209,0.00020040468037782065
41,215,0.00012929588197863441
41,223,3.0159981529853668e-05
41,233,3.500842762485721e-06
41,245,2.290350419447437e-07
41,286,7.70744035184892e-06
41,290,0.00017080329610468493
41,296,0.00011174307285523683
41,304,2.6692470477494465e-05
41,314,3.228763770265072e-06
41,326,2.2679667786431582e-07
42,42,0.0005771160052735154
42,50,7.777974532564029e-05
42,57,8.58937793565479e-06
42,61,0.0009951038325165607
42,67,0.0004766729567942955
42,75,8.024193848485657e-05
42,85,5.6088379572322276e-06
42,97,0.0007840194284223104
42,103,0.0003950185290910765
42,111,7.345689163464169e-05
42,121,6.513015520042031e-06
42,133,2.7360292090481157e-07
42,146,0.0006384825557006914
42,152,0.00033183528758959114
42,160,6.526023198852174e-05
42,170,6.461957380050166e-06
42,182,3.4893101912599777e-07
42,210,0.000533146385828931
42,216,0.00028285129067359146
42,224,5.762542861933866e-05
42,234,6.0828041912821205e-06
42,246,3.7033200396461994e-07
42,260,1.3089929232329882e-08
42,291,0.0004539929002532429
42,297,0.0002443502733246467
42,305,5.098681547369306e-05
42,315,5.609035462928036e-06
42,327,3.666668817146244e-07
42,341,1.4728197501936125e-08
43,43,0.00026253059217339135
43,51,4.0583600138296745e-05
43,58,2.6018450304922244e-05
43,62,0.00037191161312650746
43,68,0.00021730189980622642
43,76,4.192497293689912e-05
43,86,3.2241950333395603e-06
43,94,1.7486028288655572e-05
43,98,0.0002938170767793083
43,104,0.0001803116038025999
43,112,3.841136657739787e-05
43,122,3.746094297885485e-06
43,134,1.6878466926823646e-07
43,143,1.2668588723879493e-05
43,147,0.00023970349246877053
43,153,0.000151598965000876
43,161,3.414350927608506e-05
43,171,3.718108591586947e-06
43,183,2.157512815784237e-07
43,207,9.686151987737922e-06
43,211,0.0002004046803778207
43,217,0.00012929588197863441
43,225,3.0159981529853665e-05
43,235,3.500842762485721e-06
43,247,2.2903504194474376e-07
43,288,7.70744035184892e-06
43,292,0.00017080329610468496
43,298,0.00011174307285523686
43,306,2.6692470477494465e-05
43,316,3.228763770265073e-06
43,328,2.2679667786431584e-07
44,44,6.14236933430101e-05
44,52,1.1409244206660233e-05
44,63,6.39838733534052e-05
44,69,5.097780719586416e-05
44,77,1.1807369109447097e-05
44,87,1.0285580628352896e-06
44,99,5.070793715384979e-05
44,105,4.23689017812707e-05
44,113,1.0829515469281074e-05
44,123,1.195982729430964e-06
44,135,5.793464154872599e-08
44,148,4.145443664642287e-05
44,154,3.565988340615862e-05
44,162,9.633009008654529e-06
44,172,1.1876563083509768e-06
44,184,7.45330903735263e-08
44,212,3.4707592088645316e-05
44,218,3.043582246455604e-05
44,226,8.513263297007386e-06
44,236,1.1186583775228045e-06
44,248,7.976801554119355e-08
44,293,2.9611379887694823e-05
44,299,2.6317705129631932e-05
44,307,7.53680624511293e-06
44,317,1.0319781606172706e-06
44,329,7.900429814609024e-08
45,45,7.079737641941213e-06
45,53,1.7542691634413126e-06
45,70,5.894401924496969e-06
45,78,1.8192895215000284e-06
45,88,1.8580377255601242e-07
45,106,4.908422670925907e-06
45,114,1.6707352759992491e-06
45,124,2.160949271880629e-07
45,136,1.0914741563002938e-08
45,155,4.136369458861134e-06
45,163,1.4869956476016823e-06
45,173,2.1471992525979564e-07
45,185,1.3936877824996427e-08
45,219,3.533446785896601e-06
45,227,1.3148939072066455e-06
45,237,2.023277362141106e-07
45,249,1.4805938864297092e-08
45,300,3.05724210277657e-06
45,308,1.1645958741347751e-06
45,318,1.8684541417313425e-07
45,330,1.4669540330837315e-08
46,46,5.661964245416603e-08
46,71,5.868489703943921e-08
46,107,5.3874654025151704e-08
46,117,1.0283207971041722e-08
46,156,4.810981448580142e-08
46,166,1.0219166409123414e-08
46,220,4.2205654801666236e-08
46,301,3.723534651089275e-08
47,47,5.197718100559025e-07
47,64,1.4534479817331515e-06
47,72,5.37348621462005e-07
47,82,6.314415365791217e-08
47,100,1.206936340825172e-06
47,108,4.925360292691716e-07
47,118,7.338921520883839e-08
47,149,1.015240411224477e-06
47,157,4.3809907582987663e-07
47,167,7.285646597930681e-08
47,213,8.661702038749175e-07
47,221,3.8706580045970473e-07
47,231,6.860918968250611e-08
47,294,7.487608477243252e-07
47,302,3.426142331866599e-07
47,312,6.328366268768857e-08
48,48,2.4731445068380908e-06
48,59,9.550432465175751e-06
48,65,9.426876754151103e-06
48,73,2.5516457506778847e-06
48,83,2.5365379781379226e-07
48,95,7.529696916246135e-06
48,101,7.813421802615757e-06
48,109,2.336002799093942e-06
48,119,2.945317463972994e-07
48,131,1.4638794675666348e-08
48,144,6.134744583976875e-06
48,150,6.564588294696899e-06
48,158,2.075544307665495e-06
48,168,2.9221470579245323e-07
48,180,1.8657223911242493e-08
48,208,5.1241680586625415e-06
48,214,5.596205899750735e-06
48,222,1.8327684236943866e-06
48,232,2.7506389729520954e-07
48,244,2.056833900977914e-08
48,289,4.364451779358009e-06
48,295,4.834800043138575e-06
48,303,1.6216551286719152e-06
48,313,2.536366849615346e-07
48,325,2.0361797375113082e-08
49,49,7.2590993703084e-06
49,60,4.690824905410259e-05
49,66,3.344577120765788e-05
49,74,7.476801456110118e-06
49,84,6.537559210337266e-07
49,96,3.686353166000388e-05
49,102,2.7678805385300282e-05
49,110,6.838027520878457e-06
49,120,7.585510670130631e-07
49,132,3.822721241257122e-08
49,145,2.997004362912717e-05
49,151,2.323099382577554e-05
49,159,6.071135287330447e-06
49,169,7.522215294461456e-07
49,181,4.884112864913138e-08
49,209,2.4996449512101704e-05
49,215,1.978967332711525e-05
49,223,5.358523231209869e-06
49,233,7.078374417549762e-07
49,245,5.18201819211896e-08
49,290,2.1267462748589096e-05
49,296,1.708847643727221e-05
49,304,4.739717555415719e-06
49,314,6.525430313365229e-07
49,326,5.129562371074353e-08
50,50,1.2202628627532396e-05
50,61,0.00010910065717322072
50,67,6.397318903768181e-05
50,75,1.255344744127352e-05
50,85,1.0055908770944937e-06
50,97,8.550184736039171e-05
50,103,5.287897069130541e-05
50,111,1.147231991920668e-05
50,121,1.1662106334139851e-06
50,133,5.5296349733789165e-08
50,146,6.938623745855753e-05
50,152,4.4346758065262126e-05
50,160,1.0180385821144031e-05
50,170,1.15610907369189e-06
50,182,7.061178043622076e-08
50,210,5.779816970454234e-05
50,216,3.775700508086707e-05
50,224,8.982503405442914e-06
50,234,1.0876552734703233e-06
50,246,7.490827617633494e-08
50,291,4.913092528510606e-05
50,297,3.259068734339986e-05
50,305,7.943336530855119e-06
50,315,1.0025327201352204e-06
50,327,7.414259755663031e-08
51,51,7.259099370308397e-06
51,62,4.690824905410259e-05
51,68,3.344577120765787e-05
51,76,7.476801456110116e-06
51,86,6.537559210337264e-07
51,98,3.686353166000388e-05
51,104,2.7678805385300275e-05
51,112,6.838027520878455e-06
51,122,7.585510670130629e-07
51,134,3.8227212412571203e-08
51,147,2.997004362912717e-05
51,153,2.3230993825775533e-05
51,161,6.0711352873304445e-06
51,171,7.522215294461452e-07
51,183,4.884112864913138e-08
51,211,2.4996449512101697e-05
51,217,1.9789673327115258e-05
51,225,5.358523231209868e-06
51,235,7.078374417549759e-07
51,247,5.182018192118958e-08
51,292,2.1267462748589096e-05
51,298,1.7088476437272206e-05
51,306,4.739717555415717e-06
51,316,6.525430313365227e-07
51,328,5.129562371074351e-08
52,52,2.4731445068380908e-06
52,63,9.550432465175751e-06
52,69,9.4268767541511e-06
52,77,2.5516457506778847e-06
52,87,2.536537978137923e-07
52,99,7.529696916246137e-06
52,105,7.813421802615757e-06
52,113,2.336002799093942e-06
52,123,2.9453174639729944e-07
52,135,1.4638794675666352e-08
52,148,6.134744583976876e-06
52,154,6.564588294696897e-06
52,162,2.075544307665495e-06
52,172,2.9221470579245334e-07
52,184,1.8657223911242493e-08
52,212,5.124168058662542e-06
52,218,5.596205899750735e-06
52,226,1.8327684236943866e-06
52,236,2.750638972952096e-07
52,248,2.0568339009779146e-08
52,293,4.364451779358009e-06
52,299,4.834800043138575e-06
52,307,1.6216551286719152e-06
52,317,2.536366849615347e-07
52,329,2.0361797375113096e-08
53,53,5.197718100559025e-07
53,70,1.4534479817331515e-06
53,78,5.37348621462005e-07
53,88,6.314415365791217e-08
53,106,1.2069363408251722e-06
53,114,4.925360292691716e-07
53,124,7.338921520883839e-08
53,155,1.015240411224477e-06
53,163,4.380990758298767e-07
53,173,7.285646597930681e-08
53,219,8.661702038749175e-07
53,227,3.8706580045970473e-07
53,237,6.860918968250613e-08
53,300,7.487608477243252e-07
53,308,3.4261423318666e-07
53,318,6.328366268768857e-08
54,54,5.6619642454166055e-08
54,79,5.868489703943921e-08
54,115,5.3874654025151704e-08
54,125,1.0283207971041722e-08
54,164,4.810981448580143e-08
54,174,1.0219166409123417e-08
54,228,4.2205654801666236e-08
54,309,3.723534651089275e-08
55,55,0.0005088588809991403
55,91,0.0004008955711617725
55,140,0.00032656415589206477
55,204,0.0002727735426148941
55,285,0.00023234338105454136
56,56,0.00019646362205716063
56,60,0.0001792258584855757
56,66,2.2688275724029746e-05
56,92,0.00015471792665205543
56,96,0.00014465376993303908
56,102,1.9411585887180274e-05
56,141,0.00012599880882170213
56,145,0.00011965983866226488
56,151,1.6643035545450463e-05
56,205,0.00010522643696651619
56,209,0.00010099749886073921
56,215,1.4384327033043786e-05
56,286,8.961890209724258e-05
56,290,8.666667212026415e-05
56,296,1.2549409986875724e-05
57,57,0.0011047499490801152
57,61,0.0006084777572693969
57,67,1.1594072766429026e-05
57,93,0.0008693765263557794
57,97,0.0004940368698520978
57,103,1.1893644537280301e-05
57,142,0.0007076251218441328
57,146,0.0004102170307912251
57,152,1.12502954073062e-05
57,206,0.0005907336450051545
57,210,0.0003471156502644712
57,216,1.0330388249809434e-05
57,287,0.0005029663453472608
57,291,0.0002983942685135572
57,297,9.384199362322051e-06
58,58,0.00019646362205716063
58,62,0.0001792258584855757
58,68,2.2688275724029746e-05
58,94,0.00015471792665205543
58,98,0.00014465376993303908
58,104,1.9411585887180274e-05
58,143,0.00012599880882170213
58,147,0.00011965983866226493
58,153,1.6643035545450463e-05
58,207,0.00010522643696651619
58,211,0.00010099749886073924
58,217,1.4384327033043786e-05
58,288,8.961890209724258e-05
58,292,8.666667212026415e-05
58,298,1.2549409986875724e-05
59,59,9.028605978612581e-05
59,65,5.340029122292842e-05
59,73,9.924734737647551e-06
59,83,7.15139669541928e-07
59,95,7.19659852587312e-05
59,101,4.453287435993504e-05
59,109,9.125646036071705e-06
59,119,8.335635319228431e-07
59,131,3.430640417367709e-08
59,144,5.905411605665749e-05
59,150,3.756395780580823e-05
59,158,8.130622993106904e-06
59,168,8.288615993379799e-07
59,180,4.381652492088518e-08
59,208,4.95719896073171e-05
59,214,3.2109556853492964e-05
59,222,7.1935555935516075e-06
59,232,7.81414471083831e-07
59,244,4.656474846666834e-08
59,289,4.237196312745946e-05
59,295,2.7795119082405467e-05
59,303,6.3738196820315536e-06
59,313,7.213443694221208e-07
59,325,4.614704798003021e-08
60,60,0.0006933004691664087
60,66,0.0003096060051262506
60,74,4.866448541318821e-05
60,84,3.1209067959033406e-06
60,92,0.00013629281883203575
60,96,0.0005510299117639264
60,102,0.00025779658499494346
60,110,4.470049706815913e-05
60,120,3.6336781259270583e-06
60,132,1.3747015454255714e-07
60,141,0.00010844353000374997
60,145,0.00045132143133689396
60,151,0.00021723598391365978
60,159,3.980007865801727e-05
60,169,3.6114360349056967e-06
60,181,1.761438129999181e-07
60,205,8.911102547268532e-05
60,209,0.00037835656812917223
60,215,0.000185564593619599
60,223,3.519695837814289e-05
60,233,3.403574963182597e-06
60,245,1.8714529983464099e-07
60,286,7.501016622351174e-05
60,290,0.00032310040785575876
60,296,0.00016055159831776668
60,304,3.117586982811006e-05
60,314,3.1411503165039705e-06
60,326,1.854122611786711e-07
61,61,0.0022549146585280344
61,67,0.0008266783543245482
61,75,0.00011303258094239139
61,85,6.549415894033417e-06
61,93,0.00045001123637792445
61,97,0.0017878322439924303
61,103,0.0006874754088532618
61,111,0.00010374059359442793
61,121,7.621073046664906e-06
61,133,2.682237001272269e-07
61,142,0.000351171566734961
61,146,0.0014619934099268704
61,152,0.0005788354833667299
61,160,9.231861516789828e-05
61,170,7.57156534945906e-06
61,182,3.4244433567171533e-07
61,206,0.00028455404550531345
61,210,0.0012242874744589237
61,216,0.0004941665253291785
61,224,8.161164405159834e-05
61,234,7.133925139883278e-06
61,246,3.637385083206876e-07
61,260,1.0745609560581947e-08
61,287,0.00023705160531574523
61,291,0.0010446669995831572
61,297,0.0004273828849998275
61,305,7.22689734170885e-05
61,315,6.582659540366455e-06
61,327,3.6034495107718436e-07
61,341,1.2097474536875028e-08
62,62,0.000693300469166409
62,68,0.0003096060051262506
62,76,4.866448541318821e-05
62,86,3.1209067959033406e-06
62,94,0.00013629281883203577
62,98,0.0005510299117639265
62,104,0.00025779658499494346
62,112,4.470049706815913e-05
62,122,3.6336781259270583e-06
62,134,1.3747015454255714e-07
62,143,0.00010844353000374999
62,147,0.000451321431336894
62,153,0.00021723598391365986
62,161,3.980007865801727e-05
62,171,3.6114360349056967e-06
62,183,1.7614381299991813e-07
62,207,8.911102547268532e-05
62,211,0.0003783565681291723
62,217,0.00018556459361959905
62,225,3.519695837814289e-05
62,235,3.403574963182597e-06
62,247,1.8714529983464099e-07
62,288,7.501016622351174e-05
62,292,0.00032310040785575887
62,298,0.00016055159831776674
62,306,3.117586982811006e-05
62,316,3.1411503165039705e-06
62,328,1.854122611786711e-07
63,63,9.028605978612582e-05
63,69,5.340029122292842e-05
63,77,9.924734737647553e-06
63,87,7.151396695419282e-07
63,99,7.196598525873122e-05
63,105,4.4532874359935034e-05
63,113,9.125646036071706e-06
63,123,8.335635319228431e-07
63,135,3.430640417367709e-08
63,148,5.90541160566575e-05
63,154,3.756395780580824e-05
63,162,8.130622993106904e-06
63,172,8.288615993379799e-07
63,184,4.381652492088519e-08
63,212,4.957198960731711e-05
63,218,3.2109556853492964e-05
63,226,7.193555593551609e-06
63,236,7.814144710838312e-07
63,248,4.656474846666835e-08
63,293,4.237196312745947e-05
63,299,2.7795119082405467e-05
63,307,6.373819682031556e-06
63,317,7.213443694221209e-07
63,329,4.6147047980030224e-08
64,64,4.908219455411191e-06
64,72,1.5075091920214787e-06
64,82,1.528093599388748e-07
64,100,4.087547831112684e-06
64,108,1.384521260323235e-06
64,118,1.7846906735405756e-07
64,149,3.444803344591865e-06
64,157,1.2326291323681865e-06
64,167,1.7734256420151717e-07
64,179,1.1467234810647093e-08
64,213,2.9428055198168064e-06
64,221,1.0900029055782802e-06
64,231,1.6655218840279925e-07
64,243,1.2182796538349683e-08
64,294,2.5461085696892368e-06
64,302,9.654335192155602e-07
64,312,1.5369700597025127e-07
64,324,1.2070917478766632e-08
65,65,4.231525734434467e-05
65,73,9.757149554309432e-06
65,83,8.464275687340559e-07
65,95,4.2326433436862466e-05
65,101,3.5172684222673285e-05
65,109,8.949822106301765e-06
65,119,9.841916226712632e-07
65,131,4.7475383010980227e-08
65,144,3.460569717692899e-05
65,150,2.960508166182914e-05
65,158,7.961414074883e-06
65,168,9.773861204233204e-07
65,180,6.057998302902195e-08
65,208,2.8975388923174258e-05
65,214,2.526914053631202e-05
65,222,7.035971896562987e-06
65,232,9.206267866400622e-07
65,244,6.432786093321496e-08
65,289,2.472200221430891e-05
65,295,2.1850788759376436e-05
65,303,6.229359179001933e-06
65,313,8.49400195560635e-07
65,325,6.371414846603111e-08
66,66,0.0001798979618345295
66,74,3.455635939859488e-05
66,84,2.6465399102308937e-06
66,92,1.5371569726188602e-05
66,96,0.00024463643549614604
66,102,0.0001492912348377397
66,110,3.1663010596614974e-05
66,120,3.0751777999940718e-06
66,132,1.3797259321592235e-07
66,141,1.1212248596529913e-05
66,145,0.00019960308146391254
66,151,0.00012552727095957501
66,159,2.8146556441882197e-05
66,169,3.0523612150470563e-06
66,181,1.7598134032320983e-07
66,205,8.62090078206438e-06
66,209,0.0001668915621908515
66,215,0.0001070651023967276
66,223,2.4863791283478356e-05
66,233,2.8740993714313847e-06
66,245,1.8681344264506102e-07
66,286,6.8917165775076174e-06
66,290,0.00014224825019311548
66,296,9.253355509699539e-05
66,304,2.200581740016643e-05
66,314,2.6507966076856606e-06
66,326,1.8499196090006571e-07
67,67,0.00039379011357278825
67,75,6.600890086371657e-05
67,85,4.595694933379828e-06
67,97,0.0006514500277191467
67,103,0.0003263731777028475
67,111,6.043321745701549e-05
67,121,5.336988656451468e-06
67,133,2.2331526938235634e-07
67,146,0.0005305909457959186
67,152,0.00027419141430399044
67,160,5.369318167135146e-05
67,170,5.2954400192252605e-06
67,182,2.8476235267274795e-07
67,210,0.0004430944516536743
67,216,0.00023372925267854593
67,224,4.741365890426185e-05
67,234,4.984927940762628e-06
67,246,3.0223786758870953e-07
67,260,1.0096551366335235e-08
67,291,0.0003773348995008409
67,297,0.0002019224642535956
67,305,4.195276900605703e-05
67,315,4.5967926526581825e-06
67,327,2.9925387985654854e-07
67,341,1.1397858859723263e-08
68,68,0.0001798979618345295
68,76,3.4556359398594875e-05
68,86,2.6465399102308937e-06
68,94,1.5371569726188602e-05
68,98,0.00024463643549614604
68,104,0.0001492912348377397
68,112,3.166301059661497e-05
68,122,3.075177799994071e-06
68,134,1.3797259321592238e-07
68,143,1.1212248596529914e-05
68,147,0.00019960308146391254
68,153,0.00012552727095957501
68,161,2.8146556441882193e-05
68,171,3.0523612150470563e-06
68,183,1.7598134032320991e-07
68,207,8.62090078206438e-06
68,211,0.00016689156219085153
68,217,0.0001070651023967276
68,225,2.4863791283478356e-05
68,235,2.874099371431385e-06
68,247,1.8681344264506107e-07
68,288,6.891716577507618e-06
68,292,0.0001422482501931155
68,298,9.253355509699539e-05
68,306,2.2005817400166423e-05
68,316,2.6507966076856606e-06
68,328,1.8499196090006571e-07
69,69,4.2315257344344663e-05
69,77,9.757149554309432e-06
69,87,8.464275687340561e-07
69,99,4.2326433436862466e-05
69,105,3.517268422267328e-05
69,113,8.949822106301765e-06
69,123,9.841916226712632e-07
69,135,4.747538301098024e-08
69,148,3.460569717692899e-05
69,154,2.9605081661829122e-05
69,162,7.961414074883e-06
69,172,9.773861204233208e-07
69,184,6.057998302902195e-08
69,212,2.8975388923174258e-05
69,218,2.5269140536312014e-05
69,226,7.035971896562987e-06
69,236,9.206267866400622e-07
69,248,6.432786093321496e-08
69,293,2.4722002214308918e-05
69,299,2.1850788759376436e-05
69,307,6.2293591790019315e-06
69,317,8.49400195560635e-07
69,329,6.371414846603111e-08
70,70,4.908219455411191e-06
70,78,1.5075091920214787e-06
70,88,1.5280935993887478e-07
70,106,4.087547831112684e-06
70,114,1.384521260323235e-06
70,124,1.7846906735405753e-07
70,155,3.444803344591865e-06
70,163,1.2326291323681869e-06
70,173,1.7734256420151717e-07
70,185,1.1467234810647093e-08
70,219,2.9428055198168064e-06
70,227,1.0900029055782802e-06
70,237,1.6655218840279925e-07
70,249,1.2182796538349685e-08
70,300,2.546108569689236e-06
70,308,9.654335192155602e-07
70,318,1.5369700597025127e-07
70,330,1.2070917478766632e-08
71,71,6.08310564569598e-08
71,107,5.584798256497881e-08
71,117,1.0637685042396253e-08
71,156,4.985907724216618e-08
71,166,1.0571837613778827e-08
71,220,4.410063051317374e-08
71,301,3.862104011848812e-08
72,72,5.555752014979035e-07
72,82,6.509826487976853e-08
72,100,1.2519208192955705e-06
72,108,5.092732679204904e-07
72,118,7.566458115284205e-08
72,149,1.0531306434210806e-06
72,157,4.5283770515068955e-07
72,167,7.511802337831901e-08
72,213,8.985265041528494e-07
72,221,4.0024697436318643e-07
72,231,7.074065558003255e-08
72,294,7.767495766203947e-07
72,302,3.542884481141956e-07
72,312,6.525083604433661e-08
73,73,2.632923961062859e-06
73,83,2.609837172236349e-07
73,95,7.82584774218866e-06
73,101,8.088143046358622e-06
73,109,2.4105699963674953e-06
73,119,3.030602192250812e-07
73,131,1.4995379825204036e-08
73,144,6.376564672669943e-06
73,150,6.795507027747916e-06
73,158,2.141893060218909e-06
73,168,3.006873294397716e-07
73,180,1.9870070538198105e-08
73,208,5.327631132858347e-06
73,214,5.793273310548234e-06
73,222,1.891411666309963e-06
73,232,2.830464826072251e-07
73,244,2.1085163849876522e-08
73,289,4.536983231830406e-06
73,295,5.005186976198249e-06
73,303,1.673578383035251e-06
73,313,2.610022129222499e-07
73,325,2.0873959391762415e-08
74,74,7.701930549851745e-06
74,84,6.715909143596729e-07
74,96,3.8249628792498686e-05
74,102,2.8600480738793348e-05
74,110,7.044267992955224e-06
74,120,7.7929248871266e-07
74,132,3.9208265717338e-08
74,145,3.1100111743141735e-05
74,151,2.4005974379827896e-05
74,159,6.2546721214304516e-06
74,169,7.728201417479714e-07
74,181,5.003593198531107e-08
74,209,2.5940811464760267e-05
74,215,2.0450679795701534e-05
74,223,5.520690992903705e-06
74,233,7.272405517224104e-07
74,245,5.3089188590578516e-08
74,290,2.207206541145657e-05
74,296,1.7661646491173545e-05
74,304,4.883268247577828e-06
74,314,6.70443410029202e-07
74,326,5.255272435615952e-08
75,75,1.2915948713431171e-05
75,85,1.0319429456358294e-06
75,97,8.859884102715904e-05
75,103,5.4566965241412954e-05
75,111,1.1804486244509046e-05
75,121,1.1968474235970861e-06
75,133,5.670769694589866e-08
75,146,7.19078290996355e-05
75,152,4.5765296756335745e-05
75,160,1.0475662772179378e-05
75,170,1.1865294749479336e-06
75,182,7.22805341022096e-08
75,210,5.990344302822154e-05
75,216,3.896645790348325e-05
75,224,9.243345613542913e-06
75,234,1.1163060911257143e-06
75,246,7.669210823788053e-08
75,291,5.092344418204886e-05
75,297,3.363570404802531e-05
75,305,8.174198283053152e-06
75,315,1.0289621185441283e-06
75,327,7.589812911187832e-08
76,76,7.70193054985174e-06
76,86,6.715909143596726e-07
76,98,3.8249628792498686e-05
76,104,2.860048073879334e-05
76,112,7.044267992955222e-06
76,122,7.792924887126596e-07
76,134,3.920826571733799e-08
76,147,3.1100111743141735e-05
76,153,2.400597437982789e-05
76,161,6.254672121430449e-06
76,171,7.728201417479711e-07
76,183,5.003593198531107e-08
76,211,2.5940811464760267e-05
76,217,2.045067979570153e-05
76,225,5.520690992903704e-06
76,235,7.272405517224102e-07
76,247,5.30891885905785e-08
76,292,2.207206541145657e-05
76,298,1.766164649117354e-05
76,306,4.883268247577826e-06
76,316,6.704434100292019e-07
76,328,5.25527243561595e-08
77,77,2.632923961062859e-06
77,87,2.6098371722363494e-07
77,99,7.825847742188662e-06
77,105,8.088143046358622e-06
77,113,2.4105699963674953e-06
77,123,3.030602192250812e-07
77,135,1.499537982520404e-08
77,148,6.376564672669943e-06
77,154,6.795507027747916e-06
77,162,2.141893060218909e-06
77,172,3.006873294397716e-07
77,184,1.9870070538198105e-08
77,212,5.327631132858348e-06
77,218,5.793273310548233e-06
77,226,1.891411666309963e-06
77,236,2.8304648260722514e-07
77,248,2.108516384987653e-08
77,293,4.536983231830406e-06
77,299,5.005186976198249e-06
77,307,1.673578383035251e-06
77,317,2.610022129222499e-07
77,329,2.0873959391762425e-08
78,78,5.555752014979035e-07
78,88,6.509826487976853e-08
78,106,1.2519208192955705e-06
78,114,5.092732679204906e-07
78,124,7.566458115284205e-08
78,155,1.0531306434210806e-06
78,163,4.5283770515068955e-07
78,173,7.511802337831901e-08
78,219,8.985265041528496e-07
78,227,4.0024697436318643e-07
78,237,7.074065558003255e-08
78,300,7.767495766203947e-07
78,308,3.542884481141956e-07
78,318,6.52508360443366e-08
79,79,6.08310564569598e-08
79,115,5.584798256497881e-08
79,125,1.0637685042396253e-08
79,164,4.985907724216617e-08
79,174,1.0571837613778827e-08
79,228,4.410063051317374e-08
79,309,3.8621040118488135e-08
82,100,1.2656766449787985e-07
82,108,5.956902074566178e-08
82,149,1.0628737777919374e-07
82,157,5.290779110122032e-08
82,213,9.058509436663469e-08
82,221,4.631820185246185e-08
82,294,7.824186707994108e-08
82,302,4.032007727237172e-08
83,83,2.709369424146987e-08
83,95,5.609172939576383e-07
83,101,6.998292105144131e-07
83,109,2.3852796782162687e-07
83,119,3.3071697042990535e-08
83,144,4.556365940795266e-07
83,150,5.869976191876145e-07
83,158,2.1169743276693452e-07
83,168,3.278342701151868e-08
83,208,3.7968743783088104e-07
83,214,4.993912304975244e-07
83,222,1.86443983043819e-07
83,232,3.0787023111368256e-08
83,289,3.228400175328478e-07
83,295,4.310968977868571e-07
83,303,1.648809321750746e-07
83,313,2.698229349826493e-08
84,84,6.316114239414736e-08
84,96,2.4397570361945867e-06
84,102,2.1848892310608606e-06
84,110,6.132199287235997e-07
84,120,7.56383659962469e-08
84,145,1.9766381744411577e-06
84,151,1.8308669942822496e-06
84,159,5.438796959096479e-07
84,169,7.494654710977854e-08
84,209,1.6446337212923385e-06
84,215,1.5579432044080594e-06
84,223,4.796970049926981e-07
84,233,7.048527113197153e-08
84,290,1.396706447754808e-06
84,296,1.3441278075784997e-06
84,304,4.2408356970381746e-07
84,314,6.495332058388407e-08
85,85,9.223322512235011e-08
85,97,5.105820769667824e-06
85,103,3.7899670924186543e-06
85,111,9.416532969785018e-07
85,121,1.068394044532349e-07
85,146,4.1290306083600515e-06
85,152,3.1738587339345174e-06
85,160,8.348385582246713e-07
85,170,1.058329194655953e-07
85,210,3.4311108000979613e-06
85,216,2.699404411874159e-06
85,224,7.357717853653842e-07
85,234,9.989696325715668e-08
85,291,2.911480072599777e-06
85,297,2.328290065266099e-06
85,305,6.503392080887861e-07
85,315,9.204561476023684e-08
86,86,6.316114239414734e-08
86,98,2.4397570361945867e-06
86,104,2.18488923106086e-06
86,112,6.132199287235995e-07
86,122,7.563836599624689e-08
86,147,1.9766381744411577e-06
86,153,1.8308669942822498e-06
86,161,5.438796959096479e-07
86,171,7.494654710977854e-08
86,211,1.6446337212923385e-06
86,217,1.5579432044080594e-06
86,225,4.79697004992698e-07
86,235,7.048527113197152e-08
86,292,1.396706447754808e-06
86,298,1.3441278075784997e-06
86,306,4.240835697038174e-07
86,316,6.495332058388405e-08
87,87,2.7093694241469876e-08
87,99,5.609172939576383e-07
87,105,6.998292105144131e-07
87,113,2.385279678216269e-07
87,123,3.3071697042990554e-08
87,148,4.556365940795268e-07
87,154,5.869976191876145e-07
87,162,2.1169743276693457e-07
87,172,3.278342701151868e-08
87,212,3.7968743783088114e-07
87,218,4.993912304975244e-07
87,226,1.8644398304381902e-07
87,236,3.078702311136826e-08
87,293,3.228400175328478e-07
87,299,4.310968977868572e-07
87,307,1.648809321750746e-07
87,317,2.698229349826494e-08
88,106,1.2656766449787985e-07
88,114,5.956902074566177e-08
88,155,1.0628737777919373e-07
88,163,5.290779110122032e-08
88,219,9.058509436663469e-08
88,227,4.631820185246185e-08
88,300,7.824186707994108e-08
88,308,4.032007727237172e-08
91,91,0.0003159300075250988
91,140,0.00025740067845144457
91,204,0.0002150301285876717
91,285,0.00018317548600349612
92,92,0.00012188996374147715
92,96,0.00011007469970447923
92,102,1.3211266568693102e-05
92,141,9.928937884607519e-05
92,145,9.109551686105548e-05
92,151,1.13589463644113e-05
92,205,8.293829070590722e-05
92,209,7.691094370237535e-05
92,215,9.83579578574925e-06
92,286,7.064228087946543e-05
92,290,6.601177434195944e-05
92,296,8.592400065478763e-06
93,93,0.0006846201608255559
93,97,0.00036600279042491723
93,142,0.0005574900730200424
93,146,0.00030423501132406173
93,152,8.701165371805889e-07
93,206,0.00046553978932118117
93,210,0.00025762389599867284
93,216,1.3169654390378708e-06
93,287,0.0003964584024365421
93,291,0.0002215775753811098
93,297,1.494914588160839e-06
94,94,0.00012188996374147715
94,98,0.00011007469970447923
94,104,1.32112665686931e-05
94,143,9.928937884607519e-05
94,147,9.10955168610555e-05
94,153,1.13589463644113e-05
94,207,8.293829070590722e-05
94,211,7.691094370237535e-05
94,217,9.83579578574925e-06
94,288,7.064228087946543e-05
94,292,6.601177434195945e-05
94,298,8.592400065478763e-06
95,95,5.736939082133502e-05
95,101,3.530096109585601e-05
95,109,7.1963153021907915e-06
95,119,6.536184413777696e-07
95,131,2.642504703245009e-08
95,144,4.708042199151684e-05
95,150,2.977841731385419e-05
95,158,6.412006540206554e-06
95,168,6.49967532339474e-07
95,180,3.3740402246641124e-08
95,208,3.95221818218481e-05
95,214,2.545548785334076e-05
95,222,5.673173880853526e-06
95,232,6.127842266121863e-07
95,244,3.635193907547705e-08
95,289,3.378298659810653e-05
95,295,2.2035746786493492e-05
95,303,5.026811615257853e-06
95,313,5.656866353227803e-07
95,325,3.6026900578133944e-08
96,96,0.00043801396955624736
96,102,0.0002037201009498526
96,110,3.5137269300343336e-05
96,120,2.840870395427371e-06
96,132,1.0670078150786298e-07
96,141,8.762363487339349e-05
96,145,0.0003587865523698824
96,151,0.00017167920227128858
96,159,3.1287144342941185e-05
96,169,2.8236464128727897e-06
96,181,1.365649804262547e-07
96,205,7.202646931412546e-05
96,209,0.00030080083623019137
96,215,0.0001466564148815172
96,223,2.7669771076634094e-05
96,233,2.661234376841456e-06
96,245,1.4547326835700722e-07
96,286,6.064370417242205e-05
96,290,0.0002568829737259675
96,296,0.0001268921946645292
96,304,2.4509381895738088e-05
96,314,2.456116603809287e-06
96,326,1.437630898399332e-07
97,97,0.001417735751852623
97,103,0.0005418183675635195
97,111,8.132405109387176e-05
97,121,5.941867107674168e-06
97,133,2.079209800502854e-07
97,142,0.00028596386642811087
97,146,0.0011594735332243042
97,152,0.000456231751160193
97,160,7.237511837666182e-05
97,170,5.9036541357011e-06
97,182,2.6543475886790073e-07
97,206,0.000231923308875047
97,210,0.000971026543847438
97,216,0.00038951740725511584
97,224,6.398417734101583e-05
97,234,5.562669502101844e-06
97,246,2.819528430685385e-07
97,287,0.00019333610557872969
97,291,0.0008286072211142069
97,297,0.00033688934138679225
97,305,5.666135845642276e-05
97,315,5.132985448026771e-06
97,327,2.7933123624862687e-07
98,98,0.0004380139695562474
98,104,0.0002037201009498526
98,112,3.5137269300343336e-05
98,122,2.8408703954273705e-06
98,134,1.0670078150786298e-07
98,143,8.76236348733935e-05
98,147,0.00035878655236988246
98,153,0.00017167920227128858
98,161,3.1287144342941185e-05
98,171,2.8236464128727893e-06
98,183,1.365649804262547e-07
98,207,7.202646931412549e-05
98,211,0.0003008008362301914
98,217,0.00014665641488151724
98,225,2.7669771076634094e-05
98,235,2.6612343768414563e-06
98,247,1.4547326835700725e-07
98,288,6.064370417242205e-05
98,292,0.00025688297372596753
98,298,0.00012689219466452924
98,306,2.4509381895738088e-05
98,316,2.456116603809287e-06
98,328,1.4376308983993322e-07
99,99,5.736939082133505e-05
99,105,3.530096109585601e-05
99,113,7.1963153021907915e-06
99,123,6.5361844137777e-07
99,135,2.64250470324501e-08
99,148,4.708042199151684e-05
99,154,2.977841731385419e-05
99,162,6.412006540206554e-06
99,172,6.499675323394741e-07
99,184,3.3740402246641124e-08
99,212,3.95221818218481e-05
99,218,2.545548785334076e-05
99,226,5.673173880853526e-06
99,236,6.127842266121863e-07
99,248,3.6351939075477065e-08
99,293,3.3782986598106546e-05
99,299,2.2035746786493492e-05
99,307,5.026811615257853e-06
99,317,5.656866353227803e-07
99,329,3.6026900578133944e-08
100,100,3.404271937203556e-06
100,108,1.149835853129697e-06
100,118,1.4732774765501184e-07
100,149,2.869072003743345e-06
100,157,1.0237200477816568e-06
100,167,1.4640334935469734e-07
100,213,2.4508682172945882e-06
100,221,9.052844118131162e-07
100,231,1.3796237100357638e-07
100,243,1.007298954353904e-08
100,294,2.1206596799762637e-06
100,302,8.017651728924791e-07
100,312,1.2731553875985318e-07
101,101,2.923749368502883e-05
101,109,7.419002994913339e-06
101,119,8.138500721737944e-07
101,131,3.915429519644007e-08
101,144,2.8863375550883233e-05
101,150,2.4610345759343865e-05
101,158,6.599874918068451e-06
101,168,8.082478641496737e-07
101,180,4.9963524476687495e-08
101,208,2.4168287366707402e-05
101,214,2.100648894776571e-05
101,222,5.833162023822354e-06
101,232,7.613272430194754e-07
101,244,5.30556855970808e-08
101,289,2.0621128411635805e-05
101,295,1.8165124775011083e-05
101,303,5.164579447134388e-06
101,313,7.023623565875065e-07
101,325,5.255028439606666e-08
102,102,0.00012390003663978534
102,110,2.6207343912446147e-05
102,120,2.5388797415728052e-06
102,132,1.1308730441402267e-07
102,141,9.672692106793812e-06
102,145,0.00016623000643147104
102,151,0.00010418233073426877
102,159,2.3297615110195276e-05
102,169,2.5201211258810143e-06
102,181,1.4492097932387648e-07
102,205,7.460109935416629e-06
102,209,0.00013899425899965043
102,215,8.886217595716058e-05
102,223,2.0583073926841183e-05
102,233,2.3729937203674603e-06
102,245,1.5384426824009417e-07
102,286,5.978856412929525e-06
102,290,0.00011847426593480351
102,296,7.680287150862437e-05
102,304,1.8217473399065305e-05
102,314,2.1886579023811422e-06
102,326,1.5234639254308783e-07
103,103,0.0002705179146089956
103,111,4.996070886605283e-05
103,121,4.4014385529245636e-06
103,133,1.8373126814212653e-07
103,146,0.0004413331894710155
103,152,0.0002272774078510149
103,160,4.439035727098127e-05
103,170,4.367318924978889e-06
103,182,2.3428444013403186e-07
103,210,0.0003685756493332997
103,216,0.00019374468103761672
103,224,3.9199847971467304e-05
103,234,4.111316579619221e-06
103,246,2.486673723362285e-07
103,291,0.0003138876743123945
103,297,0.00016738309843518826
103,305,3.4685658148006706e-05
103,315,3.7912541039266863e-06
103,327,2.4621595760740096e-07
104,104,0.00012390003663978534
104,112,2.6207343912446144e-05
104,122,2.5388797415728052e-06
104,134,1.1308730441402267e-07
104,143,9.672692106793812e-06
104,147,0.00016623000643147106
104,153,0.00010418233073426877
104,161,2.3297615110195273e-05
104,171,2.520121125881015e-06
104,183,1.449209793238765e-07
104,207,7.460109935416629e-06
104,211,0.00013899425899965043
104,217,8.886217595716058e-05
104,225,2.0583073926841183e-05
104,235,2.3729937203674603e-06
104,247,1.5384426824009422e-07
104,288,5.978856412929523e-06
104,292,0.00011847426593480353
104,298,7.680287150862437e-05
104,306,1.8217473399065298e-05
104,316,2.1886579023811422e-06
104,328,1.5234639254308783e-07
105,105,2.923749368502882e-05
105,113,7.419002994913337e-06
105,123,8.138500721737943e-07
105,135,3.915429519644008e-08
105,148,2.8863375550883233e-05
105,154,2.4610345759343858e-05
105,162,6.599874918068451e-06
105,172,8.082478641496737e-07
105,184,4.9963524476687495e-08
105,212,2.4168287366707402e-05
105,218,2.10064889477657e-05
105,226,5.833162023822352e-06
105,236,7.613272430194754e-07
105,248,5.30556855970808e-08
105,293,2.0621128411635805e-05
105,299,1.8165124775011076e-05
105,307,5.164579447134386e-06
105,317,7.023623565875065e-07
105,329,5.255028439606667e-08
106,106,3.404271937203556e-06
106,114,1.1498358531296972e-06
106,124,1.473277476550118e-07
106,155,2.869072003743345e-06
106,163,1.0237200477816568e-06
106,173,1.464033493546973e-07
106,219,2.4508682172945882e-06
106,227,9.052844118131162e-07
106,237,1.3796237100357638e-07
106,249,1.007298954353904e-08
106,300,2.1206596799762637e-06
106,308,8.017651728924791e-07
106,318,1.2731553875985318e-07
107,107,5.143008621996046e-08
107,156,4.579707043713957e-08
107,220,4.00478073596102e-08
107,301,3.547064368604426e-08
108,108,4.668471549636113e-07
108,118,6.924019150040528e-08
108,149,9.67283568149288e-07
108,157,4.1527814916535995e-07
108,167,6.874153816158888e-08
108,213,8.252251086012773e-07
108,221,3.669190186946908e-07
108,231,6.473671616928923e-08
108,294,7.133944529435767e-07
108,302,3.2479117837947947e-07
108,312,5.971347008377216e-08
109,109,2.207231084619754e-06
109,119,2.7699374505685076e-07
109,131,1.3668897533094575e-08
109,144,5.863884145695286e-06
109,150,6.233745745061577e-06
109,158,1.9611379249712326e-06
109,168,2.7483112489324975e-07
109,180,1.7422773229089878e-08
109,208,4.898458611732619e-06
109,214,5.314539405450389e-06
109,222,1.7318253563864558e-06
109,232,2.5871122668684813e-07
109,244,1.8486775033550985e-08
109,289,4.172499644689888e-06
109,295,4.5917092200941846e-06
109,303,1.5323909673809102e-06
109,313,2.38564882878216e-07
109,325,1.8300590638127522e-08
110,110,6.443184300964739e-06
110,120,7.115868334606537e-07
110,132,3.496185789953497e-08
110,145,2.8571262076417535e-05
110,151,2.2000395719276303e-05
110,159,5.720995529704624e-06
110,169,7.056936753752504e-07
110,181,4.561096797555055e-08
110,209,2.383249487701767e-05
110,215,1.8742603820359962e-05
110,223,5.049737213181148e-06
110,233,6.640839776163447e-07
110,245,4.839494103769655e-08
110,290,2.0278798548123522e-05
110,296,1.6185090866699295e-05
110,304,4.46675207874874e-06
110,314,6.122265195860435e-07
110,326,4.790643152614626e-08
111,111,1.0788682903773573e-05
111,121,1.0921715224956502e-06
111,133,5.156057042267909e-08
111,146,6.600813496018612e-05
111,152,4.190364057175319e-05
111,160,9.574914813871428e-06
111,170,1.082783061156025e-06
111,182,6.585588816409979e-08
111,210,5.499131214412664e-05
111,216,3.567944643423933e-05
111,224,8.448729293195906e-06
111,234,1.018717274446642e-06
111,246,6.986587807003949e-08
111,291,4.6749310639806944e-05
111,297,3.0798951661058726e-05
111,305,7.47160094934066e-06
111,315,9.390205521803315e-07
111,327,6.915377666192016e-08
112,112,6.4431843009647364e-06
112,122,7.115868334606537e-07
112,134,3.496185789953496e-08
112,147,2.8571262076417532e-05
112,153,2.2000395719276303e-05
112,161,5.7209955297046214e-06
112,171,7.056936753752504e-07
112,183,4.561096797555053e-08
112,211,2.3832494877017666e-05
112,217,1.8742603820359962e-05
112,225,5.049737213181147e-06
112,235,6.640839776163445e-07
112,247,4.8394941037696535e-08
112,292,2.0278798548123522e-05
112,298,1.6185090866699295e-05
112,306,4.466752078748738e-06
112,316,6.122265195860431e-07
112,328,4.790643152614625e-08
113,113,2.2072310846197544e-06
113,123,2.7699374505685087e-07
113,135,1.366889753309458e-08
113,148,5.863884145695286e-06
113,154,6.233745745061577e-06
113,162,1.961137924971233e-06
113,172,2.748311248932498e-07
113,184,1.742277322908988e-08
113,212,4.898458611732619e-06
113,218,5.314539405450389e-06
113,226,1.731825356386456e-06
113,236,2.587112266868482e-07
113,248,1.8486775033550988e-08
113,293,4.172499644689889e-06
113,299,4.591709220094184e-06
113,307,1.53239096738091e-06
113,317,2.38564882878216e-07
113,329,1.830059063812753e-08
114,114,4.668471549636114e-07
114,124,6.924019150040528e-08
114,155,9.67283568149288e-07
114,163,4.1527814916535995e-07
114,173,6.87415381615889e-08
114,219,8.252251086012771e-07
114,227,3.669190186946908e-07
114,237,6.473671616928923e-08
114,300,7.133944529435767e-07
114,308,3.2479117837947947e-07
114,318,5.971347008377216e-08
115,115,5.143008621996046e-08
115,164,4.579707043713958e-08
115,228,4.00478073596102e-08
115,309,3.5470643686044266e-08
118,118,1.0605346637877624e-08
118,149,1.2372433859171298e-07
118,157,6.149883759855679e-08
118,167,1.0518615266775681e-08
118,213,1.0543826465004759e-07
118,221,5.4294872244387504e-08
118,294,9.108064715014704e-08
118,302,4.8019171633792396e-08
119,119,3.8398430400025843e-08
119,144,5.310034799352821e-07
119,150,6.826722729485917e-07
119,158,2.4583090732783916e-07
119,168,3.8064086426950455e-08
119,208,4.4247691020788305e-07
119,214,5.812977608975275e-07
119,222,2.1692699672303445e-07
119,232,3.580919324436969e-08
119,289,3.7623833069586463e-07
119,295,5.013672202070803e-07
119,303,1.9148452864918331e-07
119,313,3.296702621919368e-08
120,120,8.765672402607236e-08
120,145,2.302318352692829e-06
120,151,2.1275769243054836e-06
120,159,6.311388012910071e-07
120,169,8.685682904080572e-08
120,209,1.9152167570242823e-06
120,215,1.810453600689497e-06
120,223,5.566679005730859e-07
120,233,8.168777378590611e-08
120,290,1.6267149468836788e-06
120,296,1.5621301655817483e-06
120,304,4.921365611223178e-07
120,314,7.527739578016119e-08
121,121,1.243638647823645e-07
121,146,4.804938187222291e-06
121,152,3.6858482666333857e-06
121,160,9.68296565675085e-07
121,170,1.232002604217954e-07
121,210,3.993386639819297e-06
121,216,3.1351658508343174e-06
121,224,8.538102547242118e-07
121,234,1.1584974986918733e-07
121,291,3.3887149475927142e-06
121,297,2.7041877895222186e-06
121,305,7.543379788006076e-07
121,315,1.0667115740366532e-07
122,122,8.765672402607234e-08
122,147,2.3023183526928285e-06
122,153,2.1275769243054836e-06
122,161,6.311388012910069e-07
122,171,8.68568290408057e-08
122,211,1.9152167570242823e-06
122,217,1.810453600689497e-06
122,225,5.566679005730858e-07
122,235,8.168777378590608e-08
122,292,1.6267149468836788e-06
122,298,1.5621301655817483e-06
122,306,4.921365611223177e-07
122,316,7.527739578016119e-08
123,123,3.8398430400025857e-08
123,148,5.310034799352823e-07
123,154,6.826722729485917e-07
123,162,2.458309073278392e-07
123,172,3.806408642695047e-08
123,212,4.4247691020788316e-07
123,218,5.812977608975275e-07
123,226,2.1692699672303445e-07
123,236,3.5809193244369705e-08
123,293,3.7623833069586474e-07
123,299,5.013672202070803e-07
123,307,1.9148452864918337e-07
123,317,3.296702621919368e-08
124,124,1.0605346637877622e-08
124,155,1.2372433859171296e-07
124,163,6.149883759855679e-08
124,173,1.0518615266775681e-08
124,219,1.0543826465004759e-07
124,227,5.4294872244387504e-08
124,300,9.108064715014704e-08
124,308,4.8019171633792396e-08
131,144,2.086079141807417e-08
131,150,3.276086165021379e-08
131,158,1.2110081624345884e-08
131,208,1.7361850121463494e-08
131,214,2.721323845979798e-08
131,222,1.0673059698660404e-08
131,289,1.4749227476705845e-08
131,295,2.286522168602525e-08
132,145,8.611269808708746e-08
132,151,9.460619472315992e-08
132,159,3.06248273920329e-08
132,209,7.145598105467304e-08
132,215,8.041101990656923e-08
132,223,2.698482608259051e-08
132,290,6.05719860955221e-08
132,296,6.932350662560226e-08
132,304,2.3839919429978175e-08
133,146,1.6736783914641228e-07
133,152,1.5419717565145954e-07
133,160,4.56635103368778e-08
133,210,1.386995965254204e-07
133,216,1.3029108471015867e-07
133,224,4.023434022671086e-08
133,291,1.1746179141992869e-07
133,297,1.1230947363399463e-07
133,305,3.554417494840007e-08
134,147,8.611269808708746e-08
134,153,9.460619472315992e-08
134,161,3.06248273920329e-08
134,211,7.145598105467304e-08
134,217,8.041101990656925e-08
134,225,2.6984826082590507e-08
134,292,6.057198609552213e-08
134,298,6.932350662560226e-08
134,306,2.383991942997817e-08
135,148,2.0860791418074175e-08
135,154,3.2760861650213794e-08
135,162,1.211008162434589e-08
135,212,1.7361850121463498e-08
135,218,2.7213238459797985e-08
135,226,1.0673059698660407e-08
135,293,1.4749227476705853e-08
135,299,2.286522168602525e-08
140,140,0.0002097400587709549
140,182,1.0527659986380877e-08
140,204,0.00017522951393178921
140,285,0.0001492798572999189
141,141,8.089264908621082e-05
141,145,7.253708689091714e-05
141,151,8.335776893177097e-06
141,205,6.757547554759608e-05
141,209,6.125463464082334e-05
141,215,7.229103774262817e-06
141,286,5.756405729313713e-05
141,290,5.258168336348026e-05
141,296,6.3220232320438045e-06
142,142,0.00045409677769231855
142,146,0.00023788647205127096
142,206,0.0003792735940304387
142,210,0.00020154446281711586
142,287,0.0003230380712630872
142,291,0.000173407794520297
143,143,8.089264908621082e-05
143,147,7.253708689091714e-05
143,153,8.335776893177097e-06
143,207,6.757547554759608e-05
143,211,6.125463464082335e-05
143,217,7.229103774262817e-06
143,288,5.756405729313713e-05
143,292,5.2581683363480274e-05
143,298,6.3220232320438045e-06
144,144,3.863851300363378e-05
144,150,2.4348838633562352e-05
144,158,5.226051724141659e-06
144,168,5.280545730115635e-07
144,180,2.7313344952389683e-08
144,208,3.243652062680598e-05
144,214,2.0814651393244253e-05
144,222,4.623126825898143e-06
144,232,4.976115064786434e-07
144,244,2.9030307285560013e-08
144,289,2.7726970055861032e-05
144,295,1.8018691067996738e-05
144,303,4.096468805111548e-06
144,313,4.5956998753661426e-07
144,325,2.877261760797671e-08
145,145,0.0002939081460842282
145,151,0.00014009167964703552
145,159,2.5441640487822388e-05
145,169,2.2878820367226493e-06
145,181,1.0997167036423394e-07
145,205,5.963791373532077e-05
145,209,0.00024641699230050056
145,215,0.00011967648703577781
145,223,2.2500730996406227e-05
145,233,2.156343571432998e-06
145,245,1.168402866758321e-07
145,286,5.022164251858246e-05
145,290,0.0002104453272574051
145,296,0.0001035504732300284
145,304,1.993110950367347e-05
145,314,1.9901785909302337e-06
145,326,1.1577166747319898e-07
146,146,0.0009483245379892361
146,152,0.0003716383728050999
146,160,5.874723372480032e-05
146,170,4.774757615044601e-06
146,182,2.1383191617055127e-07
146,206,0.00019303961918904356
146,210,0.0007942336883207488
146,216,0.00031730515362757576
146,224,5.1937879468151904e-05
146,234,4.499109806498452e-06
146,246,2.271626234226107e-07
146,287,0.00016098894466243008
146,291,0.0006777679268364608
146,297,0.00027444063461432646
146,305,4.599474913490273e-05
146,315,4.151667850586956e-06
146,327,2.250552448341002e-07
147,147,0.00029390814608422827
147,153,0.00014009167964703552
147,161,2.5441640487822388e-05
147,171,2.287882036722649e-06
147,183,1.0997167036423397e-07
147,207,5.963791373532077e-05
147,211,0.0002464169923005006
147,217,0.00011967648703577783
147,225,2.2500730996406227e-05
147,235,2.156343571432998e-06
147,247,1.1684028667583211e-07
147,288,5.0221642518582466e-05
147,292,0.00021044532725740517
147,298,0.00010355047323002843
147,306,1.9931109503673466e-05
147,316,1.9901785909302337e-06
147,328,1.15771667473199e-07
148,148,3.8638513003633793e-05
148,154,2.4348838633562352e-05
148,162,5.226051724141659e-06
148,172,5.280545730115635e-07
148,184,2.7313344952389693e-08
148,212,3.243652062680598e-05
148,218,2.081465139324425e-05
148,226,4.623126825898143e-06
148,236,4.976115064786434e-07
148,248,2.9030307285560017e-08
148,293,2.7726970055861032e-05
148,299,1.8018691067996738e-05
148,307,4.096468805111548e-06
148,317,4.5956998753661436e-07
148,329,2.877261760797672e-08
149,149,2.417909538586039e-06
149,157,8.611299345771358e-07
149,167,1.2295018146660233e-07
149,213,2.065634521051812e-06
149,221,7.615809305541147e-07
149,231,1.1586279497281895e-07
149,294,1.787337344505067e-06
149,302,6.745605319586627e-07
149,312,1.0692234511200087e-07
150,150,2.071601556734575e-05
150,158,5.5457663458101545e-06
150,168,6.779858080662372e-07
150,180,4.184125684357194e-08
150,208,2.0388629231849803e-05
150,214,1.768273723617766e-05
150,222,4.9015478345707495e-06
150,232,6.386354435633413e-07
150,244,4.4431338520264436e-08
150,289,1.739652430161973e-05
150,295,1.5291137242233853e-05
150,303,4.33963884141308e-06
150,313,5.891645984573513e-07
150,325,4.4008512801459945e-08
151,151,8.760503098916386e-05
151,159,1.95582225177347e-05
151,169,2.1119003728396525e-06
151,181,1.206740871860247e-07
151,205,6.44117817407485e-06
151,209,0.00011714209770034232
151,215,7.472402824737018e-05
151,223,1.7277829670676065e-05
151,233,1.988633198220551e-06
151,245,1.2810605334293532e-07
151,286,5.170223039807525e-06
151,290,9.985035274803022e-05
151,296,6.458429736073515e-05
151,304,1.5292272452316237e-05
151,314,1.8341643694632135e-06
151,326,1.2685997773755779e-07
152,152,0.00019095457105762763
152,160,3.72325582893343e-05
152,170,3.657357626179415e-06
152,182,1.9588998707679258e-07
152,210,0.0003103815672421501
152,216,0.00016278444178375052
152,224,3.2879564949643295e-05
152,234,3.443278430196133e-06
152,246,2.0791161165826306e-07
152,291,0.000264334928946876
152,297,0.00014063757930971192
152,305,2.909353358933467e-05
152,315,3.1752641936300133e-06
152,327,2.0586398404937722e-07
153,153,8.760503098916386e-05
153,161,1.9558222517734698e-05
153,171,2.1119003728396516e-06
153,183,1.206740871860247e-07
153,207,6.44117817407485e-06
153,211,0.00011714209770034233
153,217,7.472402824737017e-05
153,225,1.7277829670676065e-05
153,235,1.9886331982205507e-06
153,247,1.2810605334293532e-07
153,288,5.170223039807527e-06
153,292,9.985035274803022e-05
153,298,6.458429736073515e-05
153,306,1.5292272452316234e-05
153,316,1.8341643694632135e-06
153,328,1.2685997773755779e-07
154,154,2.071601556734574e-05
154,162,5.545766345810153e-06
154,172,6.779858080662372e-07
154,184,4.184125684357194e-08
154,212,2.03886292318498e-05
154,218,1.768273723617766e-05
154,226,4.9015478345707495e-06
154,236,6.386354435633413e-07
154,248,4.4431338520264436e-08
154,293,1.739652430161973e-05
154,299,1.529113724223385e-05
154,307,4.33963884141308e-06
154,317,5.891645984573513e-07
154,329,4.400851280145996e-08
155,155,2.417909538586039e-06
155,163,8.611299345771358e-07
155,173,1.2295018146660233e-07
155,219,2.065634521051812e-06
155,227,7.615809305541149e-07
155,237,1.1586279497281895e-07
155,300,1.787337344505067e-06
155,308,6.745605319586627e-07
155,318,1.0692234511200087e-07
156,156,4.031988356364417e-08
156,220,3.5654338147764075e-08
156,301,3.167715652881465e-08
157,157,3.6927370437482226e-07
157,167,6.105680090982215e-08
157,213,7.348006205584121e-07
157,221,3.262752493555551e-07
157,231,5.750024363335955e-08
157,294,6.352293683856271e-07
157,302,2.8881611457896407e-07
157,312,5.303888033456567e-08
158,158,1.7425118641179545e-06
158,168,2.439151721742028e-07
158,180,1.543622990638392e-08
158,208,4.364903735571634e-06
158,214,4.727879728546024e-06
158,222,1.5387805573135477e-06
158,232,2.2961092638295405e-07
158,244,1.6379182730480372e-08
158,289,3.71802115847371e-06
158,295,4.084831249947389e-06
158,303,1.361588116804685e-06
158,313,2.1174241347334123e-07
158,325,1.621441455581085e-08
159,159,5.0798455212558754e-06
159,169,6.259216268445732e-07
159,181,4.035983962069521e-08
159,209,2.1222509410154566e-05
159,215,1.666232939489342e-05
159,223,4.4838704874288474e-06
159,233,5.890218015284662e-07
159,245,4.287645221525977e-08
159,290,1.8058350310706786e-05
159,296,1.4388843144779362e-05
159,304,3.966259767290695e-06
159,314,5.430299995621122e-07
159,326,4.244394741781015e-08
160,160,8.497859657132789e-06
160,170,9.599885824356862e-07
160,182,5.8312066777980645e-08
160,210,4.8943799078383346e-05
160,216,3.170269729874466e-05
160,224,7.498454344740326e-06
160,234,9.032089460089983e-07
160,246,6.186332990841403e-08
160,291,4.160912866752059e-05
160,297,2.7366508933574607e-05
160,305,6.631434589320233e-06
160,315,8.325554610939039e-07
160,327,6.12332328183386e-08
161,161,5.079845521255873e-06
161,171,6.259216268445731e-07
161,183,4.0359839620695206e-08
161,211,2.1222509410154563e-05
161,217,1.6662329394893415e-05
161,225,4.4838704874288474e-06
161,235,5.89021801528466e-07
161,247,4.287645221525976e-08
161,292,1.8058350310706782e-05
161,298,1.4388843144779358e-05
161,306,3.966259767290692e-06
161,316,5.43029999562112e-07
161,328,4.244394741781013e-08
162,162,1.742511864117955e-06
162,172,2.4391517217420285e-07
162,184,1.5436229906383924e-08
162,212,4.364903735571634e-06
162,218,4.727879728546022e-06
162,226,1.5387805573135477e-06
162,236,2.2961092638295405e-07
162,248,1.6379182730480372e-08
162,293,3.7180211584737105e-06
162,299,4.084831249947389e-06
162,307,1.361588116804685e-06
162,317,2.117424134733413e-07
162,329,1.6214414555810856e-08
163,163,3.692737043748223e-07
163,173,6.105680090982215e-08
163,219,7.348006205584121e-07
163,227,3.2627524935555516e-07
163,237,5.750024363335954e-08
163,300,6.352293683856269e-07
163,308,2.888161145789641e-07
163,318,5.3038880334565663e-08
164,164,4.031988356364417e-08
164,228,3.565433814776408e-08
164,309,3.167715652881465e-08
167,167,1.0432802406179089e-08
167,213,1.0477978076507715e-07
167,221,5.390513979786592e-08
167,294,9.051256395716434e-08
167,302,4.7675360245202046e-08
168,168,3.7733190191827756e-08
168,208,4.400309345726871e-07
168,214,5.773149657509004e-07
168,222,2.1523884695003206e-07
168,232,3.5498245500956514e-08
168,289,3.7416482496545285e-07
168,295,4.97937409961478e-07
168,303,1.8999881200209232e-07
168,313,3.268140824726205e-08
169,169,8.60654243556932e-08
169,209,1.9037297500936694e-06
169,215,1.7971389961398847e-06
169,223,5.520722224563278e-07
169,233,8.094423633285254e-08
169,290,1.6169896524394677e-06
169,296,1.5506574400816927e-06
169,304,4.880774822265466e-07
169,314,7.45927140199438e-08
170,170,1.2204926194387428e-07
170,210,3.967996463460665e-06
170,216,3.1109758046327305e-06
170,224,8.46494203995311e-07
170,234,1.1476853283630652e-07
170,291,3.3672427173753313e-06
170,297,2.683351925173002e-06
170,305,7.478829554158534e-07
170,315,1.0567517961353444e-07
171,171,8.606542435569318e-08
171,211,1.9037297500936694e-06
171,217,1.7971389961398847e-06
171,225,5.520722224563277e-07
171,235,8.094423633285252e-08
171,292,1.6169896524394677e-06
171,298,1.5506574400816925e-06
171,306,4.880774822265465e-07
171,316,7.459271401994378e-08
172,172,3.773319019182777e-08
172,212,4.4003093457268724e-07
172,218,5.773149657509004e-07
172,226,2.1523884695003206e-07
172,236,3.549824550095652e-08
172,293,3.74164824965453e-07
172,299,4.97937409961478e-07
172,307,1.899988120020924e-07
172,317,3.268140824726206e-08
173,173,1.0432802406179089e-08
173,219,1.0477978076507712e-07
173,227,5.390513979786592e-08
173,300,9.051256395716432e-08
173,308,4.7675360245202046e-08
180,208,2.2562440444274394e-08
180,214,3.558842455802518e-08
180,222,1.3604739764912469e-08
180,289,1.8853107732424034e-08
180,295,3.0672062419244905e-08
180,303,1.2021267590355277e-08
181,209,9.125650006694179e-08
181,215,1.0256892246629876e-07
181,223,3.478492249933567e-08
181,290,7.73582053522021e-08
181,296,8.84269842677128e-08
181,304,3.038157212763064e-08
182,210,1.772105027330683e-07
182,216,1.6706211602559968e-07
182,224,5.127155259388115e-08
182,291,1.4997155769770323e-07
182,297,1.4395778467692394e-07
182,305,4.529510193750704e-08
183,211,9.125650006694179e-08
183,217,1.0256892246629876e-07
183,225,3.478492249933566e-08
183,292,7.73582053522021e-08
183,298,8.842698426771283e-08
183,306,3.038157212763063e-08
184,212,2.2562440444274394e-08
184,218,3.558842455802518e-08
184,226,1.3604739764912477e-08
184,293,1.8853107732424034e-08
184,299,3.0672062419244905e-08
184,307,1.2021267590355282e-08
204,204,0.00014640569171589794
204,246,1.00288474165083e-08
204,285,0.00012472964117170266
205,205,5.6455081984911306e-05
205,209,5.0369904701410675e-05
205,215,5.593027697604866e-06
205,286,4.809357205040752e-05
205,290,4.324249189772148e-05
205,296,4.895506390116839e-06
206,206,0.0003168213724101573
206,210,0.00016361001158606914
206,287,0.00026987129569490767
206,291,0.00014080650236539776
207,207,5.6455081984911306e-05
207,211,5.036990470141069e-05
207,217,5.593027697604866e-06
207,288,4.809357205040752e-05
207,292,4.324249189772148e-05
207,298,4.895506390116839e-06
208,208,2.7230696195786362e-05
208,214,1.7429558012659492e-05
208,222,3.8621338391817736e-06
208,232,4.1487418093039743e-07
208,244,2.4159207534137363e-08
208,289,2.3277279706435626e-05
208,295,1.5088537097340399e-05
208,303,3.4222063427559265e-06
208,313,3.8299849441693404e-07
208,325,2.394508312283035e-08
209,209,0.00020660533445849492
209,215,0.00010007337111637525
209,223,1.8769679631188197e-05
209,233,1.7943105967691047e-06
209,245,9.69580626385331e-08
209,286,4.241984549392084e-05
209,290,0.00017644877887886115
209,296,8.659009805854586e-05
209,304,1.662636026408913e-05
209,314,1.6560651982883102e-06
209,326,9.607260315667925e-08
210,210,0.0006652028559815053
210,216,0.0002650104566237141
210,224,4.327169349130784e-05
210,234,3.7390004607644837e-06
210,246,1.8824438443333855e-07
210,287,0.00013648460197833302
210,291,0.0005676716449137708
210,297,0.00022921435876776638
210,305,3.832079684756592e-05
210,315,3.4503086568805186e-06
210,327,1.8649896564309493e-07
211,211,0.00020660533445849498
211,217,0.00010007337111637525
211,225,1.87696796311882e-05
211,235,1.7943105967691049e-06
211,247,9.695806263853313e-08
211,288,4.241984549392085e-05
211,292,0.0001764487788788612
211,298,8.659009805854586e-05
211,306,1.6626360264089126e-05
211,316,1.6560651982883102e-06
211,328,9.607260315667925e-08
212,212,2.7230696195786366e-05
212,218,1.742955801265949e-05
212,226,3.862133839181774e-06
212,236,4.148741809303976e-07
212,248,2.4159207534137363e-08
212,293,2.327727970643563e-05
212,299,1.5088537097340399e-05
212,307,3.4222063427559273e-06
212,317,3.829984944169341e-07
212,329,2.3945083122830356e-08
213,213,1.7646918909178288e-06
213,221,6.49804655249642e-07
213,231,9.874062658720405e-08
213,294,1.5275104331360863e-06
213,302,5.755597784873727e-07
213,312,9.11301575034065e-08
214,214,1.5093776484865937e-05
214,222,4.178658372304243e-06
214,232,5.433344948440696e-07
214,244,3.779178778191887e-08
214,289,1.4871937146335001e-05
214,295,1.3052449810790787e-05
214,303,3.6997346401128394e-06
214,313,5.012614736019562e-07
214,325,3.743239310394444e-08
215,215,6.373784935616142e-05
215,223,1.4719743964417597e-05
215,233,1.6922601193914607e-06
215,245,1.0888685600319408e-07
215,286,4.49400392739051e-06
215,290,8.530247557480595e-05
215,296,5.508940282971577e-05
215,304,1.3026843024069928e-05
215,314,1.5608305947420377e-06
215,326,1.0782841153041886e-07
216,216,0.00013877209064318377
216,224,2.7996550109897513e-05
216,234,2.9286907537298305e-06
216,246,1.773213388195753e-07
216,291,0.0002256987731504292
216,297,0.00011989338032366976
216,305,2.477301345607692e-05
216,315,2.700750329534164e-06
216,327,1.7557547762020834e-07
217,217,6.373784935616144e-05
217,225,1.4719743964417592e-05
217,235,1.6922601193914607e-06
217,247,1.0888685600319408e-07
217,288,4.49400392739051e-06
217,292,8.530247557480597e-05
217,298,5.5089402829715786e-05
217,306,1.3026843024069925e-05
217,316,1.560830594742037e-06
217,328,1.0782841153041886e-07
218,218,1.5093776484865935e-05
218,226,4.178658372304242e-06
218,236,5.433344948440696e-07
218,248,3.779178778191888e-08
218,293,1.4871937146335001e-05
218,299,1.3052449810790784e-05
218,307,3.6997346401128394e-06
218,317,5.012614736019562e-07
218,329,3.743239310394444e-08
219,219,1.7646918909178288e-06
219,227,6.49804655249642e-07
219,237,9.874062658720405e-08
219,300,1.5275104331360858e-06
219,308,5.755597784873726e-07
219,318,9.113015750340649e-08
220,220,3.162726965277961e-08
220,301,2.8014923348182602e-08
221,221,2.882856542147009e-07
221,231,5.0750308202769695e-08
221,294,5.618100371983855e-07
221,302,2.55189334363825e-07
221,312,4.644935752582025e-08
222,222,1.358879861735412e-06
222,232,2.0261779113141608e-07
222,244,1.443597505266005e-08
222,289,3.2898005485926263e-06
222,295,3.6103362298390946e-06
222,303,1.202409993442157e-06
222,313,1.8650167264110472e-07
222,325,1.4290870054755482e-08
223,223,3.957860489601835e-06
223,233,5.195298340761376e-07
223,245,3.769771983977041e-08
223,290,1.5971426828508464e-05
223,296,1.2710025301579396e-05
223,304,3.500893555215457e-06
223,314,4.789665934746572e-07
223,326,3.73177750174849e-08
224,224,6.61678872899554e-06
224,234,7.960667928764614e-07
224,246,5.4393567053979936e-08
224,291,3.678760359446971e-05
224,297,2.4167480356355506e-05
224,305,5.851625292654811e-06
224,315,7.337998341222035e-07
224,327,5.383921732881563e-08
225,225,3.957860489601833e-06
225,235,5.195298340761374e-07
225,247,3.76977198397704e-08
225,292,1.5971426828508464e-05
225,298,1.2710025301579395e-05
225,306,3.5008935552154554e-06
225,316,4.789665934746571e-07
225,328,3.7317775017484886e-08
226,226,1.3588798617354121e-06
226,236,2.0261779113141616e-07
226,248,1.443597505266005e-08
226,293,3.2898005485926263e-06
226,299,3.6103362298390946e-06
226,307,1.202409993442157e-06
226,317,1.8650167264110477e-07
226,329,1.4290870054755489e-08
227,227,2.882856542147009e-07
227,237,5.0750308202769695e-08
227,300,5.618100371983855e-07
227,308,2.5518933436382507e-07
227,318,4.644935752582025e-08
228,228,3.1627269652779625e-08
228,309,2.8014923348182602e-08
231,294,8.529619818690371e-08
231,302,4.3835562538865376e-08
232,232,3.339590069610727e-08
232,289,3.527777400621719e-07
232,295,4.690448485132922e-07
232,303,1.7886066704311987e-07
232,313,3.0693001620221386e-08
233,233,7.612827291743285e-08
233,290,1.524079472657421e-06
233,296,1.460173030059814e-06
233,304,4.593096319041758e-07
233,314,7.015497647163168e-08
234,234,1.078454850832595e-07
234,291,3.17296405947357e-06
234,297,2.5261417895082563e-06
234,305,7.036514154870968e-07
234,315,9.933910939297232e-08
235,235,7.612827291743283e-08
235,292,1.5240794726574213e-06
235,298,1.460173030059814e-06
235,306,4.593096319041757e-07
235,316,7.015497647163166e-08
236,236,3.339590069610727e-08
236,293,3.527777400621719e-07
236,299,4.690448485132923e-07
236,307,1.7886066704311992e-07
236,317,3.06930016202214e-08
237,300,8.52961981869037e-08
237,308,4.3835562538865376e-08
244,289,2.0043297032985767e-08
244,295,3.2571476509293826e-08
244,303,1.2755857430398367e-08
245,290,8.219251036441382e-08
245,296,9.387443380456782e-08
245,304,3.223290572338418e-08
246,291,1.5931295616084122e-07
246,297,1.5282742689352942e-07
246,305,4.8053444190433695e-08
247,292,8.219251036441382e-08
247,298,9.387443380456782e-08
247,306,3.223290572338418e-08
248,293,2.0043297032985774e-08
248,299,3.2571476509293826e-08
248,307,1.2755857430398369e-08
285,285,0.00010626593803079353
286,286,4.097222225866711e-05
286,290,3.6420068367938705e-05
286,296,3.93633453646968e-06
287,287,0.000229894315462464
287,291,0.00011748501263514284
288,288,4.097222225866711e-05
288,292,3.6420068367938705e-05
288,298,3.93633453646968e-06
289,289,1.9898047142573802e-05
289,295,1.2874516971983547e-05
289,303,2.915090624571505e-06
289,313,3.256757484596729e-07
289,325,1.9868963035870716e-08
290,290,0.0001506960487925713
290,296,7.381013412146159e-05
290,304,1.4147792019155769e-05
290,314,1.4065224225827422e-06
290,326,8.144270369084614e-08
291,291,0.0004844486498806177
291,297,0.00019521509645021055
291,305,3.257896766430344e-05
291,315,2.9280077469019005e-06
291,327,1.5783776722494026e-07
292,292,0.00015069604879257132
292,298,7.381013412146159e-05
292,306,1.4147792019155767e-05
292,316,1.4065224225827422e-06
292,328,8.144270369084614e-08
293,293,1.989804714257381e-05
293,299,1.2874516971983547e-05
293,307,2.915090624571506e-06
293,317,3.256757484596729e-07
293,329,1.986896303587072e-08
294,294,1.3217336117359122e-06
294,302,4.976212092059594e-07
294,312,7.871516772682686e-08
295,295,1.1287780457258811e-05
295,303,3.1965651836249985e-06
295,313,4.327264058583861e-07
295,325,3.226203437380917e-08
296,296,4.761479016472884e-05
296,304,1.124954295632751e-05
296,314,1.3467659655176435e-06
296,326,9.296235559244425e-08
297,297,0.0001035842902331545
297,305,2.1385056077299704e-05
297,315,2.3295441145045687e-06
297,327,1.5132344255071867e-07
298,298,4.761479016472884e-05
298,306,1.124954295632751e-05
298,316,1.3467659655176433e-06
298,328,9.296235559244426e-08
299,299,1.1287780457258808e-05
299,307,3.1965651836249985e-06
299,317,4.327264058583861e-07
299,329,3.226203437380917e-08
300,300,1.3217336117359122e-06
300,308,4.976212092059594e-07
300,318,7.871516772682686e-08
301,301,2.481524121984428e-08
302,302,2.2589346869191154e-07
302,312,4.0436670837303325e-08
303,303,1.0639613386976746e-06
303,313,1.6493641424837188e-07
303,325,1.2627713347760264e-08
304,304,3.0967817698508835e-06
304,314,4.2344978647272905e-07
304,326,3.190537371106882e-08
305,305,5.174969124841612e-06
305,315,6.486155852594299e-07
305,327,4.756388261187434e-08
306,306,3.0967817698508823e-06
306,316,4.2344978647272884e-07
306,328,3.1905373711068817e-08
307,307,1.0639613386976746e-06
307,317,1.649364142483719e-07
307,329,1.2627713347760269e-08
308,308,2.2589346869191154e-07
308,318,4.0436670837303325e-08
309,309,2.481524121984429e-08
313,313,2.6878338096580622e-08
314,314,6.465058223781936e-08
315,315,9.117118234044843e-08
316,316,6.465058223781936e-08
317,317,2.687833809658063e-08
