# Basis size = 385
0,0,0.05241903825311855
0,3,0.038910696421160525
0,7,0.018993429354676357
0,11,0.0070535797746571535
0,16,0.011835732402163903
0,20,0.005163415635987664
0,26,0.0005977219262257482
0,32,0.008303903209118668
0,36,0.0038535528876813474
0,42,0.000540585952313713
0,50,2.9924289252839993e-05
0,57,0.006249033425056299
0,61,0.0029915196218676977
0,67,0.00045477092224884664
0,75,3.129051835895034e-05
0,85,9.993726880486868e-07
0,93,0.004926542176702656
0,97,0.0024012684504430217
0,103,0.00038108193806799234
0,111,2.8879053421476077e-05
0,121,1.1680328209934262e-06
0,133,2.406468746149683e-08
0,142,0.004015106799243345
0,146,0.0019794788049839326
0,152,0.00032245324135985837
0,160,2.5792848552103637e-05
0,170,1.1637714960759424e-06
0,182,3.079150527670739e-08
0,206,0.0033549946315784146
0,210,0.0016668278189670889
0,216,0.0002762241453447809
0,224,2.2858312611116796e-05
0,234,1.0986605420987198e-06
0,246,3.272919532736012e-08
0,287,0.0028585180415603745
0,291,0.0014279314524562
0,297,0.00023947651912098846
0,305,2.0277688690020755e-05
0,315,1.0151887706909982e-06
0,327,3.24611783990638e-08
1,1,0.025540059280265103
1,5,0.011970881561309507
1,14,0.007303664922088494
1,30,0.005068167521560154
1,55,0.0037900475556490853
1,91,0.0029762891136929036
1,140,0.002419400002137298
1,204,0.0020180129664180814
1,285,0.001717163881734661
2,2,0.016749394072726364
2,6,0.007276405971561042
2,10,0.007403086916922405
2,15,0.0043394754582934125
2,19,0.005295408961632391
2,25,0.001156019843272843
2,31,0.0029814592555630366
2,35,0.003909577063016863
2,41,0.0010371551613101966
2,49,9.355498579812653e-05
2,56,0.0022179101765685155
2,60,0.0030171573833932467
2,66,0.0008687048193923374
2,74,9.747479986984605e-05
2,84,4.673915771781097e-06
2,92,0.0017362941928963465
2,96,0.0024132232927806534
2,102,0.0007260237608681615
2,110,8.976752381926685e-05
2,120,5.452473367891421e-06
2,132,1.593346443752746e-07
2,141,0.0014085993030021732
2,145,0.001984725014102421
2,151,0.0006132732264749416
2,159,8.006147669680138e-05
2,169,5.425959146177032e-06
2,181,2.0365543690635972e-07
2,205,0.001173309700845754
2,209,0.0016685868939314554
2,215,0.000524732129187172
2,223,7.088400533618281e-05
2,233,5.118103356545916e-06
2,245,2.1650687791802339e-07
2,286,0.0009974237087178994
2,290,0.0014278102542583722
2,296,0.00045454104348751484
2,304,6.283794367206934e-05
2,314,4.726401705689124e-06
2,326,2.146200392079095e-07
3,3,0.08932025210621845
3,7,0.034865813731441174
3,11,0.029387390975444502
3,16,0.019874123697892092
3,20,0.020730950713405902
3,26,0.0038579379506032165
3,32,0.013348499306917783
3,36,0.015205180376664911
3,42,0.0034481564086822096
3,50,0.0002771490672115164
3,57,0.009803319603337914
3,61,0.011691998676593391
3,67,0.0028821407596320413
3,75,0.00028835332430287837
3,85,1.2678273977537905e-05
3,93,0.007613948408644775
3,97,0.00933113790991568
3,103,0.0024057416233608264
3,111,0.0002653266355492818
3,121,1.4780779561137088e-05
3,133,4.039604724156561e-07
3,142,0.006144778395946702
3,146,0.007663300322559679
3,152,0.002030475492530746
3,160,0.0002365070211241535
3,170,1.4702864634382564e-05
3,182,5.161191769976912e-07
3,206,0.005099888604912623
3,210,0.0064363102293472476
3,216,0.001736353162500009
3,224,0.00020931636699847198
3,234,1.386475284110555e-05
3,246,5.485675796310419e-07
3,260,1.3081516246012332e-08
3,287,0.0043241047903078
3,291,0.005503669526186852
3,297,0.0015034855817183698
3,305,0.00018550616273932104
3,315,1.2801119024248014e-05
3,327,5.437012580096493e-07
3,341,1.4764877354719064e-08
4,4,0.016749394072726364
4,8,0.007276405971561042
4,12,0.007403086916922407
4,17,0.0043394754582934125
4,21,0.005295408961632391
4,27,0.0011560198432728431
4,33,0.0029814592555630366
4,37,0.003909577063016863
4,43,0.0010371551613101966
4,51,9.355498579812647e-05
4,58,0.0022179101765685155
4,62,0.0030171573833932467
4,68,0.0008687048193923374
4,76,9.747479986984605e-05
4,86,4.673915771781097e-06
4,94,0.0017362941928963465
4,98,0.0024132232927806534
4,104,0.0007260237608681615
4,112,8.976752381926685e-05
4,122,5.45247336789142e-06
4,134,1.593346443752746e-07
4,143,0.0014085993030021732
4,147,0.0019847250141024216
4,153,0.0006132732264749416
4,161,8.006147669680137e-05
4,171,5.425959146177031e-06
4,183,2.0365543690635972e-07
4,207,0.001173309700845754
4,211,0.0016685868939314557
4,217,0.000524732129187172
4,225,7.088400533618278e-05
4,235,5.1181033565459145e-06
4,247,2.1650687791802339e-07
4,288,0.0009974237087178994
4,292,0.0014278102542583722
4,298,0.00045454104348751484
4,306,6.283794367206933e-05
4,316,4.726401705689124e-06
4,328,2.146200392079095e-07
5,5,0.005949333600843456
5,14,0.00370740838296583
5,30,0.0025983797829693
5,55,0.001953731921207834
5,91,0.0015393280313278823
5,140,0.0012540034533536984
5,204,0.0010475083527856214
5,285,0.0008922891095530465
6,6,0.003434649951604877
6,10,0.0026099865021735743
6,15,0.00210951083296825
6,19,0.0019123855659194825
6,25,0.0003156343707275741
6,31,0.001469388003336408
6,35,0.0014274853349573273
6,41,0.0002867557074053392
6,49,1.7992072761919092e-05
6,56,0.0011013006078455893
6,60,0.0011081803848353748
6,66,0.00024180805038307
6,74,1.8917268960185096e-05
6,84,5.091928648556426e-07
6,92,0.0008660695657827346
6,96,0.0008895162458671581
6,102,0.00020291125797045588
6,110,1.751659435549132e-05
6,120,5.99625976530522e-07
6,141,0.0007046878694190072
6,145,0.0007332571586072921
6,151,0.0001718484172090715
6,159,1.5677660525014038e-05
6,169,6.003363470334571e-07
6,205,0.0005881665827696533
6,209,0.0006174318292187049
6,215,0.00014730122790022868
6,223,1.3913654963887965e-05
6,233,5.68619124585468e-07
6,286,0.0005007214496243099
6,290,0.0005289316493208313
6,296,0.00012776060141944355
6,304,1.2355489616644143e-05
6,314,5.266517214009483e-07
7,7,0.015579130772031243
7,11,0.009061615798150147
7,16,0.009346551961683327
7,20,0.0066133938476170455
7,26,0.0008856486075696134
7,32,0.006434459304702054
7,36,0.004926378214890801
7,42,0.0008055103485946558
7,50,4.149909037832203e-05
7,57,0.004790793388675402
7,61,0.0038199353355395254
7,67,0.0006796173527842942
7,75,4.375241009899434e-05
7,85,8.515197110918609e-07
7,93,0.0037521808398433714
7,97,0.0030639590052737066
7,103,0.0005704693407472683
7,111,4.057784320806766e-05
7,121,1.0097476979532026e-06
7,142,0.0030448305957493033
7,146,0.0025245065419109403
7,152,0.00048323021781897224
7,160,3.635502064461511e-05
7,170,1.0153533287813897e-06
7,206,0.0025366530930705264
7,210,0.0021250268292935964
7,216,0.0004142569301463496
7,224,3.228744334343695e-05
7,234,9.644576820966942e-07
7,287,0.002156637286107179
7,291,0.0018199967179388565
7,297,0.0003593343103090835
7,305,2.8686679891344778e-05
7,315,8.95134000140586e-07
8,8,0.003434649951604877
8,12,0.0026099865021735743
8,17,0.00210951083296825
8,21,0.0019123855659194825
8,27,0.0003156343707275741
8,33,0.001469388003336408
8,37,0.0014274853349573275
8,43,0.0002867557074053392
8,51,1.799207276191909e-05
8,58,0.0011013006078455893
8,62,0.001108180384835375
8,68,0.00024180805038307
8,76,1.8917268960185092e-05
8,86,5.091928648556425e-07
8,94,0.0008660695657827346
8,98,0.0008895162458671586
8,104,0.00020291125797045588
8,112,1.7516594355491313e-05
8,122,5.996259765305219e-07
8,143,0.0007046878694190072
8,147,0.0007332571586072921
8,153,0.0001718484172090715
8,161,1.5677660525014034e-05
8,171,6.00336347033457e-07
8,207,0.0005881665827696533
8,211,0.0006174318292187051
8,217,0.00014730122790022868
8,225,1.3913654963887965e-05
8,235,5.686191245854678e-07
8,288,0.0005007214496243099
8,292,0.0005289316493208313
8,298,0.00012776060141944355
8,306,1.2355489616644143e-05
8,316,5.266517214009483e-07
9,9,0.0007813186080712393
9,18,0.0005534455654937218
9,24,0.00021059447111205904
9,34,0.00040673293340156067
9,40,0.00018832923106995103
9,48,2.4625956266664275e-05
9,59,0.0003131008505889653
9,65,0.0001574628629782241
9,73,2.5621414968334116e-05
9,83,1.6389318277936057e-06
9,95,0.0002500468748430224
9,101,0.0001314596402873175
9,109,2.357535916476086e-05
9,119,1.9105248869382855e-06
9,131,7.05415638356847e-08
9,144,0.00020544382407099314
9,150,0.00011096698389919139
9,158,2.10146023233057e-05
9,168,1.9003369352113727e-06
9,180,9.013037887968618e-08
9,208,0.00017260182221790166
9,214,9.490088757593169e-05
9,222,1.8598599531280887e-05
9,232,1.7919359642664113e-06
9,244,9.579193029445352e-08
9,289,0.0001476232913612516
9,295,8.217835461007469e-05
9,303,1.6482963556381913e-05
9,313,1.6544342037689324e-06
9,325,9.493866344902295e-08
10,10,0.004869952488517307
10,15,0.0014190453147681517
10,19,0.003390105840171845
10,25,0.0010012193278071796
10,31,0.00092966653951825
10,35,0.0024708088366960715
10,41,0.0008912774489563092
10,49,0.00010094695989089545
10,56,0.0006729418215980145
10,60,0.00189331680025072
10,66,0.0007433360042993455
10,74,0.00010485235618768723
10,84,6.082987717971234e-06
10,92,0.0005179229935450021
10,96,0.0015078198539827303
10,102,0.0006196412494143931
10,110,9.638177773081384e-05
10,120,7.0858579476965036e-06
10,132,2.446912098574607e-07
10,141,0.00041546255984340564
10,145,0.0012366043695158362
10,151,0.0005225316849493928
10,159,8.585640268115204e-05
10,169,7.044701369367018e-06
10,181,3.1252320904363304e-07
10,205,0.000343361814135186
10,209,0.0010376221079167825
10,215,0.00044657502721025553
10,223,7.595143032428711e-05
10,233,6.640670018190996e-06
10,245,3.320345588845005e-07
10,286,0.00029024135765571657
10,290,0.0008866632591074044
10,296,0.00038651870910086687
10,304,6.729005885853934e-05
10,314,6.129606392397862e-06
10,326,3.290143871742692e-07
11,11,0.013515698985672078
11,16,0.0045872544649487165
11,20,0.009278912911495055
11,26,0.00229096599261907
11,32,0.0028855789439601273
11,36,0.006717753355356088
11,42,0.0020320876694472053
11,50,0.00020420935585289433
11,57,0.0020376924966344083
11,61,0.005128649924663826
11,67,0.0016914519827603701
11,75,0.0002118377648921186
11,85,1.1298073518234956e-05
11,93,0.0015434324597642657
11,97,0.004075216620726979
11,103,0.00140830469655459
11,111,0.0001945732462885108
11,121,1.3153474225102302e-05
11,133,4.270137065545932e-07
11,142,0.0012247490938295791
11,146,0.00333727918443243
11,152,0.0011866742801969119
11,160,0.000173237433058152
11,170,1.307239278866752e-05
11,182,5.452332660698619e-07
11,196,1.2014579673204892e-08
11,206,0.0010044800977779985
11,210,0.002797438452867432
11,216,0.0010136347988049105
11,224,0.00015319852861689825
11,234,1.231963270040352e-05
11,246,5.792207711724596e-07
11,260,1.657293094892166e-08
11,287,0.0008443417200307249
11,291,0.002388713033589924
11,297,0.0008769837290088879
11,305,0.00013569437592974304
11,315,1.1369518277262884e-05
11,327,5.738760255166911e-07
11,341,1.8941946239040868e-08
12,12,0.004869952488517308
12,17,0.0014190453147681517
12,21,0.0033901058401718458
12,27,0.0010012193278071796
12,33,0.00092966653951825
12,37,0.0024708088366960715
12,43,0.0008912774489563092
12,51,0.00010094695989089545
12,58,0.0006729418215980147
12,62,0.00189331680025072
12,68,0.0007433360042993456
12,76,0.00010485235618768723
12,86,6.082987717971234e-06
12,94,0.0005179229935450023
12,98,0.001507819853982731
12,104,0.0006196412494143933
12,112,9.638177773081384e-05
12,122,7.085857947696502e-06
12,134,2.446912098574607e-07
12,143,0.0004154625598434058
12,147,0.0012366043695158364
12,153,0.0005225316849493929
12,161,8.585640268115203e-05
12,171,7.044701369367018e-06
12,183,3.1252320904363304e-07
12,207,0.000343361814135186
12,211,0.001037622107916783
12,217,0.00044657502721025553
12,225,7.595143032428711e-05
12,235,6.640670018190996e-06
12,247,3.320345588845005e-07
12,288,0.0002902413576557167
12,292,0.0008866632591074046
12,298,0.00038651870910086687
12,306,6.729005885853934e-05
12,316,6.129606392397861e-06
12,328,3.2901438717426923e-07
13,13,0.0007813186080712393
13,22,0.000553445565493722
13,28,0.00021059447111205904
13,38,0.0004067329334015608
13,44,0.00018832923106995103
13,52,2.4625956266664275e-05
13,63,0.00031310085058896544
13,69,0.0001574628629782241
13,77,2.5621414968334127e-05
13,87,1.638931827793606e-06
13,99,0.00025004687484302243
13,105,0.0001314596402873175
13,113,2.357535916476086e-05
13,123,1.9105248869382864e-06
13,135,7.054156383568472e-08
13,148,0.0002054438240709932
13,154,0.00011096698389919139
13,162,2.10146023233057e-05
13,172,1.9003369352113733e-06
13,184,9.013037887968617e-08
13,212,0.0001726018222179017
13,218,9.490088757593167e-05
13,226,1.8598599531280887e-05
13,236,1.7919359642664115e-06
13,248,9.579193029445356e-08
13,293,0.00014762329136125166
13,299,8.217835461007469e-05
13,307,1.6482963556381916e-05
13,317,1.654434203768933e-06
13,329,9.493866344902299e-08
14,14,0.0023274279210969387
14,30,0.0016367983720131914
14,55,0.001233010661742133
14,91,0.0009725718919762765
14,140,0.0007928786882080756
14,204,0.0006626486458097942
14,285,0.0005646603403191642
15,15,0.0013085466521509598
15,19,0.0010512858269271922
15,25,0.00014795508113601353
15,31,0.0009156230448756227
15,35,0.0007886054578888576
15,41,0.00013551577581863376
15,49,6.084625852870416e-06
15,56,0.0006879436584072357
15,60,0.0006138243425631164
15,66,0.00011476841753036352
15,74,6.468886096677996e-06
15,92,0.0005418030723426544
15,96,0.0004934829196825693
15,102,9.655460100349542e-05
15,110,6.029156701396463e-06
15,120,1.3751868365926795e-08
15,141,0.00044126685304748297
15,145,0.0004072081439157725
15,151,8.190874305498912e-05
15,159,5.4188188124052e-06
15,169,1.6345679604172253e-08
15,205,0.0003685443431665805
15,209,0.000343123943534891
15,215,7.028791314935883e-05
15,223,4.822886941929034e-06
15,233,1.713879615144116e-08
15,286,0.0003138985267701743
15,290,0.0002940929015938067
15,296,6.1012663680557266e-05
15,304,4.29143623638784e-06
15,314,1.6963629228290745e-08
16,16,0.005706572185081172
16,20,0.0034094184522133887
16,26,0.00036251587938145247
16,32,0.003960642241810041
16,36,0.0025602402552215527
16,42,0.00033465384680340596
16,50,9.045823972267648e-06
16,57,0.0029619885415665993
16,61,0.0019937383023961386
16,67,0.0002845621877164815
16,75,9.839482132956999e-06
16,93,0.0023260616433816465
16,97,0.001603255844609758
16,103,0.00023996546528801084
16,111,9.291283950692072e-06
16,142,0.0018908435550721461
16,146,0.0013231531124423186
16,152,0.00020387108890108216
16,160,8.419523073548072e-06
16,206,0.001577145387712359
16,210,0.0011150259846188163
16,216,0.00017512394496049935
16,224,7.534966030689371e-06
16,287,0.0013420191598840642
16,291,0.0009557346477968811
16,297,0.00015212351529559907
16,305,6.730732075939456e-06
17,17,0.0013085466521509598
17,21,0.0010512858269271922
17,27,0.00014795508113601353
17,33,0.0009156230448756227
17,37,0.0007886054578888576
17,43,0.00013551577581863376
17,51,6.084625852870413e-06
17,58,0.0006879436584072357
17,62,0.0006138243425631164
17,68,0.00011476841753036352
17,76,6.468886096677996e-06
17,94,0.0005418030723426544
17,98,0.0004934829196825693
17,104,9.655460100349544e-05
17,112,6.029156701396462e-06
17,122,1.3751868365926812e-08
17,143,0.00044126685304748297
17,147,0.0004072081439157725
17,153,8.190874305498912e-05
17,161,5.418818812405198e-06
17,171,1.634567960417219e-08
17,207,0.0003685443431665805
17,211,0.0003431239435348911
17,217,7.028791314935883e-05
17,225,4.822886941929034e-06
17,235,1.713879615144116e-08
17,288,0.0003138985267701743
17,292,0.0002940929015938067
17,298,6.1012663680557266e-05
17,306,4.291436236387839e-06
17,316,1.696362922829077e-08
18,18,0.00039328507153094783
18,24,0.000145246973249924
18,34,0.0002894594820516222
18,40,0.00013005099956446596
18,48,1.65385270833023e-05
18,59,0.00022300509047529856
18,65,0.00010880912295160663
18,73,1.7217662365621086e-05
18,83,1.0711640370735124e-06
18,95,0.00017818235130604245
18,101,9.087726329104208e-05
18,109,1.5848587410533865e-05
18,119,1.249115920334346e-06
18,131,4.485336966453307e-08
18,144,0.0001464450129852298
18,150,7.673095182823101e-05
18,158,1.4130543813626753e-05
18,168,1.2427422801785849e-06
18,180,5.731011479036972e-08
18,208,0.00012306151624188815
18,214,6.563345449745879e-05
18,222,1.2508053345200442e-05
18,232,1.172038246825038e-06
18,244,6.091979207086797e-08
18,289,0.00010526879837045294
18,295,5.684186949242334e-05
18,303,1.1086541294034369e-05
18,313,1.082223510341613e-06
18,325,6.038404949584777e-08
19,19,0.0023693321350372097
19,25,0.0006792509106005481
19,31,0.000692751163396021
19,35,0.0017300666948339282
19,41,0.0006055403835786348
19,49,6.6734744802826e-05
19,56,0.000503153587944571
19,60,0.0013270619164692393
19,66,0.0005054263372565966
19,74,6.936517337063837e-05
19,84,3.915608937519291e-06
19,92,0.0003880743111731635
19,96,0.0010575148418247532
19,102,0.00042152156480427
19,110,6.37884228484287e-05
19,120,4.562968148193934e-06
19,132,1.5304109448178953e-07
19,141,0.000311745085823579
19,145,0.0008676468237900856
19,151,0.00035557106471730763
19,159,5.683800734123419e-05
19,169,4.5376354843760334e-06
19,181,1.9571323427619182e-07
19,205,0.00025789998100469026
19,209,0.0007282353757626207
19,215,0.0003039487405387843
19,223,5.029025625303495e-05
19,233,4.278147086339369e-06
19,245,2.0798742274148864e-07
19,286,0.00021815811912844388
19,290,0.0006224113096999958
19,296,0.00026311303099812116
19,304,4.456125205476528e-05
19,314,3.949401853111978e-06
19,326,2.0612087854072696e-07
20,20,0.006400258324285727
20,26,0.0015338700629389007
20,32,0.0021673916246748117
20,36,0.004643997882427375
20,42,0.0013627829643195178
20,50,0.00013333582825665128
20,57,0.0015405106998502799
20,61,0.0035497927868085193
20,67,0.0011353591550345907
20,75,0.00013842427555773567
20,85,7.188128031019127e-06
20,93,0.0011717956565250056
20,97,0.0028227582015471955
20,103,0.0009458133398855584
20,111,0.00012720251258035938
20,121,8.372297860612633e-06
20,133,2.6436542839366853e-07
20,142,0.000932536867042679
20,146,0.0023127363699135574
20,152,0.000797247537503832
20,160,0.00011328868860753692
20,170,8.323030173925571e-06
20,182,3.3767856316394166e-07
20,206,0.0007663911836521145
20,210,0.0019392729485529013
20,216,0.0006811582896844406
20,224,0.00010020515702151007
20,234,7.845191556634248e-06
20,246,3.587933120083791e-07
20,287,0.0006451787257468848
20,291,0.0016563273566817657
20,297,0.0005894312157590624
20,305,8.876918461468929e-05
20,315,7.241154245000401e-06
20,327,3.555295199237132e-07
20,341,1.113916478142095e-08
21,21,0.0023693321350372097
21,27,0.0006792509106005485
21,33,0.000692751163396021
21,37,0.0017300666948339286
21,43,0.000605540383578635
21,51,6.6734744802826e-05
21,58,0.000503153587944571
21,62,0.0013270619164692395
21,68,0.0005054263372565966
21,76,6.936517337063837e-05
21,86,3.915608937519291e-06
21,94,0.0003880743111731635
21,98,0.0010575148418247534
21,104,0.0004215215648042701
21,112,6.37884228484287e-05
21,122,4.562968148193936e-06
21,134,1.5304109448178956e-07
21,143,0.000311745085823579
21,147,0.0008676468237900856
21,153,0.00035557106471730763
21,161,5.683800734123419e-05
21,171,4.5376354843760334e-06
21,183,1.9571323427619182e-07
21,207,0.00025789998100469026
21,211,0.0007282353757626209
21,217,0.00030394874053878433
21,225,5.029025625303494e-05
21,235,4.2781470863393685e-06
21,247,2.0798742274148864e-07
21,288,0.0002181581191284439
21,292,0.0006224113096999961
21,298,0.00026311303099812127
21,306,4.4561252054765266e-05
21,316,3.949401853111978e-06
21,328,2.0612087854072696e-07
22,22,0.00039328507153094783
22,28,0.000145246973249924
22,38,0.00028945948205162225
22,44,0.000130050999564466
22,52,1.6538527083302304e-05
22,63,0.00022300509047529858
22,69,0.00010880912295160665
22,77,1.7217662365621086e-05
22,87,1.0711640370735124e-06
22,99,0.0001781823513060425
22,105,9.087726329104209e-05
22,113,1.5848587410533865e-05
22,123,1.2491159203343461e-06
22,135,4.485336966453307e-08
22,148,0.00014644501298522982
22,154,7.673095182823101e-05
22,162,1.4130543813626753e-05
22,172,1.2427422801785849e-06
22,184,5.731011479036973e-08
22,212,0.00012306151624188815
22,218,6.563345449745879e-05
22,226,1.2508053345200449e-05
22,236,1.1720382468250382e-06
22,248,6.091979207086797e-08
22,293,0.00010526879837045297
22,299,5.684186949242334e-05
22,307,1.1086541294034372e-05
22,317,1.0822235103416132e-06
22,329,6.038404949584777e-08
23,23,1.094243048971038e-05
23,39,9.768542810588645e-06
23,47,2.0277847356296386e-06
23,64,8.15976700546645e-06
23,72,2.1081725059123943e-06
23,82,1.8236153317258222e-07
23,100,6.8083618265456045e-06
23,108,1.9391978258634942e-06
23,118,2.1250609436369946e-07
23,149,5.7448908269568e-06
23,157,1.7280527112043625e-06
23,167,2.1132325739325987e-07
23,179,1.2219764282923614e-08
23,213,4.911868839348014e-06
23,221,1.528859157225201e-06
23,231,1.9923663859118568e-07
23,243,1.29887462027322e-08
23,294,4.252616183517249e-06
23,302,1.3547516720749435e-06
23,312,1.8392546611670798e-07
23,324,1.2874041692801477e-08
24,24,7.325647403730075e-05
24,34,0.00010538943390533811
24,40,6.504484668814598e-05
24,48,1.0441784919222186e-05
24,59,8.055815600202774e-05
24,65,5.41725580677e-05
24,73,1.0834757167774649e-05
24,83,8.197085390726922e-07
24,95,6.405933765550312e-05
24,101,4.5118767848566614e-05
24,109,9.953313603238646e-06
24,119,9.543837424331926e-07
24,131,4.046245165492066e-08
24,144,5.248516216486125e-05
24,150,3.802664982460147e-05
24,158,8.862826283554522e-06
24,168,9.485398824887462e-07
24,180,5.166829520408315e-08
24,208,4.400996004925165e-05
24,214,3.248657790461613e-05
24,222,7.83820059564721e-06
24,232,8.939443992306831e-07
24,244,5.516960978453468e-08
24,289,3.7588892268078555e-05
24,295,2.8110023915388994e-05
24,303,6.942984879784401e-06
24,313,8.250183981491989e-07
24,325,5.466100257281738e-08
25,25,0.0002542940974097504
25,31,8.863945665708635e-05
25,35,0.0004889381561588759
25,41,0.0002248081190048394
25,49,3.0633915990653576e-05
25,56,6.063587197238897e-05
25,60,0.00037208313118932307
25,66,0.00018678148514565988
25,74,3.173644181188557e-05
25,84,2.1579391954246427e-06
25,92,4.4953232534351395e-05
25,96,0.00029507742475682274
25,102,0.0001553417297004251
25,110,2.9126731324470267e-05
25,120,2.5107435758955177e-06
25,132,9.951715481772655e-08
25,141,3.5140390318524394e-05
25,145,0.0002413349613129707
25,151,0.00013080024243243235
25,159,2.5919410739692753e-05
25,169,2.4942472354552566e-06
25,181,1.2702423775066132e-07
25,205,2.8510196751186096e-05
25,209,0.0002021174140746294
25,215,0.00011167150002216035
25,223,2.291314388269108e-05
25,233,2.3499590106291855e-06
25,245,1.3491003336826808e-07
25,286,2.3773280289894722e-05
25,290,0.0001724769290600505
25,296,9.658227408981925e-05
25,304,2.028995926999914e-05
25,314,2.1682901834987285e-06
25,326,1.3364222411298222e-07
26,26,0.00047791548719951
26,32,0.00019618224700236904
26,36,0.001097027986735214
26,42,0.00042113928434862695
26,50,5.109962644919974e-05
26,57,0.00012451761952610879
26,61,0.0008318493392314127
26,67,0.00034928333856830727
26,75,5.288023425053469e-05
26,85,3.328735918968317e-06
26,93,8.735125362898329e-05
26,97,0.0006582426069131346
26,103,0.00029017836447788113
26,111,4.849917956532855e-05
26,121,3.871186765089168e-06
26,133,1.4593133071730905e-07
26,142,6.552737809213297e-05
26,146,0.0005375818207818433
26,152,0.0002441636620968418
26,160,4.3139865608815964e-05
26,170,3.844610305625554e-06
26,182,1.8622969100047454e-07
26,206,5.153130023364423e-05
26,210,0.0004497760386731251
26,216,0.00020835578641183064
26,224,3.8124941231501386e-05
26,234,3.6214677889754703e-06
26,246,1.9776340996393945e-07
26,287,4.195065687596177e-05
26,291,0.00038354237840875865
26,297,0.0001801402265058767
26,305,3.375303057987161e-05
26,315,3.3410148853471433e-06
26,327,1.9588536213546066e-07
27,27,0.0002542940974097504
27,33,8.863945665708635e-05
27,37,0.000488938156158876
27,43,0.00022480811900483944
27,51,3.0633915990653576e-05
27,58,6.0635871972388986e-05
27,62,0.0003720831311893231
27,68,0.00018678148514565988
27,76,3.173644181188557e-05
27,86,2.1579391954246427e-06
27,94,4.49532325343514e-05
27,98,0.0002950774247568228
27,104,0.0001553417297004251
27,112,2.9126731324470253e-05
27,122,2.5107435758955177e-06
27,134,9.951715481772655e-08
27,143,3.51403903185244e-05
27,147,0.0002413349613129707
27,153,0.00013080024243243237
27,161,2.591941073969275e-05
27,171,2.4942472354552566e-06
27,183,1.2702423775066135e-07
27,207,2.8510196751186096e-05
27,211,0.00020211741407462943
27,217,0.00011167150002216035
27,225,2.291314388269107e-05
27,235,2.3499590106291847e-06
27,247,1.3491003336826808e-07
27,288,2.3773280289894722e-05
27,292,0.00017247692906005054
27,298,9.658227408981927e-05
27,306,2.0289959269999136e-05
27,316,2.1682901834987285e-06
27,328,1.3364222411298225e-07
28,28,7.325647403730072e-05
28,38,0.00010538943390533811
28,44,6.504484668814597e-05
28,52,1.0441784919222186e-05
28,63,8.055815600202775e-05
28,69,5.41725580677e-05
28,77,1.0834757167774649e-05
28,87,8.197085390726922e-07
28,99,6.405933765550312e-05
28,105,4.51187678485666e-05
28,113,9.953313603238646e-06
28,123,9.543837424331926e-07
28,135,4.046245165492068e-08
28,148,5.248516216486125e-05
28,154,3.802664982460146e-05
28,162,8.862826283554522e-06
28,172,9.485398824887462e-07
28,184,5.166829520408315e-08
28,212,4.400996004925165e-05
28,218,3.248657790461612e-05
28,226,7.83820059564721e-06
28,236,8.939443992306831e-07
28,248,5.516960978453469e-08
28,293,3.7588892268078555e-05
28,299,2.8110023915388987e-05
28,307,6.942984879784401e-06
28,317,8.250183981491989e-07
28,329,5.466100257281738e-08
29,29,1.094243048971038e-05
29,45,9.768542810588645e-06
29,53,2.0277847356296386e-06
29,70,8.159767005466448e-06
29,78,2.108172505912394e-06
29,88,1.8236153317258222e-07
29,106,6.8083618265456045e-06
29,114,1.9391978258634942e-06
29,124,2.1250609436369946e-07
29,155,5.7448908269568e-06
29,163,1.7280527112043625e-06
29,173,2.1132325739325987e-07
29,185,1.2219764282923616e-08
29,219,4.911868839348013e-06
29,227,1.528859157225201e-06
29,237,1.9923663859118568e-07
29,249,1.29887462027322e-08
29,300,4.252616183517249e-06
29,308,1.3547516720749435e-06
29,318,1.8392546611670798e-07
29,330,1.2874041692801479e-08
30,30,0.0011529237438220078
30,55,0.0008692505506192877
30,91,0.0006860007853078049
30,140,0.0005594425990096162
30,204,0.0004676620557057543
30,285,0.00039857280509049094
31,31,0.0006420096368710104
31,35,0.0005209976018379282
31,41,8.16218820058122e-05
31,49,2.710656405203414e-06
31,56,0.00048290462566405863
31,60,0.00040608395296096904
31,66,6.931991965200505e-05
31,74,2.920651162650379e-06
31,92,0.0003805751279217376
31,96,0.0003267375168032566
31,102,5.8415767950608e-05
31,110,2.7432685426424153e-06
31,141,0.00031009043062858347
31,145,0.00026975669452060337
31,151,4.960785223311614e-05
31,159,2.477656803345863e-06
31,205,0.0002590630725669176
31,209,0.00022738562600396338
31,215,4.2600619966811604e-05
31,223,2.212462017396668e-06
31,286,0.00022069728867758125
31,290,0.00019493966588499136
31,296,3.699810531451179e-05
31,304,1.973258676525689e-06
32,32,0.0027591055282246532
32,36,0.001635027623669033
32,42,0.00018332812864053027
32,50,1.3081459705247212e-06
32,57,0.0020675598317161973
32,61,0.0012763218417622287
32,67,0.00015686861628008683
32,75,1.67771414128168e-06
32,93,0.001625626348906714
32,97,0.0010278180263298162
32,103,0.00013277068764168848
32,111,1.7195553917248333e-06
32,142,0.0013224991275727661
32,146,0.0008490293268869048
32,152,0.0001130642087855374
32,160,1.6345366620009684e-06
32,206,0.0011036838730371038
32,210,0.0007159281098706557
32,216,9.72754493556238e-05
32,224,1.5083785367106328e-06
32,287,0.0009395035185993918
32,291,0.0006139264142989779
32,297,8.459451501325693e-05
32,305,1.3759562626932956e-06
33,33,0.0006420096368710104
33,37,0.0005209976018379282
33,43,8.16218820058122e-05
33,51,2.7106564052034136e-06
33,58,0.00048290462566405863
33,62,0.00040608395296096904
33,68,6.931991965200505e-05
33,76,2.920651162650378e-06
33,94,0.0003805751279217376
33,98,0.00032673751680325667
33,104,5.8415767950608e-05
33,112,2.7432685426424144e-06
33,143,0.00031009043062858347
33,147,0.0002697566945206034
33,153,4.960785223311614e-05
33,161,2.4776568033458623e-06
33,207,0.0002590630725669176
33,211,0.00022738562600396338
33,217,4.2600619966811604e-05
33,225,2.212462017396668e-06
33,288,0.00022069728867758125
33,292,0.00019493966588499142
33,298,3.6998105314511784e-05
33,306,1.973258676525689e-06
34,34,0.00021319091457640664
34,40,9.441865181733098e-05
34,48,1.184589100640809e-05
34,59,0.00016430827223886394
34,65,7.902189220303265e-05
34,73,1.2335990973321205e-05
34,83,7.56945627696176e-07
34,95,0.00013131315271857136
34,101,6.601163486817553e-05
34,109,1.1357123862151816e-05
34,119,8.82886288550271e-07
34,131,3.128133218324132e-08
34,144,0.00010793999111532287
34,150,5.574290645759181e-05
34,158,1.0127127518275e-05
34,168,8.784810688653935e-07
34,180,3.9970422078585846e-08
34,208,9.071385057319849e-05
34,214,4.768494949846282e-05
34,222,8.965025736163165e-06
34,232,8.285445519027462e-07
34,244,4.247719445803658e-08
34,289,7.760372005845711e-05
34,295,4.130007904002256e-05
34,303,7.946628678744896e-06
34,313,7.650898639339448e-07
34,325,4.210601687869523e-08
35,35,0.001264388219206126
35,41,0.00043618241613337734
35,49,4.743024795483337e-05
35,56,0.0003789731273547793
35,60,0.000970324674633345
35,66,0.0003642057723873788
35,74,4.931662048659459e-05
35,84,2.7460937178362352e-06
35,92,0.0002925700793427456
35,96,0.0007734611068351814
35,102,0.0003038139167083525
35,110,4.5361077461409494e-05
35,120,3.200731420705794e-06
35,132,1.0569914615431061e-07
35,141,0.0002351719941784799
35,145,0.0006347125161032094
35,151,0.00025631764772876927
35,159,4.0423917988220564e-05
35,169,3.1833693951973688e-06
35,181,1.3507091349246462e-07
35,205,0.00019463733665012808
35,209,0.0005327975519987038
35,215,0.00021912729903421398
35,223,3.577035285538536e-05
35,233,3.0015893573940245e-06
35,245,1.4355520454025396e-07
35,286,0.00016469598436676203
35,290,0.0004554160093286957
35,296,0.00018970119709310217
35,304,3.169750813839099e-05
35,314,2.7711125325166437e-06
35,326,1.4227632052688355e-07
36,36,0.0033732132853693106
36,42,0.0009754402361047399
36,50,9.418508627685204e-05
36,57,0.00116537071932854
36,61,0.0025799178671977213
36,67,0.0008130083635861933
36,75,9.781680008598122e-05
36,85,5.011474508212082e-06
36,93,0.0008880451758896476
36,97,0.002052243555279185
36,103,0.0006774551688531527
36,111,8.990770864933694e-05
36,121,5.838458998222378e-06
36,133,1.8176160783751408e-07
36,142,0.000707589883394497
36,146,0.0016818242159458412
36,152,0.0005711392055686235
36,160,8.008529027645148e-05
36,170,5.804920297027155e-06
36,182,2.3217733022665914e-07
36,206,0.000582026427081277
36,210,0.0014104628442631255
36,216,0.0004880309456633191
36,224,7.084362944275798e-05
36,234,5.47223308924521e-06
36,246,2.467192801790934e-07
36,287,0.0004902839332781222
36,291,0.001204807854693478
36,297,0.00042234621437838824
36,305,6.27631608638258e-05
36,315,5.051087723863572e-06
36,327,2.44491596019845e-07
37,37,0.001264388219206126
37,43,0.0004361824161333774
37,51,4.743024795483336e-05
37,58,0.00037897312735477934
37,62,0.0009703246746333452
37,68,0.0003642057723873789
37,76,4.931662048659458e-05
37,86,2.7460937178362352e-06
37,94,0.00029257007934274567
37,98,0.0007734611068351814
37,104,0.0003038139167083525
37,112,4.536107746140949e-05
37,122,3.2007314207057933e-06
37,134,1.0569914615431064e-07
37,143,0.0002351719941784799
37,147,0.0006347125161032094
37,153,0.00025631764772876927
37,161,4.0423917988220564e-05
37,171,3.1833693951973688e-06
37,183,1.3507091349246462e-07
37,207,0.00019463733665012808
37,211,0.0005327975519987039
37,217,0.00021912729903421403
37,225,3.577035285538536e-05
37,235,3.0015893573940237e-06
37,247,1.43555204540254e-07
37,288,0.00016469598436676203
37,292,0.00045541600932869585
37,298,0.00018970119709310217
37,306,3.169750813839098e-05
37,316,2.7711125325166437e-06
37,328,1.4227632052688355e-07
38,38,0.00021319091457640667
38,44,9.441865181733098e-05
38,52,1.184589100640809e-05
38,63,0.000164308272238864
38,69,7.902189220303265e-05
38,77,1.2335990973321205e-05
38,87,7.569456276961762e-07
38,99,0.00013131315271857139
38,105,6.601163486817554e-05
38,113,1.1357123862151816e-05
38,123,8.82886288550271e-07
38,135,3.128133218324132e-08
38,148,0.00010793999111532288
38,154,5.574290645759181e-05
38,162,1.0127127518275002e-05
38,172,8.784810688653935e-07
38,184,3.997042207858585e-08
38,212,9.071385057319851e-05
38,218,4.768494949846282e-05
38,226,8.965025736163168e-06
38,236,8.285445519027462e-07
38,248,4.24771944580366e-08
38,293,7.760372005845714e-05
38,299,4.130007904002256e-05
38,307,7.946628678744896e-06
38,317,7.650898639339452e-07
38,329,4.2106016878695236e-08
39,39,8.723801547771157e-06
39,47,1.7967049079848014e-06
39,64,7.288546460364923e-06
39,72,1.868504574838119e-06
39,82,1.604040796587725e-07
39,100,6.082170180742561e-06
39,108,1.7184731466365014e-06
39,118,1.8693631107649633e-07
39,149,5.132535732810029e-06
39,157,1.5314542092572093e-06
39,167,1.8590772235371892e-07
39,179,1.071013769776789e-08
39,213,4.388576642327957e-06
39,221,1.355176418907929e-06
39,231,1.7528343031075934e-07
39,243,1.1384640737605979e-08
39,294,3.7996893613393443e-06
39,302,1.2008888859230385e-06
39,312,1.6181810935522148e-07
39,324,1.1284470920409497e-08
40,40,5.777841913509978e-05
40,48,9.206438497662637e-06
40,59,7.219542256212584e-05
40,65,4.813125103298352e-05
40,73,9.554821977881099e-06
40,83,7.173604394992559e-07
40,95,5.7420600604790486e-05
40,101,4.009349014355169e-05
40,109,8.77859771259213e-06
40,119,8.356591239805141e-07
40,131,3.5195463985811895e-08
40,144,4.705193914758684e-05
40,150,3.3794302035172326e-05
40,158,7.817420709005803e-06
40,168,8.306010232031765e-07
40,180,4.494778082979367e-08
40,208,3.9457454916311474e-05
40,214,2.887265543870732e-05
40,222,6.914027760805009e-06
40,232,7.828340053868817e-07
40,244,4.775430088817389e-08
40,289,3.3702715386113944e-05
40,295,2.4984090953425404e-05
40,303,6.124598117795796e-06
40,313,7.222059894735189e-07
40,325,4.731696315788824e-08
41,41,0.00019883680685705554
41,49,2.6900408536442103e-05
41,56,5.603523013167229e-05
41,60,0.00033206323032730216
41,66,0.00016524673066947913
41,74,2.7874663628279975e-05
41,84,1.882181165923648e-06
41,92,4.164471428357464e-05
41,96,0.0002634015521983257
41,102,0.0001374536661585664
41,110,2.5585891238535727e-05
41,120,2.1901597028338607e-06
41,132,8.61945307945195e-08
41,141,3.2610445474667796e-05
41,145,0.00021546110236190396
41,151,0.0001157501926171856
41,159,2.27704284173182e-05
41,169,2.1759362766902095e-06
41,181,1.1002708427709253e-07
41,205,2.6491477933251976e-05
41,209,0.0001804670900886716
41,215,9.88294547043335e-05
41,223,2.0130458913661794e-05
41,233,2.0501694758327306e-06
41,245,1.1686347079294591e-07
41,286,2.2110916960871403e-05
41,290,0.00015401323498190792
41,296,8.547981741919833e-05
41,304,1.782659894172155e-05
41,314,1.891747610816106e-06
41,326,1.157693575387912e-07
42,42,0.000371304004533731
42,50,4.474416100156441e-05
42,57,0.0001174879807462285
42,61,0.0007399784551654687
42,67,0.00030804004716378995
42,75,4.6314213092009754e-05
42,85,2.8960983024764654e-06
42,93,8.304131041365444e-05
42,97,0.0005857028380651569
42,103,0.00025595893355076244
42,111,4.248338145580466e-05
42,121,3.3684678657298928e-06
42,133,1.261203844209953e-07
42,142,6.265840878251928e-05
42,146,0.000478423348860397
42,152,0.0002153950498174566
42,160,3.7792325850659064e-05
42,170,3.345614472658846e-06
42,182,1.6097273827456544e-07
42,206,4.9499771293301554e-05
42,210,0.00040032880905209526
42,216,0.00018382060837307087
42,224,3.3401008663643676e-05
42,234,3.1516094896509584e-06
42,246,1.7095094282756186e-07
42,287,4.044134782825385e-05
42,291,0.00034140647182150026
42,297,0.00015893650110254884
42,305,2.95721490870442e-05
42,315,2.907659170446721e-06
42,327,1.6933369603104774e-07
43,43,0.00019883680685705557
43,51,2.6900408536442092e-05
43,58,5.60352301316723e-05
43,62,0.00033206323032730216
43,68,0.00016524673066947913
43,76,2.7874663628279968e-05
43,86,1.8821811659236478e-06
43,94,4.164471428357464e-05
43,98,0.00026340155219832577
43,104,0.0001374536661585664
43,112,2.5585891238535717e-05
43,122,2.1901597028338607e-06
43,134,8.61945307945195e-08
43,143,3.2610445474667796e-05
43,147,0.00021546110236190396
43,153,0.00011575019261718562
43,161,2.2770428417318193e-05
43,171,2.1759362766902095e-06
43,183,1.1002708427709256e-07
43,207,2.6491477933251976e-05
43,211,0.00018046709008867162
43,217,9.882945470433348e-05
43,225,2.0130458913661794e-05
43,235,2.0501694758327306e-06
43,247,1.1686347079294591e-07
43,288,2.2110916960871403e-05
43,292,0.00015401323498190792
43,298,8.54798174191983e-05
43,306,1.782659894172155e-05
43,316,1.8917476108161062e-06
43,328,1.157693575387912e-07
44,44,5.7778419135099764e-05
44,52,9.206438497662637e-06
44,63,7.219542256212583e-05
44,69,4.81312510329835e-05
44,77,9.554821977881099e-06
44,87,7.173604394992559e-07
44,99,5.7420600604790486e-05
44,105,4.009349014355168e-05
44,113,8.778597712592126e-06
44,123,8.356591239805141e-07
44,135,3.5195463985811895e-08
44,148,4.705193914758684e-05
44,154,3.379430203517232e-05
44,162,7.817420709005803e-06
44,172,8.306010232031765e-07
44,184,4.4947780829793685e-08
44,212,3.9457454916311474e-05
44,218,2.8872655438707314e-05
44,226,6.914027760805009e-06
44,236,7.828340053868815e-07
44,248,4.775430088817389e-08
44,293,3.370271538611393e-05
44,299,2.4984090953425404e-05
44,307,6.1245981177957955e-06
44,317,7.222059894735189e-07
44,329,4.7316963157888256e-08
45,45,8.723801547771157e-06
45,53,1.7967049079848016e-06
45,70,7.288546460364923e-06
45,78,1.868504574838119e-06
45,88,1.604040796587725e-07
45,106,6.082170180742561e-06
45,114,1.7184731466365014e-06
45,124,1.8693631107649633e-07
45,155,5.132535732810029e-06
45,163,1.5314542092572093e-06
45,173,1.8590772235371892e-07
45,185,1.071013769776789e-08
45,219,4.388576642327957e-06
45,227,1.355176418907929e-06
45,237,1.752834303107593e-07
45,249,1.1384640737605979e-08
45,300,3.7996893613393435e-06
45,308,1.2008888859230385e-06
45,318,1.6181810935522148e-07
45,330,1.1284470920409499e-08
46,46,6.610617149956733e-08
46,71,6.869931205912911e-08
46,107,6.318716879192604e-08
46,117,1.0521231671037596e-08
46,156,5.662225356414804e-08
46,166,1.0464775416112743e-08
46,220,5.00595596784287e-08
46,301,4.436724588050381e-08
47,47,4.613389529282815e-07
47,64,1.4948162274116573e-06
47,72,4.78332143733512e-07
47,82,4.8602343557290155e-08
47,100,1.2439773398486734e-06
47,108,4.392149903786229e-07
47,118,5.657734522127849e-08
47,149,1.0479609995421994e-06
47,157,3.909757196658533e-07
47,167,5.622433883640108e-08
47,213,8.950030457834256e-07
47,221,3.457024983161655e-07
47,231,5.2983972460962143e-08
47,294,7.742552129836766e-07
47,302,3.0617837288344274e-07
47,312,4.889510160065307e-08
48,48,1.7622461361259302e-06
48,59,8.989789939130833e-06
48,65,7.637945920881532e-06
48,73,1.8238488307320272e-06
48,83,1.6039513474115678e-07
48,95,7.117171801405356e-06
48,101,6.346643157372244e-06
48,109,1.6728624827833797e-06
48,119,1.865345148686356e-07
48,144,5.81443726306352e-06
48,150,5.340873019073773e-06
48,158,1.488067864373125e-06
48,168,1.8525480123906234e-07
48,180,1.0514049052049327e-08
48,208,4.865831534953643e-06
48,214,4.557981668459454e-06
48,222,1.3151144196256927e-06
48,232,1.7450311434459841e-07
48,244,1.116649697555605e-08
48,289,4.149965328103756e-06
48,295,3.940970277487508e-06
48,303,1.1643297631429771e-06
48,313,1.6098133154289233e-07
48,325,1.106137753166672e-08
49,49,4.320874959454129e-06
49,56,1.4237870541091765e-06
49,60,3.583856034958543e-05
49,66,2.2267571059608725e-05
49,74,4.465354939269058e-06
49,84,3.5109951161970936e-07
49,92,8.351532920716961e-07
49,96,2.829763137808041e-05
49,102,1.8477746195809572e-05
49,110,4.092048335466693e-06
49,120,4.0805776118043575e-07
49,132,1.6461648164887406e-08
49,141,5.304712156053233e-07
49,145,2.307754103102144e-05
49,151,1.5535755807127424e-05
49,159,3.637908647575679e-06
49,169,4.0509049761819264e-07
49,181,2.2663033569927386e-08
49,205,3.5791554227408186e-07
49,209,1.928915656414143e-05
49,215,1.3250371384018484e-05
49,223,3.2139462101271273e-06
49,233,3.8147168056341815e-07
49,245,2.4061290784566563e-08
49,286,2.534034842302868e-07
49,290,1.6436991437084827e-05
49,296,1.1451709486144691e-05
49,304,2.8448235912391953e-06
49,314,3.518461365156427e-07
49,326,2.3829029319478226e-08
50,50,6.441161829341899e-06
50,61,7.09211776586126e-05
50,67,3.698022979012117e-05
50,75,6.650310252469576e-06
50,85,4.878959663602215e-07
50,97,5.587933294848327e-05
50,103,3.0657260974468755e-05
50,111,6.09088401225022e-06
50,121,5.668194552088917e-07
50,133,2.3429798380425086e-08
50,146,4.5507526295947866e-05
50,152,2.5760061506207514e-05
50,160,5.412914566476765e-06
50,170,5.625597105032841e-07
50,182,3.1126922806807974e-08
50,210,3.800029120837423e-05
50,216,2.196124525095234e-05
50,224,4.780675214644352e-06
50,234,5.296689577909267e-07
50,246,3.304335367446806e-08
50,291,3.235889127528939e-05
50,297,1.8974262985660943e-05
50,305,4.23057293905425e-06
50,315,4.884926154100547e-07
50,327,3.272152111247731e-08
51,51,4.320874959454128e-06
51,58,1.4237870541091763e-06
51,62,3.583856034958542e-05
51,68,2.2267571059608725e-05
51,76,4.465354939269056e-06
51,86,3.5109951161970925e-07
51,94,8.351532920716961e-07
51,98,2.829763137808041e-05
51,104,1.8477746195809572e-05
51,112,4.09204833546669e-06
51,122,4.080577611804356e-07
51,134,1.6461648164887403e-08
51,143,5.304712156053233e-07
51,147,2.307754103102144e-05
51,153,1.553575580712742e-05
51,161,3.6379086475756767e-06
51,171,4.050904976181926e-07
51,183,2.266303356992738e-08
51,207,3.579155422740818e-07
51,211,1.928915656414143e-05
51,217,1.325037138401848e-05
51,225,3.2139462101271256e-06
51,235,3.8147168056341804e-07
51,247,2.4061290784566553e-08
51,288,2.5340348423028684e-07
51,292,1.6436991437084827e-05
51,298,1.1451709486144688e-05
51,306,2.844823591239194e-06
51,316,3.518461365156426e-07
51,328,2.3829029319478226e-08
52,52,1.7622461361259302e-06
52,63,8.989789939130834e-06
52,69,7.637945920881532e-06
52,77,1.8238488307320272e-06
52,87,1.6039513474115686e-07
52,99,7.117171801405357e-06
52,105,6.346643157372242e-06
52,113,1.6728624827833797e-06
52,123,1.8653451486863563e-07
52,148,5.8144372630635215e-06
52,154,5.340873019073773e-06
52,162,1.488067864373125e-06
52,172,1.8525480123906236e-07
52,184,1.051404905204933e-08
52,212,4.865831534953643e-06
52,218,4.557981668459453e-06
52,226,1.3151144196256927e-06
52,236,1.745031143445985e-07
52,248,1.1166496975556055e-08
52,293,4.149965328103757e-06
52,299,3.940970277487508e-06
52,307,1.1643297631429776e-06
52,317,1.6098133154289233e-07
52,329,1.1061377531666724e-08
53,53,4.613389529282814e-07
53,70,1.4948162274116573e-06
53,78,4.783321437335121e-07
53,88,4.8602343557290155e-08
53,106,1.2439773398486734e-06
53,114,4.392149903786229e-07
53,124,5.65773452212785e-08
53,155,1.0479609995421994e-06
53,163,3.909757196658534e-07
53,173,5.622433883640108e-08
53,219,8.950030457834256e-07
53,227,3.4570249831616557e-07
53,237,5.2983972460962143e-08
53,300,7.742552129836764e-07
53,308,3.0617837288344285e-07
53,318,4.889510160065307e-08
54,54,6.610617149956735e-08
54,79,6.869931205912914e-08
54,115,6.318716879192605e-08
54,125,1.0521231671037596e-08
54,164,5.662225356414805e-08
54,174,1.0464775416112745e-08
54,228,5.00595596784287e-08
54,309,4.436724588050381e-08
55,55,0.0006556793727604845
55,91,0.0005175984564427477
55,140,0.0004221850297677614
55,204,0.0003529665953629963
55,285,0.0003008485922375839
56,56,0.0003634473517327309
56,60,0.000295619605950242
56,66,4.767853641024542e-05
56,74,1.5580180910557846e-06
56,92,0.00028653436879674967
56,96,0.0002379696744553462
56,102,4.022285916996308e-05
56,110,1.476250974187283e-06
56,141,0.0002335208922313363
56,145,0.00019652911423287663
56,151,3.418214864623767e-05
56,159,1.3406160065782232e-06
56,205,0.00019512383448630103
56,209,0.00016569438808539683
56,215,2.9367897193414036e-05
56,223,1.2015007991109756e-06
56,286,0.0001662466562861847
56,290,0.00014207227193522345
56,296,2.55143369586257e-05
56,304,1.0743512618406232e-06
57,57,0.0015510217090127349
57,61,0.0009110343470320935
57,67,0.00010102332259689071
57,93,0.0012202894513021901
57,97,0.0007342883455023597
57,103,8.574683438050618e-05
57,142,0.000993162635224814
57,146,0.0006068958722500784
57,152,7.315109866377228e-05
57,206,0.0008290770111601458
57,210,0.0005119469194406113
57,216,6.301230485288268e-05
57,287,0.0007058916787469813
57,291,0.0004391253598202632
57,297,5.4844933815070976e-05
58,58,0.0003634473517327309
58,62,0.0002956196059502421
58,68,4.767853641024542e-05
58,76,1.5580180910557846e-06
58,94,0.00028653436879674967
58,98,0.0002379696744553462
58,104,4.022285916996308e-05
58,112,1.4762509741872826e-06
58,143,0.0002335208922313363
58,147,0.00019652911423287669
58,153,3.418214864623767e-05
58,161,1.3406160065782232e-06
58,207,0.00019512383448630103
58,211,0.00016569438808539683
58,217,2.9367897193414036e-05
58,225,1.2015007991109756e-06
58,288,0.0001662466562861847
58,292,0.00014207227193522348
58,298,2.5514336958625705e-05
58,306,1.0743512618406232e-06
59,59,0.00012665995477359528
59,65,6.043318055210322e-05
59,73,9.363271460597067e-06
59,83,5.701455200671067e-07
59,95,0.00010123762922425322
59,101,5.048871920919957e-05
59,109,8.621144537616694e-06
59,119,6.650579286113314e-07
59,131,2.3424479523801177e-08
59,144,8.322447886592975e-05
59,150,4.263757004480086e-05
59,158,7.687959829965116e-06
59,168,6.617830126134314e-07
59,180,2.99112229621099e-08
59,208,6.994654941303697e-05
59,214,3.6475773906166676e-05
59,222,6.806056489311949e-06
59,232,6.242027032153272e-07
59,244,3.1801690933292774e-08
59,289,5.984017555665735e-05
59,295,3.1592838887241294e-05
59,303,6.033101262998737e-06
59,313,5.764174390794952e-07
59,325,3.152663282621853e-08
60,60,0.0007448479339416307
60,66,0.00027732569031000884
60,74,3.727102447006157e-05
60,84,2.059977491165464e-06
60,92,0.00022833397466244813
60,96,0.0005938243095856851
60,102,0.0002313692243329151
60,110,3.4285552246601924e-05
60,120,2.4006013658432104e-06
60,132,7.868521300265985e-08
60,141,0.00018359870327521428
60,145,0.0004873505883632925
60,151,0.00019521443114614237
60,159,3.0556147284659814e-05
60,169,2.3877520462013496e-06
60,181,1.004779906554915e-07
60,205,0.00015198832853523307
60,209,0.00040912635684468585
60,215,0.00016689919054122473
60,223,2.7039956740542174e-05
60,233,2.251517272275439e-06
60,245,1.0680993414282042e-07
60,286,0.00012862916205656563
60,290,0.00034972412485378024
60,296,0.0001444924534390788
60,304,2.3962039334982003e-05
60,314,2.078708276280061e-06
60,326,1.0585727917086396e-07
61,61,0.001973811766421156
61,67,0.000616904077874813
61,75,7.367162699379447e-05
61,85,3.747670157663705e-06
61,93,0.0006948891246192993
61,97,0.001570407368078983
61,103,0.0005141218496778177
61,111,6.77235650875338e-05
61,121,4.3642516756651504e-06
61,133,1.3476910837011287e-07
61,142,0.0005540384103988719
61,146,0.0012871182936054703
61,152,0.00043347926993583217
61,160,6.032981976332302e-05
61,170,4.3395278025453795e-06
61,182,1.721640118808004e-07
61,206,0.00045592894543371437
61,210,0.0010795354957199115
61,216,0.00037042624830451506
61,224,5.337096379476508e-05
61,234,4.091047845285398e-06
61,246,1.8295706181404061e-07
61,287,0.00038418947037715357
61,291,0.0009221897554539747
61,297,0.0003205848936979192
61,305,4.728538322184343e-05
61,315,3.7764678013269735e-06
61,327,1.813121245619548e-07
62,62,0.0007448479339416308
62,68,0.00027732569031000884
62,76,3.727102447006157e-05
62,86,2.059977491165464e-06
62,94,0.00022833397466244813
62,98,0.0005938243095856852
62,104,0.0002313692243329151
62,112,3.4285552246601924e-05
62,122,2.4006013658432104e-06
62,134,7.868521300265985e-08
62,143,0.00018359870327521428
62,147,0.00048735058836329266
62,153,0.0001952144311461424
62,161,3.055614728465983e-05
62,171,2.3877520462013496e-06
62,183,1.004779906554915e-07
62,207,0.00015198832853523307
62,211,0.00040912635684468596
62,217,0.0001668991905412248
62,225,2.7039956740542174e-05
62,235,2.251517272275439e-06
62,247,1.0680993414282042e-07
62,288,0.00012862916205656563
62,292,0.0003497241248537803
62,298,0.00014449245343907882
62,306,2.3962039334982003e-05
62,316,2.078708276280061e-06
62,328,1.0585727917086396e-07
63,63,0.00012665995477359528
63,69,6.043318055210322e-05
63,77,9.363271460597068e-06
63,87,5.701455200671068e-07
63,99,0.00010123762922425325
63,105,5.048871920919957e-05
63,113,8.621144537616695e-06
63,123,6.650579286113316e-07
63,135,2.3424479523801187e-08
63,148,8.322447886592978e-05
63,154,4.2637570044800865e-05
63,162,7.687959829965116e-06
63,172,6.617830126134314e-07
63,184,2.99112229621099e-08
63,212,6.9946549413037e-05
63,218,3.647577390616668e-05
63,226,6.80605648931195e-06
63,236,6.242027032153273e-07
63,248,3.1801690933292774e-08
63,293,5.984017555665736e-05
63,299,3.1592838887241294e-05
63,307,6.033101262998737e-06
63,317,5.764174390794953e-07
63,329,3.152663282621853e-08
64,64,6.09009203532938e-06
64,72,1.5543016483527273e-06
64,82,1.3290057172162401e-07
64,100,5.0824155695637435e-06
64,108,1.4297671560701283e-06
64,118,1.5489280497839665e-07
64,149,4.289095662460154e-06
64,157,1.2742269077075009e-06
64,167,1.5404589848763462e-07
64,213,3.6674737051226307e-06
64,221,1.1275865019124322e-06
64,231,1.4524510993797935e-07
64,294,3.1753972246961563e-06
64,302,9.992287552946371e-07
64,312,1.3408965026890012e-07
65,65,4.009998281683431e-05
65,73,7.927840421268103e-06
65,83,5.928492744731832e-07
65,95,4.807047472066725e-05
65,101,3.3405900311055447e-05
65,109,7.284270141073416e-06
65,119,6.903724938240706e-07
65,131,2.8548286792637167e-08
65,144,3.9392925019391513e-05
65,150,2.8158893992156677e-05
65,158,6.486987383031786e-06
65,168,6.862225902467716e-07
65,180,3.701488850131094e-08
65,208,3.3036300092480725e-05
65,214,2.405878842239656e-05
65,222,5.737509379877438e-06
65,232,6.467754171984077e-07
65,244,3.932722811648208e-08
65,289,2.82191139519278e-05
65,295,2.0819066496943363e-05
65,303,5.082518718568538e-06
65,313,5.96939966353127e-07
65,325,3.8967799239524064e-08
66,66,0.0001373508697210442
66,74,2.3076740534737376e-05
66,84,1.5522301998070309e-06
66,92,3.5479417819701557e-05
66,96,0.0002200101665960672
66,102,0.00011426053917316942
66,110,2.118345986744574e-05
66,120,1.8063354506716129e-06
66,132,7.080946632968108e-08
66,141,2.7808022849069688e-05
66,145,0.00017998210678948974
66,151,9.622390868631362e-05
66,159,1.8853328302099462e-05
66,169,1.7946802441213733e-06
66,181,9.039174261284107e-08
66,205,2.2604736556787376e-05
66,209,0.00015075901040271104
66,215,8.216077186257728e-05
66,223,1.6668089666070945e-05
66,233,1.6909984693629812e-06
66,245,9.601071025221168e-08
66,286,1.8876110877449444e-05
66,290,0.00012866520589160214
66,296,7.106461457367019e-05
66,304,1.4760825696659914e-05
66,314,1.56036414081705e-06
66,326,9.511368829607332e-08
67,67,0.0002555955705420404
67,75,3.8282797631973285e-05
67,85,2.3850919493262544e-06
67,93,7.167233715199754e-05
67,97,0.0004883592979610311
67,103,0.0002124017077471022
67,111,3.5119018293125485e-05
67,121,2.7743164442496543e-06
67,133,1.033409852605734e-07
67,142,5.4236200802435464e-05
67,146,0.0003989478935793588
67,152,0.0001787518161629359
67,160,3.124272783266176e-05
67,170,2.755617338992947e-06
67,182,1.320820807245541e-07
67,206,4.294206053603232e-05
67,210,0.0003338484328760218
67,216,0.00015255548679789992
67,224,2.7613408985675233e-05
67,234,2.595893634420873e-06
67,246,1.4028376940909303e-07
67,287,3.5145015297528045e-05
67,291,0.0002847245024735903
67,297,0.0001319077320168045
67,305,2.44486087081888e-05
67,315,2.395011069266803e-06
67,327,1.3895944367592783e-07
68,68,0.0001373508697210442
68,76,2.3076740534737373e-05
68,86,1.5522301998070309e-06
68,94,3.5479417819701557e-05
68,98,0.00022001016659606727
68,104,0.00011426053917316939
68,112,2.1183459867445736e-05
68,122,1.8063354506716129e-06
68,134,7.080946632968108e-08
68,143,2.7808022849069688e-05
68,147,0.0001799821067894898
68,153,9.622390868631362e-05
68,161,1.8853328302099462e-05
68,171,1.7946802441213733e-06
68,183,9.039174261284107e-08
68,207,2.2604736556787376e-05
68,211,0.00015075901040271107
68,217,8.216077186257728e-05
68,225,1.666808966607094e-05
68,235,1.6909984693629812e-06
68,247,9.601071025221169e-08
68,288,1.8876110877449444e-05
68,292,0.00012866520589160216
68,298,7.106461457367019e-05
68,306,1.4760825696659914e-05
68,316,1.56036414081705e-06
68,328,9.511368829607335e-08
69,69,4.00999828168343e-05
69,77,7.927840421268103e-06
69,87,5.928492744731831e-07
69,99,4.807047472066725e-05
69,105,3.340590031105543e-05
69,113,7.284270141073416e-06
69,123,6.903724938240706e-07
69,135,2.854828679263717e-08
69,148,3.9392925019391513e-05
69,154,2.815889399215667e-05
69,162,6.486987383031786e-06
69,172,6.862225902467716e-07
69,184,3.701488850131095e-08
69,212,3.3036300092480725e-05
69,218,2.4058788422396548e-05
69,226,5.737509379877436e-06
69,236,6.467754171984079e-07
69,248,3.932722811648208e-08
69,293,2.82191139519278e-05
69,299,2.0819066496943357e-05
69,307,5.082518718568537e-06
69,317,5.96939966353127e-07
69,329,3.8967799239524083e-08
70,70,6.090092035329379e-06
70,78,1.5543016483527273e-06
70,88,1.3290057172162396e-07
70,106,5.0824155695637435e-06
70,114,1.4297671560701283e-06
70,124,1.5489280497839665e-07
70,155,4.289095662460154e-06
70,163,1.2742269077075009e-06
70,173,1.5404589848763462e-07
70,219,3.6674737051226307e-06
70,227,1.1275865019124322e-06
70,237,1.4524510993797935e-07
70,300,3.1753972246961563e-06
70,308,9.992287552946371e-07
70,318,1.3408965026890012e-07
71,71,7.143595695307859e-08
71,107,6.569982440731585e-08
71,117,1.0848294136910382e-08
71,156,5.85150356817223e-08
71,166,1.0790059741360508e-08
71,220,5.2070521263723906e-08
71,230,1.0174311396563763e-08
71,301,4.612852158273576e-08
72,72,4.959914736127838e-07
72,82,5.0273938955999114e-08
72,100,1.2937215884177716e-06
72,108,4.554524646592564e-07
72,118,5.8524869311427946e-08
72,149,1.0899083864945589e-06
72,157,4.054427136963622e-07
72,167,5.816141632483311e-08
72,213,9.308527858335089e-07
72,221,3.585029772873339e-07
72,231,5.4810511631099235e-08
72,294,8.052829008403878e-07
72,302,3.1751996406849545e-07
72,312,5.05822785303266e-08
73,73,1.8877731329676419e-06
73,83,1.6557619483087705e-07
73,95,7.413601563435327e-06
73,101,6.58796158539761e-06
73,109,1.731586425539276e-06
73,119,1.9255907168462877e-07
73,144,6.057007108325245e-06
73,150,5.54418710121966e-06
73,158,1.5403599878988092e-06
73,168,1.9124387960989099e-07
73,180,1.0833075565434623e-08
73,208,5.0690570365475194e-06
73,214,4.731632531870555e-06
73,222,1.3613614732071359e-06
73,232,1.801483843663034e-07
73,244,1.1505679533646264e-08
73,289,4.323432979481875e-06
73,295,4.091202076266883e-06
73,303,1.2052950340480574e-06
73,313,1.662002513921929e-07
73,325,1.1397621180317374e-08
74,74,4.615110113319312e-06
74,84,3.6195315029737207e-07
74,92,9.29815056147218e-07
74,96,2.94320997554566e-05
74,102,1.915065133693329e-05
74,110,4.2295283402152105e-06
74,120,4.2067795184876953e-07
74,132,1.7645567112590073e-08
74,141,6.017719470377054e-07
74,145,2.4004592441031728e-05
74,151,1.6102284258500408e-05
74,159,3.7602744653133334e-06
74,169,4.1763255888721675e-07
74,181,2.330622019104972e-08
74,205,4.141528726288499e-07
74,209,2.0065086433675824e-05
74,215,1.3734008028746971e-05
74,223,3.3221382984068424e-06
74,233,3.9329128825640207e-07
74,245,2.474479345289774e-08
74,286,2.993063424441429e-07
74,290,1.7098838475748052e-05
74,296,1.1869970765211924e-05
74,304,2.9404549346611938e-06
74,314,3.6276692358619976e-07
74,326,2.4506382534925298e-08
75,75,6.866949028047351e-06
75,85,5.025635791857122e-07
75,97,5.805406696620288e-05
75,103,3.1739601475329384e-05
75,111,6.289686310371233e-06
75,121,5.839049464790313e-07
75,133,2.5040873678449507e-08
75,146,4.728269276024364e-05
75,152,2.6670871187912277e-05
75,160,5.5898121736812155e-06
75,170,5.795366924732216e-07
75,182,3.198834276153906e-08
75,210,3.948496002473104e-05
75,216,2.2738536991261114e-05
75,224,4.9370464854057e-06
75,234,5.456677521598361e-07
75,246,3.395855562745453e-08
75,291,3.36246039961786e-05
75,297,1.964632843851514e-05
75,305,4.3690368401800985e-06
75,315,5.032554951395193e-07
75,327,3.3628337701587464e-08
76,76,4.615110113319311e-06
76,86,3.6195315029737207e-07
76,94,9.298150561472177e-07
76,98,2.94320997554566e-05
76,104,1.915065133693329e-05
76,112,4.229528340215208e-06
76,122,4.206779518487694e-07
76,134,1.764556711259007e-08
76,143,6.017719470377054e-07
76,147,2.4004592441031724e-05
76,153,1.6102284258500408e-05
76,161,3.760274465313332e-06
76,171,4.176325588872166e-07
76,183,2.330622019104972e-08
76,207,4.141528726288499e-07
76,211,2.006508643367582e-05
76,217,1.3734008028746968e-05
76,225,3.322138298406841e-06
76,235,3.932912882564019e-07
76,247,2.4744793452897738e-08
76,288,2.993063424441429e-07
76,292,1.7098838475748052e-05
76,298,1.1869970765211924e-05
76,306,2.940454934661193e-06
76,316,3.627669235861997e-07
76,328,2.4506382534925295e-08
77,77,1.887773132967642e-06
77,87,1.655761948308771e-07
77,99,7.413601563435327e-06
77,105,6.5879615853976084e-06
77,113,1.7315864255392765e-06
77,123,1.9255907168462885e-07
77,148,6.057007108325245e-06
77,154,5.544187101219658e-06
77,162,1.5403599878988094e-06
77,172,1.912438796098911e-07
77,184,1.0833075565434625e-08
77,212,5.0690570365475194e-06
77,218,4.731632531870555e-06
77,226,1.3613614732071359e-06
77,236,1.8014838436630342e-07
77,248,1.1505679533646266e-08
77,293,4.323432979481875e-06
77,299,4.091202076266883e-06
77,307,1.2052950340480574e-06
77,317,1.6620025139219299e-07
77,329,1.1397621180317377e-08
78,78,4.959914736127837e-07
78,88,5.027393895599911e-08
78,106,1.2937215884177716e-06
78,114,4.554524646592564e-07
78,124,5.8524869311427946e-08
78,155,1.0899083864945589e-06
78,163,4.054427136963623e-07
78,173,5.816141632483311e-08
78,219,9.30852785833509e-07
78,227,3.585029772873339e-07
78,237,5.481051163109924e-08
78,300,8.052829008403878e-07
78,308,3.1751996406849545e-07
78,318,5.05822785303266e-08
79,79,7.143595695307859e-08
79,115,6.569982440731585e-08
79,125,1.0848294136910382e-08
79,164,5.8515035681722304e-08
79,174,1.0790059741360508e-08
79,228,5.2070521263723906e-08
79,238,1.0174311396563765e-08
79,309,4.6128521582735776e-08
82,100,1.1050955626822782e-07
82,108,4.6096057063080945e-08
82,149,9.294885540843883e-08
82,157,4.100738275159982e-08
82,213,7.9305009647761e-08
82,221,3.624339455650802e-08
82,294,6.83824484481461e-08
82,302,3.160795597910883e-08
83,83,1.512390775535805e-08
83,95,4.4916750038655707e-07
83,101,4.914614976269699e-07
83,109,1.5163753531887323e-07
83,119,1.757477888793357e-08
83,144,3.6578903788212107e-07
83,150,4.130880389203673e-07
83,158,1.3475014945478114e-07
83,168,1.7445384567052763e-08
83,208,3.055155774786397e-07
83,214,3.521645072087349e-07
83,222,1.1891830239643968e-07
83,232,1.6427248820411405e-08
83,289,2.601763061832098e-07
83,295,3.042624406059062e-07
83,303,1.0476645804975042e-07
83,313,1.5151418730972343e-08
84,84,3.117256049146527e-08
84,96,1.6184704413219283e-06
84,102,1.284970461547327e-06
84,110,3.3118986301527123e-07
84,120,3.706520440858965e-08
84,145,1.3160273976894826e-06
84,151,1.0787816961764984e-06
84,159,2.941498663856919e-07
84,169,3.676988486919152e-08
84,209,1.0975605960962035e-06
84,215,9.191464297048539e-07
84,223,2.596860083377574e-07
84,233,3.4593825037013876e-08
84,290,9.338449785249758e-07
84,296,7.938113802838242e-07
84,304,2.2973695091019169e-07
84,314,3.116245982049837e-08
85,85,4.184075700333553e-08
85,97,2.937776721976527e-06
85,103,1.9730258410750184e-06
85,111,4.5959848582797404e-07
85,121,4.8562579133091075e-08
85,146,2.385255729436885e-06
85,152,1.6555134990030917e-06
85,160,4.0806896394171696e-07
85,170,4.8166979887839554e-08
85,210,1.9875877878215395e-06
85,216,1.410155763771755e-06
85,224,3.601024168626363e-07
85,234,4.5331188948183304e-08
85,291,1.6906283300868353e-06
85,297,1.2175093976040595e-06
85,305,3.185247921809062e-07
85,315,4.179416237612606e-08
86,86,3.1172560491465254e-08
86,98,1.6184704413219283e-06
86,104,1.284970461547327e-06
86,112,3.3118986301527107e-07
86,122,3.706520440858964e-08
86,147,1.3160273976894826e-06
86,153,1.0787816961764984e-06
86,161,2.941498663856918e-07
86,171,3.676988486919152e-08
86,211,1.0975605960962035e-06
86,217,9.19146429704854e-07
86,225,2.596860083377574e-07
86,235,3.459382503701386e-08
86,292,9.338449785249758e-07
86,298,7.938113802838242e-07
86,306,2.2973695091019163e-07
86,316,3.1162459820498365e-08
87,87,1.5123907755358052e-08
87,99,4.4916750038655707e-07
87,105,4.914614976269699e-07
87,113,1.5163753531887323e-07
87,123,1.7574778887933576e-08
87,148,3.6578903788212123e-07
87,154,4.130880389203673e-07
87,162,1.347501494547812e-07
87,172,1.744538456705277e-08
87,212,3.055155774786397e-07
87,218,3.521645072087349e-07
87,226,1.1891830239643969e-07
87,236,1.6427248820411408e-08
87,293,2.6017630618320993e-07
87,299,3.042624406059062e-07
87,307,1.0476645804975045e-07
87,317,1.5151418730972346e-08
88,106,1.105095562682278e-07
88,114,4.609605706308093e-08
88,155,9.294885540843883e-08
88,163,4.100738275159981e-08
88,219,7.9305009647761e-08
88,227,3.624339455650802e-08
88,300,6.83824484481461e-08
88,308,3.160795597910883e-08
91,91,0.00040866523729133025
91,140,0.0003333691036978944
91,204,0.0002787332287971202
91,285,0.00023758901141965658
92,92,0.00022594648487864684
92,96,0.00018385997072248536
92,102,2.9953551596722714e-05
92,110,8.89442469678498e-07
92,141,0.00018416843338535935
92,145,0.00015187111172155576
92,151,2.5467335024956144e-05
92,159,8.124645822425236e-07
92,205,0.00015390153032782732
92,209,0.00012805967739571008
92,215,2.188786808743646e-05
92,223,7.309770375803008e-07
92,286,0.00013113343010067764
92,290,0.00010981307839041482
92,296,1.9020222554450527e-05
92,304,6.555802326998867e-07
93,93,0.0009604555002123145
93,97,0.0005603886740557241
93,103,6.0965870940530805e-05
93,142,0.000781887762587916
93,146,0.0004633316004308035
93,152,5.2081347379039045e-05
93,206,0.0006528207705747384
93,210,0.00039093815302736526
93,216,4.490407409060239e-05
93,287,0.0005558924388993265
93,291,0.0003353872778982071
93,297,3.91092135101319e-05
94,94,0.00022594648487864684
94,98,0.00018385997072248536
94,104,2.9953551596722714e-05
94,112,8.89442469678498e-07
94,143,0.00018416843338535935
94,147,0.00015187111172155582
94,153,2.5467335024956147e-05
94,161,8.124645822425233e-07
94,207,0.00015390153032782732
94,211,0.00012805967739571008
94,217,2.188786808743646e-05
94,225,7.309770375803005e-07
94,288,0.00013113343010067764
94,292,0.00010981307839041483
94,298,1.9020222554450527e-05
94,306,6.555802326998866e-07
95,95,8.092395559692183e-05
95,101,4.016290089131463e-05
95,109,6.8264182532028555e-06
95,119,5.240866887150168e-07
95,131,1.844700293814867e-08
95,144,6.652843913595656e-05
95,150,3.391893143387625e-05
95,158,6.087740865032567e-06
95,168,5.215268075988538e-07
95,180,2.3505644460917916e-08
95,208,5.591617802585822e-05
95,214,2.901794034380437e-05
95,222,5.3895491656873115e-06
95,232,4.91821543243762e-07
95,244,2.499186439082154e-08
95,289,4.783810322372997e-05
95,295,2.5133957210248295e-05
95,303,4.777555458786396e-06
95,313,4.541782792035393e-07
95,325,2.4776131128759687e-08
96,96,0.000473467459163373
96,102,0.0001835656929631445
96,110,2.7076468785914106e-05
96,120,1.8868207125387801e-06
96,132,6.12340917920406e-08
96,141,0.0001478671310940237
96,145,0.0003885981462351792
96,151,0.00015488859994670513
96,159,2.4132333432993596e-05
96,169,1.8768049849998185e-06
96,181,7.864593595757569e-08
96,205,0.00012242544474725008
96,209,0.00032623859044625224
96,215,0.00013242701690096214
96,223,2.1356001999479697e-05
96,233,1.7699824020217782e-06
96,245,8.359413613214587e-08
96,286,0.00010362006009779795
96,290,0.0002788796432537736
96,296,0.00011465107488046985
96,304,1.892550547108833e-05
96,314,1.6341177471320512e-06
96,326,8.285521150739136e-08
97,97,0.0012495958795812718
97,103,0.00040702991580362466
97,111,5.3371162500428276e-05
97,121,3.423135105083396e-06
97,133,1.0516410990874565e-07
97,142,0.0004469691376461851
97,146,0.0010242565005899248
97,152,0.0003432049505836227
97,160,4.754679433450175e-05
97,170,3.4039106637289493e-06
97,182,1.3436128279365072e-07
97,206,0.0003679174981307294
97,210,0.0008591121785113652
97,216,0.0002932946021507676
97,224,4.206390205631262e-05
97,234,3.2091123415280036e-06
97,246,1.4278927631256735e-07
97,287,0.0003100867069388389
97,291,0.0007339205947776692
97,297,0.00025383856898721714
97,305,3.72685459412214e-05
97,315,2.963518429568677e-06
97,327,1.4150889393827458e-07
98,98,0.00047346745916337305
98,104,0.00018356569296314453
98,112,2.7076468785914106e-05
98,122,1.88682071253878e-06
98,134,6.123409179204061e-08
98,143,0.0001478671310940237
98,147,0.0003885981462351794
98,153,0.00015488859994670513
98,161,2.4132333432993593e-05
98,171,1.8768049849998185e-06
98,183,7.86459359575757e-08
98,207,0.00012242544474725013
98,211,0.0003262385904462523
98,217,0.0001324270169009622
98,225,2.135600199947969e-05
98,235,1.7699824020217782e-06
98,247,8.359413613214587e-08
98,288,0.00010362006009779795
98,292,0.0002788796432537736
98,298,0.00011465107488046985
98,306,1.892550547108833e-05
98,316,1.6341177471320512e-06
98,328,8.285521150739138e-08
99,99,8.092395559692188e-05
99,105,4.016290089131463e-05
99,113,6.8264182532028555e-06
99,123,5.240866887150169e-07
99,135,1.844700293814867e-08
99,148,6.652843913595657e-05
99,154,3.391893143387625e-05
99,162,6.087740865032567e-06
99,172,5.215268075988538e-07
99,184,2.3505644460917923e-08
99,212,5.591617802585824e-05
99,218,2.9017940343804376e-05
99,226,5.389549165687312e-06
99,236,4.918215432437622e-07
99,248,2.4991864390821547e-08
99,293,4.783810322372997e-05
99,299,2.51339572102483e-05
99,307,4.777555458786396e-06
99,317,4.541782792035394e-07
99,329,2.477613112875969e-08
100,100,4.241675627861507e-06
100,108,1.1901073973457484e-06
100,118,1.2860685322813914e-07
100,149,3.5796297663762844e-06
100,157,1.0606633352804428e-06
100,167,1.2790639172883185e-07
100,213,3.0608873900546666e-06
100,221,9.38614963309821e-07
100,231,1.2060073712426938e-07
100,294,2.650246986453323e-06
100,302,8.317774490567541e-07
100,312,1.1150860697549454e-07
101,101,2.783058789091082e-05
101,109,6.053401711978365e-06
101,119,5.723272937667689e-07
101,131,2.3270353989281218e-08
101,144,3.291417898862735e-05
101,150,2.3459995511599988e-05
101,158,5.390980198926119e-06
101,168,5.689004079575783e-07
101,180,3.01670478024547e-08
101,208,2.760387083959867e-05
101,214,2.0044494060697156e-05
101,222,4.7682146241781734e-06
101,232,5.362061598968854e-07
101,244,3.2053550030069953e-08
101,289,2.3579226042397056e-05
101,295,1.7345602991415294e-05
101,303,4.223931710031151e-06
101,313,4.948960432140902e-07
101,325,3.176204970639629e-08
102,102,9.50554711190067e-05
102,110,1.7580250586548136e-05
102,120,1.4955726401341454e-06
102,132,5.8486720929140704e-08
102,141,2.34896664480478e-05
102,145,0.00015017575868069287
102,151,8.005371806755205e-05
102,159,1.5646908674607376e-05
102,169,1.4859607044820626e-06
102,181,7.466296849925884e-08
102,205,1.9101757539451282e-05
102,209,0.00012579655879326417
102,215,6.835546681266238e-05
102,223,1.3833588164080847e-05
102,233,1.3999662266170519e-06
102,245,7.930554184656103e-08
102,286,1.595552063242108e-05
102,290,0.00010736366408864155
102,296,5.912481615907982e-05
102,304,1.2250837544946918e-05
102,314,1.2918307085928056e-06
102,326,7.85655306342861e-08
103,103,0.00017651752734254773
103,111,2.9117946211939502e-05
103,121,2.2950825978628417e-06
103,133,8.528902138476947e-08
103,142,4.621065529466291e-05
103,146,0.0003325279585155463
103,152,0.0001485582101117508
103,160,2.5904826214788983e-05
103,170,2.2796797818372935e-06
103,182,1.0886274170379891e-07
103,206,3.6634395200703714e-05
103,210,0.00027827785275863937
103,216,0.0001267899825818218
103,224,2.2896069400014912e-05
103,234,2.14759194381417e-06
103,246,1.1612757058205353e-07
103,287,3.001244447872145e-05
103,291,0.00023733761430974718
103,297,0.00010963159548688458
103,305,2.0272234429598233e-05
103,315,1.9814217305529656e-06
103,327,1.1452531783432901e-07
104,104,9.50554711190067e-05
104,112,1.7580250586548136e-05
104,122,1.4955726401341452e-06
104,134,5.8486720929140704e-08
104,143,2.34896664480478e-05
104,147,0.00015017575868069287
104,153,8.005371806755205e-05
104,161,1.5646908674607373e-05
104,171,1.4859607044820623e-06
104,183,7.466296849925884e-08
104,207,1.910175753945128e-05
104,211,0.0001257965587932642
104,217,6.83554668126624e-05
104,225,1.3833588164080846e-05
104,235,1.3999662266170517e-06
104,247,7.930554184656104e-08
104,288,1.595552063242108e-05
104,292,0.00010736366408864156
104,298,5.912481615907982e-05
104,306,1.2250837544946915e-05
104,316,1.2918307085928056e-06
104,328,7.85655306342861e-08
105,105,2.783058789091081e-05
105,113,6.053401711978365e-06
105,123,5.723272937667689e-07
105,135,2.3270353989281218e-08
105,148,3.291417898862735e-05
105,154,2.345999551159998e-05
105,162,5.390980198926119e-06
105,172,5.689004079575783e-07
105,184,3.016704780245471e-08
105,212,2.7603870839598664e-05
105,218,2.004449406069715e-05
105,226,4.768214624178173e-06
105,236,5.362061598968854e-07
105,248,3.2053550030069953e-08
105,293,2.3579226042397056e-05
105,299,1.734560299141529e-05
105,307,4.22393171003115e-06
105,317,4.948960432140902e-07
105,329,3.176204970639629e-08
106,106,4.241675627861507e-06
106,114,1.1901073973457484e-06
106,124,1.2860685322813912e-07
106,155,3.5796297663762844e-06
106,163,1.0606633352804428e-06
106,173,1.279063917288318e-07
106,219,3.0608873900546662e-06
106,227,9.386149633098208e-07
106,237,1.2060073712426938e-07
106,300,2.6502469864533227e-06
106,308,8.317774490567539e-07
106,318,1.1150860697549454e-07
107,107,6.039095679687585e-08
107,156,5.411895962682531e-08
107,220,4.787946367900917e-08
107,301,4.242682366155856e-08
108,108,4.1823920340855955e-07
108,118,5.366370203994397e-08
108,149,1.002640602131857e-06
108,157,3.723227047855567e-07
108,167,5.333138344167207e-08
108,213,8.563333737598092e-07
108,221,3.292268528536014e-07
108,231,5.025936621553187e-08
108,294,7.408247980190295e-07
108,302,2.912697966832535e-07
108,312,4.638344123376958e-08
109,109,1.5883748844788881e-06
109,119,1.7634830719400812e-07
109,144,5.5774921453540184e-06
109,150,5.094453125910588e-06
109,158,1.412992576746883e-06
109,168,1.7514710839708944e-07
109,208,4.667887839466886e-06
109,214,4.347888840626276e-06
109,222,1.2488130160927158e-06
109,232,1.6498762232228034e-07
109,244,1.0525116844167568e-08
109,289,3.981346872872571e-06
109,295,3.7594448971422334e-06
109,303,1.105832718720636e-06
109,313,1.5223568513954186e-07
109,325,1.0426407676550096e-08
110,110,3.876298576148387e-06
110,120,3.849493511692821e-07
110,132,1.546585871499965e-08
110,141,5.814428882344989e-07
110,145,2.2084358839786377e-05
110,151,1.4782279505338965e-05
110,159,3.446461551206885e-06
110,169,3.821702101511127e-07
110,181,2.127141893457736e-08
110,205,4.0450015354269076e-07
110,209,1.846057956775653e-05
110,215,1.260839358081361e-05
110,223,3.044806003893186e-06
110,233,3.5990073688868596e-07
110,245,2.2609341592719107e-08
110,286,2.9523635436962723e-07
110,290,1.573188814988776e-05
110,296,1.0897282157311348e-05
110,304,2.6951930315012706e-06
110,314,3.319836880697807e-07
110,326,2.239175306111652e-08
111,111,5.761165043828078e-06
111,121,5.340541609496113e-07
111,133,2.1984105266734683e-08
111,146,4.347091697627391e-05
111,152,2.4468642349518567e-05
111,160,5.120225146780956e-06
111,170,5.300698915857336e-07
111,182,2.9214880442887676e-08
111,210,3.630312800344103e-05
111,216,2.086144563941777e-05
111,224,4.5223719109068395e-06
111,234,4.990989956431633e-07
111,246,3.1014683895358213e-08
111,291,3.091581084225885e-05
111,297,1.802477624234069e-05
111,305,4.002119547588427e-06
111,315,4.602684820717027e-07
111,327,3.071338488464255e-08
112,112,3.876298576148386e-06
112,122,3.8494935116928196e-07
112,134,1.546585871499965e-08
112,143,5.814428882344989e-07
112,147,2.2084358839786377e-05
112,153,1.4782279505338962e-05
112,161,3.446461551206884e-06
112,171,3.8217021015111254e-07
112,183,2.1271418934577356e-08
112,207,4.045001535426905e-07
112,211,1.846057956775653e-05
112,217,1.2608393580813606e-05
112,225,3.0448060038931856e-06
112,235,3.5990073688868586e-07
112,247,2.2609341592719104e-08
112,288,2.952363543696272e-07
112,292,1.573188814988776e-05
112,298,1.0897282157311346e-05
112,306,2.6951930315012697e-06
112,316,3.319836880697806e-07
112,328,2.239175306111651e-08
113,113,1.5883748844788886e-06
113,123,1.7634830719400812e-07
113,148,5.5774921453540184e-06
113,154,5.094453125910588e-06
113,162,1.4129925767468828e-06
113,172,1.7514710839708946e-07
113,212,4.667887839466886e-06
113,218,4.347888840626276e-06
113,226,1.2488130160927158e-06
113,236,1.6498762232228034e-07
113,248,1.052511684416757e-08
113,293,3.981346872872572e-06
113,299,3.7594448971422334e-06
113,307,1.105832718720636e-06
113,317,1.5223568513954188e-07
113,329,1.0426407676550096e-08
114,114,4.1823920340855955e-07
114,124,5.366370203994397e-08
114,155,1.0026406021318572e-06
114,163,3.723227047855567e-07
114,173,5.333138344167207e-08
114,219,8.563333737598092e-07
114,227,3.2922685285360143e-07
114,237,5.025936621553187e-08
114,300,7.408247980190295e-07
114,308,2.912697966832535e-07
114,318,4.638344123376958e-08
115,115,6.039095679687588e-08
115,164,5.411895962682533e-08
115,228,4.787946367900917e-08
115,309,4.2426823661558566e-08
118,149,1.0833637459644013e-07
118,157,4.7726352124605806e-08
118,213,9.242443013893548e-08
118,221,4.218688005731116e-08
118,294,7.992806668965255e-08
118,302,3.734636984686698e-08
119,119,2.0423624326381995e-08
119,144,4.2677431059513405e-07
119,150,4.81071439981074e-07
119,158,1.5671181336575665e-07
119,168,2.0273772459776383e-08
119,208,3.563628358582521e-07
119,214,4.101281299459107e-07
119,222,1.3842217026252614e-07
119,232,1.90909017156282e-08
119,289,3.035342192323887e-07
119,295,3.5434590263248385e-07
119,303,1.224086547598659e-07
119,313,1.7608417593534818e-08
120,120,4.303298479856485e-08
120,145,1.5340723816904578e-06
120,151,1.2554659555118795e-06
120,159,3.419037499099824e-07
120,169,4.269093955886274e-08
120,209,1.2796005842508823e-06
120,215,1.0697313618868999e-06
120,223,3.0186037881515293e-07
120,233,4.0183051450458596e-08
120,290,1.08875581615527e-06
120,296,9.238509462913258e-07
120,304,2.6705007460979533e-07
120,314,3.705135299991566e-08
121,121,5.636594143590533e-08
121,146,2.7794699477524805e-06
121,152,1.9257988023282985e-06
121,160,4.7414066040067167e-07
121,170,5.59078460098974e-08
121,210,2.3161594103629023e-06
121,216,1.6402372637026455e-06
121,224,4.1850439831953044e-07
121,234,5.2617009730953686e-08
121,291,1.9693795597256237e-06
121,297,1.416332006049292e-06
121,305,3.7011211500856707e-07
121,315,4.851195364336475e-08
122,122,4.303298479856485e-08
122,147,1.5340723816904576e-06
122,153,1.2554659555118795e-06
122,161,3.4190374990998227e-07
122,171,4.2690939558862735e-08
122,211,1.279600584250882e-06
122,217,1.0697313618868999e-06
122,225,3.018603788151528e-07
122,235,4.018305145045858e-08
122,292,1.0887558161552697e-06
122,298,9.238509462913255e-07
122,306,2.6705007460979517e-07
122,316,3.705135299991566e-08
123,123,2.0423624326381995e-08
123,148,4.267743105951342e-07
123,154,4.81071439981074e-07
123,162,1.567118133657567e-07
123,172,2.027377245977639e-08
123,212,3.563628358582521e-07
123,218,4.101281299459107e-07
123,226,1.384221702625262e-07
123,236,1.9090901715628203e-08
123,293,3.035342192323887e-07
123,299,3.5434590263248385e-07
123,307,1.224086547598659e-07
123,317,1.760841759353482e-08
124,155,1.0833637459644013e-07
124,163,4.7726352124605806e-08
124,219,9.242443013893548e-08
124,227,4.218688005731116e-08
124,300,7.992806668965252e-08
124,308,3.734636984686698e-08
131,144,1.5002539802310816e-08
131,150,1.910675611162522e-08
131,208,1.25157774308639e-08
131,214,1.628088877917699e-08
131,289,1.065047166495872e-08
131,295,1.4061445685121715e-08
132,145,4.961665067559654e-08
132,151,4.902603771448767e-08
132,159,1.372283813264432e-08
132,209,4.132401773444269e-08
132,215,4.129080988296628e-08
132,223,1.2107002458438748e-08
132,290,3.500213759045998e-08
132,296,3.5633510968385726e-08
132,304,1.0705684362184196e-08
133,146,8.496352822485895e-08
133,152,7.189168499927943e-08
133,160,1.9499964568580694e-08
133,210,7.05441292305756e-08
133,216,6.115047179380594e-08
133,224,1.7199877014764647e-08
133,291,5.988234383923248e-08
133,297,5.2615931634005584e-08
133,305,1.4794468543109933e-08
134,147,4.961665067559655e-08
134,153,4.902603771448767e-08
134,161,1.3722838132644318e-08
134,211,4.1324017734442696e-08
134,217,4.1290809882966286e-08
134,225,1.2107002458438742e-08
134,292,3.500213759045998e-08
134,298,3.5633510968385726e-08
134,306,1.0705684362184195e-08
135,148,1.500253980231082e-08
135,154,1.910675611162522e-08
135,212,1.2515777430863907e-08
135,218,1.628088877917699e-08
135,293,1.065047166495872e-08
135,299,1.4061445685121717e-08
140,140,0.00027196546976381583
140,204,0.0002274041155371602
140,285,0.00019384341525675487
141,141,0.00015012878982603907
141,145,0.00012215591756573307
141,151,1.9978326185500814e-05
141,159,5.345525057523544e-07
141,205,0.00012546382729358542
141,209,0.00010301230805509515
141,215,1.7174104446347708e-05
141,223,4.828565693191515e-07
141,286,0.0001069094983801386
141,290,8.834000734252075e-05
141,296,1.492438867938478e-05
141,304,4.3412282822375107e-07
142,142,0.0006366232951512987
142,146,0.0003696451462835569
142,152,3.951747627729513e-05
142,206,0.0005315946613078414
142,210,0.00031194097030082365
142,216,3.4095458988295516e-05
142,287,0.00045270166067970307
142,291,0.00026764652543707993
142,297,2.9710089077267947e-05
143,143,0.00015012878982603907
143,147,0.00012215591756573307
143,153,1.9978326185500818e-05
143,161,5.345525057523544e-07
143,207,0.00012546382729358542
143,211,0.00010301230805509515
143,217,1.7174104446347708e-05
143,225,4.828565693191514e-07
143,288,0.0001069094983801386
143,292,8.834000734252075e-05
143,298,1.492438867938478e-05
143,306,4.3412282822375107e-07
144,144,5.4695516605182736e-05
144,150,2.7797977020877306e-05
144,158,4.974087184087085e-06
144,168,4.2470105710349335e-07
144,180,1.918426365241647e-08
144,208,4.597172830260737e-05
144,214,2.378185159957923e-05
144,222,4.403699556309232e-06
144,232,4.005586610846622e-07
144,244,2.030314671389334e-08
144,289,3.933091364685591e-05
144,295,2.0598917715382682e-05
144,303,3.903699034662669e-06
144,313,3.699054218929911e-07
144,325,2.0128135398766158e-08
145,145,0.0003189546773215623
145,151,0.00012671904642221621
145,159,1.96836266036389e-05
145,169,1.5259732609671986e-06
145,181,6.340338824239806e-08
145,205,0.00010114693802328699
145,209,0.00026777850166642215
145,215,0.0001083449568907805
145,223,1.741945927483859e-05
145,233,1.4390204367542285e-06
145,245,6.739232910669125e-08
145,286,8.561553248868152e-05
145,290,0.00022891058275458968
145,296,9.380309271039724e-05
145,304,1.5437200950063807e-05
145,314,1.3286211152634109e-06
145,326,6.683842774976514e-08
146,146,0.0008395940845014126
146,152,0.00028039592173104713
146,160,3.872827215960447e-05
146,170,2.7639502609959775e-06
146,182,1.087258821292484e-07
146,206,0.0003043209825906152
146,210,0.0007042474594842048
146,216,0.0002396257069262716
146,224,3.4263087109321906e-05
146,234,2.6058335579117863e-06
146,246,1.1551091649997158e-07
146,287,0.0002565184490518217
146,291,0.0006016377413597314
146,297,0.00020739341047566463
146,305,3.0357549182296496e-05
146,315,2.405555184650297e-06
146,327,1.144770393896084e-07
147,147,0.0003189546773215623
147,153,0.00012671904642221621
147,161,1.96836266036389e-05
147,171,1.5259732609671982e-06
147,183,6.340338824239807e-08
147,207,0.00010114693802328701
147,211,0.00026777850166642215
147,217,0.00010834495689078048
147,225,1.741945927483859e-05
147,235,1.4390204367542288e-06
147,247,6.739232910669125e-08
147,288,8.561553248868152e-05
147,292,0.00022891058275458973
147,298,9.380309271039726e-05
147,306,1.5437200950063807e-05
147,316,1.3286211152634109e-06
147,328,6.683842774976514e-08
148,148,5.4695516605182756e-05
148,154,2.7797977020877306e-05
148,162,4.974087184087085e-06
148,172,4.2470105710349335e-07
148,184,1.9184263652416473e-08
148,212,4.597172830260739e-05
148,218,2.378185159957923e-05
148,226,4.403699556309232e-06
148,236,4.0055866108466226e-07
148,248,2.030314671389334e-08
148,293,3.9330913646855916e-05
148,299,2.059891771538269e-05
148,307,3.903699034662669e-06
148,317,3.699054218929911e-07
148,329,2.0128135398766164e-08
149,149,3.020986784087262e-06
149,157,8.935994482470267e-07
149,167,1.0774817902304579e-07
149,213,2.583230012510338e-06
149,221,7.907828564197677e-07
149,231,1.0159510506360491e-07
149,294,2.2366893008344103e-06
149,302,7.007778293055126e-07
149,312,9.38232718546793e-08
150,150,1.977616179085005e-05
150,158,4.5370453625770505e-06
150,168,4.781995079093285e-07
150,180,2.5326004166002195e-08
150,208,2.3313469077149643e-05
150,214,1.689722612855008e-05
150,222,4.012972616074297e-06
150,232,4.50723260325815e-07
150,244,2.6898918771185437e-08
150,289,1.9914630687237244e-05
150,295,1.4622229066717117e-05
150,303,3.554927153089076e-06
150,313,4.160025166088663e-07
150,325,2.6654507460400108e-08
151,151,6.742112305897237e-05
151,159,1.3156882745239208e-05
151,169,1.247419009287482e-06
151,181,6.258664282340831e-08
151,205,1.6250333077864835e-05
151,209,0.00010615012839831844
151,215,5.7569746662546235e-05
151,223,1.163231109054926e-05
151,233,1.1754125524621528e-06
151,245,6.64790276792316e-08
151,286,1.357623709080314e-05
151,290,9.059746663698726e-05
151,296,4.9796143457159884e-05
151,304,1.0301510269864052e-05
151,314,1.0846307681341099e-06
151,326,6.58592143473662e-08
152,152,0.00012503054621108918
152,160,2.176900222610793e-05
152,170,1.9129021679300344e-06
152,182,9.121114007881832e-08
152,206,3.135331091987353e-05
152,210,0.00023465694476377201
152,216,0.00010671162280039555
152,224,1.9240871855228145e-05
152,234,1.8020862523246247e-06
152,246,9.687016121026133e-08
152,287,2.5701965553969403e-05
152,291,0.0002001379289881688
152,297,9.227153652984324e-05
152,305,1.7036081507727065e-05
152,315,1.6626678353421432e-06
152,327,9.595739032169532e-08
153,153,6.742112305897237e-05
153,161,1.3156882745239208e-05
153,171,1.2474190092874819e-06
153,183,6.258664282340831e-08
153,207,1.6250333077864835e-05
153,211,0.00010615012839831844
153,217,5.7569746662546235e-05
153,225,1.163231109054926e-05
153,235,1.1754125524621528e-06
153,247,6.64790276792316e-08
153,288,1.357623709080314e-05
153,292,9.059746663698726e-05
153,298,4.97961434571599e-05
153,306,1.0301510269864052e-05
153,316,1.0846307681341096e-06
153,328,6.585921434736622e-08
154,154,1.9776161790850043e-05
154,162,4.5370453625770505e-06
154,172,4.781995079093286e-07
154,184,2.5326004166002195e-08
154,212,2.3313469077149643e-05
154,218,1.6897226128550076e-05
154,226,4.012972616074297e-06
154,236,4.50723260325815e-07
154,248,2.6898918771185437e-08
154,293,1.9914630687237244e-05
154,299,1.4622229066717112e-05
154,307,3.554927153089076e-06
154,317,4.160025166088664e-07
154,329,2.6654507460400108e-08
155,155,3.020986784087262e-06
155,163,8.935994482470267e-07
155,173,1.0774817902304579e-07
155,219,2.583230012510338e-06
155,227,7.907828564197677e-07
155,237,1.0159510506360491e-07
155,300,2.23668930083441e-06
155,308,7.007778293055126e-07
155,318,9.38232718546793e-08
156,156,4.821886646742984e-08
156,220,4.2666778888160086e-08
156,301,3.7807953575617067e-08
157,157,3.3145649134612467e-07
157,167,4.743218333895882e-08
157,213,7.632119868973192e-07
157,221,2.9277004366344246e-07
157,231,4.4700329423793916e-08
157,294,6.602691452779991e-07
157,302,2.5930337119255796e-07
157,312,4.126487929496998e-08
158,158,1.2569926121306763e-06
158,168,1.556545475314268e-07
158,208,4.162960445303694e-06
158,214,3.8722094348583706e-06
158,222,1.1111229380144527e-06
158,232,1.466394351067358e-07
158,289,3.5507376843145144e-06
158,295,3.348172994926408e-06
158,303,9.837610104873866e-07
158,313,1.3528783671079424e-07
159,159,3.06420139700458e-06
159,169,3.3945260573989965e-07
159,181,1.8251445954391176e-08
159,205,3.740272867101672e-07
159,209,1.6454118134195513e-05
159,215,1.1222201573738797e-05
159,223,2.7073010004441084e-06
159,233,3.1967521988594006e-07
159,245,1.9399140570279122e-08
159,286,2.7466113157132846e-07
159,290,1.4022213711213306e-05
159,296,9.69927541083846e-06
159,304,2.39630159470114e-06
159,314,2.9486917542991085e-07
159,326,1.9192563394550473e-08
160,160,4.550662573065483e-06
160,170,4.706105074614171e-07
160,182,2.5878791571608302e-08
160,210,3.234323004125287e-05
160,216,1.8560045461516847e-05
160,224,4.019357771872956e-06
160,234,4.431178951878629e-07
160,246,2.7497219200090866e-08
160,291,2.7544032840066854e-05
160,297,1.6036471079293118e-05
160,305,3.5569984556931216e-06
160,315,4.0868438070204064e-07
160,327,2.720708466060785e-08
161,161,3.0642013970045783e-06
161,171,3.394526057398995e-07
161,183,1.8251445954391172e-08
161,207,3.740272867101672e-07
161,211,1.6454118134195513e-05
161,217,1.1222201573738797e-05
161,225,2.7073010004441076e-06
161,235,3.1967521988594e-07
161,247,1.939914057027912e-08
161,288,2.746611315713284e-07
161,292,1.4022213711213306e-05
161,298,9.69927541083846e-06
161,306,2.396301594701139e-06
161,316,2.9486917542991074e-07
161,328,1.9192563394550473e-08
162,162,1.2569926121306765e-06
162,172,1.5565454753142685e-07
162,212,4.162960445303694e-06
162,218,3.87220943485837e-06
162,226,1.1111229380144532e-06
162,236,1.4663943510673582e-07
162,293,3.5507376843145144e-06
162,299,3.348172994926408e-06
162,307,9.837610104873866e-07
162,317,1.3528783671079424e-07
163,163,3.3145649134612467e-07
163,173,4.743218333895882e-08
163,219,7.632119868973192e-07
163,227,2.927700436634425e-07
163,237,4.47003294237939e-08
163,300,6.602691452779991e-07
163,308,2.5930337119255806e-07
163,318,4.126487929496998e-08
164,164,4.821886646742984e-08
164,228,4.26667788881601e-08
164,309,3.780795357561707e-08
167,213,9.195230367066993e-08
167,221,4.1926466593401005e-08
167,294,7.949541266393345e-08
167,302,3.711604461453255e-08
168,168,2.012535268663421e-08
168,208,3.546384466425541e-07
168,214,4.0768402127286424e-07
168,222,1.3748218543901418e-07
168,232,1.8951355966986523e-08
168,289,3.020711103937878e-07
168,295,3.522368839587964e-07
168,303,1.2158143351532565e-07
168,313,1.747984952526764e-08
169,169,4.235214337425158e-08
169,209,1.2728725230601219e-06
169,215,1.0628870586609399e-06
169,223,2.996877053582322e-07
169,233,3.986450032770018e-08
169,290,1.0830470193057465e-06
169,296,9.179476128127986e-07
169,304,2.651296387511363e-07
169,314,3.675785433208193e-08
170,170,5.5454163960019794e-08
170,210,2.3041748666710013e-06
170,216,1.629272842233193e-06
170,224,4.153917650171288e-07
170,234,5.219047794667066e-08
170,291,1.9588682663333425e-06
170,297,1.4068777791368488e-06
170,305,3.673647166700944e-07
170,315,4.8118992949734256e-08
171,171,4.235214337425158e-08
171,211,1.272872523060122e-06
171,217,1.0628870586609399e-06
171,225,2.9968770535823204e-07
171,235,3.9864500327700166e-08
171,292,1.0830470193057465e-06
171,298,9.179476128127983e-07
171,306,2.651296387511362e-07
171,316,3.675785433208193e-08
172,172,2.0125352686634212e-08
172,212,3.546384466425542e-07
172,218,4.0768402127286424e-07
172,226,1.3748218543901423e-07
172,236,1.8951355966986527e-08
172,293,3.0207111039378785e-07
172,299,3.522368839587964e-07
172,307,1.2158143351532568e-07
172,317,1.7479849525267646e-08
173,219,9.195230367066992e-08
173,227,4.1926466593401e-08
173,300,7.949541266393345e-08
173,308,3.711604461453255e-08
180,208,1.600460910948952e-08
180,214,2.0800138670701793e-08
180,289,1.361949553928207e-08
180,295,1.7964783675525914e-08
181,209,5.279309376146809e-08
181,215,5.3269357613975634e-08
181,223,1.5447096988589706e-08
181,290,4.485532857027339e-08
181,296,4.596644727130208e-08
181,304,1.365931847038403e-08
182,210,9.018985903061343e-08
182,216,7.80660797980557e-08
182,224,2.1939811823558854e-08
182,291,7.656851315999597e-08
182,297,6.733627266685449e-08
182,305,1.9397277096713683e-08
183,211,5.27930937614681e-08
183,217,5.3269357613975634e-08
183,225,1.54470969885897e-08
183,292,4.485532857027339e-08
183,298,4.5966447271302095e-08
183,306,1.365931847038403e-08
184,212,1.600460910948952e-08
184,218,2.08001386707018e-08
184,293,1.3619495539282071e-08
184,299,1.7964783675525914e-08
204,204,0.00019015045545855907
204,285,0.00016209158506839388
205,205,0.0001048555531556783
205,209,8.530086330133394e-05
205,215,1.3971712049246055e-05
205,223,3.3921698820653286e-07
205,286,8.934991699026051e-05
205,290,7.31543695601848e-05
205,296,1.21446209524207e-05
205,304,3.058191835630839e-07
206,206,0.00044392734812224673
206,210,0.0002568440836963536
206,216,2.706596352986266e-05
206,287,0.00037806553708674554
206,291,0.00022039131498955637
206,297,2.3593651588597564e-05
207,207,0.0001048555531556783
207,211,8.530086330133396e-05
207,217,1.3971712049246055e-05
207,225,3.392169882065327e-07
207,288,8.934991699026051e-05
207,292,7.31543695601848e-05
207,298,1.21446209524207e-05
207,306,3.05819183563084e-07
208,208,3.863993493514706e-05
208,214,1.994549956091617e-05
208,222,3.6856368888820572e-06
208,232,3.345225482903469e-07
208,244,1.7019629496089976e-08
208,289,3.305858094671826e-05
208,295,1.7276174141397908e-05
208,303,3.267194185009445e-06
208,313,3.0892549455020493e-07
208,325,1.687489350770384e-08
209,209,0.00022481783624949946
209,215,9.075989553344714e-05
209,223,1.4561640829174725e-05
209,233,1.2003253016601037e-06
209,245,5.611525723749671e-08
209,286,7.220579642635236e-05
209,290,0.00019218827576768333
209,296,7.857913103023941e-05
209,304,1.2904720472611388e-05
209,314,1.108249297503329e-06
209,326,5.5619626615779795e-08
210,210,0.0005907331723030734
210,216,0.00020054083851933922
210,224,2.8614684190077133e-05
210,234,2.171554081210687e-06
210,246,9.60348391633969e-08
210,287,0.00021651747222408628
210,291,0.0005046710763104878
210,297,0.00017356809196902184
210,305,2.535329432151989e-05
210,315,2.0046755662612933e-06
210,327,9.517634521610948e-08
211,211,0.00022481783624949946
211,217,9.075989553344717e-05
211,225,1.4561640829174725e-05
211,235,1.2003253016601033e-06
211,247,5.611525723749672e-08
211,288,7.220579642635238e-05
211,292,0.00019218827576768333
211,298,7.857913103023941e-05
211,306,1.2904720472611388e-05
211,316,1.108249297503329e-06
211,328,5.56196266157798e-08
212,212,3.8639934935147076e-05
212,218,1.994549956091617e-05
212,226,3.6856368888820572e-06
212,236,3.345225482903469e-07
212,248,1.701962949608998e-08
212,293,3.3058580946718263e-05
212,299,1.7276174141397908e-05
212,307,3.267194185009445e-06
212,317,3.0892549455020493e-07
212,329,1.6874893507703845e-08
213,213,2.2089239658602985e-06
213,221,6.754023711146094e-07
213,231,8.67121076295089e-08
213,294,1.9126072991309284e-06
213,302,5.985305095663849e-07
213,312,8.005412700310013e-08
214,214,1.443751673878914e-05
214,222,3.424958812685583e-06
214,232,3.8426224489585885e-07
214,244,2.2589926776418873e-08
214,289,1.703778517064774e-05
214,295,1.2493748385477252e-05
214,303,3.0340483474373365e-06
214,313,3.5466305411716926e-07
214,325,2.2386315238989523e-08
215,215,4.915835045745466e-05
215,223,9.921873582220702e-06
215,233,1.0015197428904306e-06
215,245,5.658270552111706e-08
215,286,1.1674025777035338e-05
215,290,7.746299935020183e-05
215,296,4.2520843308657524e-05
215,304,8.786811379102003e-06
215,314,9.241696038482692e-07
215,326,5.605545981906993e-08
216,216,9.107776009043532e-05
216,224,1.6404740498966955e-05
216,234,1.5350700112569287e-06
216,246,8.241634909997237e-08
216,287,2.2196663252627108e-05
216,291,0.00017104262848686034
216,297,7.875388096276804e-05
216,305,1.452503759451637e-05
216,315,1.4163183587772628e-06
216,327,8.164014212507125e-08
217,217,4.915835045745466e-05
217,225,9.921873582220702e-06
217,235,1.0015197428904302e-06
217,247,5.658270552111706e-08
217,288,1.1674025777035338e-05
217,292,7.746299935020186e-05
217,298,4.252084330865754e-05
217,306,8.786811379102002e-06
217,316,9.241696038482692e-07
217,328,5.605545981906993e-08
218,218,1.4437516738789135e-05
218,226,3.424958812685583e-06
218,236,3.8426224489585885e-07
218,248,2.2589926776418876e-08
218,293,1.703778517064774e-05
218,299,1.2493748385477249e-05
218,307,3.0340483474373365e-06
218,317,3.5466305411716926e-07
218,329,2.2386315238989533e-08
219,219,2.2089239658602985e-06
219,227,6.754023711146094e-07
219,237,8.67121076295089e-08
219,300,1.912607299130928e-06
219,308,5.985305095663849e-07
219,318,8.005412700310011e-08
220,220,3.7754150548088924e-08
220,301,3.373200516731753e-08
221,221,2.588845353763673e-07
221,231,3.9511937880509926e-08
221,294,5.84304115625561e-07
221,302,2.294399076037367e-07
221,312,3.647275736000285e-08
222,222,9.82034523830348e-07
222,232,1.2950267302802464e-07
222,289,3.1436302138985453e-06
222,295,2.961466835166461e-06
222,303,8.694753458818286e-07
222,313,1.194085724805063e-07
223,223,2.391829915386227e-06
223,233,2.8222884537637316e-07
223,245,1.640148526439961e-08
223,286,2.500657961979481e-07
223,290,1.2409569345729802e-05
223,296,8.575464262661298e-06
223,304,2.117080642498217e-06
223,314,2.6032968671580327e-07
223,326,1.624412536653915e-08
224,224,3.5501098314314365e-06
224,234,3.9105306728953784e-07
224,246,2.3291532220140763e-08
224,291,2.436906074772522e-05
224,297,1.4174314885370848e-05
224,305,3.141746249145387e-06
224,315,3.606684111603726e-07
224,327,2.3065344957720267e-08
225,225,2.391829915386226e-06
225,235,2.8222884537637305e-07
225,247,1.6401485264399602e-08
225,288,2.5006579619794806e-07
225,292,1.2409569345729798e-05
225,298,8.575464262661298e-06
225,306,2.117080642498216e-06
225,316,2.603296867158032e-07
225,328,1.6244125366539145e-08
226,226,9.82034523830348e-07
226,236,1.2950267302802466e-07
226,293,3.1436302138985453e-06
226,299,2.9614668351664606e-06
226,307,8.694753458818289e-07
226,317,1.194085724805063e-07
227,227,2.588845353763673e-07
227,237,3.9511937880509926e-08
227,300,5.84304115625561e-07
227,308,2.294399076037367e-07
227,318,3.6472757360002857e-08
228,228,3.7754150548088924e-08
228,309,3.373200516731753e-08
231,294,7.475353253776927e-08
231,302,3.4915524739347095e-08
232,232,1.784598174905224e-08
232,289,2.8494059966511257e-07
232,295,3.320864209758943e-07
232,303,1.1403084634074229e-07
232,313,1.6460394930520154e-08
233,233,3.752319535464752e-08
233,290,1.0213291000875247e-06
233,296,8.649534989589551e-07
233,304,2.496851122151305e-07
233,314,3.458506449823772e-08
234,234,4.91191599028069e-08
234,291,1.846856007939059e-06
234,297,1.325396035667771e-06
234,305,3.459092709321527e-07
234,315,4.5287464522238676e-08
235,235,3.752319535464751e-08
235,292,1.0213291000875247e-06
235,298,8.64953498958955e-07
235,306,2.4968511221513045e-07
235,316,3.4585064498237706e-08
236,236,1.7845981749052243e-08
236,293,2.849405996651127e-07
236,299,3.320864209758943e-07
236,307,1.1403084634074232e-07
236,317,1.6460394930520154e-08
237,300,7.475353253776927e-08
237,308,3.4915524739347095e-08
244,289,1.448336345021532e-08
244,295,1.909222937241497e-08
245,290,4.767849197291999e-08
245,296,4.88294095305275e-08
245,304,1.4503349685966509e-08
246,291,8.137447810086894e-08
246,297,7.152834179600352e-08
246,305,2.059246012492333e-08
247,292,4.767849197291999e-08
247,298,4.88294095305275e-08
247,306,1.4503349685966505e-08
248,293,1.448336345021532e-08
248,299,1.9092229372414973e-08
285,285,0.0001381754793674282
286,286,7.613882494421938e-05
286,290,6.19259032111262e-05
286,296,1.0148298279540034e-05
286,304,2.2604977796774705e-07
287,287,0.0003219876559504645
287,291,0.0001857992341814666
287,297,1.935472339168006e-05
288,288,7.613882494421938e-05
288,292,6.19259032111262e-05
288,298,1.0148298279540034e-05
288,306,2.26049777967747e-07
289,289,2.828364156970136e-05
289,295,1.4757732949222973e-05
289,303,2.786783566645205e-06
289,313,2.631398739156514e-07
289,325,1.4360275746832535e-08
290,290,0.000164296110782046
290,296,6.706735408846871e-05
290,304,1.0997606084292746e-05
290,314,9.429905001348252e-07
290,326,4.725773741014349e-08
291,291,0.00043115227472711743
291,297,0.0001480387416935949
291,305,2.1591723466489767e-05
291,315,1.7046546735803725e-06
291,327,8.06469969913277e-08
292,292,0.000164296110782046
292,298,6.706735408846874e-05
292,306,1.0997606084292746e-05
292,316,9.429905001348251e-07
292,328,4.725773741014349e-08
293,293,2.8283641569701374e-05
293,299,1.4757732949222973e-05
293,307,2.7867835666452054e-06
293,317,2.6313987391565143e-07
293,329,1.4360275746832539e-08
294,294,1.6560468164432243e-06
294,302,5.178133615282979e-07
294,312,6.901920261407217e-08
295,295,1.0811746526057712e-05
295,303,2.6235442029857536e-06
295,313,3.065073339985511e-07
295,325,1.892145256632569e-08
296,296,3.6779750138486254e-05
296,304,7.594465379802979e-06
296,314,7.981574369317849e-07
296,326,4.837459573700876e-08
297,297,6.809794693468257e-05
297,305,1.2550241478866353e-05
297,315,1.222869819960925e-06
297,327,7.083915135220409e-08
298,298,3.6779750138486254e-05
298,306,7.594465379802979e-06
298,316,7.981574369317849e-07
298,328,4.837459573700876e-08
299,299,1.081174652605771e-05
299,307,2.6235442029857536e-06
299,317,3.065073339985511e-07
299,329,1.8921452566325695e-08
300,300,1.6560468164432243e-06
300,308,5.178133615282979e-07
300,318,6.901920261407216e-08
301,301,2.989202765998815e-08
302,302,2.0321399238284884e-07
302,312,3.183265887350157e-08
303,303,7.695404262042293e-07
303,313,1.0520644142261503e-07
304,304,1.8739836618082845e-06
304,314,2.3031187363073527e-07
304,326,1.4364271503756337e-08
305,305,2.7803666842210323e-06
305,315,3.190333303211882e-07
305,327,2.0392561268526893e-08
306,306,1.8739836618082843e-06
306,316,2.3031187363073514e-07
306,328,1.4364271503756336e-08
307,307,7.695404262042295e-07
307,317,1.0520644142261503e-07
308,308,2.032139923828489e-07
308,318,3.183265887350157e-08
309,309,2.989202765998816e-08
313,313,1.5182447109305952e-08
314,314,3.115838473067907e-08
315,315,4.1754797925941746e-08
316,316,3.1158384730679066e-08
317,317,1.5182447109305956e-08
