# Basis size = 385
0,0,0.10556383534294528
0,1,0.005558329467694659
0,3,0.055232222852214345
0,5,0.0016126525040509297
0,7,0.028095933729882498
0,11,0.007720617690033717
0,14,0.000778149457161458
0,16,0.017768556917249607
0,20,0.005703391248296354
0,26,0.0005211936714324077
0,30,0.00047346006234879966
0,32,0.012552657714366802
0,36,0.004274572063112626
0,42,0.00047289399188269414
0,50,2.1111161770323433e-05
0,55,0.00032686636060407366
0,57,0.00948202188400675
0,61,0.0033259940660023924
0,67,0.00039852193227418384
0,75,2.2106807273782454e-05
0,85,5.754592535532486e-07
0,91,0.0002437499263444225
0,93,0.007492355650839801
0,97,0.0026734541892073516
0,103,0.00033430012124175865
0,111,2.0420838472098496e-05
0,121,6.730765769192977e-07
0,133,1.1371814220477896e-08
0,140,0.00019129608852919627
0,142,0.006115268760465516
0,146,0.002205840308074095
0,152,0.0002830627450440534
0,160,1.824875773202781e-05
0,170,6.709450693169416e-07
0,182,1.4530169684326282e-08
0,204,0.00015563564943764854
0,206,0.005115063798546845
0,210,0.0018585841595823603
0,216,0.0002425949778712669
0,224,1.617879347773344e-05
0,234,6.336167280512303e-07
0,246,1.5462916590158183e-08
0,285,0.00013004111345686208
0,287,0.004361297071522794
0,291,0.001592908362149966
0,297,0.00021039198191309582
0,305,1.4356237026596878e-05
0,315,5.856158411315817e-07
0,327,1.533939944452565e-08
1,1,0.02721537246707541
1,5,0.013580757148572932
1,14,0.008491695793583803
1,30,0.005962919029339897
1,55,0.004488638227010331
1,91,0.0035390970372112165
1,140,0.0028844834848075597
1,204,0.0024103053950465395
1,285,0.0020536450632026772
2,2,0.024604243125319992
2,6,0.011501613882482118
2,10,0.008381045835867584
2,15,0.007053573725065224
2,19,0.006076741434330059
2,25,0.001046946786902598
2,31,0.004911498861044975
2,35,0.004514969297075201
2,41,0.0009435267407989968
2,49,6.889382893474038e-05
2,56,0.0036808034317156535
2,60,0.0034964459920233735
2,66,0.0007922194697305894
2,74,7.191945732815558e-05
2,84,2.822983771756486e-06
2,92,0.0028945350923679537
2,96,0.0028024370717209864
2,102,0.0006630800245549621
2,110,6.631027678652517e-05
2,120,3.2964267188179476e-06
2,132,7.937140555384973e-08
2,141,0.00235516650269019
2,145,0.002307969752593623
2,151,0.0005606425938953244
2,159,5.918541463685998e-05
2,169,3.2824747614990144e-06
2,181,1.0150815129100474e-07
2,205,0.0019657436267749404
2,209,0.0019421580575157908
2,215,0.0004800160954670789
2,223,5.2428247553689536e-05
2,233,3.0975799414344133e-06
2,245,1.079543844043216e-07
2,286,0.0016734982355151283
2,290,0.001663017743031703
2,296,0.0004160025148969614
2,304,4.649440384508835e-05
2,314,2.8614108574771825e-06
2,326,1.0704242741363365e-07
3,3,0.09703343311054106
3,7,0.04176209048689485
3,11,0.02588855365353421
3,16,0.024791664452719433
3,20,0.01855618649447856
3,26,0.002810835796086731
3,32,0.016992213920300567
3,36,0.013712741240077445
3,42,0.0025252395768813104
3,50,0.0001682541803472258
3,57,0.01262294196284738
3,61,0.010587910104232743
3,67,0.0021166568886500504
3,75,0.00017544003021459164
3,85,6.434087877093993e-06
3,93,0.009873305545161002
3,97,0.008471109188224973
3,103,0.0017697890681386997
3,111,0.00016164379592136587
3,121,7.509286614877778e-06
3,133,1.716668345230975e-07
3,142,0.008005290786516035
3,146,0.006968310164263456
3,152,0.0014953729674867442
3,160,0.00014421001514208095
3,170,7.4750133622690935e-06
3,182,2.1942027790748597e-07
3,206,0.006665435896596708
3,210,0.0058591368378183035
3,216,0.0012797311640601688
3,224,0.00012770578780658327
3,234,7.052350043423435e-06
3,246,2.3321644688903339e-07
3,287,0.005664610888019775
3,291,0.005014140430326826
3,297,0.001108703420743106
3,305,0.00011322672717988308
3,315,6.513600907803185e-06
3,327,2.312165885433631e-07
4,4,0.024604243125319992
4,8,0.011501613882482118
4,12,0.008381045835867584
4,17,0.007053573725065224
4,21,0.00607674143433006
4,27,0.001046946786902598
4,33,0.004911498861044975
4,37,0.004514969297075201
4,43,0.0009435267407989968
4,51,6.889382893474037e-05
4,58,0.0036808034317156535
4,62,0.0034964459920233735
4,68,0.0007922194697305893
4,76,7.191945732815557e-05
4,86,2.8229837717564856e-06
4,94,0.0028945350923679537
4,98,0.002802437071720987
4,104,0.0006630800245549621
4,112,6.631027678652516e-05
4,122,3.2964267188179476e-06
4,134,7.937140555384973e-08
4,143,0.00235516650269019
4,147,0.0023079697525936233
4,153,0.0005606425938953244
4,161,5.918541463685996e-05
4,171,3.2824747614990144e-06
4,183,1.0150815129100474e-07
4,207,0.0019657436267749404
4,211,0.001942158057515791
4,217,0.000480016095467079
4,225,5.242824755368953e-05
4,235,3.0975799414344125e-06
4,247,1.079543844043216e-07
4,288,0.0016734982355151283
4,292,0.001663017743031703
4,298,0.00041600251489696134
4,306,4.649440384508835e-05
4,316,2.861410857477182e-06
4,328,1.0704242741363365e-07
5,5,0.007027079511069904
5,14,0.004450340028251017
5,30,0.0031436724719301917
5,55,0.002374094017249268
5,91,0.001875531011604143
5,140,0.0015305625661299665
5,204,0.0012800687701648762
5,285,0.001091332960052455
6,6,0.005645409245034756
6,10,0.0033169331626662687
6,15,0.003521210070219844
6,19,0.0024421434138078143
6,25,0.00033909576507644965
6,31,0.002471087506950552
6,35,0.0018272604177440998
6,41,0.0003080448240577428
6,49,1.7199106254479566e-05
6,56,0.0018597601924499648
6,60,0.0014204197567387897
6,66,0.0002597596983991943
6,74,1.8053012749210113e-05
6,84,4.858027905778752e-07
6,92,0.00146622995015529
6,96,0.0011410740465951097
6,102,0.0002179779019242783
6,110,1.669960381252965e-05
6,120,5.700128630185202e-07
6,141,0.001194990630907058
6,145,0.0009411265379256111
6,151,0.00018461142856291307
6,159,1.4936907805985588e-05
6,169,5.693468777767624e-07
6,205,0.0009985343017354952
6,209,0.0007927579714181181
6,215,0.0001582431138676791
6,223,1.3250763549955703e-05
6,233,5.383760225283739e-07
6,245,1.0307338837485575e-08
6,286,0.0008507738375783542
6,290,0.0006793068966079282
6,296,0.0001372523356615894
6,304,1.1763209412472601e-05
6,314,4.980755792181515e-07
6,326,1.0249434977697086e-08
7,7,0.019451911728236532
7,11,0.009308322933327598
7,16,0.011883898174161486
7,20,0.006814492537905178
7,26,0.0008122431274344846
7,32,0.00825633416182117
7,36,0.005084760280860054
7,42,0.0007374195705174907
7,50,3.633665274390076e-05
7,57,0.006179129309109503
7,61,0.003946629577799776
7,67,0.0006216123848078327
7,75,3.8160738662944864e-05
7,85,8.973958473350398e-07
7,93,0.004854991440041321
7,97,0.003167531679522969
7,103,0.0005215132177442096
7,111,3.531100373394058e-05
7,121,1.05419076659787e-06
7,133,1.0779129164136072e-08
7,142,0.003948022179826104
7,146,0.002610904246102861
7,152,0.0004416188885020136
7,160,3.159008737038699e-05
7,170,1.053791138632692e-06
7,182,1.2754970722460145e-08
7,206,0.0032938860271449844
7,210,0.0021983846334798973
7,216,0.00037850347401997966
7,224,2.802784267204057e-05
7,234,9.970590648694754e-07
7,246,1.3907248595100103e-08
7,287,0.002803360609480526
7,291,0.0018832117558254399
7,297,0.00032827128944407254
7,305,2.4883768995561828e-05
7,315,9.22775338019322e-07
7,327,1.3854585295580595e-08
8,8,0.005645409245034756
8,12,0.0033169331626662687
8,17,0.003521210070219844
8,21,0.0024421434138078143
8,27,0.0003390957650764498
8,33,0.002471087506950552
8,37,0.0018272604177440998
8,43,0.0003080448240577428
8,51,1.7199106254479566e-05
8,58,0.0018597601924499648
8,62,0.0014204197567387897
8,68,0.0002597596983991943
8,76,1.8053012749210113e-05
8,86,4.858027905778751e-07
8,94,0.00146622995015529
8,98,0.0011410740465951099
8,104,0.0002179779019242783
8,112,1.6699603812529646e-05
8,122,5.7001286301852e-07
8,143,0.001194990630907058
8,147,0.0009411265379256115
8,153,0.00018461142856291307
8,161,1.4936907805985583e-05
8,171,5.693468777767622e-07
8,207,0.0009985343017354952
8,211,0.0007927579714181182
8,217,0.0001582431138676791
8,225,1.3250763549955698e-05
8,235,5.383760225283737e-07
8,247,1.0307338837485575e-08
8,288,0.0008507738375783542
8,292,0.0006793068966079283
8,298,0.0001372523356615894
8,306,1.1763209412472598e-05
8,316,4.980755792181514e-07
8,328,1.0249434977697086e-08
9,9,0.0010001557263605203
9,18,0.000719465001846044
9,24,0.00021613312585559388
9,34,0.0005325845264932984
9,40,0.00019425064005832712
9,48,2.0597009577467023e-05
9,59,0.00041160812306593813
9,65,0.0001628569067261897
9,73,2.1475246297490195e-05
9,83,1.126673545181802e-06
9,95,0.0003295055936656797
9,101,0.0001361869426243615
9,109,1.97856905272036e-05
9,119,1.3147857131996667e-06
9,131,4.009864328583748e-08
9,144,0.0002711516618894581
9,150,0.00011508037576631185
9,158,1.7651289094645904e-05
9,168,1.3086776880333051e-06
9,180,5.1264072649346454e-08
9,208,0.00022805073331697348
9,214,9.849101592722791e-05
9,222,1.5630899232339996e-05
9,232,1.2346111634345804e-06
9,244,5.450637310911946e-08
9,289,0.0001951969619272367
9,295,8.533201154850863e-05
9,303,1.385852219193769e-05
9,313,1.1402498997445828e-06
9,325,5.4036561619333714e-08
10,10,0.004609473877837298
10,15,0.0019005057881832995
10,19,0.003265660466719709
10,25,0.0007961897831540779
10,31,0.001279635727648882
10,35,0.0024000231808044715
10,41,0.0007127557141194076
10,49,6.758133635447398e-05
10,56,0.0009410656724133549
10,60,0.0018475201048787743
10,66,0.0005962744716578464
10,74,7.036314841108583e-05
10,84,3.4298717874887188e-06
10,92,0.0007315058031608891
10,96,0.0014754461740074142
10,102,0.0004979753990731514
10,110,6.477186527187908e-05
10,120,4.000072579095142e-06
10,132,1.1615211280253393e-07
10,141,0.0005906770675172527
10,145,0.0012122499072703408
10,151,0.0004204406700918486
10,159,5.775238110235513e-05
10,169,3.979900434572415e-06
10,181,1.484895038409928e-07
10,205,0.0004904187461813004
10,209,0.0010184554859407786
10,215,0.0003596222996499431
10,223,5.112246662618646e-05
10,233,3.7536239602030237e-06
10,245,1.5784603882307483e-07
10,286,0.00041592897381444226
10,290,0.0008710631304004075
10,296,0.000311444394031396
10,304,4.5313332609109307e-05
10,314,3.4660553000099135e-06
10,326,1.5646068642917543e-07
11,11,0.01026250876503618
11,16,0.005103107042342892
11,20,0.007189359253556933
11,26,0.0015084003552260775
11,32,0.0033574056326477076
11,36,0.005255478170976922
11,42,0.001346457160142161
11,50,0.00011621143090610629
11,57,0.0024361729951541647
11,61,0.00403373365828847
11,67,0.0011246455315161233
11,75,0.00012087373622488565
11,85,5.53143754532461e-06
11,93,0.0018778134781917031
11,97,0.003215617331544446
11,103,0.0009383489438189956
11,111,0.00011120133610818277
11,121,6.4482802221988835e-06
11,133,1.7901848455328608e-07
11,142,0.001507837257945401
11,146,0.00263892083771683
11,152,0.0007917582133995726
11,160,9.911115512141533e-05
11,170,6.4140077487850814e-06
11,182,2.2874587561579517e-07
11,206,0.0012470313179926394
11,210,0.0022152751724218945
11,216,0.0006769397662048806
11,224,8.770955152421235e-05
11,234,6.048224408514332e-06
11,246,2.4312578933572384e-07
11,287,0.0010546381454175492
11,291,0.0018935874349266387
11,297,0.0005860731980081688
11,305,7.772793398347918e-05
11,315,5.58411475527187e-06
11,327,2.4096808130606016e-07
12,12,0.004609473877837298
12,17,0.0019005057881833
12,21,0.00326566046671971
12,27,0.0007961897831540779
12,33,0.0012796357276488822
12,37,0.002400023180804472
12,43,0.0007127557141194076
12,51,6.758133635447398e-05
12,58,0.0009410656724133549
12,62,0.0018475201048787743
12,68,0.0005962744716578465
12,76,7.036314841108582e-05
12,86,3.4298717874887188e-06
12,94,0.0007315058031608891
12,98,0.0014754461740074146
12,104,0.0004979753990731515
12,112,6.477186527187908e-05
12,122,4.000072579095142e-06
12,134,1.1615211280253393e-07
12,143,0.0005906770675172529
12,147,0.0012122499072703408
12,153,0.00042044067009184866
12,161,5.775238110235513e-05
12,171,3.979900434572414e-06
12,183,1.484895038409928e-07
12,207,0.0004904187461813004
12,211,0.0010184554859407789
12,217,0.0003596222996499431
12,225,5.112246662618646e-05
12,235,3.753623960203023e-06
12,247,1.5784603882307483e-07
12,288,0.00041592897381444226
12,292,0.0008710631304004075
12,298,0.0003114443940313961
12,306,4.5313332609109307e-05
12,316,3.4660553000099135e-06
12,328,1.5646068642917543e-07
13,13,0.0010001557263605203
13,22,0.0007194650018460441
13,28,0.00021613312585559388
13,38,0.0005325845264932986
13,44,0.00019425064005832715
13,52,2.0597009577467023e-05
13,63,0.0004116081230659382
13,69,0.00016285690672618972
13,77,2.1475246297490195e-05
13,87,1.126673545181802e-06
13,99,0.00032950559366567983
13,105,0.0001361869426243615
13,113,1.9785690527203605e-05
13,123,1.3147857131996669e-06
13,135,4.00986432858375e-08
13,148,0.00027115166188945814
13,154,0.00011508037576631185
13,162,1.7651289094645908e-05
13,172,1.3086776880333056e-06
13,184,5.126407264934647e-08
13,212,0.00022805073331697356
13,218,9.849101592722791e-05
13,226,1.5630899232339996e-05
13,236,1.2346111634345804e-06
13,248,5.450637310911948e-08
13,293,0.0001951969619272367
13,299,8.533201154850863e-05
13,307,1.3858522191937691e-05
13,317,1.1402498997445832e-06
13,329,5.403656161933373e-08
14,14,0.0028309528193310165
14,30,0.002003844439821288
14,55,0.001514977797637746
14,91,0.0011976307452878467
14,140,0.0009777733250547155
14,204,0.0008179929556259344
14,285,0.0006975348641067371
15,15,0.002208885978076021
15,19,0.001408166209600803
15,25,0.0001760603162665531
15,31,0.0015541978231422377
15,35,0.0010566413877114913
15,41,0.00016060571432559035
15,49,7.517681073829617e-06
15,56,0.0011713573240319972
15,60,0.0008226451157259682
15,66,0.00013573335306712217
15,74,7.923718816919853e-06
15,84,1.3830090174761502e-07
15,92,0.0009242804354037587
15,96,0.0006614703003011001
15,102,0.00011405295822576527
15,110,7.347894669156279e-06
15,120,1.6354994821380674e-07
15,141,0.0007537117173100186
15,145,0.000545888116555463
15,151,9.667762714074713e-05
15,159,6.582805026500081e-06
15,169,1.641714862528541e-07
15,205,0.0006300391698039396
15,209,0.00046001648792942234
15,215,8.29177760772456e-05
15,223,5.846079171589181e-06
15,233,1.557738849075052e-07
15,286,0.0005369523564701532
15,290,0.00039429868468420567
15,296,7.194900832583789e-05
15,304,5.1938237663540845e-06
15,314,1.4445886688086347e-07
16,16,0.007332698612850628
16,20,0.0037719877582202857
16,26,0.0003943917846208623
16,32,0.0051178171050816025
16,36,0.002826742018898849
16,42,0.0003603445778188942
16,50,1.3956188526151399e-05
16,57,0.0038397922522393946
16,61,0.0021991219752987195
16,67,0.0003047857252979913
16,75,1.4759839549738901e-05
16,85,1.5637092984902543e-07
16,93,0.0030214976522055822
16,97,0.0017674486771666726
16,103,0.00025622304770981253
16,111,1.3714482201021831e-05
16,121,1.8766773474750602e-07
16,142,0.002459447771052018
16,146,0.0014581679515190597
16,152,0.0002172533940514936
16,160,1.2302107317912322e-05
16,170,1.9009008790341435e-07
16,206,0.0020533241980585154
16,210,0.0012285287323646496
16,216,0.0001863696512806025
16,224,1.0934722667680177e-05
16,234,1.8146243455575788e-07
16,287,0.0017483810358157928
16,291,0.0010528605489731836
16,297,0.00016173866573421523
16,305,9.720671808113581e-06
16,315,1.69000965802777e-07
17,17,0.002208885978076021
17,21,0.001408166209600803
17,27,0.0001760603162665531
17,33,0.0015541978231422377
17,37,0.0010566413877114913
17,43,0.00016060571432559035
17,51,7.517681073829617e-06
17,58,0.0011713573240319972
17,62,0.0008226451157259684
17,68,0.00013573335306712217
17,76,7.923718816919851e-06
17,86,1.3830090174761502e-07
17,94,0.0009242804354037587
17,98,0.0006614703003011002
17,104,0.00011405295822576527
17,112,7.347894669156279e-06
17,122,1.635499482138067e-07
17,143,0.0007537117173100186
17,147,0.000545888116555463
17,153,9.667762714074713e-05
17,161,6.582805026500079e-06
17,171,1.6417148625285398e-07
17,207,0.0006300391698039396
17,211,0.00046001648792942245
17,217,8.291777607724562e-05
17,225,5.84607917158918e-06
17,235,1.557738849075052e-07
17,288,0.0005369523564701532
17,292,0.00039429868468420583
17,298,7.194900832583789e-05
17,306,5.1938237663540845e-06
17,316,1.4445886688086342e-07
18,18,0.0005187408095237438
18,24,0.00015172830839474868
18,34,0.0003844080432314964
18,40,0.0001364941786378187
18,48,1.4106910740178363e-05
18,59,0.00029726222102552645
18,65,0.00011449288500885735
18,73,1.4715494698286549e-05
18,83,7.523523083271497e-07
18,95,0.00023805128277989024
18,101,9.577249257047713e-05
18,109,1.356169147813551e-05
18,119,8.782178197936588e-07
18,131,2.7205357932974772e-08
18,144,0.00019593799688726022
18,150,8.094557259176017e-05
18,158,1.2100986649895083e-05
18,168,8.743000097855302e-07
18,180,3.3435311915830424e-08
18,208,0.00016481779967669966
18,214,6.928633868289735e-05
18,222,1.071727367102346e-05
18,232,8.249225409056159e-07
18,244,3.5483366766461835e-08
18,289,0.00014108972581946318
18,295,6.003510903318546e-05
18,303,9.502924775441039e-06
18,313,7.619429945281251e-07
18,325,3.518072790782743e-08
19,19,0.0023203714408266767
19,25,0.000551215698659145
19,31,0.0009511394787174184
19,35,0.0017076304045101527
19,41,0.0004940001465675338
19,49,4.569148238215359e-05
19,56,0.0007007354929795312
19,60,0.0013154995365199805
19,66,0.0004135178905763391
19,74,4.75983990340798e-05
19,84,2.262317401311847e-06
19,92,0.0005452946806416956
19,96,0.0010510424525258398
19,102,0.0003454728056770457
19,110,4.383059507274873e-05
19,120,2.639250271010806e-06
19,132,7.453648718748564e-08
19,141,0.00044063536994101845
19,145,0.0008638056977784997
19,151,0.000291751553740268
19,159,3.9088969654391966e-05
19,169,2.626480581262064e-06
19,181,9.548550405253841e-08
19,205,0.00036602856124075316
19,209,0.0007258604672583421
19,215,0.00024958895665457546
19,223,3.460667638569e-05
19,233,2.477501640068456e-06
19,245,1.0151002615642576e-07
19,286,0.0003105450193785565
19,290,0.0006209021115020032
19,296,0.0002161770326344849
19,304,3.067750789798498e-05
19,314,2.2879312878302903e-06
19,326,1.0062947986886225e-07
20,20,0.005053938073357889
20,26,0.0010336060473150194
20,32,0.002494197764794467
20,36,0.003700480578896088
20,42,0.0009237969216777306
20,50,7.783947336995293e-05
20,57,0.0018151387695351823
20,61,0.002842756319229403
20,67,0.0007721407787321397
20,75,8.101140144973706e-05
20,85,3.6174694676621925e-06
20,93,0.0014016986355638416
20,97,0.002267414189280097
20,103,0.0006445021779173908
20,111,7.455604929527685e-05
20,121,4.2185253051435926e-06
20,133,1.142112882801703e-07
20,142,0.00112691183569111
20,146,0.001861423579459643
20,152,0.0005439624991731102
20,160,6.646582691905945e-05
20,170,4.197037990532945e-06
20,182,1.4596808584539089e-07
20,206,0.0009327922910682057
20,210,0.00156297190482699
20,216,0.0004651641346034283
20,224,5.882925896380531e-05
20,234,3.958277639172232e-06
20,246,1.5516713488820241e-07
20,287,0.0007893699325180559
20,291,0.0013362379492218419
20,297,0.00040277746254902084
20,305,5.214037156120133e-05
20,315,3.654939661248444e-06
20,327,1.5383981972664395e-07
21,21,0.002320371440826677
21,27,0.0005512156986591452
21,33,0.0009511394787174184
21,37,0.0017076304045101527
21,43,0.000494000146567534
21,51,4.569148238215359e-05
21,58,0.0007007354929795316
21,62,0.0013154995365199811
21,68,0.0004135178905763392
21,76,4.759839903407979e-05
21,86,2.262317401311847e-06
21,94,0.0005452946806416957
21,98,0.0010510424525258402
21,104,0.00034547280567704585
21,112,4.383059507274872e-05
21,122,2.6392502710108056e-06
21,134,7.453648718748564e-08
21,143,0.00044063536994101845
21,147,0.0008638056977785
21,153,0.0002917515537402681
21,161,3.9088969654391966e-05
21,171,2.626480581262064e-06
21,183,9.548550405253841e-08
21,207,0.00036602856124075316
21,211,0.0007258604672583421
21,217,0.0002495889566545755
21,225,3.460667638569e-05
21,235,2.4775016400684555e-06
21,247,1.0151002615642577e-07
21,288,0.00031054501937855656
21,292,0.0006209021115020034
21,298,0.00021617703263448495
21,306,3.067750789798497e-05
21,316,2.28793128783029e-06
21,328,1.0062947986886225e-07
22,22,0.0005187408095237439
22,28,0.00015172830839474868
22,38,0.00038440804323149654
22,44,0.00013649417863781867
22,52,1.4106910740178368e-05
22,63,0.0002972622210255266
22,69,0.00011449288500885735
22,77,1.4715494698286549e-05
22,87,7.5235230832715e-07
22,99,0.00023805128277989033
22,105,9.577249257047713e-05
22,113,1.356169147813551e-05
22,123,8.782178197936588e-07
22,135,2.7205357932974785e-08
22,148,0.00019593799688726027
22,154,8.094557259176017e-05
22,162,1.2100986649895083e-05
22,172,8.743000097855302e-07
22,184,3.343531191583043e-08
22,212,0.00016481779967669974
22,218,6.928633868289735e-05
22,226,1.071727367102346e-05
22,236,8.249225409056161e-07
22,248,3.548336676646184e-08
22,293,0.0001410897258194632
22,299,6.003510903318545e-05
22,307,9.50292477544104e-06
22,317,7.619429945281253e-07
22,329,3.518072790782745e-08
23,23,1.3047195638745676e-05
23,39,1.1708994182608104e-05
23,47,1.9730368902984328e-06
23,64,9.808783274238416e-06
23,72,2.0558258386864535e-06
23,82,1.4623312091036123e-07
23,100,8.198585186292595e-06
23,108,1.8933398359242137e-06
23,118,1.7059286818867756e-07
23,149,6.925772050233926e-06
23,157,1.6886441579136794e-06
23,167,1.6976435352571015e-07
23,213,5.926110179476501e-06
23,221,1.4950975452639613e-06
23,231,1.6013299693471468e-07
23,294,5.133551763311126e-06
23,302,1.3254204642151258e-06
23,312,1.47878646874842e-07
24,24,6.463630754374353e-05
24,34,0.00011102359972336014
24,40,5.772279435584484e-05
24,48,7.858006039718955e-06
24,59,8.525967795518756e-05
24,65,4.8225485266962396e-05
24,73,8.173807598770735e-06
24,83,5.239484448391348e-07
24,95,6.798954475198002e-05
24,101,4.0242919129707374e-05
24,109,7.520035771254061e-06
24,119,6.109641419661814e-07
24,131,2.1982146234096684e-08
24,144,5.580795114260306e-05
24,150,3.3959350856406026e-05
24,158,6.702606855710744e-06
24,168,6.077093596905285e-07
24,180,2.8064814339101578e-08
24,208,4.68555604651605e-05
24,214,2.903657743936843e-05
24,222,5.931654503793467e-06
24,232,5.730457827178237e-07
24,244,2.983126970242575e-08
24,289,4.005567129162078e-05
24,295,2.5140205012862914e-05
24,303,5.2567071916928996e-06
24,313,5.289135560816079e-07
24,325,2.956807156435801e-08
25,25,0.00017832483115132647
25,31,0.00011235469282701526
25,35,0.00040066180826169555
25,41,0.0001586597750146554
25,49,1.8810695693044223e-05
25,56,8.004141080134023e-05
25,60,0.00030655480476412286
25,66,0.00013228518449987287
25,74,1.954062380281681e-05
25,84,1.1515480046613764e-06
25,92,6.097302738542432e-05
25,96,0.0002439121599229963
25,102,0.00011025239286675414
25,110,1.796321799925243e-05
25,120,1.3416276129198414e-06
25,132,4.585281784515949e-08
25,141,4.85713569664988e-05
25,145,0.00019991800932471195
25,151,9.29627531974968e-05
25,159,1.6002232203604886e-05
25,169,1.3339833629625376e-06
25,181,5.856336940842741e-08
25,205,3.994533348798103e-05
25,209,0.00016767909361968842
25,215,7.944294546576726e-05
25,223,1.4156574657100666e-05
25,233,1.2575718567662747e-06
25,245,6.223092046639197e-08
25,286,3.364457895328353e-05
25,290,0.00014324121641682457
25,296,6.875529467078537e-05
25,304,1.2542417273915942e-05
25,314,1.1608528308430948e-06
25,326,6.166871432161984e-08
26,26,0.00028591761808836197
26,32,0.00024166910209565674
26,36,0.000747588986268707
26,42,0.0002537575847418115
26,50,2.747869619811115e-05
26,57,0.0001677941780115975
26,61,0.0005704307982186617
26,67,0.00021128741429129273
26,75,2.852143483706823e-05
26,85,1.5889104183221127e-06
26,93,0.0001256611930038889
26,97,0.00045310887093301275
26,103,0.0001759515706573032
26,111,2.620598469298704e-05
26,121,1.8505747533592581e-06
26,133,6.124284060483092e-08
26,142,9.893207406837838e-05
26,146,0.00037097674211681897
26,152,0.00014827963937669947
26,160,2.333759529816926e-05
26,170,1.8396157023783153e-06
26,182,7.800388934407007e-08
26,206,8.068095860509668e-05
26,210,0.00031091876257746665
26,216,0.00012666834441531655
26,224,2.064122534800551e-05
26,234,1.7339777718009027e-06
26,246,8.27955702174865e-08
26,287,6.753487462208262e-05
26,291,0.0002654614889289809
26,297,0.00010959841612087408
26,305,1.8284817015738937e-05
26,315,1.6004489631405643e-06
26,327,8.20428901361354e-08
27,27,0.00017832483115132647
27,33,0.00011235469282701526
27,37,0.00040066180826169544
27,43,0.0001586597750146554
27,51,1.8810695693044216e-05
27,58,8.004141080134023e-05
27,62,0.0003065548047641229
27,68,0.00013228518449987287
27,76,1.954062380281681e-05
27,86,1.1515480046613764e-06
27,94,6.097302738542432e-05
27,98,0.0002439121599229964
27,104,0.00011025239286675412
27,112,1.796321799925243e-05
27,122,1.3416276129198411e-06
27,134,4.585281784515949e-08
27,143,4.85713569664988e-05
27,147,0.00019991800932471197
27,153,9.29627531974968e-05
27,161,1.6002232203604886e-05
27,171,1.3339833629625378e-06
27,183,5.856336940842741e-08
27,207,3.994533348798103e-05
27,211,0.00016767909361968848
27,217,7.944294546576726e-05
27,225,1.4156574657100664e-05
27,235,1.2575718567662747e-06
27,247,6.223092046639197e-08
27,288,3.364457895328355e-05
27,292,0.0001432412164168246
27,298,6.875529467078537e-05
27,306,1.254241727391594e-05
27,316,1.1608528308430946e-06
27,328,6.166871432161986e-08
28,28,6.463630754374352e-05
28,38,0.00011102359972336015
28,44,5.772279435584484e-05
28,52,7.858006039718957e-06
28,63,8.525967795518759e-05
28,69,4.822548526696238e-05
28,77,8.173807598770733e-06
28,87,5.239484448391348e-07
28,99,6.798954475198002e-05
28,105,4.024291912970736e-05
28,113,7.520035771254061e-06
28,123,6.109641419661814e-07
28,135,2.1982146234096684e-08
28,148,5.580795114260306e-05
28,154,3.395935085640602e-05
28,162,6.702606855710742e-06
28,172,6.077093596905285e-07
28,184,2.806481433910159e-08
28,212,4.68555604651605e-05
28,218,2.903657743936843e-05
28,226,5.931654503793465e-06
28,236,5.730457827178237e-07
28,248,2.983126970242576e-08
28,293,4.005567129162078e-05
28,299,2.514020501286291e-05
28,307,5.256707191692899e-06
28,317,5.289135560816079e-07
28,329,2.956807156435801e-08
29,29,1.3047195638745673e-05
29,45,1.1708994182608104e-05
29,53,1.9730368902984324e-06
29,70,9.808783274238416e-06
29,78,2.055825838686453e-06
29,88,1.4623312091036123e-07
29,106,8.198585186292595e-06
29,114,1.893339835924213e-06
29,124,1.705928681886775e-07
29,155,6.925772050233925e-06
29,163,1.6886441579136794e-06
29,173,1.6976435352571012e-07
29,219,5.926110179476501e-06
29,227,1.495097545263961e-06
29,237,1.6013299693471463e-07
29,300,5.133551763311124e-06
29,308,1.3254204642151256e-06
29,318,1.47878646874842e-07
30,30,0.001419724724385986
30,55,0.0010739103658053612
30,91,0.0008492160727402794
30,140,0.000693457825383941
30,204,0.000580217446285227
30,285,0.000494822662328379
31,31,0.0010948577692226269
31,35,0.0007147204734428553
31,41,0.00010273333845588449
31,49,4.281599967136799e-06
31,56,0.0008256963306317225
31,60,0.0005568684418774169
31,66,8.693436343874955e-05
31,74,4.526845896469772e-06
31,84,4.7340775403294314e-08
31,92,0.000651782643046451
31,96,0.00044796990985503473
31,102,7.310350568235613e-05
31,110,4.20558234082659e-06
31,120,5.678774309508848e-08
31,141,0.0005316344064238012
31,145,0.0003698029059162708
31,151,6.1996664064238e-05
31,159,3.772121886064891e-06
31,169,5.752156926396534e-08
31,205,0.00044447751287613976
31,209,0.00031169346199033166
31,215,5.319046839738048e-05
31,223,3.3526565628138516e-06
31,233,5.491172217776142e-08
31,286,0.0003788534023783619
31,290,0.000267203514547188
31,296,4.6165076482509876e-05
31,304,2.9802962166614738e-06
31,314,5.1141552546547154e-08
32,32,0.0035794852172603723
32,36,0.0018733768472726676
32,42,0.0002216857903699787
32,50,7.1254772044385705e-06
32,57,0.0026886793557623035
32,61,0.0014591861743005847
32,67,0.00018790082503731138
32,75,7.585385502553569e-06
32,93,0.0021171511725497217
32,97,0.0011736002706836549
32,103,0.00015815945367204538
32,111,7.075336658387721e-06
32,142,0.001724092971195623
32,146,0.0009686842783962113
32,152,0.00013421242893450907
32,160,6.362301654963375e-06
32,206,0.001439836521031073
32,210,0.0008163896681334727
32,216,0.00011519651990689426
32,224,5.664558964521139e-06
32,287,0.0012262712369368696
32,291,0.0006998115582198822
32,297,0.00010001094707342664
32,305,5.041598584644268e-06
33,33,0.0010948577692226269
33,37,0.0007147204734428555
33,43,0.00010273333845588449
33,51,4.281599967136799e-06
33,58,0.0008256963306317225
33,62,0.0005568684418774169
33,68,8.693436343874955e-05
33,76,4.526845896469772e-06
33,86,4.7340775403294314e-08
33,94,0.000651782643046451
33,98,0.00044796990985503484
33,104,7.310350568235615e-05
33,112,4.20558234082659e-06
33,122,5.6787743095088474e-08
33,143,0.0005316344064238012
33,147,0.0003698029059162708
33,153,6.1996664064238e-05
33,161,3.7721218860648906e-06
33,171,5.752156926396533e-08
33,207,0.00044447751287613976
33,211,0.00031169346199033166
33,217,5.319046839738048e-05
33,225,3.3526565628138503e-06
33,235,5.491172217776138e-08
33,288,0.0003788534023783619
33,292,0.000267203514547188
33,298,4.616507648250988e-05
33,306,2.980296216661473e-06
33,316,5.114155254654715e-08
34,34,0.0002850028052233346
34,40,9.992038051107577e-05
34,48,1.0200488555974155e-05
34,59,0.00022045148824236882
34,65,8.383439710294255e-05
34,73,1.0642992571769165e-05
34,83,5.37300736461401e-07
34,95,0.00017656889579032405
34,101,7.013698523358874e-05
34,109,9.809862116618383e-06
34,119,6.272754289427172e-07
34,131,1.8741241823066232e-08
34,144,0.0001453480531871502
34,150,5.928434115404472e-05
34,158,8.75404649631492e-06
34,168,6.24532926454045e-07
34,180,2.3791019251425194e-08
34,208,0.0001222713687606005
34,214,5.074839772492886e-05
34,222,7.753524001047295e-06
34,232,5.892975518528815e-07
34,244,2.5295700895502966e-08
34,289,0.00010467392912916233
34,295,4.397445844683969e-05
34,303,6.875293379201732e-06
34,313,5.443308831717818e-07
34,325,2.5081837575455735e-08
35,35,0.0012574954098857492
35,41,0.0003592623802495531
35,49,3.2832028825253504e-05
35,56,0.0005269808937503661
35,60,0.0009690672739379939
35,66,0.00030081745240423874
35,74,3.421129229777403e-05
35,84,1.6059893608640862e-06
35,92,0.00041028620317327914
35,96,0.0007744164158419089
35,102,0.00025136071913048254
35,110,3.150822166217785e-05
35,120,1.8737987709913516e-06
35,132,5.2363260926649605e-08
35,141,0.00033164729279633955
35,145,0.0006365456429732678
35,151,0.0002122977099095789
35,159,2.8102546458996678e-05
35,169,1.8649202140708695e-06
35,181,6.676366662969379e-08
35,205,0.0002755560404182983
35,209,0.0005349426808447996
35,215,0.0001816313440422497
35,223,2.488181973483989e-05
35,233,1.7592597059426336e-06
35,245,7.098854904772134e-08
35,286,0.0002338245279020916
35,290,0.00045762139550365453
35,296,0.00015732538631158368
35,304,2.2057898908314994e-05
35,314,1.6247816760715033e-06
35,326,7.037623111030308e-08
36,36,0.002711549378573275
36,42,0.0006685663476899139
36,50,5.567816670254836e-05
36,57,0.0013651188575533972
36,61,0.0020839156327615393
36,67,0.0005589924909778581
36,75,5.796403075136062e-05
36,85,2.557080732714363e-06
36,93,0.001055042522170709
36,97,0.0016625740125477332
36,103,0.0004666800536567032
36,111,5.335463012532643e-05
36,121,2.982481249849135e-06
36,133,7.966565982112416e-08
36,142,0.0008486743834861508
36,146,0.0013651071793585523
36,152,0.00039393016519054285
36,160,4.757047335580027e-05
36,170,2.9676149880770774e-06
36,182,1.0182809480887585e-07
36,206,0.0007027493674542525
36,210,0.001146361542873274
36,216,0.00033689495804057235
36,224,4.2108195004874354e-05
36,234,2.7990040619487354e-06
36,246,1.0825352926494666e-07
36,287,0.0005948603626240833
36,291,0.0009801427119857716
36,297,0.0002917297000882253
36,305,3.7322592494349596e-05
36,315,2.584623044352311e-06
36,327,1.0730987880412196e-07
37,37,0.0012574954098857497
37,43,0.0003592623802495531
37,51,3.2832028825253504e-05
37,58,0.0005269808937503662
37,62,0.0009690672739379939
37,68,0.00030081745240423874
37,76,3.421129229777403e-05
37,86,1.6059893608640866e-06
37,94,0.00041028620317327914
37,98,0.0007744164158419091
37,104,0.00025136071913048265
37,112,3.150822166217785e-05
37,122,1.8737987709913516e-06
37,134,5.2363260926649624e-08
37,143,0.00033164729279633955
37,147,0.000636545642973268
37,153,0.00021229770990957897
37,161,2.8102546458996668e-05
37,171,1.8649202140708695e-06
37,183,6.67636666296938e-08
37,207,0.0002755560404182983
37,211,0.0005349426808447999
37,217,0.00018163134404224974
37,225,2.488181973483989e-05
37,235,1.7592597059426336e-06
37,247,7.098854904772135e-08
37,288,0.00023382452790209166
37,292,0.00045762139550365453
37,298,0.0001573253863115837
37,306,2.2057898908314994e-05
37,316,1.624781676071503e-06
37,328,7.037623111030308e-08
38,38,0.0002850028052233347
38,44,9.992038051107579e-05
38,52,1.0200488555974155e-05
38,63,0.00022045148824236885
38,69,8.383439710294255e-05
38,77,1.0642992571769165e-05
38,87,5.37300736461401e-07
38,99,0.00017656889579032407
38,105,7.013698523358874e-05
38,113,9.809862116618383e-06
38,123,6.272754289427172e-07
38,135,1.8741241823066236e-08
38,148,0.00014534805318715022
38,154,5.928434115404472e-05
38,162,8.754046496314922e-06
38,172,6.245329264540453e-07
38,184,2.3791019251425204e-08
38,212,0.00012227136876060053
38,218,5.074839772492886e-05
38,226,7.753524001047295e-06
38,236,5.892975518528816e-07
38,248,2.5295700895502972e-08
38,293,0.00010467392912916235
38,299,4.3974458446839704e-05
38,307,6.8752933792017335e-06
38,317,5.443308831717818e-07
38,329,2.5081837575455742e-08
39,39,1.0511058060221083e-05
39,47,1.7580708666882305e-06
39,64,8.806733861702235e-06
39,72,1.8320950420778582e-06
39,82,1.2938374120797677e-07
39,100,7.361641038732184e-06
39,108,1.6874174120783302e-06
39,118,1.5094877113603196e-07
39,149,6.219141538351444e-06
39,157,1.50508435728126e-06
39,167,1.502234629958487e-07
39,213,5.321697166482103e-06
39,221,1.332627448123945e-06
39,231,1.4170577809435547e-07
39,294,4.6101111087575526e-06
39,302,1.1814055341061347e-06
39,312,1.3086492326528141e-07
40,40,5.1566166507259966e-05
40,48,6.97186116857609e-06
40,59,7.67515653395386e-05
40,65,4.308976998481004e-05
40,73,7.253216789174806e-06
40,83,4.6178217417774843e-07
40,95,6.121377634777393e-05
40,101,3.596129266989356e-05
40,109,6.673725048338957e-06
40,119,5.385206724610658e-07
40,131,1.9079507420953214e-08
40,144,5.0251037458730566e-05
40,150,3.0348456913790916e-05
40,158,5.948665117606687e-06
40,168,5.35523951283466e-07
40,180,2.462734401202763e-08
40,208,4.219268746446265e-05
40,214,2.595047615433001e-05
40,222,5.264679903151122e-06
40,232,5.049979227883839e-07
40,244,2.6152852587466793e-08
40,289,3.6071242511337306e-05
40,295,2.246896338293915e-05
40,303,4.665746994121367e-06
40,313,4.66144773117462e-07
40,325,2.5922806365981877e-08
41,41,0.0001412172796196976
41,49,1.6633147830986965e-05
41,56,7.329388586734522e-05
41,60,0.0002749587358789526
41,66,0.00011776678222156894
41,74,1.7281604326948268e-05
41,84,1.012135100790435e-06
41,92,5.588503368762128e-05
41,96,0.00021881097418215072
41,102,9.816447799771063e-05
41,110,1.588825761779376e-05
41,120,1.178920886177688e-06
41,132,3.9825395840838553e-08
41,141,4.4546423264071575e-05
41,145,0.00017936480223576079
41,151,8.277722968953773e-05
41,159,1.4154821858799249e-05
41,169,1.1722774708907807e-06
41,181,5.1115673937362074e-08
41,205,3.665160348492394e-05
41,209,0.00015045215498169079
41,215,7.074270505778209e-05
41,223,1.2522790517309762e-05
41,233,1.1051762836725281e-06
41,245,5.4319053483782284e-08
41,286,3.088048610788729e-05
41,290,0.00012853222008610645
41,296,6.122798361480168e-05
41,304,1.1095323245544492e-05
41,314,1.020209370122417e-06
41,326,5.382991470923921e-08
42,42,0.00022530900551777694
42,50,2.424661333991707e-05
42,57,0.0001543163200297382
42,61,0.0005103029698444412
42,67,0.00018764291687296507
42,75,2.5171477741330345e-05
42,85,1.393559142394091e-06
42,93,0.00011576786902547179
42,97,0.00040542917866535585
42,103,0.00015628294084477223
42,111,2.3130635774724815e-05
42,121,1.6232124750335586e-06
42,133,5.3274371651682394e-08
42,142,9.125325267766028e-05
42,146,0.00033198318405258393
42,152,0.00013171610021013827
42,160,2.0600392774005024e-05
42,170,1.6137224087343452e-06
42,182,6.797084621350924e-08
42,206,7.448350832369516e-05
42,210,0.00027826305503920654
42,216,0.00011252581972592078
42,224,1.822122023726864e-05
42,234,1.5211311105540694e-06
42,246,7.223558846279576e-08
42,287,6.23874458295217e-05
42,291,0.00023759553165589496
42,297,9.736603733337182e-05
42,305,1.6141659287909656e-05
42,315,1.4040387324624697e-06
42,327,7.157999880602448e-08
43,43,0.0001412172796196976
43,51,1.6633147830986965e-05
43,58,7.329388586734522e-05
43,62,0.00027495873587895267
43,68,0.00011776678222156894
43,76,1.7281604326948268e-05
43,86,1.012135100790435e-06
43,94,5.588503368762128e-05
43,98,0.00021881097418215077
43,104,9.816447799771066e-05
43,112,1.5888257617793757e-05
43,122,1.1789208861776878e-06
43,134,3.9825395840838553e-08
43,143,4.4546423264071575e-05
43,147,0.00017936480223576084
43,153,8.277722968953772e-05
43,161,1.4154821858799247e-05
43,171,1.1722774708907807e-06
43,183,5.111567393736208e-08
43,207,3.665160348492394e-05
43,211,0.0001504521549816908
43,217,7.074270505778209e-05
43,225,1.2522790517309759e-05
43,235,1.1051762836725281e-06
43,247,5.4319053483782284e-08
43,288,3.088048610788728e-05
43,292,0.00012853222008610648
43,298,6.12279836148017e-05
43,306,1.109532324554449e-05
43,316,1.0202093701224167e-06
43,328,5.382991470923921e-08
44,44,5.156616650725995e-05
44,52,6.97186116857609e-06
44,63,7.675156533953858e-05
44,69,4.3089769984810036e-05
44,77,7.253216789174806e-06
44,87,4.617821741777484e-07
44,99,6.121377634777393e-05
44,105,3.596129266989355e-05
44,113,6.673725048338954e-06
44,123,5.385206724610658e-07
44,135,1.9079507420953224e-08
44,148,5.0251037458730566e-05
44,154,3.0348456913790916e-05
44,162,5.9486651176066855e-06
44,172,5.35523951283466e-07
44,184,2.462734401202763e-08
44,212,4.2192687464462654e-05
44,218,2.595047615433001e-05
44,226,5.264679903151122e-06
44,236,5.04997922788384e-07
44,248,2.615285258746679e-08
44,293,3.6071242511337306e-05
44,299,2.2468963382939147e-05
44,307,4.6657469941213655e-06
44,317,4.66144773117462e-07
44,329,2.5922806365981877e-08
45,45,1.0511058060221083e-05
45,53,1.7580708666882303e-06
45,70,8.806733861702235e-06
45,78,1.8320950420778582e-06
45,88,1.2938374120797677e-07
45,106,7.361641038732184e-06
45,114,1.6874174120783302e-06
45,124,1.5094877113603196e-07
45,155,6.219141538351445e-06
45,163,1.50508435728126e-06
45,173,1.5022346299584868e-07
45,219,5.321697166482101e-06
45,227,1.332627448123945e-06
45,237,1.4170577809435547e-07
45,300,4.6101111087575526e-06
45,308,1.1814055341061347e-06
45,318,1.3086492326528141e-07
46,46,7.582486177124284e-08
46,71,7.898022129563013e-08
46,107,7.284264437475107e-08
46,117,1.0174227595038647e-08
46,156,6.495719979605649e-08
46,166,1.0125435816922714e-08
46,220,5.750715998117686e-08
46,301,5.0979465871246405e-08
47,47,3.903997569757094e-07
47,64,1.4669909950993292e-06
47,72,4.0578552160607964e-07
47,82,3.5699378519996076e-08
47,100,1.2232563841946672e-06
47,108,3.7316028119862695e-07
47,118,4.1725301981724736e-08
47,149,1.0317563176898002e-06
47,157,3.325724731521544e-07
47,167,4.1497602702633395e-08
47,213,8.819040671225488e-07
47,221,2.94259250387886e-07
47,231,3.9136018816537656e-08
47,294,7.633788586656322e-07
47,302,2.607533289390475e-07
47,312,3.603135143421914e-08
48,48,1.1813792538528013e-06
48,59,7.78198524468776e-06
48,65,5.803952617382878e-06
48,73,1.2259774052969135e-06
48,83,9.459224540423117e-08
48,95,6.180807806464163e-06
48,101,4.832769107756629e-06
48,109,1.1262372536294878e-06
48,119,1.1016052970813994e-07
48,144,5.060105701008116e-06
48,150,4.072406263501167e-06
48,158,1.0028913857790329e-06
48,168,1.0950344981201897e-07
48,208,4.240712975391841e-06
48,214,3.4786891582218584e-06
48,222,8.869746086058385e-07
48,232,1.0321199108070263e-07
48,289,3.6205810907902427e-06
48,295,3.0097977752063762e-06
48,303,7.856885688261639e-07
48,313,9.52614548122855e-08
49,49,2.4142692439333454e-06
49,56,2.825236473371314e-06
49,60,2.4960295662184363e-05
49,66,1.3821157227529802e-05
49,74,2.5022969518781557e-06
49,84,1.7624210167577786e-07
49,92,2.0411452197054235e-06
49,96,1.978230004956133e-05
49,102,1.1495460530991462e-05
49,110,2.297282101126793e-06
49,120,2.051398087641206e-07
49,141,1.5658589244783506e-06
49,145,1.6172735942376044e-05
49,151,9.679754116958735e-06
49,159,2.044703383170777e-06
49,169,2.0384596231002047e-07
49,205,1.2527388315809852e-06
49,209,1.354078608983854e-05
49,215,8.264356573852431e-06
49,223,1.8077291609518372e-06
49,233,1.92088689580931e-07
49,245,1.0378174800975881e-08
49,286,1.0335690461115425e-06
49,290,1.1552670643488238e-05
49,296,7.147801636534853e-06
49,304,1.600923272030245e-06
49,314,1.7726188232238747e-07
49,326,1.0284068620519987e-08
50,50,3.230850291263107e-06
50,57,4.302880181211055e-06
50,61,4.222154395921891e-05
50,67,2.012422096166883e-05
50,75,3.3465074169369136e-06
50,85,2.2430981436953074e-07
50,93,2.8968078794136518e-06
50,97,3.3410723358255205e-05
50,103,1.672620449766784e-05
50,111,3.0709730074190424e-06
50,121,2.610161482834135e-07
50,142,2.1014628457427568e-06
50,146,2.7286638581079853e-05
50,152,1.4077890549676509e-05
50,160,2.732606650050536e-06
50,170,2.593228500961423e-07
50,182,1.193361630888531e-08
50,206,1.608357254622465e-06
50,210,2.2829958413687332e-05
50,216,1.2015645701242225e-05
50,224,2.415533508970177e-06
50,234,2.443354162035028e-07
50,246,1.2679014499915428e-08
50,287,1.280822870723457e-06
50,291,1.9468128406391786e-05
50,297,1.0389940714440925e-05
50,305,2.1389154265441787e-06
50,315,2.254557435283517e-07
50,327,1.2563097331919779e-08
51,51,2.414269243933345e-06
51,58,2.825236473371314e-06
51,62,2.4960295662184363e-05
51,68,1.3821157227529802e-05
51,76,2.502296951878155e-06
51,86,1.762421016757778e-07
51,94,2.0411452197054235e-06
51,98,1.978230004956133e-05
51,104,1.1495460530991459e-05
51,112,2.2972821011267917e-06
51,122,2.0513980876412059e-07
51,143,1.5658589244783504e-06
51,147,1.6172735942376044e-05
51,153,9.679754116958734e-06
51,161,2.0447033831707764e-06
51,171,2.0384596231002042e-07
51,207,1.252738831580985e-06
51,211,1.354078608983854e-05
51,217,8.26435657385243e-06
51,225,1.8077291609518363e-06
51,235,1.9208868958093096e-07
51,247,1.0378174800975878e-08
51,288,1.0335690461115423e-06
51,292,1.1552670643488238e-05
51,298,7.1478016365348505e-06
51,306,1.6009232720302443e-06
51,316,1.7726188232238742e-07
51,328,1.0284068620519985e-08
52,52,1.1813792538528013e-06
52,63,7.781985244687764e-06
52,69,5.803952617382878e-06
52,77,1.225977405296914e-06
52,87,9.45922454042312e-08
52,99,6.180807806464165e-06
52,105,4.832769107756629e-06
52,113,1.1262372536294878e-06
52,123,1.1016052970813995e-07
52,148,5.060105701008117e-06
52,154,4.072406263501167e-06
52,162,1.0028913857790329e-06
52,172,1.0950344981201897e-07
52,212,4.240712975391841e-06
52,218,3.4786891582218584e-06
52,226,8.869746086058385e-07
52,236,1.0321199108070266e-07
52,293,3.620581090790243e-06
52,299,3.0097977752063762e-06
52,307,7.856885688261642e-07
52,317,9.526145481228554e-08
53,53,3.903997569757094e-07
53,70,1.4669909950993292e-06
53,78,4.057855216060797e-07
53,88,3.5699378519996076e-08
53,106,1.2232563841946668e-06
53,114,3.7316028119862695e-07
53,124,4.1725301981724736e-08
53,155,1.0317563176898002e-06
53,163,3.325724731521544e-07
53,173,4.149760270263339e-08
53,219,8.819040671225488e-07
53,227,2.9425925038788605e-07
53,237,3.9136018816537656e-08
53,300,7.633788586656322e-07
53,308,2.607533289390475e-07
53,318,3.603135143421914e-08
54,54,7.582486177124284e-08
54,79,7.898022129563013e-08
54,115,7.284264437475107e-08
54,125,1.0174227595038647e-08
54,164,6.495719979605652e-08
54,174,1.0125435816922715e-08
54,228,5.750715998117686e-08
54,309,5.0979465871246405e-08
55,55,0.0008125535856562505
55,91,0.000642649979104209
55,140,0.0005248355509156648
55,204,0.0004391633744020633
55,285,0.0003745483535517471
56,56,0.0006229221363185953
56,60,0.0004107692810163347
56,66,6.206888046868222e-05
56,74,2.993842408990993e-06
56,84,1.5852239044987447e-08
56,92,0.0004918205641873693
56,96,0.00033052617675492356
56,102,5.22178441470122e-05
56,110,2.7850968769470992e-06
56,120,1.9678566403167626e-08
56,141,0.0004012135025981714
56,145,0.0002728974146186275
56,151,4.4297255615474404e-05
56,159,2.5001790738973632e-06
56,169,2.034871692410397e-08
56,205,0.00033546897799195685
56,209,0.00023004145997677098
56,215,3.8012766651863224e-05
56,223,2.2232414752817472e-06
56,233,1.977509824290052e-08
56,286,0.0002859581059328391
56,290,0.00019722218289562355
56,296,3.2996763918775196e-05
56,304,1.9771540024974943e-06
56,314,1.8587418067240616e-08
57,57,0.0020208092802818916
57,61,0.0010640395699683196
57,67,0.00013097575587155849
57,75,4.607337801596754e-06
57,93,0.0015918396492785468
57,97,0.0008561449001424267
57,103,0.0001103332263811557
57,111,4.3120922895897976e-06
57,142,0.0012966195524327484
57,146,0.0007068469351166791
57,152,9.367591958422338e-05
57,160,3.885866120127808e-06
57,206,0.0010830203128577068
57,210,0.0005958265442400064
57,216,8.04316817358928e-05
57,224,3.4647286134177803e-06
57,287,0.0009224888072094073
57,291,0.0005108106595928778
57,297,6.98463865867534e-05
57,305,3.0868611223827228e-06
58,58,0.0006229221363185953
58,62,0.0004107692810163349
58,68,6.206888046868222e-05
58,76,2.993842408990993e-06
58,86,1.5852239044987434e-08
58,94,0.0004918205641873693
58,98,0.00033052617675492356
58,104,5.22178441470122e-05
58,112,2.785096876947099e-06
58,122,1.967856640316761e-08
58,143,0.0004012135025981714
58,147,0.00027289741461862754
58,153,4.4297255615474404e-05
58,161,2.500179073897363e-06
58,171,2.0348716924103963e-08
58,207,0.00033546897799195685
58,211,0.000230041459976771
58,217,3.8012766651863224e-05
58,225,2.2232414752817472e-06
58,235,1.977509824290052e-08
58,288,0.0002859581059328391
58,292,0.00019722218289562355
58,298,3.2996763918775196e-05
58,306,1.9771540024974943e-06
58,316,1.8587418067240596e-08
59,59,0.00017054599635977377
59,65,6.440391429191399e-05
59,73,8.120603735623157e-06
59,83,4.0709750588921e-07
59,95,0.0001366091254770096
59,101,5.388543277093679e-05
59,109,7.485497574813874e-06
59,119,4.7527861467742006e-07
59,131,1.4284793763974186e-08
59,144,0.00011246008297583499
59,150,4.554979131443521e-05
59,158,6.6801800175806765e-06
59,168,4.732242169052998e-07
59,180,1.8063330289588816e-08
59,208,9.460894039793639e-05
59,214,3.899275883697471e-05
59,222,5.9168862392117775e-06
59,232,4.4656668056751746e-07
59,244,1.9050324421521393e-08
59,289,8.099496680650622e-05
59,295,3.3788776404378196e-05
59,303,5.2468185933532e-06
59,313,4.125013621737435e-07
59,325,1.8889662556439313e-08
60,60,0.0007469363566234177
60,66,0.00023026451829112645
60,74,2.601269744698929e-05
60,84,1.2126350533115978e-06
60,92,0.0003198931650369083
60,96,0.0005969718713652848
60,102,0.00019242545842705101
60,110,2.3959513390154836e-05
60,120,1.4150210840907257e-06
60,132,3.88819442263516e-08
60,141,0.00025862479416978993
60,145,0.0004907283348243264
60,151,0.00016253132226440493
60,159,2.1370991744003432e-05
60,169,1.4083959904888735e-06
60,181,5.0203654861858326e-08
60,205,0.00021490970139177937
60,209,0.00041242119643151716
60,215,0.00013905956089669787
60,223,1.8922486721661597e-05
60,233,1.3286522058230774e-06
60,245,5.337269902502475e-08
60,286,0.00018237858099530674
60,290,0.00035282219536006876
60,296,0.00012045420368792525
60,304,1.6775381962142e-05
60,314,1.2270810811126725e-06
60,326,5.291423893458498e-08
61,61,0.0016019237244471803
61,67,0.000426744150479171
61,75,4.396211682406602e-05
61,85,1.92611147949426e-06
61,93,0.0008227085159186837
61,97,0.0012782108978041677
61,103,0.00035630990082852497
61,111,4.047015085808404e-05
61,121,2.2467257688781897e-06
61,133,5.958222725013087e-08
61,142,0.0006619763896132753
61,146,0.001049608087276755
61,152,0.000300786573553719
61,160,3.6085097560952173e-05
61,170,2.2356651385895138e-06
61,182,7.615346739005626e-08
61,206,0.0005482633259364596
61,210,0.0008814727114909507
61,216,0.00025724957956615893
61,224,3.1943021910773355e-05
61,234,2.1087429529689936e-06
61,246,8.096462368175137e-08
61,287,0.00046415916472167024
61,291,0.0007536951861750944
61,297,0.00022276953493321173
61,305,2.8313578189774746e-05
61,315,1.947305100856067e-06
61,327,8.02612692226091e-08
62,62,0.0007469363566234177
62,68,0.00023026451829112645
62,76,2.601269744698929e-05
62,86,1.2126350533115978e-06
62,94,0.00031989316503690837
62,98,0.000596971871365285
62,104,0.00019242545842705096
62,112,2.395951339015483e-05
62,122,1.4150210840907257e-06
62,134,3.88819442263516e-08
62,143,0.00025862479416978993
62,147,0.0004907283348243264
62,153,0.00016253132226440496
62,161,2.137099174400343e-05
62,171,1.4083959904888735e-06
62,183,5.0203654861858326e-08
62,207,0.0002149097013917794
62,211,0.0004124211964315172
62,217,0.00013905956089669787
62,225,1.8922486721661597e-05
62,235,1.3286522058230774e-06
62,247,5.337269902502475e-08
62,288,0.00018237858099530674
62,292,0.00035282219536006887
62,298,0.00012045420368792525
62,306,1.6775381962142e-05
62,316,1.2270810811126725e-06
62,328,5.2914238934584995e-08
63,63,0.0001705459963597738
63,69,6.440391429191399e-05
63,77,8.120603735623159e-06
63,87,4.0709750588921004e-07
63,99,0.00013660912547700966
63,105,5.388543277093679e-05
63,113,7.485497574813874e-06
63,123,4.752786146774201e-07
63,135,1.4284793763974189e-08
63,148,0.00011246008297583499
63,154,4.554979131443521e-05
63,162,6.680180017580678e-06
63,172,4.7322421690529986e-07
63,184,1.806333028958882e-08
63,212,9.46089403979364e-05
63,218,3.899275883697471e-05
63,226,5.91688623921178e-06
63,236,4.4656668056751756e-07
63,248,1.9050324421521393e-08
63,293,8.099496680650626e-05
63,299,3.37887764043782e-05
63,307,5.246818593353202e-06
63,317,4.125013621737437e-07
63,329,1.8889662556439313e-08
64,64,7.379296617617626e-06
64,72,1.5288807650204036e-06
64,82,1.0754458467852084e-07
64,100,6.168746723097975e-06
64,108,1.4082286842209547e-06
64,118,1.2547621191573209e-07
64,149,5.21155301292677e-06
64,157,1.256101242701196e-06
64,167,1.2487684596603423e-07
64,213,4.45960878057711e-06
64,221,1.1121966135297304e-06
64,231,1.1779743454069181e-07
64,294,3.8633613359521245e-06
64,302,9.860030551430284e-07
64,312,1.0878713036798694e-07
65,65,3.6010318361582135e-05
65,73,6.0387060886956245e-06
65,83,3.829285188399838e-07
65,95,5.136980858672072e-05
65,101,3.005484415301647e-05
65,109,5.5565424108204695e-06
65,119,4.4645447363689625e-07
65,131,1.58560513013301e-08
65,144,4.217226388502562e-05
65,150,2.5364949070105992e-05
65,158,4.9530462297914444e-06
65,168,4.4411628617373547e-07
65,180,2.031423776570282e-08
65,208,3.541075203205101e-05
65,214,2.1689687181631007e-05
65,222,4.383626647550163e-06
65,232,4.188100144270207e-07
65,244,2.1726256066691947e-08
65,289,3.027397325601953e-05
65,295,1.8780147543466373e-05
65,303,3.884981284251634e-06
65,313,3.8668749793919125e-07
65,325,2.1535610747309776e-08
66,66,9.82216367775573e-05
66,74,1.4361411065772421e-05
66,84,8.378057519725038e-07
66,92,4.7349622598540225e-05
66,96,0.00018326095902955296
66,102,8.187825063043143e-05
66,110,1.320428027999698e-05
66,120,9.762441866448922e-07
66,132,3.2864438149483775e-08
66,141,3.775544287080637e-05
66,145,0.00015023295604115643
66,151,6.904697982962677e-05
66,159,1.1764076961222556e-05
66,169,9.70776399556762e-07
66,181,4.1985534481748784e-08
66,205,3.107153268472002e-05
66,209,0.0001260215927717088
66,215,5.901042939980618e-05
66,223,1.0407966648668949e-05
66,233,9.152308275739034e-07
66,245,4.461914787830526e-08
66,286,2.618358046069426e-05
66,290,0.00010766433729498904
66,296,5.107476793404543e-05
66,304,9.221739285011737e-06
66,314,8.448813915548878e-07
66,326,4.421906769891875e-08
67,67,0.00015629312016511072
67,75,2.0894011863559587e-05
67,85,1.1526533941400064e-06
67,93,9.834715946517076e-05
67,97,0.0003390798020838969
67,103,0.00013018229166260792
67,111,1.9201199493595178e-05
67,121,1.342830499205185e-06
67,133,4.3958844876644074e-08
67,142,7.757054656414387e-05
67,146,0.00027767321787426874
67,152,0.00010972370594683778
67,160,1.7101491213602662e-05
67,170,1.335040932141997e-06
67,182,5.6146913795814687e-08
67,206,6.334411121753488e-05
67,210,0.00023275272875867875
67,216,9.374073720317346e-05
67,224,1.5126820333185963e-05
67,234,1.2583267216851892e-06
67,246,5.973838441225895e-08
67,287,5.307470214979393e-05
67,291,0.00019874343119813338
67,297,8.111368260146459e-05
67,305,1.3400696651800465e-05
67,315,1.1614843389792941e-06
67,327,5.9118752277789354e-08
68,68,9.82216367775573e-05
68,76,1.4361411065772421e-05
68,86,8.378057519725038e-07
68,94,4.7349622598540225e-05
68,98,0.00018326095902955296
68,104,8.187825063043141e-05
68,112,1.320428027999698e-05
68,122,9.762441866448918e-07
68,134,3.2864438149483775e-08
68,143,3.775544287080637e-05
68,147,0.0001502329560411565
68,153,6.904697982962677e-05
68,161,1.1764076961222554e-05
68,171,9.70776399556762e-07
68,183,4.1985534481748784e-08
68,207,3.107153268472002e-05
68,211,0.00012602159277170884
68,217,5.901042939980618e-05
68,225,1.0407966648668945e-05
68,235,9.152308275739032e-07
68,247,4.461914787830526e-08
68,288,2.618358046069426e-05
68,292,0.00010766433729498904
68,298,5.107476793404543e-05
68,306,9.221739285011735e-06
68,316,8.448813915548875e-07
68,328,4.4219067698918746e-08
69,69,3.601031836158212e-05
69,77,6.038706088695624e-06
69,87,3.829285188399838e-07
69,99,5.136980858672072e-05
69,105,3.005484415301646e-05
69,113,5.5565424108204695e-06
69,123,4.4645447363689625e-07
69,135,1.5856051301330104e-08
69,148,4.217226388502562e-05
69,154,2.5364949070105982e-05
69,162,4.9530462297914444e-06
69,172,4.4411628617373547e-07
69,184,2.0314237765702818e-08
69,212,3.541075203205101e-05
69,218,2.1689687181631007e-05
69,226,4.383626647550163e-06
69,236,4.188100144270207e-07
69,248,2.172625606669195e-08
69,293,3.0273973256019538e-05
69,299,1.8780147543466373e-05
69,307,3.8849812842516335e-06
69,317,3.8668749793919125e-07
69,329,2.1535610747309776e-08
70,70,7.379296617617626e-06
70,78,1.5288807650204038e-06
70,88,1.0754458467852081e-07
70,106,6.168746723097975e-06
70,114,1.4082286842209547e-06
70,124,1.2547621191573209e-07
70,155,5.21155301292677e-06
70,163,1.2561012427011957e-06
70,173,1.2487684596603423e-07
70,219,4.4596087805771095e-06
70,227,1.1121966135297304e-06
70,237,1.1779743454069181e-07
70,300,3.8633613359521245e-06
70,308,9.860030551430282e-07
70,318,1.0878713036798694e-07
71,71,8.227144396712843e-08
71,107,7.575621015465796e-08
71,117,1.057402375826105e-08
71,156,6.766914398699664e-08
71,166,1.0523479895863801e-08
71,220,5.990893548238064e-08
71,301,5.3108867136347764e-08
72,72,4.2180554989885547e-07
72,82,3.7031534306777513e-08
72,100,1.274922996710694e-06
72,108,3.87907783936092e-07
72,118,4.327214138164765e-08
72,149,1.075367213476642e-06
72,157,3.4574498884380836e-07
72,167,4.3051229597489355e-08
72,213,9.191999269846473e-07
72,221,3.059196541949982e-07
72,231,4.060165551752886e-08
72,294,7.956741378694657e-07
72,302,2.71072479874863e-07
72,312,3.739127603569811e-08
73,73,1.2723525172867125e-06
73,83,9.79336633758964e-08
73,95,6.450252451216139e-06
73,101,5.028509720337784e-06
73,109,1.1689766751077463e-06
73,119,1.1405640006109274e-07
73,144,5.28096099220657e-06
73,150,4.237509627341878e-06
73,158,1.040909880495406e-06
73,168,1.1337899369420843e-07
73,208,4.425958440642924e-06
73,214,3.619798081255347e-06
73,222,9.20616883400107e-07
73,232,1.0686674948650112e-07
73,289,3.7788316979743753e-06
73,295,3.1319409476920933e-06
73,303,8.155006557016743e-07
73,313,9.863592549099737e-08
74,74,2.593824024509041e-06
74,84,1.8226441083674044e-07
74,92,2.1665781487823904e-06
74,96,2.0618226668494905e-05
74,102,1.1945507108076908e-05
74,110,2.3814189544367714e-06
74,120,2.121585112262716e-07
74,141,1.6640801172894213e-06
74,145,1.6857122093958375e-05
74,151,1.0059100341862767e-05
74,159,2.11965941321172e-06
74,169,2.1082616507793937e-07
74,181,1.0091784898728737e-08
74,205,1.3325799255373216e-06
74,209,1.4114364365876122e-05
74,215,8.588458544161781e-06
74,223,1.874041409688094e-06
74,233,1.986700213160568e-07
74,245,1.0723516099651085e-08
74,286,1.1002497996109509e-06
74,290,1.2042382223407382e-05
74,296,7.4282558844188995e-06
74,304,1.6596746909923167e-06
74,314,1.8333768004103366e-07
74,326,1.0626452148252157e-08
75,75,3.4665936389824566e-06
75,85,2.3183826503693114e-07
75,93,3.1172637224570222e-06
75,97,3.4791540612143925e-05
75,103,1.73671077410765e-05
75,111,3.1813320856681347e-06
75,121,2.697883416566541e-07
75,142,2.2708557531087743e-06
75,146,2.84162106792888e-05
75,152,1.461790607652951e-05
75,160,2.8308987358724766e-06
75,170,2.680604292226119e-07
75,182,1.2322937973744529e-08
75,206,1.7433379794916922e-06
75,210,2.3776109325579044e-05
75,216,1.2476915587252803e-05
75,224,2.5024766191242692e-06
75,234,2.5257291250337667e-07
75,246,1.3092979333271478e-08
75,287,1.3928616928477309e-06
75,291,2.0275608970755755e-05
75,297,1.0789018534747279e-05
75,305,2.2160120461764525e-06
75,315,2.3305996817272607e-07
75,327,1.2973507795291529e-08
76,76,2.59382402450904e-06
76,86,1.8226441083674041e-07
76,94,2.1665781487823904e-06
76,98,2.0618226668494905e-05
76,104,1.1945507108076908e-05
76,112,2.38141895443677e-06
76,122,2.1215851122627152e-07
76,143,1.664080117289421e-06
76,147,1.6857122093958375e-05
76,153,1.0059100341862763e-05
76,161,2.1196594132117195e-06
76,171,2.1082616507793923e-07
76,183,1.0091784898728732e-08
76,207,1.332579925537321e-06
76,211,1.4114364365876122e-05
76,217,8.58845854416178e-06
76,225,1.8740414096880933e-06
76,235,1.9867002131605675e-07
76,247,1.0723516099651084e-08
76,288,1.1002497996109507e-06
76,292,1.2042382223407385e-05
76,298,7.4282558844188995e-06
76,306,1.6596746909923165e-06
76,316,1.833376800410336e-07
76,328,1.0626452148252157e-08
77,77,1.2723525172867125e-06
77,87,9.793366337589644e-08
77,99,6.450252451216139e-06
77,105,5.028509720337784e-06
77,113,1.1689766751077465e-06
77,123,1.1405640006109276e-07
77,148,5.28096099220657e-06
77,154,4.237509627341878e-06
77,162,1.0409098804954062e-06
77,172,1.1337899369420846e-07
77,212,4.425958440642924e-06
77,218,3.619798081255347e-06
77,226,9.20616883400107e-07
77,236,1.0686674948650114e-07
77,293,3.7788316979743753e-06
77,299,3.1319409476920933e-06
77,307,8.155006557016743e-07
77,317,9.863592549099737e-08
78,78,4.2180554989885547e-07
78,88,3.7031534306777513e-08
78,106,1.274922996710694e-06
78,114,3.87907783936092e-07
78,124,4.327214138164765e-08
78,155,1.0753672134766418e-06
78,163,3.4574498884380836e-07
78,173,4.3051229597489355e-08
78,219,9.191999269846471e-07
78,227,3.059196541949982e-07
78,237,4.060165551752886e-08
78,300,7.956741378694655e-07
78,308,2.71072479874863e-07
78,318,3.739127603569811e-08
79,79,8.227144396712843e-08
79,115,7.5756210154658e-08
79,125,1.057402375826105e-08
79,164,6.766914398699666e-08
79,174,1.0523479895863801e-08
79,228,5.990893548238064e-08
79,309,5.3108867136347764e-08
82,100,8.949903341109883e-08
82,108,3.402392329274364e-08
82,149,7.552843828490934e-08
82,157,3.03961060679961e-08
82,213,6.449203330248325e-08
82,221,2.6891861083713516e-08
82,294,5.5806690678536394e-08
82,302,2.3821548056743513e-08
83,95,3.219668381997291e-07
83,101,3.1814430800196684e-07
83,109,8.984536352471374e-08
83,144,2.6281629789834057e-07
83,150,2.67866219755406e-07
83,158,8.002848618773069e-08
83,208,2.1983646479718262e-07
83,214,2.2858675402046502e-07
83,222,7.075403411481097e-08
83,289,1.8765778085009256e-07
83,295,1.9764193099740861e-07
83,303,6.264695350237848e-08
84,84,1.4151721857672474e-08
84,96,9.570529570215202e-07
84,102,6.953483630576557e-07
84,110,1.6709842163113118e-07
84,120,1.6467397157936607e-08
84,145,7.802741621597533e-07
84,151,5.847072628840418e-07
84,159,1.4859496726582652e-07
84,169,1.6360540183914175e-08
84,209,6.520503490546289e-07
84,215,4.987348871662477e-07
84,223,1.3129705479581008e-07
84,233,1.5414997172290057e-08
84,290,5.555414951908668e-07
84,296,4.3105874579700395e-07
84,304,1.1622591248553846e-07
84,314,1.4223903305168666e-08
85,85,1.7045814754802315e-08
85,97,1.5179336729315227e-06
85,103,9.560834857737061e-07
85,111,2.1248333185359978e-07
85,121,2.0701904349064e-08
85,146,1.2363641348416842e-06
85,152,8.036387615350651e-07
85,160,1.8900395789191102e-07
85,170,2.0559885408858635e-08
85,210,1.032504339630974e-06
85,216,6.854222487717489e-07
85,224,1.669878648476927e-07
85,234,1.936620763002434e-08
85,291,8.792824284741156e-07
85,297,5.923012478866523e-07
85,305,1.4780562106986857e-07
85,315,1.712158740892325e-08
86,86,1.415172185767247e-08
86,98,9.570529570215204e-07
86,104,6.953483630576557e-07
86,112,1.6709842163113113e-07
86,122,1.6467397157936604e-08
86,147,7.802741621597532e-07
86,153,5.847072628840417e-07
86,161,1.485949672658265e-07
86,171,1.6360540183914172e-08
86,211,6.520503490546289e-07
86,217,4.987348871662477e-07
86,225,1.3129705479581003e-07
86,235,1.5414997172290053e-08
86,292,5.555414951908668e-07
86,298,4.3105874579700395e-07
86,306,1.162259124855384e-07
86,316,1.4223903305168662e-08
87,99,3.2196683819972913e-07
87,105,3.1814430800196684e-07
87,113,8.984536352471376e-08
87,148,2.628162978983406e-07
87,154,2.6786621975540603e-07
87,162,8.00284861877307e-08
87,212,2.198364647971827e-07
87,218,2.2858675402046502e-07
87,226,7.075403411481098e-08
87,293,1.8765778085009258e-07
87,299,1.9764193099740861e-07
87,307,6.264695350237849e-08
88,106,8.949903341109881e-08
88,114,3.4023923292743645e-08
88,155,7.552843828490931e-08
88,163,3.03961060679961e-08
88,219,6.449203330248325e-08
88,227,2.6891861083713516e-08
88,300,5.5806690678536394e-08
88,308,2.3821548056743513e-08
91,91,0.0005083238929986516
91,140,0.0004151619132282512
91,204,0.000347407923080494
91,285,0.00029630251065478015
92,92,0.00038835951420334094
92,96,0.00025744331641598
92,102,3.98464317254294e-05
92,110,2.017422058237485e-06
92,141,0.00031683851078201044
92,145,0.000212578635456919
92,151,3.380879345518773e-05
92,159,1.8121813195925668e-06
92,205,0.000264934710505547
92,209,0.00017920768974308068
92,215,2.9016062130814228e-05
92,223,1.6122737967145303e-06
92,286,0.000225842722226509
92,290,0.0001536483610488682
92,296,2.5189546996214425e-05
92,304,1.4342328070034807e-06
93,93,0.001254209776332265
93,97,0.0006621371804176652
93,103,8.289164498810858e-05
93,111,2.9258891584976163e-06
93,142,0.001021753647697267
93,146,0.000546762315139354
93,152,7.04015549178955e-05
93,160,2.6414588577029795e-06
93,206,0.0008535190486296538
93,210,0.0004609379983017961
93,216,6.046212021429172e-05
93,224,2.356359625822125e-06
93,287,0.0007270569753732537
93,291,0.0003952008645674173
93,297,5.251370539950064e-05
93,305,2.102699585123102e-06
94,94,0.00038835951420334094
94,98,0.00025744331641598005
94,104,3.98464317254294e-05
94,112,2.017422058237484e-06
94,143,0.00031683851078201044
94,147,0.00021257863545691904
94,153,3.380879345518773e-05
94,161,1.8121813195925666e-06
94,207,0.000264934710505547
94,211,0.0001792076897430807
94,217,2.901606213081422e-05
94,225,1.61227379671453e-06
94,288,0.000225842722226509
94,292,0.0001536483610488682
94,298,2.5189546996214425e-05
94,306,1.4342328070034805e-06
95,95,0.00010943146611573572
95,101,4.2982243451188235e-05
95,109,5.946070994625961e-06
95,119,3.7592871341708717e-07
95,131,1.1265950406229298e-08
95,144,9.008983781038078e-05
95,150,3.633437142270556e-05
95,158,5.306523013833179e-06
95,168,3.7431539387680626e-07
95,180,1.441042965454918e-08
95,208,7.579138504956788e-05
95,214,3.110458781985281e-05
95,222,4.700283824586541e-06
95,232,3.532170592315983e-07
95,244,1.5327294076813606e-08
95,289,6.488630378368625e-05
95,295,2.695377106371208e-05
95,303,4.1680523563382e-06
95,313,3.2627756914551576e-07
95,325,1.5199040493025617e-08
96,96,0.0004771491293510382
96,102,0.00015315474147698874
96,110,1.8991871836748837e-05
96,120,1.11684231422921e-06
96,132,3.0605165843056926e-08
96,141,0.00020815748908073218
96,145,0.0003922481447539058
96,151,0.00012936634651623542
96,159,1.6940616223566302e-05
96,169,1.1116516354583493e-06
96,181,3.905422606873388e-08
96,205,0.0001729852945759461
96,209,0.0003296659696501748
96,215,0.00011068689790888288
96,223,1.5000065248511892e-05
96,233,1.0487343956710089e-06
96,245,4.175263910046397e-08
96,286,0.00014680792974553294
96,290,0.0002820321466247163
96,296,9.58794183325617e-05
96,304,1.3298259506372798e-05
96,314,9.6857844932539e-07
96,326,4.1394440718801134e-08
97,97,0.0010199985034543742
97,103,0.0002831332518151595
97,111,3.202992928452302e-05
97,121,1.7707167110257045e-06
97,133,4.666368305031406e-08
97,142,0.0005328674348806345
97,146,0.0008376214051146318
97,152,0.00023902317752999723
97,160,2.8560510754138562e-05
97,170,1.7620663497643916e-06
97,182,5.975588651777166e-08
97,206,0.00044138532236516606
97,210,0.0007034701285172592
97,216,0.00020443205707177834
97,224,2.5282830308997938e-05
97,234,1.6620647281907765e-06
97,246,6.353085890741361e-08
97,287,0.00037370872101168394
97,291,0.0006015117607549328
97,297,0.00017703503787294895
97,305,2.241056616533163e-05
97,315,1.5348513709492934e-06
97,327,6.298012580254925e-08
98,98,0.00047714912935103824
98,104,0.00015315474147698877
98,112,1.8991871836748837e-05
98,122,1.1168423142292099e-06
98,134,3.0605165843056926e-08
98,143,0.00020815748908073218
98,147,0.00039224814475390595
98,153,0.00012936634651623542
98,161,1.69406162235663e-05
98,171,1.1116516354583493e-06
98,183,3.905422606873388e-08
98,207,0.00017298529457594617
98,211,0.0003296659696501749
98,217,0.00011068689790888291
98,225,1.5000065248511892e-05
98,235,1.0487343956710087e-06
98,247,4.175263910046398e-08
98,288,0.00014680792974553297
98,292,0.0002820321466247163
98,298,9.587941833256173e-05
98,306,1.3298259506372798e-05
98,316,9.6857844932539e-07
98,328,4.139444071880114e-08
99,99,0.00010943146611573575
99,105,4.2982243451188235e-05
99,113,5.9460709946259634e-06
99,123,3.759287134170873e-07
99,135,1.12659504062293e-08
99,148,9.008983781038079e-05
99,154,3.633437142270556e-05
99,162,5.306523013833179e-06
99,172,3.743153938768063e-07
99,184,1.4410429654549184e-08
99,212,7.579138504956791e-05
99,218,3.110458781985281e-05
99,226,4.700283824586541e-06
99,236,3.532170592315984e-07
99,248,1.5327294076813613e-08
99,293,6.488630378368628e-05
99,299,2.695377106371208e-05
99,307,4.168052356338201e-06
99,317,3.262775691455158e-07
99,329,1.519904049302562e-08
100,100,5.156942701382024e-06
100,108,1.1743451576896095e-06
100,118,1.0438464452953456e-07
100,149,4.3568387073390955e-06
100,157,1.0475027279016305e-06
100,167,1.0388778679504559e-07
100,213,3.7282674269322256e-06
100,221,9.275131155207731e-07
100,231,9.80437333641491e-08
100,294,3.2298476905115308e-06
100,302,8.222817146061384e-07
100,312,9.054609846822175e-08
101,101,2.5085282492276825e-05
101,109,4.627153835299736e-06
101,119,3.7093393506264786e-07
101,131,1.3161604774057216e-08
101,144,3.528744919025758e-05
101,150,2.1171306640545757e-05
101,158,4.124659327292366e-06
101,168,3.689984035795134e-07
101,180,1.6825491149799505e-08
101,208,2.9630419694025585e-05
101,214,1.810396290553797e-05
101,222,3.6505261575187593e-06
101,232,3.479770522312786e-07
101,244,1.7825365343302414e-08
101,289,2.533253922621341e-05
101,295,1.5675622812090615e-05
101,303,3.2353258971761964e-06
101,313,3.212904358071926e-07
101,325,1.7671122059619356e-08
102,102,6.825715567296795e-05
102,110,1.0983420394949632e-05
102,120,8.102733904145226e-07
102,132,2.6970113691244125e-08
102,141,3.17789236018831e-05
102,145,0.00012555730237392046
102,151,5.7561995697880605e-05
102,159,9.785673634115806e-06
102,169,8.057520444148028e-07
102,181,3.4774238889117985e-08
102,205,2.6156732187896198e-05
102,209,0.00010532535375914864
102,215,4.9195793240437866e-05
102,223,8.657742260205084e-06
102,233,7.596596639891945e-07
102,245,3.6954931972161005e-08
102,286,2.2044201232432537e-05
102,290,8.99845619314461e-05
102,296,4.2580558354071795e-05
102,304,7.671079761420779e-06
102,314,7.012754427813736e-07
102,326,3.662393691741455e-08
103,103,0.0001084385597821629
103,111,1.596063201286392e-05
103,121,1.1137507456236157e-06
103,133,3.638074081894245e-08
103,142,6.540457880943072e-05
103,146,0.00023186844114371277
103,152,9.139977733579169e-05
103,160,1.4215639964149059e-05
103,170,1.1073026905062049e-06
103,182,4.646866306443617e-08
103,206,5.342348591772614e-05
103,210,0.00019436374930804646
103,216,7.808755962777947e-05
103,224,1.2574414744758573e-05
103,234,1.043809900021859e-06
103,246,4.931668840148977e-08
103,287,4.477152772541794e-05
103,291,0.0001659672802228647
103,297,6.756998333213341e-05
103,305,1.1139672954446333e-05
103,315,9.634783865478013e-07
103,327,4.886967223036883e-08
104,104,6.825715567296796e-05
104,112,1.0983420394949629e-05
104,122,8.102733904145226e-07
104,134,2.6970113691244135e-08
104,143,3.17789236018831e-05
104,147,0.0001255573023739205
104,153,5.7561995697880605e-05
104,161,9.785673634115806e-06
104,171,8.057520444148025e-07
104,183,3.4774238889117985e-08
104,207,2.6156732187896198e-05
104,211,0.00010532535375914867
104,217,4.9195793240437866e-05
104,225,8.657742260205082e-06
104,235,7.596596639891944e-07
104,247,3.6954931972161005e-08
104,288,2.2044201232432537e-05
104,292,8.998456193144613e-05
104,298,4.25805583540718e-05
104,306,7.671079761420779e-06
104,316,7.012754427813736e-07
104,328,3.662393691741455e-08
105,105,2.5085282492276825e-05
105,113,4.627153835299735e-06
105,123,3.7093393506264797e-07
105,135,1.3161604774057218e-08
105,148,3.528744919025758e-05
105,154,2.117130664054575e-05
105,162,4.124659327292365e-06
105,172,3.689984035795134e-07
105,184,1.6825491149799505e-08
105,212,2.9630419694025585e-05
105,218,1.8103962905537968e-05
105,226,3.6505261575187593e-06
105,236,3.479770522312787e-07
105,248,1.7825365343302423e-08
105,293,2.533253922621341e-05
105,299,1.5675622812090612e-05
105,307,3.235325897176196e-06
105,317,3.212904358071926e-07
105,329,1.767112205961936e-08
106,106,5.156942701382024e-06
106,114,1.1743451576896095e-06
106,124,1.0438464452953456e-07
106,155,4.3568387073390955e-06
106,163,1.0475027279016305e-06
106,173,1.0388778679504559e-07
106,219,3.7282674269322256e-06
106,227,9.275131155207728e-07
106,237,9.80437333641491e-08
106,300,3.2298476905115308e-06
106,308,8.222817146061384e-07
106,318,9.054609846822175e-08
107,107,6.987538569564324e-08
107,156,6.231308732865516e-08
107,220,5.516985796038635e-08
107,301,4.890583469926678e-08
108,108,3.5676495936051677e-07
108,118,3.976086352063718e-08
108,149,9.905503390761974e-07
108,157,3.179714475342764e-07
108,167,3.954520476308576e-08
108,213,8.467109089408016e-07
108,221,2.813482751874263e-07
108,231,3.7199570076851396e-08
108,294,7.329330779850435e-07
108,302,2.493019247797686e-07
108,312,3.434461312277339e-08
109,109,1.0739601178942625e-06
109,119,1.0463903054918266e-07
109,144,4.868315555232277e-06
109,150,3.899359739602228e-06
109,158,9.56383775818779e-07
109,168,1.0401916960334249e-07
109,208,4.080206833162739e-06
109,214,3.330997891684325e-06
109,222,8.460513665637638e-07
109,232,9.807146742639429e-08
109,289,3.48368527829676e-06
109,295,2.8820938424497108e-06
109,303,7.494552383356649e-07
109,313,9.051871817416329e-08
110,110,2.18640591924806e-06
110,120,1.9451002571464638e-07
110,141,1.5506784359736869e-06
110,145,1.5527972856504037e-05
110,151,9.24915746311914e-06
110,159,1.9460628454968857e-06
110,169,1.9329170765938323e-07
110,205,1.2424769562110948e-06
110,209,1.3001791717284691e-05
110,215,7.89705408440648e-06
110,223,1.7206305587420853e-06
110,233,1.8214865867700863e-07
110,286,1.0262594512160893e-06
110,290,1.1093328172327599e-05
110,296,6.830329384615937e-06
110,304,1.5242946250240469e-06
110,314,1.6809271593197632e-07
111,111,2.9196331335782696e-06
111,121,2.4727163589070794e-07
111,142,2.1365328084851405e-06
111,146,2.616167604512754e-05
111,152,1.3434417280278961e-05
111,160,2.598165132795221e-06
111,170,2.4567866281985603e-07
111,182,1.1287523023771697e-08
111,206,1.6441187091354855e-06
111,210,2.1890312610592705e-05
111,216,1.1466950728388065e-05
111,224,2.296774285552181e-06
111,234,2.3148702458096666e-07
111,246,1.1993041880187676e-08
111,287,1.3152095073007215e-06
111,291,1.8667817248313158e-05
111,297,9.91580386977736e-06
111,305,2.033808436658178e-06
111,315,2.1360490123024822e-07
111,327,1.1883733793508747e-08
112,112,2.186405919248059e-06
112,122,1.945100257146463e-07
112,143,1.5506784359736869e-06
112,147,1.5527972856504037e-05
112,153,9.249157463119138e-06
112,161,1.946062845496885e-06
112,171,1.9329170765938315e-07
112,207,1.2424769562110944e-06
112,211,1.3001791717284691e-05
112,217,7.89705408440648e-06
112,225,1.7206305587420847e-06
112,235,1.8214865867700858e-07
112,288,1.0262594512160895e-06
112,292,1.1093328172327599e-05
112,298,6.830329384615937e-06
112,306,1.5242946250240463e-06
112,316,1.6809271593197626e-07
113,113,1.0739601178942627e-06
113,123,1.0463903054918266e-07
113,148,4.868315555232278e-06
113,154,3.899359739602228e-06
113,162,9.563837758187793e-07
113,172,1.0401916960334251e-07
113,212,4.08020683316274e-06
113,218,3.330997891684325e-06
113,226,8.460513665637638e-07
113,236,9.807146742639433e-08
113,293,3.4836852782967605e-06
113,299,2.8820938424497108e-06
113,307,7.494552383356649e-07
113,317,9.051871817416332e-08
114,114,3.5676495936051677e-07
114,124,3.976086352063718e-08
114,155,9.905503390761974e-07
114,163,3.179714475342764e-07
114,173,3.954520476308576e-08
114,219,8.467109089408016e-07
114,227,2.8134827518742627e-07
114,237,3.7199570076851396e-08
114,300,7.329330779850435e-07
114,308,2.493019247797686e-07
114,318,3.434461312277339e-08
115,115,6.987538569564324e-08
115,164,6.231308732865516e-08
115,228,5.516985796038635e-08
115,309,4.890583469926678e-08
118,149,8.794917591274357e-08
118,157,3.5312634147109965e-08
118,213,7.525089065141514e-08
118,221,3.122774079819212e-08
118,294,6.509000771298844e-08
118,302,2.7776890882775828e-08
119,119,1.1577556206490648e-08
119,144,3.069191928565253e-07
119,150,3.121280214483254e-07
119,158,9.311889246281514e-08
119,168,1.1509395599372487e-08
119,208,2.5669638483482347e-07
119,214,2.6652528435069164e-07
119,222,8.240947067925118e-08
119,232,1.0846805948133028e-08
119,289,2.1886076840233787e-07
119,295,2.3043775567163228e-07
119,303,7.29674424050122e-08
119,313,1.0010394111898828e-08
120,120,1.9162537719381716e-08
120,145,9.105791628055212e-07
120,151,6.813601815060494e-07
120,159,1.7297404184124796e-07
120,169,1.9038666876367004e-08
120,209,7.609614195645572e-07
120,215,5.81185345647527e-07
120,223,1.5283990219593974e-07
120,233,1.7938570714737255e-08
120,290,6.48357032681432e-07
120,296,5.023261877010891e-07
120,304,1.3529702992412583e-07
120,314,1.6552633562641455e-08
121,121,2.4077493105855146e-08
121,146,1.4423122553962505e-06
121,152,9.361787936492963e-07
121,160,2.198431443413513e-07
121,170,2.3915402252152036e-08
121,210,1.2045262185949713e-06
121,216,7.983245491092178e-07
121,224,1.9432375935174225e-07
121,234,2.2527577200781367e-08
121,291,1.0257960494975757e-06
121,297,6.899974944499677e-07
121,305,1.720010227136888e-07
121,315,2.0782470134000842e-08
122,122,1.916253771938171e-08
122,147,9.10579162805521e-07
122,153,6.813601815060494e-07
122,161,1.7297404184124789e-07
122,171,1.9038666876367004e-08
122,211,7.609614195645571e-07
122,217,5.81185345647527e-07
122,225,1.5283990219593968e-07
122,235,1.793857071473725e-08
122,292,6.48357032681432e-07
122,298,5.023261877010891e-07
122,306,1.3529702992412578e-07
122,316,1.655263356264145e-08
123,123,1.157755620649065e-08
123,148,3.069191928565253e-07
123,154,3.121280214483254e-07
123,162,9.311889246281516e-08
123,172,1.1509395599372489e-08
123,212,2.566963848348236e-07
123,218,2.6652528435069164e-07
123,226,8.24094706792512e-08
123,236,1.084680594813303e-08
123,293,2.18860768402338e-07
123,299,2.304377556716322e-07
123,307,7.29674424050122e-08
123,317,1.0010394111898828e-08
124,155,8.794917591274354e-08
124,163,3.5312634147109965e-08
124,219,7.525089065141512e-08
124,227,3.122774079819212e-08
124,300,6.509000771298844e-08
124,308,2.7776890882775828e-08
131,150,1.1028852002119693e-08
132,145,2.488072148028035e-08
132,151,2.2655327696690315e-08
132,209,2.0765065761357797e-08
132,215,1.93105092038926e-08
132,290,1.766671169605794e-08
132,296,1.669757581921312e-08
133,146,3.791235702244568e-08
133,152,3.049797367803737e-08
133,210,3.159456150407586e-08
133,216,2.5980325124848348e-08
133,291,2.6867849281878778e-08
133,297,2.2319554226248394e-08
134,147,2.488072148028035e-08
134,153,2.2655327696690318e-08
134,211,2.0765065761357806e-08
134,217,1.931050920389261e-08
134,292,1.7666711696057946e-08
134,298,1.669757581921312e-08
135,154,1.1028852002119696e-08
140,140,0.00033908809267229847
140,204,0.000283757632428673
140,285,0.00024202048753210143
141,141,0.0002585024966801925
141,145,0.0001718934104065338
141,151,2.6967158753086392e-05
141,159,1.3935865542812624e-06
141,205,0.00021616292806069282
141,209,0.00014491595352310896
141,215,2.3146324371212404e-05
141,223,1.2402480294512918e-06
141,286,0.00018427209684024353
141,290,0.00012425152292685676
141,296,2.0095139404702378e-05
141,304,1.103534253544781e-06
142,142,0.0008324590355827395
142,146,0.0004400660895844694
142,152,5.556274890995769e-05
142,160,1.9315847453473478e-06
142,206,0.0006954369062205628
142,210,0.00037101774051998205
142,216,4.77260608632651e-05
142,224,1.7262304538474172e-06
142,287,0.0005924242946812718
142,291,0.00031812181969038174
142,297,4.145656450713398e-05
142,305,1.5403868393631998e-06
143,143,0.0002585024966801925
143,147,0.0001718934104065338
143,153,2.696715875308639e-05
143,161,1.3935865542812618e-06
143,207,0.00021616292806069282
143,211,0.00014491595352310896
143,217,2.3146324371212404e-05
143,225,1.2402480294512916e-06
143,288,0.00018427209684024353
143,292,0.00012425152292685676
143,298,2.0095139404702378e-05
143,306,1.1035342535447808e-06
144,144,7.41684331752973e-05
144,150,2.983030019115689e-05
144,158,4.344780869650585e-06
144,168,3.056081227003967e-07
144,180,1.174311971869226e-08
144,208,6.239788037689724e-05
144,214,2.553703259209719e-05
144,222,3.848467126182838e-06
144,232,2.883894573043028e-07
144,244,1.2490398986983772e-08
144,289,5.3420273376499396e-05
144,295,2.2129408753589344e-05
144,303,3.412723589762261e-06
144,313,2.6634176082169736e-07
144,325,1.2385970426025952e-08
145,145,0.000322463326595353
145,151,0.00010605798053331321
145,159,1.38511735269812e-05
145,169,9.063676355606322e-07
145,181,3.181303571575571e-08
145,205,0.0001428553684732011
145,209,0.00027102056301815637
145,215,9.074561507280985e-05
145,223,1.2264711112697837e-05
145,233,8.550834092235249e-07
145,245,3.382824526384391e-08
145,286,0.00012124153558685789
145,290,0.00023186380569941665
145,296,7.860675783870599e-05
145,304,1.0873361894436804e-05
145,314,7.897371820486298e-07
145,326,3.3538882918767415e-08
146,146,0.0006878778680114763
146,152,0.00019575051166912638
146,160,2.3328494698042636e-05
146,170,1.4353018211162665e-06
146,182,4.844694001970409e-08
146,206,0.00036454413358138734
146,210,0.0005777231371847838
146,216,0.00016742495044374877
146,224,2.065161549446174e-05
146,234,1.3538679045111303e-06
146,246,5.1508851394111894e-08
146,287,0.0003086666321923708
146,291,0.0004939986509319262
146,297,0.00014498943829450604
146,305,1.8305707539543656e-05
146,315,1.2502589276331481e-06
146,327,5.10632997887242e-08
147,147,0.00032246332659535313
147,153,0.00010605798053331323
147,161,1.38511735269812e-05
147,171,9.063676355606319e-07
147,183,3.181303571575571e-08
147,207,0.00014285536847320112
147,211,0.0002710205630181564
147,217,9.074561507280986e-05
147,225,1.2264711112697837e-05
147,235,8.550834092235251e-07
147,247,3.382824526384392e-08
147,288,0.00012124153558685789
147,292,0.00023186380569941665
147,298,7.860675783870599e-05
147,306,1.08733618944368e-05
147,316,7.897371820486298e-07
147,328,3.353888291876742e-08
148,148,7.416843317529732e-05
148,154,2.983030019115689e-05
148,162,4.344780869650586e-06
148,172,3.056081227003967e-07
148,184,1.1743119718692265e-08
148,212,6.239788037689726e-05
148,218,2.553703259209719e-05
148,226,3.848467126182839e-06
148,236,2.883894573043028e-07
148,248,1.2490398986983772e-08
148,293,5.3420273376499396e-05
148,299,2.2129408753589344e-05
148,307,3.4127235897622618e-06
148,317,2.6634176082169747e-07
148,329,1.2385970426025954e-08
149,149,3.6809172655691363e-06
149,157,8.83575420174848e-07
149,167,8.753338789479828e-08
149,213,3.1499083021681157e-06
149,221,7.823651801925455e-07
149,231,8.25746356226744e-08
149,294,2.7287945824004057e-06
149,302,6.936868231481005e-07
149,312,7.641457103161309e-08
150,150,1.7868275824327722e-05
150,158,3.475957607445889e-06
150,168,3.1050324871298084e-07
150,180,1.4099010089151145e-08
150,208,2.504846876108752e-05
150,214,1.527965726826739e-05
150,222,3.0764332216947635e-06
150,232,2.929972880935831e-07
150,244,1.4990132716023665e-08
150,289,2.1415411054037895e-05
150,295,1.3230250152092737e-05
150,303,2.7265371488991866e-06
150,313,2.705289224161639e-07
150,325,1.4860501171625569e-08
151,151,4.854350268700381e-05
151,159,8.240637708099198e-06
151,169,6.77567412178816e-07
151,181,2.9200669976019334e-08
151,205,2.219825768827894e-05
151,209,8.896961626807274e-05
151,215,4.1488570347041066e-05
151,223,7.290883581367591e-06
151,233,6.388136995726598e-07
151,245,3.1033044150145614e-08
151,286,1.8709351572917958e-05
151,290,7.601194700714076e-05
151,296,3.591001165680049e-05
151,304,6.460039571842096e-06
151,314,5.897211304742859e-07
151,326,3.0755289877897315e-08
152,152,7.703975354031084e-05
152,160,1.1965811247148501e-05
152,170,9.307721875064998e-07
152,182,3.8955005315463484e-08
152,206,4.539233869198719e-05
152,210,0.00016409103901964805
152,216,6.581990096892074e-05
152,224,1.05844415754136e-05
152,234,8.774099818853022e-07
152,246,4.1393211604397206e-08
152,287,3.8045876104132633e-05
152,291,0.00014011933519766256
152,297,5.6955201476960454e-05
152,305,9.376829742987361e-06
152,315,8.098979394565503e-07
152,327,4.1018288694678325e-08
153,153,4.8543502687003825e-05
153,161,8.240637708099195e-06
153,171,6.775674121788159e-07
153,183,2.9200669976019334e-08
153,207,2.219825768827894e-05
153,211,8.896961626807274e-05
153,217,4.1488570347041066e-05
153,225,7.290883581367591e-06
153,235,6.388136995726596e-07
153,247,3.1033044150145614e-08
153,288,1.8709351572917958e-05
153,292,7.601194700714076e-05
153,298,3.591001165680049e-05
153,306,6.4600395718420935e-06
153,316,5.897211304742859e-07
153,328,3.0755289877897315e-08
154,154,1.7868275824327715e-05
154,162,3.475957607445889e-06
154,172,3.1050324871298084e-07
154,184,1.409901008915115e-08
154,212,2.504846876108752e-05
154,218,1.5279657268267387e-05
154,226,3.0764332216947635e-06
154,236,2.929972880935831e-07
154,248,1.4990132716023665e-08
154,293,2.141541105403789e-05
154,299,1.3230250152092737e-05
154,307,2.7265371488991858e-06
154,317,2.705289224161639e-07
154,329,1.486050117162557e-08
155,155,3.6809172655691363e-06
155,163,8.83575420174848e-07
155,173,8.753338789479828e-08
155,219,3.1499083021681157e-06
155,227,7.823651801925455e-07
155,237,8.25746356226744e-08
155,300,2.7287945824004057e-06
155,308,6.936868231481005e-07
155,318,7.641457103161309e-08
156,156,5.557455150914416e-08
156,220,4.920197047260411e-08
156,301,4.3862955086456503e-08
157,157,2.833385948212959e-07
157,167,3.51243237187552e-08
157,213,7.552717347968335e-07
157,221,2.5070609190400545e-07
157,231,3.3120709754453324e-08
157,294,6.539347700293306e-07
157,302,2.2215107592361825e-07
157,312,3.057891823222269e-08
158,158,8.518717831939087e-07
158,168,9.256816088323991e-08
158,208,3.6414741572702064e-06
158,214,2.9693486043590787e-06
158,222,7.534401786473234e-07
158,232,8.725274552805325e-08
158,289,3.1082169906752883e-06
158,295,2.569190280926881e-06
158,303,6.674214192599912e-07
158,313,8.063877793872074e-08
159,159,1.7327446401599267e-06
159,169,1.718924625501699e-07
159,205,1.116971022738175e-06
159,209,1.1597966542080944e-05
159,215,7.036054042601994e-06
159,223,1.5320321758051478e-06
159,233,1.61984249969182e-07
159,286,9.228389042360424e-07
159,290,9.895675035575386e-06
159,296,6.085677355057852e-06
159,304,1.3563911398929754e-06
159,314,1.494851310475225e-07
160,160,2.3120446385505257e-06
160,170,2.1842930321220363e-07
160,182,1.0031876214806752e-08
160,206,1.4883743224656196e-06
160,210,1.9520038724562995e-05
160,216,1.0213534207864798e-05
160,224,2.0438621829710715e-06
160,234,2.0592217473920243e-07
160,246,1.065901471424634e-08
160,287,1.1918188690285195e-06
160,291,1.664668411819546e-05
160,297,8.832008085681272e-06
160,305,1.809864540676152e-06
160,315,1.9001693225106508e-07
160,327,1.0561938231624394e-08
161,161,1.7327446401599263e-06
161,171,1.7189246255016979e-07
161,207,1.1169710227381748e-06
161,211,1.1597966542080944e-05
161,217,7.0360540426019925e-06
161,225,1.5320321758051472e-06
161,235,1.6198424996918196e-07
161,288,9.228389042360424e-07
161,292,9.895675035575385e-06
161,298,6.085677355057852e-06
161,306,1.3563911398929747e-06
161,316,1.494851310475225e-07
162,162,8.518717831939087e-07
162,172,9.256816088323994e-08
162,212,3.6414741572702064e-06
162,218,2.9693486043590782e-06
162,226,7.534401786473237e-07
162,236,8.725274552805328e-08
162,293,3.1082169906752883e-06
162,299,2.569190280926881e-06
162,307,6.674214192599913e-07
162,317,8.063877793872075e-08
163,163,2.833385948212959e-07
163,173,3.51243237187552e-08
163,219,7.552717347968335e-07
163,227,2.5070609190400545e-07
163,237,3.3120709754453324e-08
163,300,6.539347700293306e-07
163,308,2.2215107592361825e-07
163,318,3.057891823222269e-08
164,164,5.557455150914416e-08
164,228,4.920197047260412e-08
164,309,4.3862955086456503e-08
167,213,7.48955294138859e-08
167,221,3.1061391360399554e-08
167,294,6.478297337761842e-08
167,302,2.7633623368387126e-08
168,168,1.1438811106722722e-08
168,208,2.556043144048991e-07
168,214,2.6514047027410697e-07
168,222,8.192469993017403e-08
168,232,1.0780359259418757e-08
168,289,2.1793182181578459e-07
168,295,2.29241859010847e-07
168,303,7.253856635070457e-08
169,169,1.8915700336130668e-08
169,209,7.574537250330088e-07
169,215,5.779556112650035e-07
169,223,1.5188533888670857e-07
169,233,1.7822854993111273e-08
169,290,6.45375647540396e-07
169,296,4.995377725664143e-07
169,304,1.3445274073902992e-07
169,314,1.644595397275973e-08
170,170,2.3751814499437274e-08
170,210,1.1986921016113025e-06
170,216,7.937219377406854e-07
170,224,1.9307754973723186e-07
170,234,2.2373651467438077e-08
170,291,1.0208401982702767e-06
170,297,6.860227313731169e-07
170,305,1.7089890107543936e-07
170,315,2.064075277389866e-08
171,171,1.891570033613066e-08
171,211,7.574537250330088e-07
171,217,5.779556112650035e-07
171,225,1.5188533888670852e-07
171,235,1.782285499311127e-08
171,292,6.45375647540396e-07
171,298,4.995377725664143e-07
171,306,1.344527407390299e-07
171,316,1.6445953972759724e-08
172,172,1.1438811106722725e-08
172,212,2.5560431440489913e-07
172,218,2.6514047027410697e-07
172,226,8.192469993017406e-08
172,236,1.0780359259418762e-08
172,293,2.1793182181578467e-07
172,299,2.29241859010847e-07
172,307,7.253856635070457e-08
173,219,7.48955294138859e-08
173,227,3.1061391360399554e-08
173,300,6.478297337761842e-08
173,308,2.763362336838712e-08
180,214,1.2026500694627079e-08
180,295,1.0394881519067357e-08
181,209,2.6532983131440523e-08
181,215,2.467464523679511e-08
181,290,2.258266354622826e-08
181,296,2.1315696929922803e-08
182,210,4.0403339243533354e-08
182,216,3.3184931320850274e-08
182,291,3.4352938455683056e-08
182,297,2.8655649174379407e-08
183,211,2.6532983131440533e-08
183,217,2.4674645236795125e-08
183,292,2.258266354622826e-08
183,298,2.1315696929922807e-08
184,218,1.202650069462708e-08
184,299,1.0394881519067359e-08
204,204,0.00023746024049022137
204,285,0.0002025357199758178
205,205,0.0001807625016733743
205,209,0.00012043905249607996
205,215,1.905428175748103e-05
205,223,9.943025701254451e-07
205,286,0.00015409704812173282
205,290,0.00010326726929263844
205,296,1.6540588693824504e-05
205,304,8.848471442222328e-07
206,206,0.0005809940172906476
206,210,0.00030736169356725547
206,216,3.899467513672067e-05
206,224,1.3311314404734507e-06
206,287,0.0004949489521346976
206,291,0.00026355108888963106
206,297,3.387514367766554e-05
206,305,1.188514753036156e-06
207,207,0.0001807625016733743
207,211,0.00012043905249607996
207,217,1.9054281757481036e-05
207,225,9.943025701254451e-07
207,288,0.00015409704812173282
207,292,0.0001032672692926385
207,298,1.6540588693824504e-05
207,306,8.848471442222325e-07
208,208,5.2495664789490693e-05
208,214,2.1443620613554143e-05
208,222,3.2255352642905233e-06
208,232,2.4120298563499603e-07
208,244,1.0434448728281538e-08
208,289,4.4943440933382586e-05
208,295,1.8582339210154803e-05
208,303,2.8603419343528115e-06
208,313,2.2281077604550463e-07
208,325,1.034725928904193e-08
209,209,0.00022778762256913228
209,215,7.612526995692438e-05
209,223,1.0269689079283997e-05
209,233,7.146021082626162e-07
209,245,2.821404429650212e-08
209,286,0.00010221911573271029
209,290,0.00019487902968908348
209,296,6.594268762398159e-05
209,304,9.104732144592697e-06
209,314,6.599966414715851e-07
209,326,2.797293097596882e-08
210,210,0.00048521633680440783
210,216,0.0001403485305672255
210,224,1.7280377527714945e-05
210,234,1.1306958598558139e-06
210,246,4.293039923482256e-08
210,287,0.00026025904711253294
210,291,0.0004149030174689726
210,297,0.00012154249569968807
210,305,1.5317560255284415e-05
210,315,1.0441745925611668e-06
210,327,4.255941519875384e-08
211,211,0.0002277876225691324
211,217,7.612526995692438e-05
211,225,1.0269689079283996e-05
211,235,7.146021082626162e-07
211,247,2.8214044296502124e-08
211,288,0.00010221911573271029
211,292,0.00019487902968908348
211,298,6.59426876239816e-05
211,306,9.104732144592697e-06
211,316,6.59996641471585e-07
211,328,2.7972930975968825e-08
212,212,5.2495664789490714e-05
212,218,2.1443620613554143e-05
212,226,3.2255352642905233e-06
212,236,2.412029856349961e-07
212,248,1.0434448728281542e-08
212,293,4.4943440933382586e-05
212,299,1.8582339210154803e-05
212,307,2.860341934352812e-06
212,317,2.2281077604550463e-07
212,329,1.0347259289041935e-08
213,213,2.6954891861905606e-06
213,221,6.689150284828981e-07
213,231,7.06529613810188e-08
213,294,2.3351503002717458e-06
213,302,5.930297137685501e-07
213,312,6.52504787641089e-08
214,214,1.3066152746664992e-05
214,222,2.628060798815509e-06
214,232,2.500395879080164e-07
214,244,1.2786695789373587e-08
214,289,1.8333536212609076e-05
214,295,1.1313694045365877e-05
214,303,2.3291706849403455e-06
214,313,2.3086638884049322e-07
214,325,1.267616486960886e-08
215,215,3.545923544365264e-05
215,223,6.22517511448253e-06
215,233,5.449027320921267e-07
215,245,2.6225872154655052e-08
215,286,1.6060241670345047e-05
215,290,6.503880530305818e-05
215,296,3.069156692854503e-05
215,304,5.515802953532367e-06
215,314,5.030294937471403e-07
215,326,2.5993176371198193e-08
216,216,5.6234598936392795e-05
216,224,9.034521034608903e-06
216,234,7.481715980720592e-07
216,246,3.526221280990935e-08
216,287,3.26864642275145e-05
216,291,0.00011984645010375355
216,297,4.866117441566972e-05
216,305,8.003787749003285e-06
216,315,6.907803071978717e-07
216,327,3.4942982202073135e-08
217,217,3.545923544365264e-05
217,225,6.22517511448253e-06
217,235,5.449027320921267e-07
217,247,2.6225872154655062e-08
217,288,1.6060241670345047e-05
217,292,6.503880530305819e-05
217,298,3.069156692854503e-05
217,306,5.515802953532367e-06
217,316,5.030294937471404e-07
217,328,2.5993176371198206e-08
218,218,1.306615274666499e-05
218,226,2.628060798815509e-06
218,236,2.500395879080164e-07
218,248,1.2786695789373587e-08
218,293,1.8333536212609076e-05
218,299,1.1313694045365875e-05
218,307,2.3291706849403455e-06
218,317,2.3086638884049322e-07
218,329,1.2676164869608863e-08
219,219,2.6954891861905598e-06
219,227,6.689150284828981e-07
219,237,7.06529613810188e-08
219,300,2.3351503002717458e-06
219,308,5.930297137685501e-07
219,318,6.52504787641089e-08
220,220,4.380700968678337e-08
220,301,3.916600001227654e-08
221,221,2.218329774002426e-07
221,231,2.9398207010056918e-08
221,294,5.790357810574157e-07
221,302,1.965655932163201e-07
221,312,2.716355829676041e-08
222,222,6.663856184161567e-07
222,232,7.722214228784206e-08
222,289,2.7531999601912003e-06
222,295,2.273905821386132e-06
222,303,5.90333152701988e-07
222,313,7.127652374647841e-08
223,223,1.3541618118881278e-06
223,233,1.431310995131034e-07
223,286,8.216380812422099e-07
223,290,8.762447074240836e-06
223,296,5.384352255096286e-06
223,304,1.1997012275110785e-06
223,314,1.3208721594137068e-07
224,224,1.8067980963414376e-06
224,234,1.8192805548590662e-07
224,287,1.0666301104758227e-06
224,291,1.4736833886761941e-05
224,297,7.812515556360752e-06
224,305,1.599947458663326e-06
224,315,1.6787674052426146e-07
225,225,1.3541618118881275e-06
225,235,1.4313109951310334e-07
225,288,8.216380812422098e-07
225,292,8.762447074240836e-06
225,298,5.3843522550962845e-06
225,306,1.1997012275110781e-06
225,316,1.3208721594137063e-07
226,226,6.663856184161567e-07
226,236,7.722214228784206e-08
226,293,2.7531999601912003e-06
226,299,2.2739058213861316e-06
226,307,5.90333152701988e-07
226,317,7.127652374647842e-08
227,227,2.218329774002426e-07
227,237,2.9398207010056924e-08
227,300,5.790357810574157e-07
227,308,1.965655932163201e-07
227,318,2.716355829676041e-08
228,228,4.380700968678337e-08
228,309,3.916600001227654e-08
231,294,6.111346824017556e-08
231,302,2.6060440051265552e-08
232,232,1.0159857736380378e-08
232,289,2.0580379106518058e-07
232,295,2.161948821155297e-07
232,303,6.837500960618251e-08
233,233,1.6793242066968997e-08
233,290,6.088589226685236e-07
233,296,4.709717538746762e-07
233,304,1.267037255852453e-07
233,314,1.5495945406253582e-08
234,234,2.1075072169529275e-08
234,291,9.62940806540137e-07
234,297,6.466988111048805e-07
234,305,1.610513639021037e-07
234,315,1.9443728421725917e-08
235,235,1.6793242066968994e-08
235,292,6.088589226685236e-07
235,298,4.7097175387467613e-07
235,306,1.2670372558524524e-07
235,316,1.5495945406253576e-08
236,236,1.015985773638038e-08
236,293,2.0580379106518063e-07
236,299,2.161948821155297e-07
236,307,6.837500960618251e-08
237,300,6.111346824017556e-08
237,308,2.6060440051265552e-08
244,295,1.1051981877291617e-08
245,290,2.4004831902381794e-08
245,296,2.26558574391216e-08
246,291,3.652515580199907e-08
246,297,3.044955053382137e-08
247,292,2.4004831902381794e-08
247,298,2.2655857439121602e-08
248,299,1.1051981877291622e-08
285,285,0.00017274947920396612
286,286,0.00013136683406994278
286,290,8.764649785165192e-05
286,296,1.39442193665075e-05
286,304,7.312831838319364e-07
287,287,0.0004216565910808308
287,291,0.00022316839284763275
287,297,2.8396871164146972e-05
287,305,9.528075387107543e-07
288,288,0.00013136683406994278
288,292,8.764649785165195e-05
288,298,1.39442193665075e-05
288,306,7.312831838319364e-07
289,289,3.847776838853562e-05
289,295,1.588732072645823e-05
289,303,2.4414941709245852e-06
289,313,1.9020549093125143e-07
290,290,0.00016672593630594733
290,296,5.6339489358235144e-05
290,304,7.768509395786707e-06
290,314,5.62337041142227e-07
290,326,2.379982831896534e-08
291,291,0.0003547819178857409
291,297,0.00010378829697262191
291,305,1.3063004889361883e-05
291,315,8.892615914218318e-07
291,327,3.620996842901339e-08
292,292,0.00016672593630594735
292,298,5.633948935823516e-05
292,306,7.768509395786707e-06
292,316,5.623370411422268e-07
292,328,2.379982831896535e-08
293,293,3.8477768388535624e-05
293,299,1.588732072645823e-05
293,307,2.4414941709245857e-06
293,317,1.9020549093125145e-07
294,294,2.0229892764567634e-06
294,302,5.133475129042604e-07
294,312,5.647080611182539e-08
295,295,9.796315041623115e-06
295,303,2.0153051232894244e-06
295,313,1.9964291026262606e-07
295,325,1.0956474445611276e-08
296,296,2.656504734809227e-05
296,304,4.770799582778695e-06
296,314,4.3478121911017766e-07
296,326,2.2454909366990596e-08
297,297,4.2107900313151906e-05
297,305,6.921225643745374e-06
297,315,5.969440381306577e-07
297,327,3.0173988406453814e-08
298,298,2.656504734809227e-05
298,306,4.770799582778694e-06
298,316,4.347812191101776e-07
298,328,2.24549093669906e-08
299,299,9.796315041623112e-06
299,307,2.015305123289424e-06
299,317,1.9964291026262609e-07
299,329,1.0956474445611276e-08
300,300,2.0229892764567634e-06
300,308,5.133475129042604e-07
300,318,5.647080611182539e-08
301,301,3.471928597660159e-08
302,302,1.741781027019576e-07
302,312,2.4062544593341787e-08
303,303,5.229395524592967e-07
303,313,6.311071487648661e-08
304,304,1.0624946590642843e-06
304,314,1.1692766823483769e-07
305,305,1.4167832089016562e-06
305,315,1.486140495943749e-07
306,306,1.062494659064284e-06
306,316,1.1692766823483769e-07
307,307,5.229395524592967e-07
307,317,6.311071487648662e-08
308,308,1.7417810270195758e-07
308,318,2.4062544593341787e-08
309,309,3.471928597660159e-08
314,314,1.4298907100744265e-08
315,315,1.7200773405178273e-08
316,316,1.4298907100744264e-08
