# Basis size = 385
0,0,0.39207340235785576
0,1,0.07666823904976208
0,3,0.07296049509196836
0,5,0.03747682318882849
0,7,0.03931647762998177
0,11,0.004214641908605707
0,14,0.02344644156356619
0,16,0.02537213036025708
0,20,0.0031579165657151177
0,26,0.00012478076131853437
0,30,0.016488860925806918
0,32,0.018092678268418306
0,36,0.0023823680327806486
0,42,0.00011381247352469591
0,50,2.2831667453118424e-06
0,55,0.012426151101815667
0,57,0.01373647161596278
0,61,0.0018603069864014717
0,67,9.618670558929172e-05
0,75,2.3965975817384082e-06
0,85,2.8594054563020698e-08
0,91,0.00980519464201831
0,93,0.01088738344689453
0,97,0.001498540396171968
0,103,8.08248700298153e-05
0,111,2.2170309678363454e-06
0,121,3.348963498938709e-08
0,140,0.007995985443131836
0,142,0.008903987139157927
0,146,0.0012381548651224307
0,152,6.851332226434929e-05
0,160,1.9830876442663243e-06
0,170,3.3410895217100775e-08
0,204,0.006684193410980709
0,206,0.007457826818526999
0,210,0.0010442344438882948
0,216,5.876324950838126e-05
0,224,1.7592784373415561e-06
0,234,3.15697609560878e-08
0,285,0.005696789911925963
0,287,0.006365031545935901
0,291,0.0008955778025074426
0,297,5.0990634583897845e-05
0,305,1.5618135104014357e-06
0,315,2.918735117721258e-08
1,1,0.039839849250166974
1,5,0.02124560022157637
1,14,0.013658810036934388
1,30,0.009722585138418262
1,55,0.007374393903551571
1,91,0.005841369808410872
1,140,0.004775360296647498
1,204,0.003998685739415844
1,285,0.0034121012630797956
2,2,0.05210160194608884
2,6,0.02693411168196323
2,10,0.007281487690767726
2,15,0.017128721165057623
2,19,0.0053943081632356555
2,25,0.00040104493169071804
2,31,0.0121316165780198
2,35,0.004048190601443327
2,41,0.00036413958520650113
2,49,1.2019508574258388e-05
2,56,0.009176670186545886
2,60,0.003152067972857315
2,66,0.00030698960972391407
2,74,1.2589657937342775e-05
2,84,2.2830324468422801e-07
2,92,0.007257121480996843
2,96,0.002534724167650663
2,102,0.0002575778972976614
2,110,1.1630840762250968e-05
2,120,2.6704224737169366e-07
2,141,0.005926470659957675
2,145,0.0020919492577136495
2,151,0.00021813223662147532
2,159,1.039453641233662e-05
2,169,2.662025074730519e-07
2,205,0.0049589799431620065
2,209,0.0017629535918870982
2,215,0.0001869663672497612
2,223,9.215944672870894e-06
2,233,2.5139225704758103e-07
2,286,0.004229332480914488
2,290,0.0015111505722175923
2,296,0.00016215961145397907
2,304,8.178053381148006e-06
2,314,2.323519259018164e-07
3,3,0.085552735242837
3,7,0.042856559894520446
3,11,0.011555579703850533
3,16,0.026948034289576456
3,20,0.008523359459240078
3,26,0.0006237525082725031
3,32,0.018985572324214262
3,36,0.006383446862818955
3,42,0.0005657131766003115
3,50,1.8433992852380342e-05
3,57,0.01431976976876568
3,61,0.0049649017639000715
3,67,0.0004766342312684251
3,75,1.9299377184783365e-05
3,85,3.4647115611688855e-07
3,93,0.011304646031519004
3,97,0.003989850122040412
3,103,0.0003997690593217884
3,111,1.782527432232781e-05
3,121,4.0520144636961114e-07
3,142,0.00922137438314135
3,146,0.0032914647374408038
3,152,0.0003384666894186842
3,160,1.592804829720815e-05
3,170,4.0388289905357623e-07
3,206,0.007709983188999787
3,210,0.0027730016420201902
3,216,0.00029006004573821933
3,224,1.41205269001753e-05
3,234,3.8138973162719823e-07
3,287,0.006571895634718792
3,291,0.002376428886107718
3,297,0.0002515450936427289
3,305,1.2529328276352831e-05
3,315,3.5247152913707515e-07
4,4,0.05210160194608884
4,8,0.02693411168196323
4,12,0.007281487690767726
4,17,0.017128721165057623
4,21,0.0053943081632356555
4,27,0.00040104493169071804
4,33,0.0121316165780198
4,37,0.004048190601443327
4,43,0.0003641395852065012
4,51,1.2019508574258385e-05
4,58,0.009176670186545886
4,62,0.0031520679728573157
4,68,0.0003069896097239142
4,76,1.2589657937342773e-05
4,86,2.2830324468422788e-07
4,94,0.007257121480996843
4,98,0.0025347241676506632
4,104,0.00025757789729766146
4,112,1.163084076225097e-05
4,122,2.6704224737169345e-07
4,143,0.005926470659957675
4,147,0.00209194925771365
4,153,0.00021813223662147532
4,161,1.039453641233662e-05
4,171,2.662025074730516e-07
4,207,0.0049589799431620065
4,211,0.0017629535918870986
4,217,0.0001869663672497612
4,225,9.215944672870893e-06
4,235,2.513922570475808e-07
4,288,0.004229332480914488
4,292,0.0015111505722175923
4,298,0.00016215961145397913
4,306,8.178053381148006e-06
4,316,2.3235192590181635e-07
5,5,0.011461438799903585
5,14,0.007397333881743124
5,30,0.005274933022800297
5,55,0.0040047799166528664
5,91,0.0031740783135538503
5,140,0.00259580089754673
5,204,0.0021741705848126215
5,285,0.0018555713017125732
6,6,0.014144154037620224
6,10,0.003372097693866485
6,15,0.00904342656158041
6,19,0.002513335698719383
6,25,0.00016239529720712915
6,31,0.006420924897018754
6,35,0.0018914040484216787
6,41,0.0001479475514075038
6,49,4.11521836727602e-06
6,56,0.004863436618126861
6,60,0.0014749340549965212
6,66,0.00012495477456557865
6,74,4.31998004696781e-06
6,84,6.280000102969548e-08
6,92,0.003849204147113086
6,96,0.0011871371770119453
6,102,0.00010495724761753184
6,110,3.996460119409871e-06
6,120,7.358837989632988e-08
6,141,0.003145056768002857
6,145,0.0009803386798320007
6,151,8.894699897134755e-05
6,159,3.5748352151635845e-06
6,169,7.344312052201758e-08
6,205,0.0026325665302609157
6,209,0.0008264952839679447
6,215,7.627559645924184e-05
6,223,3.1714324719247863e-06
6,233,6.941388888519851e-08
6,286,0.002245791370790311
6,290,0.0007086503004038514
6,296,6.617826151708016e-05
6,304,2.8161804524315727e-06
6,314,6.419310610362085e-08
7,7,0.021966637507553073
7,11,0.005196072702345965
7,16,0.013922398522798906
7,20,0.0038611284853382758
7,26,0.00024515893791367146
7,32,0.009844542130059662
7,36,0.0029015876514798537
7,42,0.0002232049842714304
7,50,6.111635835435226e-06
7,57,0.00743989457668561
7,61,0.002260944572780018
7,67,0.00018845024418007473
7,75,6.41481031373352e-06
7,85,9.189420753988599e-08
7,93,0.005880373935679624
7,97,0.001818931299693813
7,103,0.00015825749897755193
7,111,5.933707604661856e-06
7,121,1.0767872115917446e-07
7,142,0.004800418093453211
7,146,0.0015016207778614239
7,152,0.00013409831394439043
7,160,5.307400084522728e-06
7,170,1.0746685945173201e-07
7,206,0.004015750217887365
7,210,0.0012657106581093678
7,216,0.00011498376913408949
7,224,4.70830041662398e-06
7,234,1.0157144644309451e-07
7,287,0.003424272114231865
7,291,0.0010850795032267989
7,297,9.975551375371163e-05
7,305,4.1797583507199535e-06
7,315,9.393191502220175e-08
8,8,0.014144154037620224
8,12,0.003372097693866485
8,17,0.00904342656158041
8,21,0.0025133356987193834
8,27,0.00016239529720712915
8,33,0.006420924897018754
8,37,0.0018914040484216787
8,43,0.0001479475514075038
8,51,4.11521836727602e-06
8,58,0.004863436618126861
8,62,0.0014749340549965212
8,68,0.00012495477456557865
8,76,4.319980046967808e-06
8,86,6.280000102969541e-08
8,94,0.003849204147113086
8,98,0.0011871371770119453
8,104,0.00010495724761753186
8,112,3.996460119409869e-06
8,122,7.358837989632981e-08
8,143,0.003145056768002857
8,147,0.000980338679832001
8,153,8.894699897134756e-05
8,161,3.5748352151635824e-06
8,171,7.344312052201755e-08
8,207,0.0026325665302609157
8,211,0.000826495283967945
8,217,7.627559645924187e-05
8,225,3.171432471924786e-06
8,235,6.941388888519847e-08
8,288,0.002245791370790311
8,292,0.0007086503004038515
8,298,6.617826151708017e-05
8,306,2.8161804524315727e-06
8,316,6.419310610362081e-08
9,9,0.0016225736449046336
9,18,0.0011963617889576574
9,24,0.00015517359599268412
9,34,0.0008958426600045607
9,40,0.00014063754685698097
9,48,6.764148798209769e-06
9,59,0.0006967004065231904
9,65,0.00011844765579499383
9,73,7.078354479758806e-06
9,83,1.7219647586780928e-07
9,95,0.000559844153098497
9,101,9.932315799778617e-05
9,109,6.5358440674359865e-06
9,119,2.0134316322609942e-07
9,144,0.0004618315753030656
9,150,8.408006770494004e-05
9,158,5.839125209009713e-06
9,168,2.0064782157322187e-07
9,208,0.0003890751173282136
9,214,7.204785023744426e-05
9,222,5.175854497610738e-06
9,232,1.894472922926034e-07
9,289,0.00033342657965884545
9,295,6.247660955439528e-05
9,303,4.59218699810588e-06
9,313,1.750485806691535e-07
10,10,0.002940295224128922
10,15,0.0020580142324997403
10,19,0.0021514128677194598
10,25,0.0002817706759227193
10,31,0.0014293683299218278
10,35,0.001605250832729535
10,41,0.0002549429730459507
10,49,1.246223152807327e-05
10,56,0.0010696261858959585
10,60,0.0012459835409771637
10,66,0.0002145200046078641
10,74,1.303394529347786e-05
10,84,3.2109572633905833e-07
10,92,0.0008403661753546793
10,96,0.0010000527759548485
10,102,0.00017978363057386708
10,110,1.2030980913981914e-05
10,120,3.7531560363715797e-07
10,141,0.0006833550596609802
10,145,0.0008243424741342071
10,151,0.0001521376910182682
10,159,1.0746164912170467e-05
10,169,3.739660343044741e-07
10,205,0.000570121661905771
10,209,0.0006941125611462715
10,215,0.0001303338166490188
10,223,9.524070373702473e-06
10,233,3.5305599109128567e-07
10,286,0.0004852135834143129
10,290,0.0005946121308272758
10,296,0.00011299950001549012
10,304,8.449180271312595e-06
10,314,3.2624059553789554e-07
11,11,0.0037484255706890213
11,16,0.0031353179383025493
11,20,0.0027322493544621428
11,26,0.0003470269655204414
11,32,0.002165677833048615
11,36,0.0020350018830517227
11,42,0.0003137229336407409
11,50,1.5197062399007325e-05
11,57,0.001615696192611533
11,61,0.0015780177805792953
11,67,0.0002638597140728314
11,75,1.58900660907802e-05
11,85,3.9020757975029237e-07
11,93,0.001267037546627483
11,97,0.0012658065423133812
11,103,0.00022107365902795253
11,111,1.4665000375950892e-05
11,121,4.560961603340623e-07
11,142,0.001029057748778042
11,146,0.0010430047038839636
11,152,0.00018704452637556809
11,160,1.3097545119839459e-05
11,170,4.544262069716113e-07
11,206,0.0008578223050671466
11,210,0.0008780003864030466
11,216,0.00016021828577252164
11,224,1.160722673121381e-05
11,234,4.2899793019630195e-07
11,287,0.0007296284889908348
11,291,0.0007519987671229213
11,297,0.00013889717655271225
11,305,1.029673205970784e-05
11,315,3.96362766921451e-07
12,12,0.0029402952241289228
12,17,0.0020580142324997408
12,21,0.0021514128677194606
12,27,0.0002817706759227194
12,33,0.0014293683299218278
12,37,0.0016052508327295352
12,43,0.0002549429730459507
12,51,1.2462231528073267e-05
12,58,0.0010696261858959587
12,62,0.0012459835409771639
12,68,0.0002145200046078641
12,76,1.303394529347786e-05
12,86,3.210957263390583e-07
12,94,0.0008403661753546793
12,98,0.0010000527759548487
12,104,0.0001797836305738671
12,112,1.2030980913981914e-05
12,122,3.753156036371578e-07
12,143,0.0006833550596609803
12,147,0.0008243424741342073
12,153,0.0001521376910182682
12,161,1.0746164912170464e-05
12,171,3.739660343044741e-07
12,207,0.0005701216619057711
12,211,0.0006941125611462719
12,217,0.00013033381664901884
12,225,9.524070373702472e-06
12,235,3.530559910912855e-07
12,288,0.0004852135834143131
12,292,0.0005946121308272759
12,298,0.00011299950001549016
12,306,8.449180271312594e-06
12,316,3.2624059553789554e-07
13,13,0.001622573644904634
13,22,0.0011963617889576574
13,28,0.00015517359599268412
13,38,0.0008958426600045607
13,44,0.000140637546856981
13,52,6.76414879820977e-06
13,63,0.0006967004065231904
13,69,0.00011844765579499383
13,77,7.0783544797588064e-06
13,87,1.721964758678093e-07
13,99,0.0005598441530984972
13,105,9.93231579977862e-05
13,113,6.535844067435987e-06
13,123,2.0134316322609942e-07
13,148,0.0004618315753030656
13,154,8.408006770494004e-05
13,162,5.839125209009713e-06
13,172,2.0064782157322195e-07
13,212,0.0003890751173282136
13,218,7.204785023744426e-05
13,226,5.175854497610738e-06
13,236,1.8944729229260347e-07
13,293,0.00033342657965884545
13,299,6.247660955439528e-05
13,307,4.59218699810588e-06
13,317,1.7504858066915347e-07
14,14,0.00478062178276881
14,30,0.003411050947030851
14,55,0.0025905469081527444
14,91,0.002053598403263679
14,140,0.0016796710262812916
14,204,0.0014069683596167188
14,285,0.0012008679965273585
15,15,0.0057927323409092775
15,19,0.0015373723100377934
15,25,9.377160807794327e-05
15,31,0.004116346326881323
15,35,0.001158140390752419
15,41,8.554978040208127e-05
15,49,2.192668826955118e-06
15,56,0.00311927907277726
15,60,0.0009036320686011781
15,66,7.230940424926464e-05
15,74,2.3044279267982064e-06
15,84,2.9194526006991892e-08
15,92,0.002469449528939673
15,96,0.0007275543883911081
15,102,6.076493897796309e-05
15,110,2.1333280821255777e-06
15,120,3.4253179755902125e-08
15,141,0.002018061063359787
15,145,0.0006009453230020952
15,151,5.151107475774937e-05
15,159,1.9091182576829535e-06
15,169,3.4213442256234897e-08
15,205,0.001689419988001809
15,209,0.0005067149766331348
15,215,4.418175982758411e-05
15,223,1.694199473230189e-06
15,233,3.235445484427289e-08
15,286,0.0014413357997537857
15,290,0.0004345116830808181
15,296,3.833855474448004e-05
15,304,1.504398673647215e-06
15,314,2.993278943806173e-08
16,16,0.008847927587245228
16,20,0.0023363674764167344
16,26,0.00013974036203283683
16,32,0.00626416653372984
16,36,0.0017580055882816638
16,42,0.0001274380243920321
16,50,3.202242137545738e-06
16,57,0.004737256120831611
16,61,0.0013708044010768913
16,67,0.00010769132910281017
16,75,3.365565523821483e-06
16,85,4.179848935632789e-08
16,93,0.0037457681149617333
16,97,0.001103272361919741
16,103,9.048607346329186e-05
16,111,3.1157310101895233e-06
16,121,4.9077765881594696e-08
16,142,0.0030586444228483138
16,146,0.0009110534455304432
16,152,7.669938125455368e-05
16,160,2.7883014824233506e-06
16,170,4.902634610184175e-08
16,206,0.002559143825729036
16,210,0.000768065421030007
16,216,6.578221627233796e-05
16,224,2.47443111840439e-06
16,234,4.636604651889084e-08
16,287,0.0021824890968052965
16,291,0.0006585407250329409
16,297,5.707983674058865e-05
16,305,2.1972115151183515e-06
16,315,4.287367509551283e-08
17,17,0.0057927323409092775
17,21,0.0015373723100377934
17,27,9.37716080779433e-05
17,33,0.004116346326881323
17,37,0.0011581403907524193
17,43,8.554978040208129e-05
17,51,2.1926688269551173e-06
17,58,0.00311927907277726
17,62,0.0009036320686011786
17,68,7.230940424926467e-05
17,76,2.304427926798205e-06
17,86,2.9194526006991855e-08
17,94,0.002469449528939673
17,98,0.0007275543883911081
17,104,6.07649389779631e-05
17,112,2.1333280821255777e-06
17,122,3.4253179755902105e-08
17,143,0.002018061063359787
17,147,0.0006009453230020952
17,153,5.151107475774937e-05
17,161,1.909118257682953e-06
17,171,3.4213442256234864e-08
17,207,0.001689419988001809
17,211,0.000506714976633135
17,217,4.418175982758411e-05
17,225,1.694199473230189e-06
17,235,3.235445484427289e-08
17,288,0.0014413357997537857
17,292,0.0004345116830808182
17,298,3.8338554744480046e-05
17,306,1.504398673647214e-06
17,316,2.993278943806173e-08
18,18,0.0008830578234688217
18,24,0.00011211498495258812
18,34,0.0006615681314803631
18,40,0.00010166342174496343
18,48,4.7844836654613696e-06
18,59,0.0005146431793415501
18,65,8.564610421018426e-05
18,73,5.00812483619051e-06
18,83,1.191475848701821e-07
18,95,0.0004136166229223122
18,101,7.182962675412059e-05
18,109,4.625060043918083e-06
18,119,1.3926651680093412e-07
18,144,0.0003412402977059094
18,150,6.0812401150330706e-05
18,158,4.13247986098887e-06
18,168,1.3880130114239186e-07
18,208,0.00028750246561190057
18,214,5.211366406734833e-05
18,222,3.6633334285163774e-06
18,232,1.310633478891501e-07
18,289,0.00024639438584133093
18,295,4.5192938099345055e-05
18,303,3.2504024192663125e-06
18,313,1.211027530609863e-07
19,19,0.0015763307094851485
19,25,0.0002024237611172816
19,31,0.0010689083167953926
19,35,0.0011769007098661273
19,41,0.0001832551867695111
19,49,8.773273224445876e-06
19,56,0.0008003587975399061
19,60,0.0009138137600135373
19,66,0.00015424655622548513
19,74,9.178543128301481e-06
19,84,2.2119681553227713e-07
19,92,0.0006290382603983381
19,96,0.000733597465167293
19,102,0.00012929445008460935
19,110,8.473804647407398e-06
19,120,2.585617008210079e-07
19,141,0.0005116306191241521
19,145,0.0006047845327030502
19,151,0.00010942536906344847
19,159,7.569773825399942e-06
19,169,2.5766290755288477e-07
19,205,0.0004269210318306692
19,209,0.0005092871649534834
19,215,9.375065729043705e-05
19,223,6.709456957072088e-06
19,233,2.4327589984776763e-07
19,286,0.00036338171341931524
19,290,0.0004363099143484957
19,296,8.128669805543056e-05
19,304,5.952580510497975e-06
19,314,2.248117861796719e-07
20,20,0.00199459224366489
20,26,0.0002485946120717188
20,32,0.0016159881823420543
20,36,0.0014866385735474235
20,42,0.00022487428797880095
20,50,1.0674234884444307e-05
20,57,0.001206500153231075
20,61,0.0011532386384990676
20,67,0.00018919527065084022
20,75,1.1164539149729138e-05
20,85,2.682855295380792e-07
20,93,0.0009465730403661732
20,97,0.000925284251749091
20,103,0.00015854805187340236
20,111,1.0305796289843981e-05
20,121,3.1359730444071994e-07
20,142,0.0007690119232135055
20,146,0.0007625342690117713
20,152,0.00013416065065957107
20,160,9.205411624707022e-06
20,170,3.1248792399015774e-07
20,206,0.0006411789673100877
20,210,0.0006419667793147693
20,216,0.00011492930528148277
20,224,8.15865727501433e-06
20,234,2.950463575358463e-07
20,287,0.0005454403845414188
20,291,0.0005498788157558552
20,297,9.964136940504787e-05
20,305,7.237943142311639e-06
20,315,2.726448255195306e-07
21,21,0.0015763307094851492
21,27,0.00020242376111728164
21,33,0.0010689083167953926
21,37,0.0011769007098661275
21,43,0.0001832551867695111
21,51,8.773273224445875e-06
21,58,0.0008003587975399061
21,62,0.0009138137600135376
21,68,0.00015424655622548519
21,76,9.178543128301478e-06
21,86,2.2119681553227707e-07
21,94,0.0006290382603983381
21,98,0.0007335974651672934
21,104,0.00012929445008460935
21,112,8.473804647407398e-06
21,122,2.585617008210078e-07
21,143,0.0005116306191241522
21,147,0.0006047845327030505
21,153,0.0001094253690634485
21,161,7.569773825399943e-06
21,171,2.576629075528847e-07
21,207,0.0004269210318306692
21,211,0.0005092871649534835
21,217,9.375065729043707e-05
21,225,6.709456957072088e-06
21,235,2.4327589984776763e-07
21,288,0.0003633817134193153
21,292,0.0004363099143484959
21,298,8.128669805543059e-05
21,306,5.952580510497975e-06
21,316,2.2481178617967176e-07
22,22,0.0008830578234688218
22,28,0.00011211498495258812
22,38,0.0006615681314803631
22,44,0.00010166342174496343
22,52,4.78448366546137e-06
22,63,0.0005146431793415504
22,69,8.564610421018426e-05
22,77,5.00812483619051e-06
22,87,1.191475848701821e-07
22,99,0.0004136166229223122
22,105,7.18296267541206e-05
22,113,4.625060043918083e-06
22,123,1.3926651680093407e-07
22,148,0.00034124029770590944
22,154,6.0812401150330706e-05
22,162,4.132479860988871e-06
22,172,1.3880130114239188e-07
22,212,0.00028750246561190073
22,218,5.211366406734833e-05
22,226,3.663333428516376e-06
22,236,1.310633478891502e-07
22,293,0.00024639438584133093
22,299,4.5192938099345055e-05
22,307,3.2504024192663125e-06
22,317,1.2110275306098632e-07
23,23,1.839072727539618e-05
23,39,1.6651667600063325e-05
23,47,1.275251118131647e-06
23,64,1.4016891203031173e-05
23,72,1.3338704491651669e-06
23,82,4.4246138441793356e-08
23,100,1.1749992355491043e-05
23,108,1.2312935545076324e-06
23,118,5.171848155216695e-08
23,149,9.944648948844516e-06
23,157,1.099838375624347e-06
23,167,5.1531052410911786e-08
23,213,8.520306152890194e-06
23,221,9.747833579859881e-07
23,231,4.8648782119725696e-08
23,294,7.387663926315103e-06
23,302,8.647823033788695e-07
23,312,4.49503196715876e-08
24,24,3.500763881473914e-05
24,34,8.315682411393432e-05
24,40,3.1611254180946405e-05
24,48,2.4537473594246298e-06
24,59,6.433540592422396e-05
24,65,2.657009141215613e-05
24,73,2.564546130813902e-06
24,83,8.73748214107405e-08
24,95,5.153493743389058e-05
24,101,2.225309767492289e-05
24,109,2.366235214154899e-06
24,119,1.0209470143266635e-07
24,144,4.242553100178973e-05
24,150,1.8823061393004845e-05
24,158,2.112977332116014e-06
24,168,1.0170714815493267e-07
24,208,3.569130079462274e-05
24,214,1.6120668594325037e-05
24,222,1.8723503787210405e-06
24,232,9.600939398683475e-08
24,289,3.055561548102875e-05
24,295,1.39736853812839e-05
24,303,1.6607929637072001e-06
24,313,8.870851378722621e-08
25,25,5.109654716275756e-05
25,31,6.336055581945623e-05
25,35,0.0001497371668985691
25,41,4.606283971286737e-05
25,49,3.49176878637268e-06
25,56,4.6684804935446844e-05
25,60,0.00011567624559163617
25,66,3.8682109252042e-05
25,74,3.647595756471754e-06
25,84,1.2469809482421117e-07
25,92,3.633010329016669e-05
25,96,9.257843634096121e-05
25,102,3.237952999038469e-05
25,110,3.364510722417291e-06
25,120,1.4567960337976673e-07
25,141,2.9357415561249915e-05
25,145,7.617003580525482e-05
25,151,2.7378939199107484e-05
25,159,3.0038000270715266e-06
25,169,1.4510733590066887e-07
25,205,2.438667662038651e-05
25,209,6.405449769705598e-05
25,215,2.344249983257721e-05
25,223,2.6613413496843435e-06
25,233,1.3696241424822877e-07
25,286,2.06899942022561e-05
25,290,5.482075967286051e-05
25,296,2.0316858361420746e-05
25,304,2.3604508110378015e-06
25,314,1.2653908960562008e-07
26,26,5.843174246234301e-05
26,32,9.379917492885852e-05
26,36,0.0001836449233734496
26,42,5.263989463475869e-05
26,50,3.929857836848322e-06
26,57,6.885160347810754e-05
26,61,0.00014176716731897869
26,67,4.4189059319048466e-05
26,75,4.1044125348978515e-06
26,85,1.3973152160441559e-07
26,93,5.34545809195458e-05
26,97,0.00011340935820746826
26,103,3.6981037256701526e-05
26,111,3.7853887415359067e-06
26,121,1.631850431693427e-07
26,142,4.3128179951493896e-05
26,146,9.328205940943979e-05
26,152,3.126528976089398e-05
26,160,3.3792716924862403e-06
26,170,1.625371019643538e-07
26,206,3.578717242620958e-05
26,210,7.842849810775334e-05
26,216,2.6767444011213172e-05
26,224,2.9938453497816167e-06
26,234,1.5345618991250949e-07
26,287,3.033868742381276e-05
26,291,6.711465924380125e-05
26,297,2.3196841986361034e-05
26,305,2.6552438149049297e-06
26,315,1.4177507817261015e-07
27,27,5.109654716275756e-05
27,33,6.336055581945625e-05
27,37,0.00014973716689856912
27,43,4.606283971286737e-05
27,51,3.491768786372679e-06
27,58,4.6684804935446844e-05
27,62,0.0001156762455916362
27,68,3.8682109252042e-05
27,76,3.647595756471754e-06
27,86,1.2469809482421117e-07
27,94,3.6330103290166696e-05
27,98,9.257843634096123e-05
27,104,3.23795299903847e-05
27,112,3.364510722417291e-06
27,122,1.4567960337976678e-07
27,143,2.935741556124992e-05
27,147,7.617003580525482e-05
27,153,2.7378939199107484e-05
27,161,3.0038000270715266e-06
27,171,1.4510733590066887e-07
27,207,2.438667662038651e-05
27,211,6.405449769705599e-05
27,217,2.3442499832577214e-05
27,225,2.6613413496843435e-06
27,235,1.3696241424822877e-07
27,288,2.0689994202256103e-05
27,292,5.482075967286051e-05
27,298,2.0316858361420746e-05
27,306,2.3604508110378006e-06
27,316,1.265390896056201e-07
28,28,3.5007638814739136e-05
28,38,8.315682411393432e-05
28,44,3.1611254180946405e-05
28,52,2.4537473594246298e-06
28,63,6.433540592422398e-05
28,69,2.6570091412156126e-05
28,77,2.5645461308139013e-06
28,87,8.73748214107405e-08
28,99,5.153493743389058e-05
28,105,2.2253097674922887e-05
28,113,2.366235214154899e-06
28,123,1.0209470143266635e-07
28,148,4.242553100178973e-05
28,154,1.8823061393004842e-05
28,162,2.112977332116014e-06
28,172,1.0170714815493267e-07
28,212,3.569130079462274e-05
28,218,1.6120668594325034e-05
28,226,1.8723503787210402e-06
28,236,9.600939398683475e-08
28,293,3.055561548102875e-05
28,299,1.3973685381283899e-05
28,307,1.6607929637071997e-06
28,317,8.870851378722621e-08
29,29,1.839072727539618e-05
29,45,1.6651667600063325e-05
29,53,1.275251118131647e-06
29,70,1.4016891203031172e-05
29,78,1.3338704491651669e-06
29,88,4.424613844179336e-08
29,106,1.174999235549104e-05
29,114,1.2312935545076324e-06
29,124,5.171848155216695e-08
29,155,9.944648948844514e-06
29,163,1.0998383756243467e-06
29,173,5.153105241091178e-08
29,219,8.520306152890193e-06
29,227,9.74783357985988e-07
29,237,4.8648782119725696e-08
29,300,7.387663926315101e-06
29,308,8.647823033788693e-07
29,318,4.495031967158761e-08
30,30,0.0024345121239993882
30,55,0.001849183285471938
30,91,0.0014660303636834882
30,140,0.001199159725627831
30,204,0.0010045100161605984
30,285,0.0008573884092635836
31,31,0.0029262196323051317
31,35,0.000805629495356974
31,41,5.784626497755197e-05
31,49,1.4190271428658122e-06
31,56,0.002217886100728351
31,60,0.0006287537923865071
31,66,4.891218412558702e-05
31,74,1.4922964922699637e-06
31,84,1.73643569546609e-08
31,92,0.0017560596416788688
31,96,0.0005063180845792818
31,102,4.111262373686927e-05
31,110,1.3820418994632382e-06
31,120,2.0391509802113464e-08
31,141,0.0014351869112437562
31,145,0.00041825160304328216
31,151,3.485678568437797e-05
31,159,1.2370989690658637e-06
31,169,2.0379783856559244e-08
31,205,0.001201533235405257
31,209,0.0003526931154445698
31,215,2.9900189467636226e-05
31,223,1.098021808860446e-06
31,233,1.9280158338134817e-08
31,286,0.0010251336389566386
31,290,0.0003024520663552538
31,296,2.5947654854386562e-05
31,304,9.751188707556684e-07
31,314,1.78422604455815e-08
32,32,0.004437442258083728
32,36,0.0012167013771783896
32,42,8.561379783607685e-05
32,50,2.0528095342109046e-06
32,57,0.0033568366817570525
32,61,0.0009490368991505385
32,67,7.238079824350741e-05
32,75,2.1591390482092235e-06
32,85,2.4461354805454992e-08
32,93,0.0026547570373189906
32,97,0.0007639707738367577
32,103,6.083354054318961e-05
32,111,1.999766209062444e-06
32,121,2.8755783208311464e-08
32,142,0.002168028952397792
32,146,0.0006309483339883117
32,152,5.157390545705249e-05
32,160,1.7901361199128295e-06
32,170,2.8744212352611565e-08
32,206,0.0018141221520237092
32,210,0.0005319691456807089
32,216,4.4238379576679894e-05
32,224,1.5889439059359024e-06
32,234,2.7177690838577938e-08
32,287,0.0015472107189572818
32,291,0.00045614006865933273
32,297,3.838937188125569e-05
32,305,1.4111299855055073e-06
32,315,2.515306973429057e-08
33,33,0.0029262196323051317
33,37,0.0008056294953569742
33,43,5.784626497755198e-05
33,51,1.4190271428658115e-06
33,58,0.002217886100728351
33,62,0.0006287537923865071
33,68,4.891218412558704e-05
33,76,1.4922964922699624e-06
33,86,1.7364356954660868e-08
33,94,0.0017560596416788688
33,98,0.000506318084579282
33,104,4.111262373686927e-05
33,112,1.3820418994632371e-06
33,122,2.0391509802113464e-08
33,143,0.0014351869112437562
33,147,0.00041825160304328227
33,153,3.485678568437797e-05
33,161,1.2370989690658627e-06
33,171,2.037978385655921e-08
33,207,0.001201533235405257
33,211,0.0003526931154445699
33,217,2.9900189467636233e-05
33,225,1.0980218088604455e-06
33,235,1.9280158338134797e-08
33,288,0.0010251336389566386
33,292,0.00030245206635525385
33,298,2.5947654854386562e-05
33,306,9.751188707556682e-07
33,316,1.7842260445581462e-08
34,34,0.0004957466731847663
34,40,7.542220678266941e-05
34,48,3.5131034482961978e-06
34,59,0.00038569639313139776
34,65,6.354728246915479e-05
34,73,3.677814169469417e-06
34,83,8.648433331207076e-08
34,95,0.00031000589213325423
34,101,5.329949900961457e-05
34,109,3.396771874482421e-06
34,119,1.0113841875084265e-07
34,144,0.00025577225284581983
34,150,4.512665581808844e-05
34,158,3.0351631953432577e-06
34,168,1.0080616241202351e-07
34,208,0.00021550095021014836
34,214,3.867295241362229e-05
34,222,2.6906861201503246e-06
34,232,9.518826662229073e-08
34,289,0.00018469230065047736
34,295,3.353780567309836e-05
34,303,2.3874520042368287e-06
34,313,8.797195377512549e-08
35,35,0.0008789390081758755
35,41,0.0001355939145649255
35,49,6.427532341752968e-06
35,56,0.0006033880111137095
35,60,0.0006825669551822925
35,66,0.00011414636777996398
35,74,6.725410546701483e-06
35,84,1.6047314248214168e-07
35,92,0.00047430763660475636
35,96,0.0005480078432390229
35,102,9.568950582147104e-05
35,110,6.209570013814046e-06
35,120,1.8752835192594872e-07
35,141,0.00038582107399293613
35,145,0.00045181066956486766
35,151,8.098917698961676e-05
35,159,5.547420048130399e-06
35,169,1.8688715927028712e-07
35,205,0.000321964864326174
35,209,0.0003804844839731776
35,215,6.939051218878906e-05
35,223,4.9171328120545954e-06
35,233,1.764589355688889e-07
35,286,0.0002740609947507485
35,290,0.00032597363161717443
35,296,6.016669148181637e-05
35,304,4.362550946754793e-06
35,314,1.6307065129427669e-07
36,36,0.0011084055415753343
36,42,0.00016616936911151108
36,50,7.811823631705644e-06
36,57,0.000908700052382927
36,61,0.0008599825305843411
36,67,0.00013982626042906206
36,75,8.171865471628592e-06
36,85,1.9435729006037698e-07
36,93,0.0007130779804959478
36,97,0.0006900683972914667
36,103,0.00011718714755055004
36,111,7.543971699498671e-06
36,121,2.2770100912118822e-07
36,142,0.000579394759076495
36,146,0.0005687305152076488
36,152,9.916692851889855e-05
36,160,6.738879657599371e-06
36,170,2.2716132500398698e-07
36,206,0.0004831264462990447
36,210,0.0004788289762046859
36,216,8.495531176682957e-05
36,224,5.972840123471438e-06
36,234,2.1400378682870205e-07
36,287,0.0004110153627495009
36,291,0.000410156563918997
36,297,7.365671617371999e-05
36,305,5.2989462916741295e-06
36,315,1.9778159977223157e-07
37,37,0.0008789390081758758
37,43,0.00013559391456492552
37,51,6.427532341752968e-06
37,58,0.0006033880111137097
37,62,0.0006825669551822926
37,68,0.000114146367779964
37,76,6.725410546701483e-06
37,86,1.6047314248214168e-07
37,94,0.00047430763660475647
37,98,0.0005480078432390232
37,104,9.568950582147104e-05
37,112,6.209570013814044e-06
37,122,1.8752835192594864e-07
37,143,0.0003858210739929362
37,147,0.0004518106695648677
37,153,8.098917698961678e-05
37,161,5.547420048130399e-06
37,171,1.868871592702871e-07
37,207,0.000321964864326174
37,211,0.00038048448397317767
37,217,6.939051218878907e-05
37,225,4.9171328120545954e-06
37,235,1.764589355688889e-07
37,288,0.00027406099475074853
37,292,0.0003259736316171746
37,298,6.016669148181637e-05
37,306,4.362550946754792e-06
37,316,1.6307065129427669e-07
38,38,0.0004957466731847665
38,44,7.542220678266941e-05
38,52,3.5131034482961974e-06
38,63,0.00038569639313139787
38,69,6.354728246915479e-05
38,77,3.6778141694694174e-06
38,87,8.648433331207077e-08
38,99,0.0003100058921332544
38,105,5.329949900961457e-05
38,113,3.3967718744824218e-06
38,123,1.0113841875084265e-07
38,148,0.0002557722528458199
38,154,4.512665581808845e-05
38,162,3.0351631953432577e-06
38,172,1.0080616241202351e-07
38,212,0.00021550095021014842
38,218,3.867295241362229e-05
38,226,2.690686120150325e-06
38,236,9.518826662229076e-08
38,293,0.0001846923006504774
38,299,3.353780567309837e-05
38,307,2.3874520042368287e-06
38,317,8.797195377512552e-08
39,39,1.507943716254907e-05
39,47,1.1472614727692438e-06
39,64,1.2694529677036827e-05
39,72,1.200100111199324e-06
39,82,3.9542868165890936e-08
39,100,1.0642041344655637e-05
39,108,1.1078674694719922e-06
39,118,4.6220328903579045e-08
39,149,9.007234952753144e-06
39,157,9.896225784213495e-07
39,167,4.605431063005707e-08
39,213,7.717334029968615e-06
39,221,8.771195419687571e-07
39,231,4.347933085916595e-08
39,294,6.691545282826487e-06
39,302,7.781522811381754e-07
39,312,4.0177051689891226e-08
40,40,2.854972220236129e-05
40,48,2.2032378207273064e-06
40,59,5.835843232532737e-05
40,65,2.399924784133217e-05
40,73,2.302952820663803e-06
40,83,7.827029236558993e-08
40,95,4.6750766419494084e-05
40,101,2.0101195352328457e-05
40,109,2.125000602944113e-06
40,119,9.112288104399044e-08
40,144,3.84889924603486e-05
40,150,1.700352960304142e-05
40,158,1.8976408158939374e-06
40,168,9.078021842970189e-08
40,208,3.238093636163795e-05
40,214,1.4562764030428075e-05
40,222,1.6815439465168014e-06
40,232,8.569459505450444e-08
40,289,2.772240191211371e-05
40,295,1.2623514136377502e-05
40,303,1.4915876175969405e-06
40,313,7.946894554613641e-08
41,41,4.1533646930742805e-05
41,49,3.1313533381636744e-06
41,56,4.263896487258541e-05
41,60,0.00010476540785886629
41,66,3.488254599401838e-05
41,74,3.2714271315415734e-06
41,84,1.1116973468113631e-07
41,92,3.318990968880719e-05
41,96,8.385360687471737e-05
41,102,2.9201053216804353e-05
41,110,3.01769785969088e-06
41,120,1.2988244543301944e-07
41,141,2.6824311905326046e-05
41,145,6.899533043461989e-05
41,151,2.4692428220996928e-05
41,159,2.6942755541865965e-06
41,169,1.2937705776023272e-07
41,205,2.228494816156852e-05
41,209,5.802327179125863e-05
41,215,2.1142872918074946e-05
41,223,2.387184334465059e-06
41,233,1.22118203503216e-07
41,286,1.890841235260142e-05
41,290,4.96614596071924e-05
41,296,1.832424534363292e-05
41,304,2.1172978088610985e-06
41,314,1.1282663884313587e-07
42,42,4.7432395665928694e-05
42,50,3.5224165648784264e-06
42,57,6.28736834366373e-05
42,61,0.0001282967081031407
42,67,3.9822267693581256e-05
42,75,3.6792520889770177e-06
42,85,1.245349137611796e-07
42,93,4.882816273902307e-05
42,97,0.00010264308106703853
42,103,3.3328916256802584e-05
42,111,3.3934914945236778e-06
42,121,1.454893117147656e-07
42,142,3.940334465220577e-05
42,146,8.443167481554604e-05
42,152,2.817893964992501e-05
42,160,3.029559427050868e-06
42,170,1.4491802272655215e-07
42,206,3.270087154835002e-05
42,210,7.099098017514553e-05
42,216,2.4125848878224647e-05
42,224,2.683947761101961e-06
42,234,1.3678387986150858e-07
42,287,2.7725032100113925e-05
42,291,6.075187875868629e-05
42,297,2.090808971808498e-05
42,305,2.380438652965469e-06
42,315,1.2637424457713265e-07
43,43,4.1533646930742805e-05
43,51,3.1313533381636744e-06
43,58,4.2638964872585415e-05
43,62,0.0001047654078588663
43,68,3.488254599401838e-05
43,76,3.2714271315415734e-06
43,86,1.1116973468113631e-07
43,94,3.3189909688807196e-05
43,98,8.385360687471739e-05
43,104,2.9201053216804356e-05
43,112,3.01769785969088e-06
43,122,1.298824454330194e-07
43,143,2.682431190532605e-05
43,147,6.89953304346199e-05
43,153,2.4692428220996928e-05
43,161,2.694275554186596e-06
43,171,1.2937705776023272e-07
43,207,2.228494816156853e-05
43,211,5.802327179125863e-05
43,217,2.1142872918074946e-05
43,225,2.3871843344650587e-06
43,235,1.22118203503216e-07
43,288,1.8908412352601425e-05
43,292,4.96614596071924e-05
43,298,1.832424534363292e-05
43,306,2.1172978088610985e-06
43,316,1.1282663884313583e-07
44,44,2.8549722202361283e-05
44,52,2.203237820727306e-06
44,63,5.835843232532737e-05
44,69,2.3999247841332166e-05
44,77,2.302952820663802e-06
44,87,7.827029236558993e-08
44,99,4.6750766419494084e-05
44,105,2.0101195352328453e-05
44,113,2.125000602944113e-06
44,123,9.112288104399044e-08
44,148,3.84889924603486e-05
44,154,1.7003529603041417e-05
44,162,1.8976408158939374e-06
44,172,9.078021842970189e-08
44,212,3.2380936361637944e-05
44,218,1.4562764030428075e-05
44,226,1.681543946516801e-06
44,236,8.569459505450444e-08
44,293,2.772240191211371e-05
44,299,1.26235141363775e-05
44,307,1.49158761759694e-06
44,317,7.946894554613641e-08
45,45,1.5079437162549063e-05
45,53,1.1472614727692438e-06
45,70,1.2694529677036827e-05
45,78,1.200100111199324e-06
45,88,3.9542868165890936e-08
45,106,1.0642041344655636e-05
45,114,1.1078674694719922e-06
45,124,4.622032890357903e-08
45,155,9.007234952753139e-06
45,163,9.89622578421349e-07
45,173,4.605431063005706e-08
45,219,7.717334029968613e-06
45,227,8.771195419687571e-07
45,237,4.347933085916595e-08
45,300,6.6915452828264856e-06
45,308,7.781522811381754e-07
45,318,4.0177051689891226e-08
46,46,9.823969290211633e-08
46,71,1.0272048450681795e-07
46,107,9.480161125852763e-08
46,156,8.460128022749865e-08
46,220,7.497076621985176e-08
46,301,6.65059330611779e-08
47,47,1.9223916073107057e-07
47,64,9.623489406346182e-07
47,72,2.007719518636534e-07
47,82,1.0569622610975904e-08
47,100,8.05001381344988e-07
47,108,1.8516312640628235e-07
47,118,1.2346199011762585e-08
47,149,6.803768535045686e-07
47,157,1.6529671951222577e-07
47,167,1.2296489318684415e-08
47,213,5.824177833302751e-07
47,221,1.4644239355851675e-07
47,231,1.1605494283055525e-08
47,294,5.046501950178934e-07
47,302,1.2987909287893823e-07
47,312,1.0721750950338172e-08
48,48,2.9828914760338756e-07
48,59,2.7029542445155447e-06
48,65,1.8462231152587411e-06
48,73,3.1129301989665883e-07
48,83,1.6129885629969567e-08
48,95,2.1578964994095076e-06
48,101,1.5433765333576516e-06
48,109,2.8696047808963277e-07
48,119,1.8836595575904492e-08
48,144,1.772571755430663e-06
48,150,1.3038669233212511e-06
48,158,2.5609595587438106e-07
48,168,1.875786965400335e-08
48,208,1.4889729752526674e-06
48,214,1.1167934092449382e-06
48,222,2.2683849305767696e-07
48,232,1.770191238895055e-08
48,289,1.2733423455192955e-06
48,295,9.665735832626967e-07
48,303,2.0115085690392834e-07
48,313,1.6352699166888844e-08
49,49,3.862055042273786e-07
49,56,1.0193643139543046e-06
49,60,4.939186817971696e-06
49,66,2.622089290519644e-06
49,74,4.0285311769011603e-07
49,84,2.050675164750668e-08
49,92,7.806490256068627e-07
49,96,3.940223173881498e-06
49,102,2.1910788570375485e-06
49,110,3.7125853233348526e-07
49,120,2.3595672232704068e-08
49,141,6.240859272166118e-07
49,145,3.2350613376372114e-06
49,151,1.8505893866928481e-06
49,159,3.312662371857826e-07
49,169,2.3494711156704897e-08
49,205,5.145296099819601e-07
49,209,2.7165626679562567e-06
49,215,1.5833113108461024e-06
49,223,2.933839775641555e-07
49,233,2.2498684495127994e-08
49,286,4.3416329751650964e-07
49,290,2.3226133740050335e-06
49,296,1.3714753824734029e-06
49,304,2.601370430790693e-07
49,314,2.0782930280216666e-08
50,50,4.2109106796935004e-07
50,57,1.4661785166065978e-06
50,61,5.999356668380336e-06
50,67,2.9487486107394413e-06
50,75,4.3916967843888253e-07
50,85,2.205804808073167e-08
50,93,1.1186674123806002e-06
50,97,4.7842387490618035e-06
50,103,2.4635020194784512e-06
50,111,4.046864307472434e-07
50,121,2.550152790265817e-08
50,142,8.920722387470071e-07
50,146,3.927096375703316e-06
50,152,2.0804407583970377e-06
50,160,3.6113409807270517e-07
50,170,2.539126020560712e-08
50,206,7.341813921652461e-07
50,210,3.297159604894278e-06
50,216,1.779816381438688e-06
50,224,3.1982158588063527e-07
50,234,2.419753167528553e-08
50,287,6.186971077276122e-07
50,291,2.818676264331587e-06
50,297,1.5415746585144096e-06
50,305,2.83571998402822e-07
50,315,2.2351787379386837e-08
51,51,3.862055042273786e-07
51,58,1.0193643139543046e-06
51,62,4.939186817971696e-06
51,68,2.622089290519644e-06
51,76,4.0285311769011603e-07
51,86,2.0506751647506673e-08
51,94,7.806490256068622e-07
51,98,3.940223173881497e-06
51,104,2.1910788570375485e-06
51,112,3.7125853233348516e-07
51,122,2.359567223270406e-08
51,143,6.240859272166118e-07
51,147,3.2350613376372114e-06
51,153,1.8505893866928477e-06
51,161,3.312662371857826e-07
51,171,2.3494711156704887e-08
51,207,5.145296099819597e-07
51,211,2.716562667956256e-06
51,217,1.5833113108461024e-06
51,225,2.9338397756415547e-07
51,235,2.249868449512799e-08
51,288,4.341632975165093e-07
51,292,2.3226133740050335e-06
51,298,1.3714753824734027e-06
51,306,2.6013704307906917e-07
51,316,2.0782930280216656e-08
52,52,2.9828914760338756e-07
52,63,2.7029542445155456e-06
52,69,1.8462231152587407e-06
52,77,3.1129301989665883e-07
52,87,1.612988562996958e-08
52,99,2.1578964994095085e-06
52,105,1.5433765333576512e-06
52,113,2.8696047808963277e-07
52,123,1.8836595575904492e-08
52,148,1.7725717554306628e-06
52,154,1.3038669233212507e-06
52,162,2.5609595587438106e-07
52,172,1.875786965400335e-08
52,212,1.4889729752526674e-06
52,218,1.116793409244938e-06
52,226,2.2683849305767696e-07
52,236,1.7701912388950555e-08
52,293,1.2733423455192953e-06
52,299,9.665735832626967e-07
52,307,2.0115085690392834e-07
52,317,1.6352699166888848e-08
53,53,1.922391607310705e-07
53,70,9.623489406346182e-07
53,78,2.0077195186365335e-07
53,88,1.0569622610975901e-08
53,106,8.050013813449878e-07
53,114,1.8516312640628227e-07
53,124,1.2346199011762583e-08
53,155,6.803768535045684e-07
53,163,1.6529671951222577e-07
53,173,1.229648931868441e-08
53,219,5.82417783330275e-07
53,227,1.4644239355851672e-07
53,237,1.1605494283055525e-08
53,300,5.046501950178934e-07
53,308,1.298790928789382e-07
53,318,1.0721750950338172e-08
54,54,9.823969290211633e-08
54,79,1.0272048450681795e-07
54,115,9.480161125852763e-08
54,164,8.460128022749865e-08
54,228,7.497076621985176e-08
54,309,6.650593306117794e-08
55,55,0.001404698110502608
55,91,0.001113696941283292
55,140,0.0009109923324150308
55,204,0.0007631348549979336
55,285,0.0006513753128955782
56,56,0.0016812031030246058
56,60,0.000470982853889295
56,66,3.606144192802942e-05
56,74,1.0724225939041156e-06
56,84,1.1826940365222849e-08
56,92,0.0013312187596549838
56,96,0.00037930263544392494
56,102,3.031501716578912e-05
56,110,9.934087657237052e-07
56,120,1.3897008069642215e-08
56,141,0.0010880216959692096
56,145,0.00031334604008304175
56,151,2.570433976208529e-05
56,159,8.893569927740662e-07
56,169,1.3894281754967837e-08
56,205,0.0009109149736681555
56,209,0.0002642413561835379
56,215,2.2050483693022972e-05
56,223,7.894543454867149e-07
56,233,1.3147992622946176e-08
56,286,0.0007771982269952741
56,290,0.00022660650901450122
56,296,1.9136404044191667e-05
56,304,7.011407727352067e-07
56,314,1.2169607562898089e-08
57,57,0.002539803422118167
57,61,0.0007089230477401854
57,67,5.316937361779863e-05
57,75,1.5428324432468499e-06
57,85,1.6443084260300194e-08
57,93,0.002008806962147807
57,97,0.0005707428014469831
57,103,4.4693990383964686e-05
57,111,1.429344898176013e-06
57,121,1.9329995290610685e-08
57,142,0.0016406151145016764
57,146,0.00047139837097977374
57,152,3.7894827949066376e-05
57,160,1.279738298842104e-06
57,170,1.9331901405430423e-08
57,206,0.001372863863990983
57,210,0.0003974679856895156
57,216,3.250716904565451e-05
57,224,1.1360473795479912e-06
57,234,1.8297216549925772e-08
57,287,0.0011709118985137519
57,291,0.00034082310789072785
57,297,2.8210603618561326e-05
57,305,1.009002308681642e-06
57,315,1.6938077812023405e-08
58,58,0.0016812031030246058
58,62,0.00047098285388929504
58,68,3.606144192802942e-05
58,76,1.072422593904115e-06
58,86,1.1826940365222842e-08
58,94,0.0013312187596549838
58,98,0.00037930263544392494
58,104,3.031501716578912e-05
58,112,9.934087657237052e-07
58,122,1.3897008069642215e-08
58,143,0.0010880216959692096
58,147,0.00031334604008304186
58,153,2.5704339762085294e-05
58,161,8.893569927740657e-07
58,171,1.389428175496782e-08
58,207,0.0009109149736681555
58,211,0.0002642413561835379
58,217,2.2050483693022976e-05
58,225,7.894543454867147e-07
58,235,1.3147992622946141e-08
58,288,0.0007771982269952741
58,292,0.00022660650901450122
58,298,1.9136404044191667e-05
58,306,7.011407727352062e-07
58,316,1.2169607562898082e-08
59,59,0.0003000963419571695
59,65,4.917352855140668e-05
59,73,2.829873969179092e-06
59,83,6.618367884212639e-08
59,95,0.00024121413683073046
59,101,4.1245736373882656e-05
59,109,2.613740932881916e-06
59,119,7.735641317905342e-08
59,144,0.00019902045328200566
59,150,3.492212977522282e-05
59,158,2.3355567838682547e-06
59,168,7.710460076066245e-08
59,208,0.00016768774760583918
59,214,2.99285113313615e-05
59,222,2.0705274287108054e-06
59,232,7.281040961902915e-08
59,289,0.0001437164654119079
59,295,2.5954953623937662e-05
59,303,1.8372091362078592e-06
59,313,6.732666457193139e-08
60,60,0.0005301137311727498
60,66,8.8200878104144e-05
60,74,5.1684991894476e-06
60,84,1.2253991950268765e-07
60,92,0.00037025975976281923
60,96,0.000425630787786675
60,102,7.394277613410821e-05
60,110,4.772292295266569e-06
60,120,1.4327804782247535e-07
60,141,0.0003012019193031613
60,145,0.0003509274400286358
60,151,6.258522136609162e-05
60,159,4.263522015767646e-06
60,169,1.4279269703472895e-07
60,205,0.00025136096972068006
60,209,0.00029553423138808525
60,215,5.3623513313393586e-05
60,223,3.7791959059293968e-06
60,233,1.3482786494681468e-07
60,286,0.0002139678618333453
60,290,0.00025319811099311823
60,296,4.649636652114794e-05
60,304,3.3530094022229847e-06
60,314,1.2460096230142222e-07
61,61,0.0006673020801487593
61,67,0.00010796674423469831
61,75,6.2763849844582985e-06
61,85,1.4839897510116627e-07
61,93,0.0005563699188231607
61,97,0.0005354907535912141
61,103,9.049055342356148e-05
61,111,5.794423831621204e-06
61,121,1.7349919014738173e-07
61,142,0.0004520984781912193
61,146,0.00044134787931927064
61,152,7.657872492653289e-05
61,160,5.176205853552468e-06
61,170,1.7290220135272777e-07
61,206,0.0003769999696105769
61,210,0.00037159185020829147
61,216,6.560570080080803e-05
61,224,4.587895811173909e-06
61,234,1.6325176205997782e-07
61,287,0.0003207405488336421
61,291,0.0003183050035987672
61,297,5.688141702147483e-05
61,305,4.070322837053611e-06
61,315,1.5086391858705856e-07
62,62,0.0005301137311727498
62,68,8.820087810414402e-05
62,76,5.168499189447599e-06
62,86,1.2253991950268765e-07
62,94,0.00037025975976281934
62,98,0.000425630787786675
62,104,7.394277613410823e-05
62,112,4.772292295266569e-06
62,122,1.432780478224753e-07
62,143,0.0003012019193031614
62,147,0.00035092744002863593
62,153,6.258522136609165e-05
62,161,4.263522015767646e-06
62,171,1.4279269703472895e-07
62,207,0.0002513609697206801
62,211,0.0002955342313880853
62,217,5.3623513313393586e-05
62,225,3.7791959059293968e-06
62,235,1.3482786494681465e-07
62,288,0.00021396786183334535
62,292,0.0002531981109931183
62,298,4.649636652114795e-05
62,306,3.3530094022229847e-06
62,316,1.246009623014222e-07
63,63,0.00030009634195716963
63,69,4.917352855140668e-05
63,77,2.829873969179092e-06
63,87,6.61836788421264e-08
63,99,0.00024121413683073054
63,105,4.124573637388266e-05
63,113,2.613740932881917e-06
63,123,7.735641317905344e-08
63,148,0.00019902045328200574
63,154,3.492212977522282e-05
63,162,2.3355567838682547e-06
63,172,7.710460076066245e-08
63,212,0.00016768774760583926
63,218,2.992851133136151e-05
63,226,2.0705274287108054e-06
63,236,7.281040961902918e-08
63,293,0.0001437164654119079
63,299,2.5954953623937662e-05
63,307,1.8372091362078592e-06
63,317,6.732666457193138e-08
64,64,1.0687314980449444e-05
64,72,1.0067188320751254e-06
64,82,3.321598130318721e-08
64,100,8.95960737596935e-06
64,108,9.293742695879689e-07
64,118,3.863146973338085e-08
64,149,7.583376772188645e-06
64,157,8.301950686377831e-07
64,167,3.8493393333890894e-08
64,213,6.49746474188277e-06
64,221,7.358253257449387e-07
64,231,3.634160055265642e-08
64,294,5.633872101234948e-06
64,302,6.528066016303341e-07
64,312,3.358172837524196e-08
65,65,2.0175185832382108e-05
65,73,1.9298791939861464e-06
65,83,6.531899283777183e-08
65,95,3.939445342864529e-05
65,101,1.6898783010964166e-05
65,109,1.7807611548227255e-06
65,119,7.637892042846783e-08
65,144,3.243368164316709e-05
65,150,1.429493295498836e-05
65,158,1.590276947644933e-06
65,168,7.609142995612536e-08
65,208,2.7287083762653665e-05
65,214,1.2243149025449253e-05
65,222,1.4092017348177262e-06
65,232,7.18285097786919e-08
65,289,2.33615793686788e-05
65,295,1.0612934910204057e-05
65,303,1.2500066396805424e-06
65,313,6.632827618414437e-08
66,66,2.9298359871863506e-05
66,74,2.7395326595444094e-06
66,84,9.279284775232305e-08
66,92,2.8073776437303785e-05
66,96,7.059881912075407e-05
66,102,2.45272899112257e-05
66,110,2.527125029604201e-06
66,120,1.0841226962484678e-07
66,141,2.269135243908266e-05
66,145,5.809131460977484e-05
66,151,2.07407856724573e-05
66,159,2.256356828437228e-06
66,169,1.0799262385079976e-07
66,205,1.885261143406457e-05
66,209,4.8854319836756984e-05
66,215,1.7759586197527457e-05
66,223,1.99917646057996e-06
66,233,1.019349916809038e-07
66,286,1.5996839030536035e-05
66,290,4.181449538916687e-05
66,296,1.5392177419798973e-05
66,304,1.773192476210153e-06
66,314,9.418297557393624e-08
67,67,3.343526226714727e-05
67,75,3.080051925580912e-06
67,85,1.0403562510277672e-07
67,93,4.129841044265948e-05
67,97,8.638262091578956e-05
67,103,2.798443419939968e-05
67,111,2.8409279199182963e-06
67,121,1.214224076413261e-07
67,142,3.33305486239481e-05
67,146,7.105858239340897e-05
67,152,2.3660884584900897e-05
67,160,2.536313499245662e-06
67,170,1.2094817140568393e-07
67,206,2.7663107664556638e-05
67,210,5.974811158041867e-05
67,216,2.025799806266405e-05
67,224,2.247102268782168e-06
67,234,1.1415428389836436e-07
67,287,2.345508350344654e-05
67,291,5.1131419995074935e-05
67,297,1.7556318310408823e-05
67,305,1.9930191585388418e-06
67,315,1.055765046244553e-07
68,68,2.9298359871863513e-05
68,76,2.739532659544409e-06
68,86,9.279284775232302e-08
68,94,2.807377643730379e-05
68,98,7.059881912075407e-05
68,104,2.45272899112257e-05
68,112,2.5271250296042004e-06
68,122,1.0841226962484678e-07
68,143,2.2691352439082665e-05
68,147,5.8091314609774854e-05
68,153,2.0740785672457297e-05
68,161,2.256356828437228e-06
68,171,1.0799262385079972e-07
68,207,1.8852611434064575e-05
68,211,4.885431983675699e-05
68,217,1.775958619752746e-05
68,225,1.9991764605799597e-06
68,235,1.0193499168090378e-07
68,288,1.5996839030536035e-05
68,292,4.181449538916687e-05
68,298,1.5392177419798973e-05
68,306,1.773192476210153e-06
68,316,9.418297557393624e-08
69,69,2.0175185832382105e-05
69,77,1.929879193986146e-06
69,87,6.531899283777187e-08
69,99,3.939445342864529e-05
69,105,1.6898783010964162e-05
69,113,1.780761154822725e-06
69,123,7.637892042846787e-08
69,148,3.243368164316709e-05
69,154,1.4294932954988357e-05
69,162,1.5902769476449325e-06
69,172,7.609142995612536e-08
69,212,2.7287083762653665e-05
69,218,1.2243149025449248e-05
69,226,1.4092017348177262e-06
69,236,7.18285097786919e-08
69,293,2.33615793686788e-05
69,299,1.0612934910204056e-05
69,307,1.250006639680542e-06
69,317,6.632827618414437e-08
70,70,1.068731498044944e-05
70,78,1.0067188320751254e-06
70,88,3.3215981303187206e-08
70,106,8.959607375969349e-06
70,114,9.293742695879689e-07
70,124,3.863146973338083e-08
70,155,7.583376772188641e-06
70,163,8.301950686377831e-07
70,173,3.8493393333890894e-08
70,219,6.497464741882769e-06
70,227,7.358253257449387e-07
70,237,3.634160055265642e-08
70,300,5.6338721012349465e-06
70,308,6.528066016303341e-07
70,318,3.358172837524196e-08
71,71,1.0726734357042982e-07
71,107,9.913124996411277e-08
71,156,8.846420861111305e-08
71,220,7.83986234681184e-08
71,301,6.95438541965551e-08
72,72,2.0969202715057836e-07
72,82,1.1011941299830085e-08
72,100,8.421401180662816e-07
72,108,1.9339447255379311e-07
72,118,1.2863103026538876e-08
72,149,7.117789289042253e-07
72,157,1.7264766818707044e-07
72,167,1.281146680857734e-08
72,213,6.093057467572306e-07
72,221,1.5295654079397847e-07
72,231,1.2091633064036949e-08
72,294,5.280537301251979e-07
72,302,1.3565752231541847e-07
72,312,1.117093714722995e-08
73,73,3.2487822925806824e-07
73,83,1.6796652233919355e-08
73,95,2.2593151279660598e-06
73,101,1.613360615066501e-06
73,109,2.9949181230550647e-07
73,119,1.9615617304383813e-08
73,144,1.8559384590606331e-06
73,150,1.3630180854580625e-06
73,158,2.6728411168690114e-07
73,168,1.9533872974633204e-08
73,208,1.559026096760105e-06
73,214,1.166379171314616e-06
73,222,2.3675129223049739e-07
73,232,1.8434385060166992e-08
73,289,1.3332753031432819e-06
73,295,1.0104471053835725e-06
73,303,2.0994282474303455e-07
73,313,1.702944552457974e-08
74,74,4.202379121867516e-07
74,84,2.1348181996442593e-08
74,92,8.214853450473003e-07
74,96,4.123345063191877e-06
74,102,2.2892943260364082e-06
74,110,3.8729077177950305e-07
74,120,2.4563604112788214e-08
74,141,6.568422059085794e-07
74,145,3.3855142527034037e-06
74,151,1.9335832919282817e-06
74,159,3.4557777438383867e-07
74,169,2.445886061850428e-08
74,205,5.416103547407779e-07
74,209,2.842957058045983e-06
74,215,1.6543319812320498e-06
74,223,3.0606273450548623e-07
74,233,2.3422774006453056e-08
74,286,4.570442882826791e-07
74,290,2.4307091208080554e-06
74,296,1.432994900321932e-06
74,304,2.713839634486427e-07
74,314,2.1636678815594625e-08
75,75,4.58046240643035e-07
75,85,2.2960118479509864e-08
75,93,1.1775035369269912e-06
75,97,5.005410676046219e-06
75,103,2.573417056042696e-06
75,111,4.22092931498517e-07
75,121,2.6543779190773573e-08
75,142,9.391802759759028e-07
75,146,4.108777349157928e-06
75,152,2.173326066969448e-06
75,160,3.766072754304561e-07
75,170,2.6429404617242555e-08
75,206,7.730620410925296e-07
75,210,3.4497811645279343e-06
75,216,1.859400695456639e-06
75,224,3.3358659442294196e-07
75,234,2.5188184522150895e-08
75,287,6.515354562360647e-07
75,291,2.949190955794864e-06
75,297,1.6105236710589303e-06
75,305,2.9577953713621717e-07
75,315,2.326702788046018e-08
76,76,4.2023791218675145e-07
76,86,2.134818199644259e-08
76,94,8.214853450473003e-07
76,98,4.123345063191877e-06
76,104,2.289294326036408e-06
76,112,3.87290771779503e-07
76,122,2.4563604112788204e-08
76,143,6.568422059085792e-07
76,147,3.3855142527034037e-06
76,153,1.9335832919282817e-06
76,161,3.4557777438383857e-07
76,171,2.445886061850428e-08
76,207,5.416103547407775e-07
76,211,2.8429570580459833e-06
76,217,1.6543319812320498e-06
76,225,3.0606273450548623e-07
76,235,2.3422774006453046e-08
76,288,4.570442882826789e-07
76,292,2.4307091208080545e-06
76,298,1.4329949003219314e-06
76,306,2.7138396344864266e-07
76,316,2.163667881559462e-08
77,77,3.2487822925806824e-07
77,87,1.679665223391936e-08
77,99,2.259315127966059e-06
77,105,1.6133606150665008e-06
77,113,2.9949181230550647e-07
77,123,1.9615617304383813e-08
77,148,1.8559384590606331e-06
77,154,1.3630180854580625e-06
77,162,2.6728411168690114e-07
77,172,1.9533872974633204e-08
77,212,1.5590260967601054e-06
77,218,1.1663791713146159e-06
77,226,2.3675129223049739e-07
77,236,1.8434385060167e-08
77,293,1.3332753031432819e-06
77,299,1.0104471053835725e-06
77,307,2.0994282474303455e-07
77,317,1.7029445524579743e-08
78,78,2.0969202715057828e-07
78,88,1.1011941299830085e-08
78,106,8.421401180662815e-07
78,114,1.9339447255379306e-07
78,124,1.2863103026538876e-08
78,155,7.117789289042253e-07
78,163,1.726476681870704e-07
78,173,1.2811466808577336e-08
78,219,6.093057467572306e-07
78,227,1.5295654079397847e-07
78,237,1.2091633064036949e-08
78,300,5.280537301251978e-07
78,308,1.3565752231541844e-07
78,318,1.117093714722995e-08
79,79,1.0726734357042983e-07
79,115,9.913124996411279e-08
79,164,8.846420861111306e-08
79,228,7.839862346811843e-08
79,309,6.954385419655514e-08
82,100,2.7719299038878955e-08
82,108,1.0140862418397877e-08
82,149,2.3507991163520936e-08
82,213,2.0100232503643526e-08
82,294,1.7402940168577914e-08
83,95,5.264319227149358e-08
83,101,5.449378353526866e-08
83,109,1.5463390657872606e-08
83,144,4.313946103103482e-08
83,150,4.5977678771533215e-08
83,158,1.3788387689920742e-08
83,208,3.613391417254264e-08
83,214,3.930832923737801e-08
83,222,1.220595868311296e-08
83,289,3.086354853833538e-08
83,295,3.402814683362157e-08
83,303,1.0819265605132564e-08
84,96,9.741137824644592e-08
84,102,7.738796816094645e-08
84,110,1.9650143756535484e-08
84,145,7.979148974016773e-08
84,151,6.516996833566849e-08
84,159,1.7519603504932046e-08
84,209,6.689630509374242e-08
84,215,5.5709272039815915e-08
84,223,1.5507728598965153e-08
84,290,5.7146013738555054e-08
84,296,4.8225150710571504e-08
84,304,1.3745146605020285e-08
85,93,1.197393657432385e-08
85,97,1.1799371812460912e-07
85,103,8.675359523357158e-08
85,111,2.1132215572263773e-08
85,146,9.663630946703277e-08
85,152,7.301826774376097e-08
85,160,1.8954812007305457e-08
85,210,8.107927528421611e-08
85,216,6.241421642130972e-08
85,224,1.6777666654299847e-08
85,291,6.923632616553985e-08
85,297,5.402617380343414e-08
85,305,1.4870455376622999e-08
86,98,9.741137824644592e-08
86,104,7.738796816094645e-08
86,112,1.9650143756535477e-08
86,147,7.979148974016773e-08
86,153,6.516996833566849e-08
86,161,1.7519603504932043e-08
86,211,6.689630509374242e-08
86,217,5.5709272039815915e-08
86,225,1.550772859896515e-08
86,292,5.714601373855505e-08
86,298,4.8225150710571504e-08
86,306,1.3745146605020277e-08
87,99,5.264319227149358e-08
87,105,5.449378353526867e-08
87,113,1.546339065787261e-08
87,148,4.313946103103482e-08
87,154,4.5977678771533215e-08
87,162,1.3788387689920745e-08
87,212,3.613391417254266e-08
87,218,3.930832923737801e-08
87,226,1.220595868311296e-08
87,293,3.086354853833539e-08
87,299,3.402814683362157e-08
87,307,1.0819265605132567e-08
88,106,2.771929903887896e-08
88,114,1.0140862418397874e-08
88,155,2.3507991163520936e-08
88,219,2.0100232503643523e-08
88,300,1.7402940168577914e-08
91,91,0.000883006093258029
91,140,0.0007223032798730085
91,204,0.0006050785591426617
91,285,0.0005164708058554985
92,92,0.0010541350179662716
92,96,0.00029820210192883214
92,102,2.3602088475393016e-05
92,110,7.61072785263727e-07
92,120,1.0098701931272418e-08
92,141,0.0008615802707292661
92,145,0.0002463566912740647
92,151,2.0013378953295037e-05
92,159,6.81421612841541e-07
92,169,1.0100281615782315e-08
92,205,0.0007213463222072186
92,209,0.000207754653657355
92,215,1.7169101646927205e-05
92,223,6.049114697784124e-07
92,286,0.000615464984435658
92,290,0.00017816797660812005
92,296,1.4900499031311098e-05
92,304,5.372578482188209e-07
93,93,0.0015889216415553415
93,97,0.00044795492008238287
93,103,3.4718663655804765e-05
93,111,1.0910815339926386e-06
93,121,1.4171924780630914e-08
93,142,0.0012977407508624119
93,146,0.00036999941401717154
93,152,2.94388641361192e-05
93,160,9.76992593353758e-07
93,170,1.4177962191563774e-08
93,206,0.001085976234429811
93,210,0.00031198066336630883
93,216,2.5254506784117566e-05
93,224,8.673626910836383e-07
93,234,1.3422121295211167e-08
93,287,0.0009262439129325795
93,291,0.00026752461278518
93,297,2.1917217920199183e-05
93,305,7.704089445975182e-07
93,315,1.2353486654066005e-08
94,94,0.0010541350179662716
94,98,0.0002982021019288322
94,104,2.3602088475393026e-05
94,112,7.610727852637264e-07
94,122,1.0098701931272401e-08
94,143,0.0008615802707292661
94,147,0.00024635669127406483
94,153,2.0013378953295047e-05
94,161,6.814216128415407e-07
94,171,1.0100281615782298e-08
94,207,0.0007213463222072186
94,211,0.000207754653657355
94,217,1.716910164692721e-05
94,225,6.049114697784119e-07
94,288,0.000615464984435658
94,292,0.00017816797660812005
94,298,1.4900499031311101e-05
94,306,5.372578482188205e-07
95,95,0.00019389002551758815
95,101,3.304420240893685e-05
95,109,2.086819559798685e-06
95,119,6.156638088503747e-08
95,144,0.00015997690936514494
95,150,2.7978469021647182e-05
95,158,1.864748269484302e-06
95,168,6.136636256437301e-08
95,208,0.00013479247839969993
95,214,2.3977891243607822e-05
95,222,1.6531524492038246e-06
95,232,5.7948936698096204e-08
95,289,0.0001155245456940686
95,295,2.079455606332711e-05
95,303,1.466878119470221e-06
95,313,5.355600263159168e-08
96,96,0.00034175160624369034
96,102,5.9188036492572964e-05
96,110,3.8073748166761524e-06
96,120,1.1390022581793492e-07
96,141,0.0002425920482457554
96,145,0.00028177577082608753
96,151,5.00977350197233e-05
96,159,3.4015397995159998e-06
96,169,1.1351656738521134e-07
96,205,0.00020245429653226039
96,209,0.00023730130984035662
96,215,4.292456824344102e-05
96,223,3.015173461092744e-06
96,233,1.0718613614920219e-07
96,286,0.00017233960997778175
96,290,0.00020330923870014503
96,296,3.72197671497537e-05
96,304,2.675171664419129e-06
96,314,9.905618938269229e-08
97,97,0.0004297276174845238
97,103,7.240240527593006e-05
97,111,4.621183751211495e-06
97,121,1.3792174529087282e-07
97,142,0.0003640176000428246
97,146,0.0003541880841964854
97,152,6.127263040277693e-05
97,160,4.12822005163882e-06
97,170,1.374501708632899e-07
97,206,0.0003035594098308353
97,210,0.00029821251246997884
97,216,5.249355142074053e-05
97,224,3.6590863517182598e-06
97,234,1.2978051036674971e-07
97,287,0.0002582650340550258
97,291,0.00025545122865232815
97,297,4.55133745949382e-05
97,305,3.246332171315115e-06
97,315,1.1993380849735645e-07
98,98,0.0003417516062436904
98,104,5.918803649257298e-05
98,112,3.8073748166761524e-06
98,122,1.1390022581793487e-07
98,143,0.00024259204824575548
98,147,0.0002817757708260876
98,153,5.0097735019723313e-05
98,161,3.4015397995159994e-06
98,171,1.1351656738521134e-07
98,207,0.00020245429653226039
98,211,0.00023730130984035672
98,217,4.292456824344102e-05
98,225,3.015173461092743e-06
98,235,1.0718613614920219e-07
98,288,0.0001723396099777818
98,292,0.0002033092387001451
98,298,3.721976714975371e-05
98,306,2.675171664419129e-06
98,316,9.905618938269225e-08
99,99,0.0001938900255175882
99,105,3.304420240893686e-05
99,113,2.0868195597986856e-06
99,123,6.156638088503749e-08
99,148,0.000159976909365145
99,154,2.7978469021647182e-05
99,162,1.8647482694843025e-06
99,172,6.136636256437301e-08
99,212,0.00013479247839969993
99,218,2.3977891243607822e-05
99,226,1.6531524492038248e-06
99,236,5.7948936698096204e-08
99,293,0.00011552454569406863
99,299,2.0794556063327102e-05
99,307,1.466878119470221e-06
99,317,5.35560026315917e-08
100,100,7.5113139088354595e-06
100,108,7.774530301900108e-07
100,118,3.239995402420313e-08
100,149,6.357630409574965e-06
100,157,6.944941296584437e-07
100,167,3.2283439752061624e-08
100,213,5.447282094812698e-06
100,221,6.155968682869982e-07
100,231,3.0478322753669264e-08
100,294,4.723297193177281e-06
100,302,5.462469281091252e-07
100,312,2.8163415603428732e-08
101,101,1.4154779550327206e-05
101,109,1.4887360602579742e-06
101,119,6.36818451870221e-08
101,144,2.720578246796734e-05
101,150,1.1973912526825928e-05
101,158,1.3294632277414383e-06
101,168,6.344398248428595e-08
101,208,2.288901218490562e-05
101,214,1.0255375797240653e-05
101,222,1.1781105415661213e-06
101,232,5.989080774158942e-08
101,289,1.959636709605932e-05
101,295,8.889867666117768e-06
101,303,1.0450443423699466e-06
101,313,5.533816308733885e-08
102,102,2.0533627295915768e-05
102,110,2.111829114313016e-06
102,120,9.04188913095091e-08
102,141,1.9078014684151687e-05
102,145,4.870288076103331e-05
102,151,1.736391438101156e-05
102,159,1.8855584731386909e-06
102,169,9.007000067945383e-08
102,205,1.5851133009089417e-05
102,209,4.095924901260033e-05
102,215,1.4868247541658852e-05
102,223,1.670682686973407e-06
102,233,8.501841793868525e-08
102,286,1.3450377239891155e-05
102,290,3.505741261031122e-05
102,296,1.2886354720826404e-05
102,304,1.4818593907637288e-06
102,314,7.855090853378793e-08
103,103,2.342279828672209e-05
103,111,2.373670054244707e-06
103,121,1.0135454931920398e-07
103,142,2.802205495346849e-05
103,146,5.955960658238094e-05
103,152,1.9804307916323107e-05
103,160,2.119270315352729e-06
103,170,1.0095894085671356e-07
103,206,2.3258292294586318e-05
103,210,5.008013264416944e-05
103,216,1.6956247308201612e-05
103,224,1.8776528149086042e-06
103,234,9.529372524941924e-08
103,287,1.9720948397059075e-05
103,291,4.2858148637703e-05
103,297,1.4694998877284475e-05
103,305,1.6653552058399676e-06
103,315,8.804262054137517e-08
104,104,2.0533627295915768e-05
104,112,2.111829114313016e-06
104,122,9.04188913095091e-08
104,143,1.907801468415169e-05
104,147,4.8702880761033316e-05
104,153,1.736391438101156e-05
104,161,1.8855584731386902e-06
104,171,9.007000067945379e-08
104,207,1.585113300908942e-05
104,211,4.095924901260034e-05
104,217,1.4868247541658852e-05
104,225,1.6706826869734065e-06
104,235,8.501841793868525e-08
104,288,1.345037723989116e-05
104,292,3.505741261031123e-05
104,298,1.2886354720826404e-05
104,306,1.4818593907637283e-06
104,316,7.855090853378793e-08
105,105,1.4154779550327204e-05
105,113,1.488736060257974e-06
105,123,6.36818451870221e-08
105,148,2.720578246796735e-05
105,154,1.1973912526825926e-05
105,162,1.329463227741438e-06
105,172,6.344398248428595e-08
105,212,2.2889012184905625e-05
105,218,1.0255375797240649e-05
105,226,1.178110541566121e-06
105,236,5.989080774158942e-08
105,293,1.959636709605932e-05
105,299,8.889867666117768e-06
105,307,1.0450443423699466e-06
105,317,5.533816308733885e-08
106,106,7.511313908835457e-06
106,114,7.774530301900108e-07
106,124,3.239995402420313e-08
106,155,6.357630409574964e-06
106,163,6.944941296584437e-07
106,173,3.2283439752061624e-08
106,219,5.447282094812697e-06
106,227,6.15596868286998e-07
106,237,3.047832275366927e-08
106,300,4.72329719317728e-06
106,308,5.46246928109125e-07
106,318,2.8163415603428742e-08
107,107,9.141632537854083e-08
107,156,8.164671932216337e-08
107,220,7.235378912337224e-08
107,301,6.418514867411121e-08
108,108,1.7836623102527505e-07
108,118,1.1845724660315796e-08
108,149,6.571124651019541e-07
108,157,1.5923314597075694e-07
108,167,1.1798258706379813e-08
108,213,5.62617557199784e-07
108,221,1.410729272730282e-07
108,231,1.1135409597005462e-08
108,294,4.875011802483166e-07
108,302,1.2511850777209757e-07
108,312,1.0287560541726871e-08
109,109,2.760935871648766e-07
109,119,1.8058800153694786e-08
109,144,1.7142579649998773e-06
109,150,1.2577631766081287e-06
109,158,2.464047451153794e-07
109,168,1.798367580979413e-08
109,208,1.4400379038589936e-06
109,214,1.0763170640830626e-06
109,222,2.182565304882427e-07
109,232,1.6971528273888894e-08
109,289,1.2315297890279889e-06
109,295,9.324318374296869e-07
109,303,1.9354512008665959e-07
109,313,1.5678134042190866e-08
110,110,3.569327760054495e-07
110,120,2.294503109014513e-08
110,141,6.085985500122988e-07
110,145,3.126144399317058e-06
110,151,1.7837338988974192e-06
110,159,3.1849297947009174e-07
110,169,2.284748497688751e-08
110,205,5.018556678022673e-07
110,209,2.625182884759816e-06
110,215,1.526157019348018e-06
110,223,2.8207707519392234e-07
110,233,2.156023805472675e-08
110,286,4.2352701150711105e-07
110,290,2.244547382671632e-06
110,296,1.3219823827269028e-06
110,304,2.501151024869618e-07
110,314,1.9916242393880368e-08
111,111,3.88968428770255e-07
111,121,2.4674147839004733e-08
111,142,8.703561916688665e-07
111,146,3.7934653046116917e-06
111,152,2.004765343024591e-06
111,160,3.471151377620596e-07
111,170,2.4568310668539575e-08
111,206,7.164724429898509e-07
111,210,3.1850733146171107e-06
111,216,1.71511650431825e-06
111,224,3.0741263501380023e-07
111,234,2.3183505694029603e-08
111,287,6.038748063104417e-07
111,291,2.7229206400048155e-06
111,297,1.4855604374530923e-06
111,305,2.725735058159068e-07
111,315,2.14153352373136e-08
112,112,3.569327760054495e-07
112,122,2.2945031090145115e-08
112,143,6.085985500122985e-07
112,147,3.126144399317058e-06
112,153,1.7837338988974192e-06
112,161,3.1849297947009163e-07
112,171,2.2847484976887503e-08
112,207,5.018556678022673e-07
112,211,2.6251828847598157e-06
112,217,1.5261570193480176e-06
112,225,2.8207707519392234e-07
112,235,2.156023805472674e-08
112,288,4.2352701150711105e-07
112,292,2.2445473826716315e-06
112,298,1.3219823827269028e-06
112,306,2.501151024869617e-07
112,316,1.9916242393880358e-08
113,113,2.760935871648766e-07
113,123,1.805880015369479e-08
113,148,1.7142579649998773e-06
113,154,1.2577631766081285e-06
113,162,2.464047451153794e-07
113,172,1.7983675809794136e-08
113,212,1.4400379038589943e-06
113,218,1.0763170640830624e-06
113,226,2.182565304882427e-07
113,236,1.6971528273888894e-08
113,293,1.2315297890279889e-06
113,299,9.324318374296868e-07
113,307,1.9354512008665956e-07
113,317,1.5678134042190866e-08
114,114,1.7836623102527505e-07
114,124,1.1845724660315796e-08
114,155,6.571124651019541e-07
114,163,1.5923314597075694e-07
114,173,1.1798258706379811e-08
114,219,5.626175571997839e-07
114,227,1.4107292727302816e-07
114,237,1.1135409597005464e-08
114,300,4.875011802483166e-07
114,308,1.2511850777209757e-07
114,318,1.0287560541726868e-08
115,115,9.141632537854084e-08
115,164,8.16467193221634e-08
115,228,7.235378912337226e-08
115,309,6.418514867411122e-08
118,149,2.7343746504965526e-08
118,157,1.0564709021775945e-08
118,213,2.3492824010783184e-08
118,294,2.0340372966595524e-08
119,144,5.045194964384467e-08
119,150,5.373047966514959e-08
119,158,1.610277952090014e-08
119,208,4.231067425093455e-08
119,214,4.593690093816098e-08
119,222,1.4254810577821533e-08
119,289,3.609488189179309e-08
119,295,3.976961923732834e-08
119,303,1.2635397495557572e-08
120,145,9.330175333886339e-08
120,151,7.62725189077285e-08
120,159,2.045739898227648e-08
120,209,7.822245443901825e-08
120,215,6.50929348675495e-08
120,223,1.8108252712931886e-08
120,290,6.680268186260184e-08
120,296,5.634853476671555e-08
120,304,1.6050158128379585e-08
121,142,1.093300815522019e-08
121,146,1.1298745920408763e-07
121,152,8.549042190375451e-08
121,160,2.1997958239099474e-08
121,210,9.471743164819508e-08
121,216,7.292142393255542e-08
121,224,1.959020334074882e-08
121,291,8.095364346350634e-08
121,297,6.312246655239616e-08
121,305,1.7363338907487975e-08
122,147,9.330175333886337e-08
122,153,7.62725189077285e-08
122,161,2.0457398982276478e-08
122,211,7.822245443901823e-08
122,217,6.50929348675495e-08
122,225,1.8108252712931882e-08
122,292,6.680268186260182e-08
122,298,5.6348534766715544e-08
122,306,1.6050158128379578e-08
123,148,5.045194964384469e-08
123,154,5.37304796651496e-08
123,162,1.610277952090014e-08
123,212,4.231067425093455e-08
123,218,4.593690093816098e-08
123,226,1.4254810577821538e-08
123,293,3.6094881891793105e-08
123,299,3.976961923732834e-08
123,307,1.2635397495557573e-08
124,155,2.7343746504965532e-08
124,163,1.0564709021775945e-08
124,219,2.3492824010783184e-08
124,300,2.0340372966595524e-08
140,140,0.0005908548160343691
140,204,0.0004949673938373274
140,285,0.0004224868547843174
141,141,0.00070421070202364
141,145,0.0002004194879919742
141,151,1.617780203197364e-05
141,159,5.449400441524625e-07
141,205,0.0005895976393874405
141,209,0.0001690180176348693
141,215,1.3878957795359361e-05
141,223,4.837709620879995e-07
141,286,0.0005030589387983848
141,290,0.00014494947527447465
141,296,1.2045294563799195e-05
141,304,4.296874552384411e-07
142,142,0.0010599475894692686
142,146,0.0003006778086990607
142,152,2.3761619751225296e-05
142,160,7.7940818755047e-07
142,170,1.0941051773497977e-08
142,206,0.0008870013777351457
142,210,0.00025353412035085344
142,216,2.0384788173013583e-05
142,224,6.91986423811625e-07
142,234,1.035995844733343e-08
142,287,0.0007565449166170371
142,291,0.00021740948120411427
142,297,1.7691372890469323e-05
142,305,6.146549271469799e-07
143,143,0.00070421070202364
143,147,0.00020041948799197424
143,153,1.6177802031973642e-05
143,161,5.449400441524621e-07
143,207,0.0005895976393874405
143,211,0.00016901801763486934
143,217,1.3878957795359366e-05
143,225,4.837709620879994e-07
143,288,0.0005030589387983848
143,292,0.00014494947527447468
143,298,1.20452945637992e-05
143,306,4.2968745523844084e-07
144,144,0.00013199687431563736
144,150,2.3035337662128563e-05
144,158,1.5318500871816881e-06
144,168,5.0288649879733705e-08
144,208,0.00011121799866698777
144,214,1.9741708411686757e-05
144,222,1.358047693857443e-06
144,232,4.748852442189842e-08
144,289,9.532040598594669e-05
144,295,1.7120862898784567e-05
144,303,1.205037372760761e-06
144,313,4.388941742792073e-08
145,145,0.00023232846984580892
145,151,4.122342499128765e-05
145,159,2.7929466371837897e-06
145,169,9.298865462736137e-08
145,205,0.00016726191807065198
145,209,0.0001956603521185896
145,215,3.532120593853387e-05
145,223,2.4757312150307567e-06
145,233,8.780375624764212e-08
145,286,0.00014238360882666627
145,290,0.00016763419214822214
145,296,3.062709608343914e-05
145,304,2.196584821755445e-06
145,314,8.114364749190736e-08
146,146,0.0002919315576325937
146,152,5.040469937254713e-05
146,160,3.388847772563924e-06
146,170,1.1260266611564505e-07
146,206,0.000250744340742967
146,210,0.0002457974423821512
146,216,4.318314995783826e-05
146,224,3.0037528695220675e-06
146,234,1.0632047362688144e-07
146,287,0.00021333352492598727
146,291,0.00021055358514120775
146,297,3.7441235046454186e-05
146,305,2.6649345814478493e-06
146,315,9.825438340847317e-08
147,147,0.00023232846984580898
147,153,4.122342499128765e-05
147,161,2.7929466371837893e-06
147,171,9.298865462736136e-08
147,207,0.000167261918070652
147,211,0.0001956603521185897
147,217,3.5321205938533875e-05
147,225,2.4757312150307567e-06
147,235,8.78037562476421e-08
147,288,0.00014238360882666632
147,292,0.00016763419214822217
147,298,3.062709608343915e-05
147,306,2.1965848217554447e-06
147,316,8.114364749190732e-08
148,148,0.00013199687431563736
148,154,2.303533766212856e-05
148,162,1.5318500871816881e-06
148,172,5.028864987973372e-08
148,212,0.0001112179986669878
148,218,1.9741708411686757e-05
148,226,1.3580476938574435e-06
148,236,4.7488524421898425e-08
148,293,9.532040598594673e-05
148,299,1.7120862898784567e-05
148,307,1.2050373727607613e-06
148,317,4.3889417427920735e-08
149,149,5.3811829592358436e-06
149,157,5.871477345943344e-07
149,167,2.7245598244442028e-08
149,213,4.610674709215549e-06
149,221,5.204108105527945e-07
149,231,2.5722289012951766e-08
149,294,3.997895304966309e-06
149,302,4.616988819297456e-07
149,312,2.3768693329919198e-08
150,150,1.012912824492776e-05
150,158,1.1232277224234175e-06
150,168,5.353018694901329e-08
150,208,1.9380435245423267e-05
150,214,8.675404614961032e-06
150,222,9.9535940141365e-07
150,232,5.053249227466848e-08
150,289,1.659259437124013e-05
150,295,7.520309202970698e-06
150,303,8.829390449782303e-07
150,313,4.6691398030953574e-08
151,151,1.46836448325559e-05
151,159,1.5926388092302152e-06
151,169,7.597882149368546e-08
151,205,1.34417856205876e-05
151,209,3.466929566828816e-05
151,215,1.2573280924829038e-05
151,223,1.4111622630281936e-06
151,233,7.171793700527255e-08
151,286,1.1406137710763837e-05
151,290,2.967395808619757e-05
151,296,1.0897355062321405e-05
151,304,1.2516804390608135e-06
151,314,6.615553604878657e-08
152,152,1.6744968373622705e-05
152,160,1.789846286921069e-06
152,170,8.497843185310487e-08
152,206,1.9722704680122026e-05
152,210,4.2382692525653334e-05
152,216,1.4336967432876203e-05
152,224,1.58579584905804e-06
152,234,8.021094512539839e-08
152,287,1.67234312588123e-05
152,291,3.6270977646636176e-05
152,297,1.2425088874637742e-05
152,305,1.4065022595088822e-06
152,315,7.410818262096305e-08
153,153,1.4683644832555899e-05
153,161,1.5926388092302145e-06
153,171,7.597882149368546e-08
153,207,1.34417856205876e-05
153,211,3.466929566828816e-05
153,217,1.2573280924829038e-05
153,225,1.4111622630281932e-06
153,235,7.171793700527255e-08
153,288,1.140613771076384e-05
153,292,2.9673958086197575e-05
153,298,1.0897355062321405e-05
153,306,1.2516804390608135e-06
153,316,6.615553604878657e-08
154,154,1.012912824492776e-05
154,162,1.1232277224234172e-06
154,172,5.353018694901329e-08
154,212,1.9380435245423267e-05
154,218,8.67540461496103e-06
154,226,9.9535940141365e-07
154,236,5.0532492274668496e-08
154,293,1.659259437124013e-05
154,299,7.520309202970697e-06
154,307,8.8293904497823e-07
154,317,4.6691398030953574e-08
155,155,5.381182959235843e-06
155,163,5.871477345943344e-07
155,173,2.7245598244442028e-08
155,219,4.610674709215547e-06
155,227,5.204108105527943e-07
155,237,2.5722289012951766e-08
155,300,3.997895304966308e-06
155,308,4.616988819297456e-07
155,318,2.3768693329919198e-08
156,156,7.29181000316465e-08
156,220,6.462201640501254e-08
156,301,5.7326437915131257e-08
157,157,1.4215332725819712e-07
157,167,1.0522426130906646e-08
157,213,5.025871536039802e-07
157,221,1.2594156700446283e-07
157,294,4.354871363552652e-07
157,302,1.1169874712047443e-07
158,158,2.199077801101969e-07
158,168,1.6035868891665962e-08
158,208,1.2868185820455439e-06
158,214,9.611960589733373e-07
158,222,1.9478922126316394e-07
158,232,1.5133396438894255e-08
158,289,1.1005020512857171e-06
158,295,8.327037839516681e-07
158,303,1.727354007949836e-07
158,313,1.3230824597777754e-08
159,159,2.8419497884007156e-07
159,169,2.037052676669595e-08
159,205,4.493837996588169e-07
159,209,2.3454221876016917e-06
159,215,1.3626798317738759e-06
159,223,2.5169959726404244e-07
159,233,1.9222897398918455e-08
159,286,3.792565911824352e-07
159,290,2.0053506703978106e-06
159,296,1.1803612423486608e-06
159,304,2.2318249328446427e-07
159,314,1.717443681543479e-08
160,160,3.0971435271059933e-07
160,170,2.1903715507216313e-08
160,206,6.416380462098007e-07
160,210,2.845368526676595e-06
160,216,1.5312571822469454e-06
160,224,2.7429106555567765e-07
160,234,2.0795533675231504e-08
160,287,5.408244869669551e-07
160,291,2.432522133671704e-06
160,297,1.3263149123687012e-06
160,305,2.432064791419887e-07
160,315,1.916234371320202e-08
161,161,2.8419497884007156e-07
161,171,2.0370526766695947e-08
161,207,4.493837996588168e-07
161,211,2.3454221876016913e-06
161,217,1.3626798317738757e-06
161,225,2.516995972640424e-07
161,235,1.9222897398918448e-08
161,288,3.792565911824352e-07
161,292,2.00535067039781e-06
161,298,1.1803612423486608e-06
161,306,2.2318249328446424e-07
161,316,1.717443681543479e-08
162,162,2.199077801101969e-07
162,172,1.6035868891665965e-08
162,212,1.2868185820455437e-06
162,218,9.61196058973337e-07
162,226,1.9478922126316394e-07
162,236,1.5133396438894255e-08
162,293,1.1005020512857176e-06
162,299,8.32703783951668e-07
162,307,1.727354007949836e-07
162,317,1.3230824597777754e-08
163,163,1.4215332725819712e-07
163,173,1.0522426130906646e-08
163,219,5.025871536039802e-07
163,227,1.2594156700446283e-07
163,300,4.354871363552651e-07
163,308,1.1169874712047443e-07
164,164,7.29181000316465e-08
164,228,6.462201640501256e-08
164,309,5.7326437915131257e-08
167,213,2.3407356732248846e-08
167,294,2.026643927708853e-08
168,208,4.217407037151554e-08
168,214,4.5765895282387825e-08
168,222,1.4195625284657214e-08
168,289,3.597786744594304e-08
168,295,3.962171750202334e-08
168,303,1.1907838523396451e-08
169,209,7.796065024416406e-08
169,215,6.484377197328201e-08
169,223,1.803141582451242e-08
169,290,6.657951496349341e-08
169,296,5.613306713370942e-08
169,304,1.5457040026303665e-08
170,210,9.439570578666645e-08
170,216,7.26385238838009e-08
170,224,1.950646584840995e-08
170,291,8.067944673529107e-08
170,297,6.287783870466744e-08
170,305,1.724658539842909e-08
171,211,7.796065024416406e-08
171,217,6.4843771973282e-08
171,225,1.803141582451241e-08
171,292,6.657951496349341e-08
171,298,5.613306713370942e-08
171,306,1.5457040026303665e-08
172,212,4.2174070371515526e-08
172,218,4.5765895282387825e-08
172,226,1.419562528465722e-08
172,293,3.597786744594302e-08
172,299,3.962171750202334e-08
172,307,1.1907838523396453e-08
173,219,2.3407356732248846e-08
173,300,2.026643927708853e-08
204,204,0.0004146435264746058
204,285,0.00035392666024020166
205,205,0.0004936422399492695
205,209,0.00014105702040089542
205,215,1.1531914534798855e-05
205,223,3.9896011042472444e-07
205,286,0.00042118987395009836
205,290,0.00012097110354023048
205,296,1.000845502761405e-05
205,304,3.543659549707932e-07
206,206,0.0007422827183316799
206,210,0.00021143260319586801
206,216,1.692018495410998e-05
206,224,5.696879437755568e-07
206,287,0.000633116241778831
206,291,0.00018130849393632764
206,297,1.468474960942669e-05
206,305,5.06041134880909e-07
207,207,0.0004936422399492695
207,211,0.00014105702040089542
207,217,1.1531914534798855e-05
207,225,3.989601104247243e-07
207,288,0.00042118987395009836
207,292,0.00012097110354023048
207,298,1.000845502761405e-05
207,306,3.54365954970793e-07
208,208,9.371057655431125e-05
208,214,1.66094723090088e-05
208,222,1.1408260195613982e-06
208,232,3.977529588460661e-08
208,289,8.031578770833258e-05
208,295,1.4404496985977135e-05
208,303,1.0122894227411134e-06
208,313,3.6760568000869653e-08
209,209,0.00016478053539049935
209,215,2.9705642158613134e-05
209,223,2.0790472814471697e-06
209,233,7.361413713890546e-08
209,286,0.00012007729915562762
209,290,0.00014117818738994693
209,296,2.5757933256908342e-05
209,304,1.8446251031133802e-06
209,314,6.803130618006794e-08
210,210,0.00020695536574552614
210,216,3.631068958531897e-05
210,224,2.5220475427812634e-06
210,234,8.912984175199548e-08
210,287,0.00017988877788479885
210,291,0.0001772817905367468
210,297,3.148271969592419e-05
210,305,2.2375744160452234e-06
210,315,8.244060884437547e-08
211,211,0.0001647805353904994
211,217,2.970564215861314e-05
211,225,2.0790472814471697e-06
211,235,7.361413713890548e-08
211,288,0.00012007729915562763
211,292,0.00014117818738994695
211,298,2.5757933256908352e-05
211,306,1.8446251031133802e-06
211,316,6.803130618006792e-08
212,212,9.371057655431126e-05
212,218,1.66094723090088e-05
212,226,1.1408260195613982e-06
212,236,3.977529588460663e-08
212,293,8.031578770833261e-05
212,299,1.4404496985977133e-05
212,307,1.012289422741114e-06
212,317,3.6760568000869634e-08
213,213,3.950505511463513e-06
213,221,4.454627378982248e-07
213,231,2.2097903868692006e-08
213,294,3.4254738215652004e-06
213,302,3.952076560166681e-07
213,312,2.0419087996167517e-08
214,214,7.430347893118128e-06
214,222,8.517766062502232e-07
214,232,4.3203153441757387e-08
214,289,1.4220273582317429e-05
214,295,6.441045262342402e-06
214,303,7.556416624329717e-07
214,313,3.991927995911775e-08
215,215,1.0766274976305785e-05
215,223,1.207396060594178e-06
215,233,6.120830385825443e-08
215,286,9.785615875827882e-06
215,290,2.5425598070115646e-05
215,296,9.331235399249024e-06
215,304,1.0709282277490204e-06
215,314,5.65529341455253e-08
216,216,1.2275298777745825e-05
216,224,1.3566926072008116e-06
216,234,6.856360285479041e-08
216,287,1.4347303182804752e-05
216,291,3.1074712210779306e-05
216,297,1.0638390097979829e-05
216,305,1.2033011885638536e-06
216,315,6.33471929999356e-08
217,217,1.0766274976305785e-05
217,225,1.207396060594178e-06
217,235,6.120830385825442e-08
217,288,9.785615875827882e-06
217,292,2.542559807011565e-05
217,298,9.331235399249026e-06
217,306,1.0709282277490204e-06
217,316,5.6552934145525285e-08
218,218,7.430347893118126e-06
218,226,8.51776606250223e-07
218,236,4.3203153441757387e-08
218,293,1.4220273582317429e-05
218,299,6.441045262342401e-06
218,307,7.556416624329717e-07
218,317,3.991927995911776e-08
219,219,3.950505511463512e-06
219,227,4.454627378982247e-07
219,237,2.2097903868692006e-08
219,300,3.425473821565199e-06
219,308,3.9520765601666804e-07
219,318,2.041908799616751e-08
220,220,5.7269949137938385e-08
220,301,5.0827102264468814e-08
221,221,1.1157899154159496e-07
221,294,3.859906402256019e-07
221,302,9.896065334958239e-08
222,222,1.725403362206761e-07
222,232,1.2677871821768029e-08
222,289,9.756467105749084e-07
222,295,7.379783307679176e-07
222,303,1.5300586071684195e-07
222,313,1.1710795524649167e-08
223,223,2.229225749218979e-07
223,233,1.6456528498280563e-08
223,286,3.3670924626959494e-07
223,290,1.7776005111053556e-06
223,296,1.04585651891322e-06
223,304,1.9766633007644054e-07
223,314,1.5200998537532006e-08
224,224,2.4292011581194694e-07
224,234,1.836182605029526e-08
224,287,4.801607097043734e-07
224,291,2.156122366487062e-06
224,297,1.1751134536651307e-06
224,305,2.1539123330568826e-07
224,315,1.6961457273785122e-08
225,225,2.229225749218979e-07
225,235,1.6456528498280563e-08
225,288,3.3670924626959483e-07
225,292,1.7776005111053556e-06
225,298,1.04585651891322e-06
225,306,1.9766633007644054e-07
225,316,1.5200998537532003e-08
226,226,1.725403362206761e-07
226,236,1.2677871821768034e-08
226,293,9.756467105749084e-07
226,299,7.379783307679176e-07
226,307,1.5300586071684195e-07
226,317,1.1710795524649167e-08
227,227,1.1157899154159495e-07
227,300,3.859906402256018e-07
227,308,9.896065334958239e-08
228,228,5.7269949137938385e-08
228,309,5.0827102264468814e-08
231,294,1.913273747491824e-08
232,289,3.3974462767593015e-08
232,295,3.740018617059296e-08
232,303,1.1236461666668822e-08
233,290,6.286022628803887e-08
233,296,5.298610951565409e-08
233,304,1.4585265986362917e-08
234,291,7.61792464410713e-08
234,297,5.93498798699519e-08
234,305,1.6274581417127414e-08
235,292,6.286022628803884e-08
235,298,5.298610951565409e-08
235,306,1.4585265986362917e-08
236,293,3.3974462767592995e-08
236,299,3.740018617059296e-08
236,307,1.1236461666668825e-08
237,300,1.913273747491824e-08
285,285,0.0003021015385626478
286,286,0.0003593728715828765
286,290,0.00010297935566349272
286,296,8.49292786745537e-06
286,304,2.9902209531328595e-07
287,287,0.0005400079978607678
287,291,0.00015425996435090985
287,297,1.2451914299334905e-05
287,305,4.265327228985348e-07
288,288,0.0003593728715828765
288,292,0.00010297935566349275
288,298,8.492927867455371e-06
288,306,2.9902209531328595e-07
289,289,6.883579190926352e-05
289,295,1.2332511138545963e-05
289,303,8.65714330228723e-07
289,313,3.139949462078033e-08
290,290,0.00012095690470347888
290,296,2.204674369645456e-05
290,304,1.577172502043938e-06
290,314,5.811338313734096e-08
291,291,0.00015186339729855
291,297,2.6943016777386134e-05
291,305,1.9129294785551246e-06
291,315,7.040048599089881e-08
292,292,0.00012095690470347895
292,298,2.204674369645456e-05
292,306,1.577172502043938e-06
292,316,5.811338313734094e-08
293,293,6.883579190926353e-05
293,299,1.233251113854596e-05
293,307,8.65714330228723e-07
293,317,3.1399494620780336e-08
294,294,2.9702286445679475e-06
294,302,3.4250839773188165e-07
294,312,1.7679218222416587e-08
295,295,5.583473367237961e-06
295,303,6.546570989216543e-07
295,313,3.4557452393334335e-08
296,296,8.08749279142549e-06
296,304,9.276479849548162e-07
296,314,4.8956197439960604e-08
297,297,9.219789551938153e-06
297,305,1.0422592699886148e-06
297,315,5.4834568337626687e-08
298,298,8.087492791425492e-06
298,306,9.27647984954816e-07
298,316,4.8956197439960604e-08
299,299,5.58347336723796e-06
299,307,6.546570989216541e-07
299,317,3.4557452393334335e-08
300,300,2.9702286445679463e-06
300,308,3.425083977318816e-07
300,318,1.7679218222416587e-08
301,301,4.508790326618505e-08
302,302,8.776632417800543e-08
303,303,1.358447656330279e-07
303,313,1.037935450315356e-08
304,304,1.753186189814768e-07
304,314,1.3472521490636594e-08
305,305,1.9098239181521632e-07
305,315,1.503341473367057e-08
306,306,1.7531861898147674e-07
306,316,1.3472521490636589e-08
307,307,1.358447656330279e-07
307,317,1.0379354503153562e-08
308,308,8.776632417800543e-08
309,309,4.508790326618505e-08
